# Input file name  = bc2003_lr_BaSeL_m62_chab_ssp.ised
# Output file name = spec_BC16_basel_chab_Zm62_age5.25Gyr.dat
# Record         162
# Column           2
# SED(Lo/A)       at    
# Lambda(A)    5.250E+09
9.100000E+01  4.2660E-10
9.400000E+01  6.5984E-10
9.600000E+01  8.6494E-10
9.800000E+01  1.1616E-09
1.000000E+02  1.5452E-09
1.020000E+02  1.9753E-09
1.040000E+02  2.3257E-09
1.060000E+02  2.7964E-09
1.080000E+02  3.4127E-09
1.100000E+02  4.6180E-09
1.140000E+02  6.3324E-09
1.180000E+02  7.9228E-09
1.210000E+02  2.8374E-08
1.250000E+02  3.3137E-08
1.270000E+02  3.5428E-08
1.280000E+02  3.6683E-08
1.310000E+02  3.9500E-08
1.320000E+02  4.6080E-08
1.340000E+02  4.8311E-08
1.370000E+02  5.8988E-08
1.400000E+02  6.2679E-08
1.430000E+02  1.7142E-07
1.470000E+02  4.3861E-07
1.500000E+02  4.4704E-07
1.510000E+02  4.5133E-07
1.550000E+02  4.6917E-07
1.590000E+02  4.9057E-07
1.620000E+02  5.0814E-07
1.660000E+02  5.2911E-07
1.700000E+02  5.4798E-07
1.730000E+02  5.6334E-07
1.770000E+02  5.8062E-07
1.800000E+02  5.9208E-07
1.820000E+02  6.0253E-07
1.860000E+02  6.2062E-07
1.910000E+02  6.4108E-07
1.940000E+02  6.5982E-07
1.980000E+02  6.7547E-07
2.000000E+02  6.8275E-07
2.020000E+02  6.9275E-07
2.050000E+02  7.0458E-07
2.100000E+02  7.0425E-07
2.160000E+02  7.4916E-07
2.200000E+02  7.6766E-07
2.230000E+02  7.6932E-07
2.270000E+02  7.9176E-07
2.300000E+02  1.2038E-06
2.340000E+02  1.8948E-06
2.400000E+02  2.3872E-06
2.460000E+02  2.1228E-06
2.520000E+02  2.2589E-06
2.570000E+02  1.8944E-06
2.600000E+02  2.1202E-06
2.640000E+02  2.1640E-06
2.690000E+02  2.1136E-06
2.740000E+02  2.0544E-06
2.790000E+02  2.0054E-06
2.840000E+02  1.9550E-06
2.900000E+02  1.8668E-06
2.960000E+02  1.8150E-06
3.000000E+02  1.7733E-06
3.010000E+02  1.7460E-06
3.080000E+02  1.7100E-06
3.180000E+02  1.6646E-06
3.280000E+02  1.5913E-06
3.380000E+02  1.5127E-06
3.480000E+02  1.4345E-06
3.570000E+02  1.3742E-06
3.660000E+02  1.3178E-06
3.750000E+02  1.2575E-06
3.850000E+02  1.1750E-06
3.950000E+02  1.1383E-06
4.000000E+02  1.1092E-06
4.050000E+02  1.0870E-06
4.140000E+02  1.0402E-06
4.220000E+02  9.9625E-07
4.300000E+02  9.5673E-07
4.410000E+02  9.0903E-07
4.510000E+02  8.6520E-07
4.600000E+02  8.2727E-07
4.700000E+02  7.8890E-07
4.800000E+02  7.5549E-07
4.900000E+02  7.1582E-07
5.000000E+02  6.8920E-07
5.060000E+02  6.6784E-07
5.120000E+02  6.6288E-07
5.200000E+02  6.4102E-07
5.300000E+02  6.1024E-07
5.400000E+02  5.7778E-07
5.500000E+02  5.5251E-07
5.600000E+02  5.3520E-07
5.700000E+02  5.1854E-07
5.800000E+02  4.9410E-07
5.900000E+02  4.7645E-07
6.000000E+02  4.5159E-07
6.100000E+02  3.9517E-07
6.200000E+02  4.2297E-07
6.300000E+02  4.0302E-07
6.400000E+02  3.9155E-07
6.500000E+02  3.7539E-07
6.580000E+02  3.6134E-07
6.650000E+02  3.5537E-07
6.750000E+02  3.4387E-07
6.850000E+02  3.2439E-07
6.950000E+02  3.1892E-07
7.000000E+02  3.0996E-07
7.050000E+02  3.0138E-07
7.160000E+02  2.9642E-07
7.260000E+02  2.8607E-07
7.350000E+02  2.7751E-07
7.450000E+02  2.6716E-07
7.550000E+02  2.5778E-07
7.650000E+02  2.2635E-07
7.750000E+02  2.4069E-07
7.850000E+02  2.2990E-07
7.950000E+02  2.2436E-07
8.000000E+02  2.2066E-07
8.050000E+02  2.1825E-07
8.150000E+02  2.1131E-07
8.250000E+02  2.0496E-07
8.350000E+02  1.9050E-07
8.450000E+02  1.9184E-07
8.550000E+02  1.8556E-07
8.650000E+02  1.8012E-07
8.750000E+02  1.7567E-07
8.850000E+02  1.7039E-07
8.950000E+02  1.6544E-07
9.000000E+02  1.6265E-07
9.050000E+02  1.6004E-07
9.150000E+02  1.8254E-07
9.250000E+02  2.6181E-07
9.350000E+02  3.3307E-07
9.450000E+02  3.9376E-07
9.550000E+02  4.3103E-07
9.650000E+02  4.5780E-07
9.750000E+02  2.9105E-07
9.850000E+02  4.1589E-07
9.950000E+02  3.9627E-07
1.000000E+03  4.1666E-07
1.005000E+03  4.3929E-07
1.015000E+03  4.3193E-07
1.025000E+03  2.7511E-07
1.035000E+03  3.9427E-07
1.045000E+03  4.8211E-07
1.055000E+03  4.6961E-07
1.065000E+03  4.1608E-07
1.075000E+03  4.4158E-07
1.085000E+03  3.5482E-07
1.095000E+03  4.4003E-07
1.100000E+03  4.3050E-07
1.105000E+03  4.2183E-07
1.115000E+03  4.1097E-07
1.125000E+03  3.7437E-07
1.135000E+03  4.1396E-07
1.145000E+03  3.9430E-07
1.155000E+03  3.9367E-07
1.165000E+03  3.8645E-07
1.175000E+03  3.0374E-07
1.185000E+03  3.6606E-07
1.195000E+03  3.2608E-07
1.200000E+03  3.0551E-07
1.205000E+03  2.8924E-07
1.215000E+03  2.0096E-07
1.225000E+03  3.0788E-07
1.235000E+03  3.5005E-07
1.245000E+03  3.5567E-07
1.255000E+03  3.4585E-07
1.265000E+03  3.3195E-07
1.275000E+03  3.5837E-07
1.285000E+03  3.6023E-07
1.295000E+03  3.1800E-07
1.300000E+03  3.1715E-07
1.305000E+03  3.1679E-07
1.315000E+03  3.4730E-07
1.325000E+03  3.3271E-07
1.335000E+03  3.1219E-07
1.345000E+03  3.3141E-07
1.355000E+03  3.2287E-07
1.365000E+03  3.0229E-07
1.375000E+03  3.0123E-07
1.385000E+03  2.9721E-07
1.395000E+03  2.4561E-07
1.400000E+03  2.4252E-07
1.405000E+03  2.3993E-07
1.415000E+03  2.7668E-07
1.425000E+03  2.6956E-07
1.435000E+03  2.7356E-07
1.442000E+03  2.7587E-07
1.447000E+03  2.7458E-07
1.455000E+03  2.6619E-07
1.465000E+03  2.5300E-07
1.475000E+03  2.5239E-07
1.485000E+03  2.5169E-07
1.495000E+03  2.4788E-07
1.500000E+03  2.4217E-07
1.505000E+03  2.3626E-07
1.512000E+03  2.2061E-07
1.517000E+03  2.2572E-07
1.525000E+03  2.2204E-07
1.535000E+03  1.9782E-07
1.545000E+03  1.8720E-07
1.555000E+03  1.8416E-07
1.565000E+03  1.9487E-07
1.575000E+03  2.0210E-07
1.585000E+03  2.0412E-07
1.595000E+03  2.0350E-07
1.600000E+03  2.0081E-07
1.605000E+03  1.9838E-07
1.615000E+03  1.9509E-07
1.625000E+03  1.9045E-07
1.635000E+03  1.9579E-07
1.645000E+03  1.9444E-07
1.655000E+03  1.8860E-07
1.665000E+03  1.9408E-07
1.672000E+03  1.8082E-07
1.677000E+03  1.9861E-07
1.685000E+03  1.9827E-07
1.695000E+03  1.9000E-07
1.700000E+03  1.8758E-07
1.705000E+03  1.8514E-07
1.715000E+03  1.7730E-07
1.725000E+03  1.7508E-07
1.735000E+03  1.8271E-07
1.745000E+03  1.8052E-07
1.755000E+03  1.8738E-07
1.765000E+03  1.7735E-07
1.775000E+03  1.7681E-07
1.785000E+03  1.8190E-07
1.795000E+03  1.9228E-07
1.800000E+03  1.9023E-07
1.805000E+03  1.8822E-07
1.815000E+03  1.7451E-07
1.825000E+03  1.8033E-07
1.835000E+03  1.7601E-07
1.845000E+03  1.5922E-07
1.855000E+03  1.6807E-07
1.865000E+03  1.7708E-07
1.875000E+03  1.8349E-07
1.885000E+03  1.7542E-07
1.895000E+03  1.8225E-07
1.900000E+03  1.8358E-07
1.905000E+03  1.8496E-07
1.915000E+03  1.8322E-07
1.925000E+03  1.7148E-07
1.935000E+03  1.5658E-07
1.945000E+03  1.9687E-07
1.955000E+03  1.9036E-07
1.967000E+03  2.1817E-07
1.976000E+03  2.0801E-07
1.984000E+03  2.2731E-07
1.995000E+03  2.3052E-07
2.000000E+03  2.2780E-07
2.005000E+03  2.2646E-07
2.015000E+03  2.3071E-07
2.025000E+03  2.0836E-07
2.035000E+03  2.4270E-07
2.045000E+03  2.6482E-07
2.055000E+03  2.4995E-07
2.065000E+03  2.4667E-07
2.074000E+03  2.7217E-07
2.078000E+03  5.6148E-07
2.085000E+03  7.3581E-07
2.095000E+03  6.7368E-07
2.100000E+03  6.6182E-07
2.105000E+03  6.5048E-07
2.115000E+03  7.3651E-07
2.125000E+03  6.4403E-07
2.135000E+03  6.1374E-07
2.145000E+03  8.0479E-07
2.155000E+03  7.9904E-07
2.165000E+03  6.8165E-07
2.175000E+03  6.9212E-07
2.185000E+03  9.1197E-07
2.195000E+03  8.7858E-07
2.200000E+03  8.6858E-07
2.205000E+03  8.5884E-07
2.215000E+03  6.3376E-07
2.225000E+03  7.7221E-07
2.235000E+03  1.0648E-06
2.245000E+03  1.0106E-06
2.255000E+03  7.4041E-07
2.265000E+03  6.7116E-07
2.275000E+03  7.5683E-07
2.285000E+03  1.0877E-06
2.295000E+03  8.7067E-07
2.300000E+03  9.8114E-07
2.305000E+03  1.1076E-06
2.315000E+03  8.9473E-07
2.325000E+03  7.1469E-07
2.335000E+03  6.0417E-07
2.345000E+03  3.9047E-07
2.355000E+03  8.1463E-07
2.365000E+03  4.4624E-07
2.375000E+03  5.9680E-07
2.385000E+03  3.4578E-07
2.395000E+03  4.4064E-07
2.400000E+03  4.4264E-07
2.405000E+03  4.4492E-07
2.415000E+03  5.4221E-07
2.425000E+03  1.0112E-06
2.435000E+03  1.0396E-06
2.445000E+03  1.2696E-06
2.455000E+03  1.3769E-06
2.465000E+03  1.1256E-06
2.475000E+03  9.8764E-07
2.485000E+03  5.2842E-07
2.495000E+03  7.0907E-07
2.500000E+03  9.1702E-07
2.505000E+03  1.1902E-06
2.513000E+03  4.4882E-07
2.518000E+03  3.4266E-07
2.525000E+03  3.9202E-07
2.535000E+03  7.4070E-07
2.545000E+03  8.0189E-07
2.555000E+03  1.6659E-06
2.565000E+03  1.1524E-06
2.575000E+03  1.5411E-06
2.585000E+03  1.3218E-06
2.595000E+03  1.1556E-06
2.600000E+03  1.0580E-06
2.605000E+03  9.7030E-07
2.615000E+03  8.6394E-07
2.625000E+03  1.2490E-06
2.635000E+03  2.4398E-06
2.645000E+03  3.3973E-06
2.655000E+03  4.9239E-06
2.665000E+03  2.9090E-06
2.675000E+03  3.3805E-06
2.685000E+03  3.9899E-06
2.695000E+03  2.8211E-06
2.700000E+03  3.1800E-06
2.705000E+03  3.5923E-06
2.715000E+03  2.4920E-06
2.725000E+03  1.8862E-06
2.735000E+03  2.4955E-06
2.745000E+03  1.2766E-06
2.755000E+03  1.8335E-06
2.765000E+03  2.5057E-06
2.775000E+03  2.6787E-06
2.785000E+03  1.4868E-06
2.795000E+03  6.2337E-07
2.800000E+03  6.9290E-07
2.805000E+03  7.7097E-07
2.815000E+03  2.3122E-06
2.825000E+03  3.6187E-06
2.835000E+03  3.4612E-06
2.845000E+03  2.3955E-06
2.855000E+03  1.2587E-06
2.865000E+03  3.5441E-06
2.875000E+03  4.9766E-06
2.885000E+03  4.3673E-06
2.895000E+03  5.4731E-06
2.900000E+03  6.0781E-06
2.910000E+03  7.5212E-06
2.930000E+03  6.4741E-06
2.950000E+03  5.9802E-06
2.970000E+03  6.3438E-06
2.990000E+03  6.4371E-06
3.000000E+03  6.4773E-06
3.010000E+03  6.5241E-06
3.030000E+03  6.9668E-06
3.050000E+03  7.2789E-06
3.070000E+03  7.9357E-06
3.090000E+03  7.7742E-06
3.100000E+03  8.3624E-06
3.110000E+03  9.0422E-06
3.130000E+03  8.3690E-06
3.150000E+03  8.3266E-06
3.170000E+03  9.2023E-06
3.190000E+03  7.8679E-06
3.200000E+03  8.3320E-06
3.210000E+03  8.8236E-06
3.230000E+03  7.2754E-06
3.250000E+03  1.0450E-05
3.270000E+03  1.2284E-05
3.290000E+03  1.1977E-05
3.300000E+03  1.1592E-05
3.310000E+03  1.1236E-05
3.330000E+03  1.1597E-05
3.350000E+03  1.1218E-05
3.370000E+03  8.3731E-06
3.390000E+03  9.5571E-06
3.400000E+03  9.6705E-06
3.410000E+03  9.7884E-06
3.430000E+03  1.0221E-05
3.450000E+03  1.0861E-05
3.470000E+03  1.1239E-05
3.490000E+03  1.2621E-05
3.500000E+03  1.3011E-05
3.510000E+03  1.3422E-05
3.530000E+03  1.1993E-05
3.550000E+03  1.3893E-05
3.570000E+03  9.5199E-06
3.590000E+03  9.6835E-06
3.600000E+03  1.0821E-05
3.610000E+03  1.2149E-05
3.630000E+03  1.2830E-05
3.640000E+03  1.3290E-05
3.650000E+03  1.5217E-05
3.670000E+03  1.6024E-05
3.690000E+03  1.4409E-05
3.700000E+03  1.4879E-05
3.710000E+03  1.5390E-05
3.730000E+03  1.0506E-05
3.750000E+03  1.1914E-05
3.770000E+03  1.5035E-05
3.790000E+03  1.5500E-05
3.800000E+03  1.5111E-05
3.810000E+03  1.4765E-05
3.830000E+03  8.5890E-06
3.850000E+03  1.1749E-05
3.870000E+03  1.1663E-05
3.890000E+03  1.4321E-05
3.900000E+03  1.5701E-05
3.910000E+03  1.7244E-05
3.930000E+03  8.3299E-06
3.950000E+03  1.4567E-05
3.970000E+03  1.0020E-05
3.990000E+03  2.1872E-05
4.000000E+03  2.2945E-05
4.010000E+03  2.4101E-05
4.030000E+03  2.3999E-05
4.050000E+03  2.2946E-05
4.070000E+03  2.1606E-05
4.090000E+03  2.6342E-05
4.100000E+03  2.5545E-05
4.110000E+03  2.4822E-05
4.130000E+03  2.4224E-05
4.150000E+03  2.3789E-05
4.170000E+03  2.4093E-05
4.190000E+03  2.3539E-05
4.200000E+03  2.3832E-05
4.210000E+03  2.4160E-05
4.230000E+03  2.3320E-05
4.250000E+03  2.4660E-05
4.270000E+03  2.3099E-05
4.290000E+03  2.1402E-05
4.300000E+03  1.9838E-05
4.310000E+03  1.8431E-05
4.330000E+03  2.6681E-05
4.350000E+03  2.6286E-05
4.370000E+03  2.8859E-05
4.390000E+03  2.5481E-05
4.400000E+03  2.6291E-05
4.410000E+03  2.7137E-05
4.430000E+03  2.9273E-05
4.450000E+03  2.9348E-05
4.470000E+03  3.1441E-05
4.490000E+03  3.2025E-05
4.500000E+03  3.4262E-05
4.510000E+03  3.6686E-05
4.530000E+03  3.1885E-05
4.550000E+03  3.3350E-05
4.570000E+03  3.6043E-05
4.590000E+03  3.3993E-05
4.600000E+03  3.4375E-05
4.610000E+03  3.4764E-05
4.630000E+03  3.3857E-05
4.650000E+03  3.4328E-05
4.670000E+03  3.5927E-05
4.690000E+03  3.5191E-05
4.700000E+03  3.4667E-05
4.710000E+03  3.4160E-05
4.730000E+03  3.5592E-05
4.750000E+03  3.6673E-05
4.770000E+03  3.6385E-05
4.790000E+03  3.6185E-05
4.800000E+03  3.6091E-05
4.810000E+03  3.6005E-05
4.830000E+03  3.7159E-05
4.850000E+03  3.4952E-05
4.870000E+03  3.1672E-05
4.890000E+03  3.5591E-05
4.900000E+03  3.5621E-05
4.910000E+03  3.5662E-05
4.930000E+03  3.4983E-05
4.950000E+03  3.6701E-05
4.970000E+03  3.5696E-05
4.990000E+03  3.2989E-05
5.000000E+03  3.2092E-05
5.010000E+03  3.1226E-05
5.030000E+03  3.3305E-05
5.050000E+03  3.3376E-05
5.070000E+03  3.5183E-05
5.090000E+03  3.3137E-05
5.100000E+03  3.3625E-05
5.110000E+03  3.4142E-05
5.130000E+03  3.3082E-05
5.150000E+03  3.1563E-05
5.170000E+03  2.8268E-05
5.190000E+03  2.9361E-05
5.200000E+03  3.0655E-05
5.210000E+03  3.2019E-05
5.230000E+03  3.4144E-05
5.250000E+03  3.5826E-05
5.270000E+03  3.1434E-05
5.290000E+03  3.6452E-05
5.300000E+03  3.7635E-05
5.310000E+03  3.8868E-05
5.330000E+03  3.3950E-05
5.350000E+03  3.7385E-05
5.370000E+03  3.7309E-05
5.390000E+03  3.6370E-05
5.400000E+03  3.6036E-05
5.410000E+03  3.5710E-05
5.430000E+03  3.6243E-05
5.450000E+03  3.7155E-05
5.470000E+03  3.6126E-05
5.490000E+03  3.6265E-05
5.500000E+03  3.6114E-05
5.510000E+03  3.5972E-05
5.530000E+03  3.7203E-05
5.550000E+03  3.7922E-05
5.570000E+03  3.7185E-05
5.590000E+03  3.5761E-05
5.600000E+03  3.6504E-05
5.610000E+03  3.7285E-05
5.630000E+03  3.6840E-05
5.650000E+03  3.7316E-05
5.670000E+03  3.6528E-05
5.690000E+03  3.7805E-05
5.700000E+03  3.7233E-05
5.710000E+03  3.6681E-05
5.730000E+03  3.9969E-05
5.750000E+03  3.8227E-05
5.770000E+03  3.8789E-05
5.790000E+03  3.7230E-05
5.800000E+03  3.8037E-05
5.810000E+03  3.8869E-05
5.830000E+03  3.9894E-05
5.850000E+03  3.8414E-05
5.870000E+03  3.8448E-05
5.890000E+03  3.4365E-05
5.900000E+03  3.5968E-05
5.910000E+03  3.7713E-05
5.930000E+03  3.7857E-05
5.950000E+03  3.7865E-05
5.970000E+03  3.8463E-05
5.990000E+03  3.7880E-05
6.000000E+03  3.7643E-05
6.010000E+03  3.7419E-05
6.030000E+03  3.8480E-05
6.050000E+03  3.9255E-05
6.070000E+03  3.9212E-05
6.090000E+03  3.7779E-05
6.100000E+03  3.7921E-05
6.110000E+03  3.8068E-05
6.130000E+03  3.5756E-05
6.150000E+03  3.6420E-05
6.170000E+03  3.4540E-05
6.190000E+03  3.6584E-05
6.200000E+03  3.6423E-05
6.210000E+03  3.6265E-05
6.230000E+03  3.5019E-05
6.250000E+03  3.3846E-05
6.270000E+03  3.5653E-05
6.290000E+03  3.6386E-05
6.300000E+03  3.5911E-05
6.310000E+03  3.5456E-05
6.330000E+03  3.6121E-05
6.350000E+03  3.6282E-05
6.370000E+03  3.6179E-05
6.390000E+03  3.6945E-05
6.400000E+03  3.6586E-05
6.410000E+03  3.6233E-05
6.430000E+03  3.6538E-05
6.450000E+03  3.6418E-05
6.470000E+03  3.6273E-05
6.490000E+03  3.5609E-05
6.500000E+03  3.6251E-05
6.510000E+03  3.6913E-05
6.530000E+03  3.6882E-05
6.550000E+03  3.5921E-05
6.570000E+03  3.3697E-05
6.590000E+03  3.6063E-05
6.600000E+03  3.6287E-05
6.610000E+03  3.6513E-05
6.630000E+03  3.5920E-05
6.650000E+03  3.5694E-05
6.670000E+03  3.4848E-05
6.690000E+03  3.5553E-05
6.700000E+03  3.4815E-05
6.710000E+03  3.4099E-05
6.730000E+03  3.5043E-05
6.750000E+03  3.4408E-05
6.770000E+03  3.4647E-05
6.790000E+03  3.4282E-05
6.800000E+03  3.4347E-05
6.810000E+03  3.4415E-05
6.830000E+03  3.4829E-05
6.850000E+03  3.3902E-05
6.870000E+03  3.4514E-05
6.890000E+03  3.5023E-05
6.900000E+03  3.4986E-05
6.910000E+03  3.4960E-05
6.930000E+03  3.4702E-05
6.950000E+03  3.4644E-05
6.970000E+03  3.5085E-05
6.990000E+03  3.5013E-05
7.000000E+03  3.4689E-05
7.010000E+03  3.4385E-05
7.030000E+03  3.4993E-05
7.050000E+03  3.4450E-05
7.070000E+03  3.3273E-05
7.090000E+03  3.2483E-05
7.100000E+03  3.2180E-05
7.110000E+03  3.1898E-05
7.130000E+03  3.1171E-05
7.150000E+03  3.1132E-05
7.170000E+03  3.1474E-05
7.190000E+03  3.0690E-05
7.200000E+03  3.1183E-05
7.210000E+03  3.1692E-05
7.230000E+03  3.2270E-05
7.250000E+03  3.2553E-05
7.270000E+03  3.2697E-05
7.290000E+03  3.2203E-05
7.300000E+03  3.2754E-05
7.310000E+03  3.3352E-05
7.330000E+03  3.3386E-05
7.350000E+03  3.3850E-05
7.370000E+03  3.4847E-05
7.390000E+03  3.4004E-05
7.400000E+03  3.4021E-05
7.410000E+03  3.4061E-05
7.430000E+03  3.5019E-05
7.450000E+03  3.4957E-05
7.470000E+03  3.5624E-05
7.490000E+03  3.5486E-05
7.500000E+03  3.5633E-05
7.510000E+03  3.5783E-05
7.530000E+03  3.6415E-05
7.550000E+03  3.6665E-05
7.570000E+03  3.6371E-05
7.590000E+03  3.5162E-05
7.600000E+03  3.4749E-05
7.610000E+03  3.4374E-05
7.630000E+03  3.3704E-05
7.650000E+03  3.2850E-05
7.670000E+03  3.1252E-05
7.690000E+03  3.2114E-05
7.700000E+03  3.1808E-05
7.710000E+03  3.1510E-05
7.730000E+03  3.1577E-05
7.750000E+03  3.1279E-05
7.770000E+03  3.1866E-05
7.790000E+03  3.1874E-05
7.800000E+03  3.1869E-05
7.810000E+03  3.1868E-05
7.830000E+03  3.1812E-05
7.850000E+03  3.1483E-05
7.870000E+03  3.1865E-05
7.890000E+03  3.1600E-05
7.900000E+03  3.1198E-05
7.910000E+03  3.0805E-05
7.930000E+03  3.0860E-05
7.950000E+03  3.0784E-05
7.970000E+03  3.1692E-05
7.990000E+03  3.1670E-05
8.000000E+03  3.1841E-05
8.010000E+03  3.2042E-05
8.030000E+03  3.2182E-05
8.050000E+03  3.2070E-05
8.070000E+03  3.2659E-05
8.090000E+03  3.2341E-05
8.100000E+03  3.2478E-05
8.110000E+03  3.2615E-05
8.130000E+03  3.3606E-05
8.150000E+03  3.4096E-05
8.170000E+03  3.4349E-05
8.190000E+03  3.3023E-05
8.200000E+03  3.2756E-05
8.210000E+03  3.2612E-05
8.230000E+03  3.2615E-05
8.250000E+03  3.2653E-05
8.270000E+03  3.2820E-05
8.290000E+03  3.2444E-05
8.300000E+03  3.1919E-05
8.310000E+03  3.1405E-05
8.330000E+03  3.1133E-05
8.350000E+03  3.1160E-05
8.370000E+03  3.1351E-05
8.390000E+03  3.0348E-05
8.400000E+03  3.0879E-05
8.410000E+03  3.1428E-05
8.430000E+03  3.0272E-05
8.450000E+03  2.9838E-05
8.470000E+03  2.9686E-05
8.490000E+03  2.9978E-05
8.500000E+03  2.9342E-05
8.510000E+03  2.8726E-05
8.530000E+03  2.9839E-05
8.550000E+03  2.8051E-05
8.570000E+03  3.0663E-05
8.590000E+03  3.0143E-05
8.600000E+03  3.0311E-05
8.610000E+03  3.0490E-05
8.630000E+03  3.1070E-05
8.650000E+03  3.1100E-05
8.670000E+03  2.8557E-05
8.690000E+03  3.0357E-05
8.700000E+03  3.0877E-05
8.710000E+03  3.1418E-05
8.730000E+03  3.1609E-05
8.750000E+03  3.1288E-05
8.770000E+03  3.1906E-05
8.790000E+03  3.2290E-05
8.800000E+03  3.1953E-05
8.810000E+03  3.1620E-05
8.830000E+03  3.1919E-05
8.850000E+03  3.1643E-05
8.870000E+03  3.0295E-05
8.890000E+03  3.0633E-05
8.900000E+03  3.0814E-05
8.910000E+03  3.0992E-05
8.930000E+03  3.0464E-05
8.950000E+03  3.0578E-05
8.970000E+03  3.0689E-05
8.990000E+03  3.0679E-05
9.000000E+03  3.0246E-05
9.010000E+03  2.9830E-05
9.030000E+03  3.1062E-05
9.050000E+03  3.2031E-05
9.070000E+03  3.1963E-05
9.090000E+03  3.1413E-05
9.100000E+03  3.1643E-05
9.110000E+03  3.1874E-05
9.130000E+03  3.2391E-05
9.150000E+03  3.2184E-05
9.170000E+03  3.2093E-05
9.190000E+03  3.2362E-05
9.200000E+03  3.1802E-05
9.210000E+03  3.1256E-05
9.230000E+03  3.0447E-05
9.250000E+03  3.0380E-05
9.270000E+03  3.0754E-05
9.290000E+03  3.0336E-05
9.300000E+03  3.0386E-05
9.310000E+03  3.0439E-05
9.330000E+03  3.0533E-05
9.350000E+03  3.0425E-05
9.370000E+03  2.9905E-05
9.390000E+03  3.0381E-05
9.400000E+03  3.0077E-05
9.410000E+03  2.9775E-05
9.430000E+03  3.0564E-05
9.450000E+03  3.0080E-05
9.470000E+03  3.0764E-05
9.490000E+03  3.0781E-05
9.500000E+03  3.0467E-05
9.510000E+03  3.0153E-05
9.530000E+03  3.0392E-05
9.550000E+03  2.9830E-05
9.570000E+03  3.0182E-05
9.590000E+03  3.0680E-05
9.600000E+03  3.0473E-05
9.610000E+03  3.0261E-05
9.630000E+03  3.0406E-05
9.650000E+03  2.9895E-05
9.670000E+03  2.9900E-05
9.690000E+03  3.0293E-05
9.700000E+03  3.0040E-05
9.710000E+03  2.9798E-05
9.730000E+03  2.9495E-05
9.750000E+03  2.9401E-05
9.770000E+03  2.9514E-05
9.790000E+03  2.9079E-05
9.800000E+03  2.9427E-05
9.810000E+03  2.9795E-05
9.830000E+03  2.9525E-05
9.850000E+03  2.9661E-05
9.870000E+03  2.9431E-05
9.890000E+03  2.9394E-05
9.900000E+03  2.9220E-05
9.910000E+03  2.9059E-05
9.930000E+03  2.9299E-05
9.950000E+03  2.9377E-05
9.970000E+03  2.9371E-05
9.990000E+03  2.9252E-05
1.000000E+04  2.9250E-05
1.002500E+04  2.9261E-05
1.007500E+04  2.8885E-05
1.010000E+04  2.9015E-05
1.012500E+04  2.9147E-05
1.017500E+04  2.8804E-05
1.020000E+04  2.8829E-05
1.022500E+04  2.8858E-05
1.027500E+04  2.8891E-05
1.030000E+04  2.8714E-05
1.032500E+04  2.8537E-05
1.037500E+04  2.8307E-05
1.040000E+04  2.8319E-05
1.042500E+04  2.8341E-05
1.047500E+04  2.7930E-05
1.050000E+04  2.7838E-05
1.052500E+04  2.7741E-05
1.057500E+04  2.7267E-05
1.060000E+04  2.7151E-05
1.062500E+04  2.7018E-05
1.067500E+04  2.6681E-05
1.070000E+04  2.6723E-05
1.072500E+04  2.6747E-05
1.077500E+04  2.6532E-05
1.080000E+04  2.6293E-05
1.082500E+04  2.6071E-05
1.087500E+04  2.5874E-05
1.090000E+04  2.5789E-05
1.092500E+04  2.5695E-05
1.097500E+04  2.5267E-05
1.100000E+04  2.5142E-05
1.102500E+04  2.5042E-05
1.107500E+04  2.4694E-05
1.110000E+04  2.4653E-05
1.112500E+04  2.4605E-05
1.117500E+04  2.4435E-05
1.120000E+04  2.4416E-05
1.122500E+04  2.4402E-05
1.127500E+04  2.4108E-05
1.130000E+04  2.4083E-05
1.132500E+04  2.4060E-05
1.137500E+04  2.3827E-05
1.140000E+04  2.3706E-05
1.142500E+04  2.3564E-05
1.147500E+04  2.3847E-05
1.150000E+04  2.3813E-05
1.152500E+04  2.3768E-05
1.157500E+04  2.3472E-05
1.160000E+04  2.3302E-05
1.162500E+04  2.3123E-05
1.167500E+04  2.3078E-05
1.170000E+04  2.3122E-05
1.172500E+04  2.3172E-05
1.177500E+04  2.2703E-05
1.180000E+04  2.2603E-05
1.182500E+04  2.2507E-05
1.187500E+04  2.2171E-05
1.190000E+04  2.2317E-05
1.192500E+04  2.2446E-05
1.197500E+04  2.1719E-05
1.200000E+04  2.1891E-05
1.202500E+04  2.2055E-05
1.207500E+04  2.1835E-05
1.210000E+04  2.1819E-05
1.212500E+04  2.1829E-05
1.217500E+04  2.1847E-05
1.220000E+04  2.1775E-05
1.222500E+04  2.1690E-05
1.227500E+04  2.1512E-05
1.230000E+04  2.1443E-05
1.232500E+04  2.1355E-05
1.237500E+04  2.1269E-05
1.240000E+04  2.1126E-05
1.242500E+04  2.0973E-05
1.247500E+04  2.0919E-05
1.250000E+04  2.0816E-05
1.252500E+04  2.0706E-05
1.257500E+04  2.0636E-05
1.260000E+04  2.0588E-05
1.262500E+04  2.0520E-05
1.267500E+04  2.0305E-05
1.270000E+04  2.0314E-05
1.272500E+04  2.0312E-05
1.277500E+04  2.0264E-05
1.280000E+04  1.9927E-05
1.282500E+04  1.9588E-05
1.287500E+04  1.9882E-05
1.290000E+04  1.9790E-05
1.292500E+04  1.9688E-05
1.297500E+04  1.9808E-05
1.300000E+04  1.9696E-05
1.302500E+04  1.9584E-05
1.307500E+04  1.9600E-05
1.310000E+04  1.9394E-05
1.312500E+04  1.9204E-05
1.317500E+04  1.9157E-05
1.320000E+04  1.9158E-05
1.322500E+04  1.9145E-05
1.327500E+04  1.8836E-05
1.330000E+04  1.8834E-05
1.332500E+04  1.8835E-05
1.337500E+04  1.8665E-05
1.340000E+04  1.8682E-05
1.342500E+04  1.8685E-05
1.347500E+04  1.8522E-05
1.350000E+04  1.8468E-05
1.352500E+04  1.8415E-05
1.357500E+04  1.8115E-05
1.360000E+04  1.8086E-05
1.362500E+04  1.8035E-05
1.367500E+04  1.8099E-05
1.370000E+04  1.8110E-05
1.372500E+04  1.8115E-05
1.377500E+04  1.8062E-05
1.380000E+04  1.8052E-05
1.382500E+04  1.8037E-05
1.387500E+04  1.7860E-05
1.390000E+04  1.7417E-05
1.392500E+04  1.7023E-05
1.397500E+04  1.6894E-05
1.400000E+04  1.6808E-05
1.402500E+04  1.6720E-05
1.407500E+04  1.6779E-05
1.410000E+04  1.6671E-05
1.412500E+04  1.6567E-05
1.417500E+04  1.6663E-05
1.420000E+04  1.6561E-05
1.422500E+04  1.6474E-05
1.427500E+04  1.6291E-05
1.430000E+04  1.6411E-05
1.432500E+04  1.6551E-05
1.437500E+04  1.6626E-05
1.440000E+04  1.6451E-05
1.442500E+04  1.6259E-05
1.447500E+04  1.6528E-05
1.450000E+04  1.6435E-05
1.452500E+04  1.6340E-05
1.457000E+04  1.6438E-05
1.460000E+04  1.6189E-05
1.462000E+04  1.6022E-05
1.467500E+04  1.5926E-05
1.470000E+04  1.5843E-05
1.472500E+04  1.5785E-05
1.477500E+04  1.5870E-05
1.480000E+04  1.5897E-05
1.482500E+04  1.5939E-05
1.487500E+04  1.5820E-05
1.490000E+04  1.5980E-05
1.492500E+04  1.6164E-05
1.497500E+04  1.6045E-05
1.500000E+04  1.5929E-05
1.502500E+04  1.5807E-05
1.507500E+04  1.5888E-05
1.510000E+04  1.6008E-05
1.512500E+04  1.6118E-05
1.517500E+04  1.6185E-05
1.520000E+04  1.6173E-05
1.522500E+04  1.6131E-05
1.527500E+04  1.6246E-05
1.530000E+04  1.6202E-05
1.532500E+04  1.6166E-05
1.537500E+04  1.6114E-05
1.540000E+04  1.6087E-05
1.542500E+04  1.6049E-05
1.547500E+04  1.6046E-05
1.550000E+04  1.5989E-05
1.552500E+04  1.5928E-05
1.557500E+04  1.5558E-05
1.560000E+04  1.5591E-05
1.562500E+04  1.5614E-05
1.567500E+04  1.5569E-05
1.570000E+04  1.5700E-05
1.572500E+04  1.5833E-05
1.577500E+04  1.5012E-05
1.580000E+04  1.4964E-05
1.582500E+04  1.4942E-05
1.587500E+04  1.4941E-05
1.590000E+04  1.5174E-05
1.592500E+04  1.5391E-05
1.597500E+04  1.5111E-05
1.600000E+04  1.5091E-05
1.605000E+04  1.5058E-05
1.610000E+04  1.5179E-05
1.615000E+04  1.5319E-05
1.620000E+04  1.5078E-05
1.625000E+04  1.4837E-05
1.630000E+04  1.5042E-05
1.635000E+04  1.5240E-05
1.640000E+04  1.4964E-05
1.645000E+04  1.4693E-05
1.650000E+04  1.4819E-05
1.655000E+04  1.4953E-05
1.660000E+04  1.4822E-05
1.665000E+04  1.4661E-05
1.670000E+04  1.4614E-05
1.675000E+04  1.4552E-05
1.680000E+04  1.4416E-05
1.685000E+04  1.4316E-05
1.690000E+04  1.4316E-05
1.695000E+04  1.4305E-05
1.700000E+04  1.4190E-05
1.705000E+04  1.4065E-05
1.710000E+04  1.3952E-05
1.715000E+04  1.3828E-05
1.720000E+04  1.3700E-05
1.725000E+04  1.3578E-05
1.730000E+04  1.3398E-05
1.735000E+04  1.3223E-05
1.740000E+04  1.3143E-05
1.745000E+04  1.3062E-05
1.750000E+04  1.2951E-05
1.755000E+04  1.2877E-05
1.760000E+04  1.2745E-05
1.765000E+04  1.2601E-05
1.770000E+04  1.2443E-05
1.775000E+04  1.2314E-05
1.780000E+04  1.2232E-05
1.785000E+04  1.2164E-05
1.790000E+04  1.1977E-05
1.795000E+04  1.1835E-05
1.800000E+04  1.1740E-05
1.805000E+04  1.1584E-05
1.810000E+04  1.1488E-05
1.815000E+04  1.1367E-05
1.820000E+04  1.1290E-05
1.825000E+04  1.1186E-05
1.830000E+04  1.1101E-05
1.835000E+04  1.1011E-05
1.840000E+04  1.0883E-05
1.845000E+04  1.0802E-05
1.850000E+04  1.0765E-05
1.855000E+04  1.0681E-05
1.860000E+04  1.0539E-05
1.865000E+04  1.0395E-05
1.870000E+04  1.0305E-05
1.875000E+04  1.0149E-05
1.880000E+04  1.0126E-05
1.885000E+04  1.0100E-05
1.890000E+04  9.9288E-06
1.895000E+04  9.7898E-06
1.900000E+04  9.8259E-06
1.905000E+04  9.8555E-06
1.910000E+04  9.7451E-06
1.915000E+04  9.6424E-06
1.920000E+04  9.5756E-06
1.925000E+04  9.5193E-06
1.930000E+04  9.4130E-06
1.935000E+04  9.2942E-06
1.940000E+04  9.1532E-06
1.945000E+04  9.0347E-06
1.950000E+04  9.0184E-06
1.955000E+04  9.0006E-06
1.960000E+04  8.9228E-06
1.965000E+04  8.8260E-06
1.970000E+04  8.7288E-06
1.975000E+04  8.6075E-06
1.980000E+04  8.5279E-06
1.985000E+04  8.4652E-06
1.990000E+04  8.4290E-06
1.995000E+04  8.3791E-06
2.000000E+04  8.3300E-06
2.005000E+04  8.3122E-06
2.010000E+04  8.2712E-06
2.015000E+04  8.2222E-06
2.020000E+04  8.1227E-06
2.025000E+04  8.0193E-06
2.030000E+04  7.9528E-06
2.035000E+04  7.8972E-06
2.040000E+04  7.8646E-06
2.045000E+04  7.8513E-06
2.050000E+04  7.7918E-06
2.055000E+04  7.7282E-06
2.060000E+04  7.6590E-06
2.065000E+04  7.5992E-06
2.070000E+04  7.5606E-06
2.075000E+04  7.5168E-06
2.080000E+04  7.4756E-06
2.085000E+04  7.4500E-06
2.090000E+04  7.3841E-06
2.095000E+04  7.3016E-06
2.100000E+04  7.2785E-06
2.105000E+04  7.2642E-06
2.110000E+04  7.2093E-06
2.115000E+04  7.1420E-06
2.120000E+04  7.0906E-06
2.125000E+04  7.0588E-06
2.130000E+04  7.0233E-06
2.135000E+04  6.9924E-06
2.140000E+04  6.9435E-06
2.145000E+04  6.8851E-06
2.150000E+04  6.8440E-06
2.155000E+04  6.7968E-06
2.160000E+04  6.7219E-06
2.165000E+04  6.6526E-06
2.170000E+04  6.6093E-06
2.175000E+04  6.5682E-06
2.180000E+04  6.5350E-06
2.185000E+04  6.4944E-06
2.190000E+04  6.4514E-06
2.195000E+04  6.4113E-06
2.200000E+04  6.3310E-06
2.205000E+04  6.2556E-06
2.210000E+04  6.2457E-06
2.215000E+04  6.2399E-06
2.220000E+04  6.1801E-06
2.225000E+04  6.1216E-06
2.230000E+04  6.0905E-06
2.235000E+04  6.0482E-06
2.240000E+04  6.0098E-06
2.245000E+04  5.9789E-06
2.250000E+04  5.9347E-06
2.255000E+04  5.8877E-06
2.260000E+04  5.8261E-06
2.265000E+04  5.7795E-06
2.270000E+04  5.7669E-06
2.275000E+04  5.7425E-06
2.280000E+04  5.6808E-06
2.285000E+04  5.6272E-06
2.290000E+04  5.1806E-06
2.295000E+04  4.7790E-06
2.300000E+04  4.9252E-06
2.305000E+04  5.0724E-06
2.310000E+04  5.0891E-06
2.315000E+04  5.0801E-06
2.320000E+04  4.6870E-06
2.325000E+04  4.3678E-06
2.330000E+04  4.5522E-06
2.335000E+04  4.7016E-06
2.340000E+04  4.5809E-06
2.345000E+04  4.4855E-06
2.350000E+04  4.2623E-06
2.355000E+04  4.0669E-06
2.360000E+04  4.2018E-06
2.365000E+04  4.3577E-06
2.370000E+04  4.2762E-06
2.375000E+04  4.1836E-06
2.380000E+04  4.0126E-06
2.385000E+04  3.8493E-06
2.390000E+04  3.9790E-06
2.395000E+04  4.0904E-06
2.400000E+04  4.0360E-06
2.405000E+04  3.9843E-06
2.410000E+04  3.8259E-06
2.415000E+04  3.6773E-06
2.420000E+04  3.7266E-06
2.425000E+04  3.7874E-06
2.430000E+04  3.7343E-06
2.435000E+04  3.6807E-06
2.440000E+04  3.6121E-06
2.445000E+04  3.5313E-06
2.450000E+04  3.5035E-06
2.455000E+04  3.4801E-06
2.460000E+04  3.4750E-06
2.465000E+04  3.4701E-06
2.470000E+04  3.4128E-06
2.475000E+04  3.3554E-06
2.480000E+04  3.1444E-06
2.485000E+04  2.9600E-06
2.490000E+04  2.9055E-06
2.495000E+04  2.8574E-06
2.500000E+04  2.8782E-06
2.505000E+04  2.9018E-06
2.510000E+04  2.8408E-06
2.515000E+04  2.7856E-06
2.520000E+04  2.8192E-06
2.525000E+04  2.8555E-06
2.530000E+04  2.8606E-06
2.535000E+04  2.8641E-06
2.540000E+04  2.8516E-06
2.545000E+04  2.8438E-06
2.550000E+04  2.8497E-06
2.555000E+04  2.8531E-06
2.560000E+04  2.8653E-06
2.565000E+04  2.8782E-06
2.570000E+04  2.8923E-06
2.575000E+04  2.9086E-06
2.580000E+04  2.8762E-06
2.585000E+04  2.8430E-06
2.590000E+04  2.8483E-06
2.595000E+04  2.8609E-06
2.600000E+04  2.8673E-06
2.605000E+04  2.8710E-06
2.610000E+04  2.8534E-06
2.615000E+04  2.8260E-06
2.620000E+04  2.8057E-06
2.625000E+04  2.7900E-06
2.630000E+04  2.8029E-06
2.635000E+04  2.8042E-06
2.640000E+04  2.7871E-06
2.645000E+04  2.7669E-06
2.650000E+04  2.7569E-06
2.655000E+04  2.7514E-06
2.660000E+04  2.7488E-06
2.665000E+04  2.7284E-06
2.670000E+04  2.7312E-06
2.675000E+04  2.7276E-06
2.680000E+04  2.7052E-06
2.685000E+04  2.6833E-06
2.690000E+04  2.6637E-06
2.695000E+04  2.6546E-06
2.700000E+04  2.6588E-06
2.705000E+04  2.6465E-06
2.710000E+04  2.6221E-06
2.715000E+04  2.6151E-06
2.720000E+04  2.6286E-06
2.725000E+04  2.6265E-06
2.730000E+04  2.6087E-06
2.735000E+04  2.5830E-06
2.740000E+04  2.5943E-06
2.745000E+04  2.5968E-06
2.750000E+04  2.5776E-06
2.755000E+04  2.5539E-06
2.760000E+04  2.5287E-06
2.765000E+04  2.5156E-06
2.770000E+04  2.5047E-06
2.775000E+04  2.4956E-06
2.780000E+04  2.4946E-06
2.785000E+04  2.4940E-06
2.790000E+04  2.4814E-06
2.795000E+04  2.4855E-06
2.800000E+04  2.4586E-06
2.805000E+04  2.4466E-06
2.810000E+04  2.4174E-06
2.815000E+04  2.4114E-06
2.820000E+04  2.4044E-06
2.825000E+04  2.3987E-06
2.830000E+04  2.3889E-06
2.835000E+04  2.3580E-06
2.840000E+04  2.3220E-06
2.845000E+04  2.2905E-06
2.850000E+04  2.2941E-06
2.855000E+04  2.3068E-06
2.860000E+04  2.3062E-06
2.865000E+04  2.2957E-06
2.870000E+04  2.2671E-06
2.875000E+04  2.2583E-06
2.880000E+04  2.2518E-06
2.885000E+04  2.2296E-06
2.890000E+04  2.2106E-06
2.895000E+04  2.1898E-06
2.900000E+04  2.1978E-06
2.905000E+04  2.1902E-06
2.910000E+04  2.1731E-06
2.915000E+04  2.1511E-06
2.920000E+04  2.1244E-06
2.925000E+04  2.1013E-06
2.930000E+04  2.1026E-06
2.935000E+04  2.0874E-06
2.940000E+04  2.0728E-06
2.945000E+04  2.0543E-06
2.950000E+04  2.0389E-06
2.955000E+04  2.0280E-06
2.960000E+04  2.0176E-06
2.965000E+04  2.0068E-06
2.970000E+04  1.9963E-06
2.975000E+04  1.9846E-06
2.980000E+04  1.9725E-06
2.985000E+04  1.9580E-06
2.990000E+04  1.9465E-06
2.995000E+04  1.9372E-06
3.000000E+04  1.9289E-06
3.005000E+04  1.9202E-06
3.010000E+04  1.9139E-06
3.015000E+04  1.9063E-06
3.020000E+04  1.8965E-06
3.025000E+04  1.8870E-06
3.030000E+04  1.8762E-06
3.035000E+04  1.8658E-06
3.040000E+04  1.8616E-06
3.045000E+04  1.8576E-06
3.050000E+04  1.8495E-06
3.055000E+04  1.8419E-06
3.060000E+04  1.8350E-06
3.065000E+04  1.8271E-06
3.070000E+04  1.8215E-06
3.075000E+04  1.8162E-06
3.080000E+04  1.8063E-06
3.085000E+04  1.7969E-06
3.090000E+04  1.7907E-06
3.095000E+04  1.7844E-06
3.100000E+04  1.7799E-06
3.105000E+04  1.7753E-06
3.110000E+04  1.7640E-06
3.115000E+04  1.7518E-06
3.120000E+04  1.7471E-06
3.125000E+04  1.7426E-06
3.130000E+04  1.7349E-06
3.135000E+04  1.7279E-06
3.140000E+04  1.7206E-06
3.145000E+04  1.7135E-06
3.150000E+04  1.7050E-06
3.155000E+04  1.6963E-06
3.160000E+04  1.6884E-06
3.165000E+04  1.6801E-06
3.170000E+04  1.6747E-06
3.175000E+04  1.6695E-06
3.180000E+04  1.6632E-06
3.185000E+04  1.6573E-06
3.190000E+04  1.6523E-06
3.195000E+04  1.6471E-06
3.200000E+04  1.6400E-06
3.210000E+04  1.6250E-06
3.220000E+04  1.6111E-06
3.230000E+04  1.5982E-06
3.240000E+04  1.5862E-06
3.250000E+04  1.5749E-06
3.260000E+04  1.5615E-06
3.270000E+04  1.5482E-06
3.280000E+04  1.5340E-06
3.290000E+04  1.5207E-06
3.300000E+04  1.5093E-06
3.310000E+04  1.4972E-06
3.320000E+04  1.4860E-06
3.330000E+04  1.4754E-06
3.340000E+04  1.4681E-06
3.350000E+04  1.4634E-06
3.360000E+04  1.4496E-06
3.370000E+04  1.4316E-06
3.380000E+04  1.4240E-06
3.390000E+04  1.4133E-06
3.400000E+04  1.4017E-06
3.410000E+04  1.3965E-06
3.420000E+04  1.3867E-06
3.430000E+04  1.3874E-06
3.440000E+04  1.3810E-06
3.450000E+04  1.3620E-06
3.460000E+04  1.3426E-06
3.470000E+04  1.3361E-06
3.480000E+04  1.3209E-06
3.490000E+04  1.3012E-06
3.500000E+04  1.2894E-06
3.510000E+04  1.2865E-06
3.520000E+04  1.2671E-06
3.530000E+04  1.2583E-06
3.540000E+04  1.2371E-06
3.550000E+04  1.2220E-06
3.560000E+04  1.2149E-06
3.570000E+04  1.2076E-06
3.580000E+04  1.1931E-06
3.590000E+04  1.1781E-06
3.600000E+04  1.1733E-06
3.610000E+04  1.1622E-06
3.620000E+04  1.1482E-06
3.630000E+04  1.1289E-06
3.640000E+04  1.1177E-06
3.650000E+04  1.1031E-06
3.660000E+04  1.0899E-06
3.670000E+04  1.0801E-06
3.680000E+04  1.0652E-06
3.690000E+04  1.0508E-06
3.700000E+04  1.0359E-06
3.710000E+04  1.0243E-06
3.720000E+04  1.0154E-06
3.730000E+04  1.0057E-06
3.740000E+04  9.9092E-07
3.750000E+04  9.7771E-07
3.760000E+04  9.6932E-07
3.770000E+04  9.6149E-07
3.780000E+04  9.5145E-07
3.790000E+04  9.4247E-07
3.800000E+04  9.3400E-07
3.810000E+04  9.2501E-07
3.820000E+04  9.1632E-07
3.830000E+04  9.0835E-07
3.840000E+04  9.0046E-07
3.850000E+04  8.9212E-07
3.860000E+04  8.8266E-07
3.870000E+04  8.7348E-07
3.880000E+04  8.6585E-07
3.890000E+04  8.5801E-07
3.900000E+04  8.5055E-07
3.910000E+04  8.4332E-07
3.920000E+04  8.3620E-07
3.930000E+04  8.2925E-07
3.940000E+04  8.2076E-07
3.950000E+04  8.1260E-07
3.960000E+04  8.0562E-07
3.970000E+04  7.9931E-07
3.980000E+04  7.9047E-07
3.990000E+04  7.8225E-07
4.000000E+04  7.7648E-07
4.010000E+04  7.7121E-07
4.020000E+04  7.6499E-07
4.030000E+04  7.5997E-07
4.040000E+04  7.5378E-07
4.050000E+04  7.4680E-07
4.060000E+04  7.4160E-07
4.070000E+04  7.3599E-07
4.080000E+04  7.3145E-07
4.090000E+04  7.2635E-07
4.100000E+04  7.2273E-07
4.110000E+04  7.1760E-07
4.120000E+04  7.1229E-07
4.130000E+04  7.0609E-07
4.140000E+04  6.9735E-07
4.150000E+04  6.9072E-07
4.160000E+04  6.8485E-07
4.170000E+04  6.8299E-07
4.180000E+04  6.7819E-07
4.190000E+04  6.7422E-07
4.200000E+04  6.6615E-07
4.210000E+04  6.6063E-07
4.220000E+04  6.5823E-07
4.230000E+04  6.5572E-07
4.240000E+04  6.5161E-07
4.250000E+04  6.4476E-07
4.260000E+04  6.4016E-07
4.270000E+04  6.3661E-07
4.280000E+04  6.2247E-07
4.290000E+04  6.0945E-07
4.300000E+04  5.9438E-07
4.310000E+04  5.8134E-07
4.320000E+04  5.8212E-07
4.330000E+04  5.7875E-07
4.340000E+04  5.6446E-07
4.350000E+04  5.5205E-07
4.360000E+04  5.4334E-07
4.370000E+04  5.3874E-07
4.380000E+04  5.3182E-07
4.390000E+04  5.2751E-07
4.400000E+04  5.1806E-07
4.410000E+04  5.1218E-07
4.420000E+04  5.0924E-07
4.430000E+04  5.0394E-07
4.440000E+04  5.0173E-07
4.450000E+04  4.9426E-07
4.460000E+04  4.8813E-07
4.470000E+04  4.8158E-07
4.480000E+04  4.7911E-07
4.490000E+04  4.7908E-07
4.500000E+04  4.7443E-07
4.510000E+04  4.6978E-07
4.520000E+04  4.6283E-07
4.530000E+04  4.5693E-07
4.540000E+04  4.5271E-07
4.550000E+04  4.4879E-07
4.560000E+04  4.4373E-07
4.570000E+04  4.4010E-07
4.580000E+04  4.3436E-07
4.590000E+04  4.2789E-07
4.600000E+04  4.2762E-07
4.610000E+04  4.2757E-07
4.620000E+04  4.2347E-07
4.630000E+04  4.2048E-07
4.640000E+04  4.1811E-07
4.650000E+04  4.1544E-07
4.660000E+04  4.1388E-07
4.670000E+04  4.1181E-07
4.680000E+04  4.0656E-07
4.690000E+04  4.0235E-07
4.700000E+04  3.9940E-07
4.710000E+04  3.9613E-07
4.720000E+04  3.9639E-07
4.730000E+04  3.9714E-07
4.740000E+04  3.9253E-07
4.750000E+04  3.8811E-07
4.760000E+04  3.8612E-07
4.770000E+04  3.8345E-07
4.780000E+04  3.8097E-07
4.790000E+04  3.7865E-07
4.800000E+04  3.7384E-07
4.810000E+04  3.6974E-07
4.820000E+04  3.6986E-07
4.830000E+04  3.7004E-07
4.840000E+04  3.6637E-07
4.850000E+04  3.6226E-07
4.860000E+04  3.5917E-07
4.870000E+04  3.5613E-07
4.880000E+04  3.5351E-07
4.890000E+04  3.5148E-07
4.900000E+04  3.4882E-07
4.910000E+04  3.4578E-07
4.920000E+04  3.4419E-07
4.930000E+04  3.4242E-07
4.940000E+04  3.3837E-07
4.950000E+04  3.3499E-07
4.960000E+04  3.3367E-07
4.970000E+04  3.3205E-07
4.980000E+04  3.2865E-07
4.990000E+04  3.2692E-07
5.000000E+04  3.2508E-07
5.010000E+04  3.2319E-07
5.020000E+04  3.2111E-07
5.030000E+04  3.1845E-07
5.040000E+04  3.1514E-07
5.050000E+04  3.1202E-07
5.060000E+04  3.1037E-07
5.070000E+04  3.0868E-07
5.080000E+04  3.0697E-07
5.090000E+04  3.0525E-07
5.100000E+04  3.0323E-07
5.110000E+04  3.0080E-07
5.120000E+04  2.9964E-07
5.130000E+04  2.9798E-07
5.140000E+04  2.9550E-07
5.150000E+04  2.9326E-07
5.160000E+04  2.9237E-07
5.170000E+04  2.9124E-07
5.180000E+04  2.8866E-07
5.190000E+04  2.8646E-07
5.200000E+04  2.8485E-07
5.210000E+04  2.8271E-07
5.220000E+04  2.8039E-07
5.230000E+04  2.7834E-07
5.240000E+04  2.7744E-07
5.250000E+04  2.7590E-07
5.260000E+04  2.7495E-07
5.270000E+04  2.7419E-07
5.280000E+04  2.7172E-07
5.290000E+04  2.6910E-07
5.300000E+04  2.6729E-07
5.310000E+04  2.6551E-07
5.320000E+04  2.6423E-07
5.330000E+04  2.6276E-07
5.340000E+04  2.6104E-07
5.350000E+04  2.5926E-07
5.360000E+04  2.5780E-07
5.370000E+04  2.5642E-07
5.380000E+04  2.5494E-07
5.390000E+04  2.5342E-07
5.400000E+04  2.5200E-07
5.410000E+04  2.5061E-07
5.420000E+04  2.4883E-07
5.430000E+04  2.4689E-07
5.440000E+04  2.4592E-07
5.450000E+04  2.4495E-07
5.460000E+04  2.4306E-07
5.470000E+04  2.4122E-07
5.480000E+04  2.3997E-07
5.490000E+04  2.3863E-07
5.500000E+04  2.3700E-07
5.510000E+04  2.3540E-07
5.520000E+04  2.3498E-07
5.530000E+04  2.3480E-07
5.540000E+04  2.3174E-07
5.550000E+04  2.2942E-07
5.560000E+04  2.2916E-07
5.570000E+04  2.2872E-07
5.580000E+04  2.2677E-07
5.590000E+04  2.2469E-07
5.600000E+04  2.2382E-07
5.610000E+04  2.2280E-07
5.620000E+04  2.2070E-07
5.630000E+04  2.1892E-07
5.640000E+04  2.1820E-07
5.650000E+04  2.1744E-07
5.660000E+04  2.1607E-07
5.670000E+04  2.1457E-07
5.680000E+04  2.1282E-07
5.690000E+04  2.1108E-07
5.700000E+04  2.1022E-07
5.710000E+04  2.0936E-07
5.720000E+04  2.0802E-07
5.730000E+04  2.0681E-07
5.740000E+04  2.0553E-07
5.750000E+04  2.0414E-07
5.760000E+04  2.0256E-07
5.770000E+04  2.0130E-07
5.780000E+04  2.0069E-07
5.790000E+04  2.0008E-07
5.800000E+04  1.9864E-07
5.810000E+04  1.9731E-07
5.820000E+04  1.9633E-07
5.830000E+04  1.9536E-07
5.840000E+04  1.9438E-07
5.850000E+04  1.9312E-07
5.860000E+04  1.9177E-07
5.870000E+04  1.9057E-07
5.880000E+04  1.8938E-07
5.890000E+04  1.8827E-07
5.900000E+04  1.8717E-07
5.910000E+04  1.8605E-07
5.920000E+04  1.8485E-07
5.930000E+04  1.8368E-07
5.940000E+04  1.8231E-07
5.950000E+04  1.8122E-07
5.960000E+04  1.8047E-07
5.970000E+04  1.7965E-07
5.980000E+04  1.7853E-07
5.990000E+04  1.7736E-07
6.000000E+04  1.7620E-07
6.010000E+04  1.7505E-07
6.020000E+04  1.7405E-07
6.030000E+04  1.7313E-07
6.040000E+04  1.7212E-07
6.050000E+04  1.7113E-07
6.060000E+04  1.7032E-07
6.070000E+04  1.6947E-07
6.080000E+04  1.6843E-07
6.090000E+04  1.6740E-07
6.100000E+04  1.6631E-07
6.110000E+04  1.6513E-07
6.120000E+04  1.6421E-07
6.130000E+04  1.6332E-07
6.140000E+04  1.6240E-07
6.150000E+04  1.6149E-07
6.160000E+04  1.6060E-07
6.170000E+04  1.5960E-07
6.180000E+04  1.5851E-07
6.190000E+04  1.5744E-07
6.200000E+04  1.5649E-07
6.210000E+04  1.5564E-07
6.220000E+04  1.5467E-07
6.230000E+04  1.5371E-07
6.240000E+04  1.5283E-07
6.250000E+04  1.5196E-07
6.260000E+04  1.5099E-07
6.270000E+04  1.5002E-07
6.280000E+04  1.4906E-07
6.290000E+04  1.4814E-07
6.300000E+04  1.4716E-07
6.310000E+04  1.4627E-07
6.320000E+04  1.4561E-07
6.330000E+04  1.4497E-07
6.340000E+04  1.4419E-07
6.350000E+04  1.4341E-07
6.360000E+04  1.4280E-07
6.370000E+04  1.4214E-07
6.380000E+04  1.4122E-07
6.390000E+04  1.4022E-07
6.400000E+04  1.3929E-07
6.410000E+04  1.3834E-07
6.420000E+04  1.3748E-07
6.430000E+04  1.3662E-07
6.440000E+04  1.3583E-07
6.450000E+04  1.3503E-07
6.460000E+04  1.3422E-07
6.470000E+04  1.3339E-07
6.480000E+04  1.3263E-07
6.490000E+04  1.3202E-07
6.500000E+04  1.3136E-07
6.510000E+04  1.3068E-07
6.520000E+04  1.2993E-07
6.530000E+04  1.2919E-07
6.540000E+04  1.2844E-07
6.550000E+04  1.2771E-07
6.560000E+04  1.2699E-07
6.570000E+04  1.2615E-07
6.580000E+04  1.2531E-07
6.590000E+04  1.2452E-07
6.600000E+04  1.2376E-07
6.610000E+04  1.2303E-07
6.620000E+04  1.2234E-07
6.630000E+04  1.2172E-07
6.640000E+04  1.2111E-07
6.650000E+04  1.2050E-07
6.660000E+04  1.1992E-07
6.670000E+04  1.1935E-07
6.680000E+04  1.1879E-07
6.690000E+04  1.1815E-07
6.700000E+04  1.1745E-07
6.710000E+04  1.1674E-07
6.720000E+04  1.1605E-07
6.730000E+04  1.1545E-07
6.740000E+04  1.1484E-07
6.750000E+04  1.1420E-07
6.760000E+04  1.1354E-07
6.770000E+04  1.1283E-07
6.780000E+04  1.1221E-07
6.790000E+04  1.1166E-07
6.800000E+04  1.1110E-07
6.810000E+04  1.1054E-07
6.820000E+04  1.0990E-07
6.830000E+04  1.0926E-07
6.840000E+04  1.0870E-07
6.850000E+04  1.0814E-07
6.860000E+04  1.0760E-07
6.870000E+04  1.0702E-07
6.880000E+04  1.0635E-07
6.890000E+04  1.0566E-07
6.900000E+04  1.0496E-07
6.910000E+04  1.0433E-07
6.920000E+04  1.0378E-07
6.930000E+04  1.0324E-07
6.940000E+04  1.0270E-07
6.950000E+04  1.0214E-07
6.960000E+04  1.0156E-07
6.970000E+04  1.0103E-07
6.980000E+04  1.0054E-07
6.990000E+04  1.0004E-07
7.000000E+04  9.9538E-08
7.010000E+04  9.9009E-08
7.020000E+04  9.8472E-08
7.030000E+04  9.7937E-08
7.040000E+04  9.7396E-08
7.050000E+04  9.6893E-08
7.060000E+04  9.6404E-08
7.070000E+04  9.5912E-08
7.080000E+04  9.5426E-08
7.090000E+04  9.4930E-08
7.100000E+04  9.4433E-08
7.110000E+04  9.3938E-08
7.120000E+04  9.3445E-08
7.130000E+04  9.2963E-08
7.140000E+04  9.2488E-08
7.150000E+04  9.2027E-08
7.160000E+04  9.1577E-08
7.170000E+04  9.1125E-08
7.180000E+04  9.0675E-08
7.190000E+04  9.0236E-08
7.200000E+04  8.9802E-08
7.210000E+04  8.9380E-08
7.220000E+04  8.8968E-08
7.230000E+04  8.8549E-08
7.240000E+04  8.8127E-08
7.250000E+04  8.7696E-08
7.260000E+04  8.7247E-08
7.270000E+04  8.6796E-08
7.280000E+04  8.6313E-08
7.290000E+04  8.5845E-08
7.300000E+04  8.5456E-08
7.310000E+04  8.5059E-08
7.320000E+04  8.4605E-08
7.330000E+04  8.4154E-08
7.340000E+04  8.3663E-08
7.350000E+04  8.3181E-08
7.360000E+04  8.2751E-08
7.370000E+04  8.2344E-08
7.380000E+04  8.1949E-08
7.390000E+04  8.1545E-08
7.400000E+04  8.1132E-08
7.410000E+04  8.0700E-08
7.420000E+04  8.0273E-08
7.430000E+04  7.9868E-08
7.440000E+04  7.9465E-08
7.450000E+04  7.9158E-08
7.460000E+04  7.8858E-08
7.470000E+04  7.8476E-08
7.480000E+04  7.8061E-08
7.490000E+04  7.7679E-08
7.500000E+04  7.7328E-08
7.510000E+04  7.6966E-08
7.520000E+04  7.6590E-08
7.530000E+04  7.6215E-08
7.540000E+04  7.5843E-08
7.550000E+04  7.5486E-08
7.560000E+04  7.5040E-08
7.570000E+04  7.4564E-08
7.580000E+04  7.4147E-08
7.590000E+04  7.3794E-08
7.600000E+04  7.3441E-08
7.610000E+04  7.3074E-08
7.620000E+04  7.2710E-08
7.630000E+04  7.2330E-08
7.640000E+04  7.1949E-08
7.650000E+04  7.1552E-08
7.660000E+04  7.1139E-08
7.670000E+04  7.0742E-08
7.680000E+04  7.0470E-08
7.690000E+04  7.0200E-08
7.700000E+04  6.9906E-08
7.710000E+04  6.9613E-08
7.720000E+04  6.9307E-08
7.730000E+04  6.8977E-08
7.740000E+04  6.8649E-08
7.750000E+04  6.8302E-08
7.760000E+04  6.7957E-08
7.770000E+04  6.7658E-08
7.780000E+04  6.7389E-08
7.790000E+04  6.7104E-08
7.800000E+04  6.6750E-08
7.810000E+04  6.6397E-08
7.820000E+04  6.6035E-08
7.830000E+04  6.5673E-08
7.840000E+04  6.5325E-08
7.850000E+04  6.5006E-08
7.860000E+04  6.4688E-08
7.870000E+04  6.4381E-08
7.880000E+04  6.4077E-08
7.890000E+04  6.3784E-08
7.900000E+04  6.3508E-08
7.910000E+04  6.3235E-08
7.920000E+04  6.2971E-08
7.930000E+04  6.2711E-08
7.940000E+04  6.2442E-08
7.950000E+04  6.2159E-08
7.960000E+04  6.1877E-08
7.970000E+04  6.1582E-08
7.980000E+04  6.1285E-08
7.990000E+04  6.0993E-08
8.000000E+04  6.0731E-08
8.010000E+04  6.0470E-08
8.020000E+04  6.0161E-08
8.030000E+04  5.9840E-08
8.040000E+04  5.9527E-08
8.050000E+04  5.9250E-08
8.060000E+04  5.8976E-08
8.070000E+04  5.8711E-08
8.080000E+04  5.8450E-08
8.090000E+04  5.8191E-08
8.100000E+04  5.7920E-08
8.110000E+04  5.7641E-08
8.120000E+04  5.7363E-08
8.130000E+04  5.7088E-08
8.140000E+04  5.6815E-08
8.150000E+04  5.6562E-08
8.160000E+04  5.6314E-08
8.170000E+04  5.6069E-08
8.180000E+04  5.5800E-08
8.190000E+04  5.5529E-08
8.200000E+04  5.5253E-08
8.210000E+04  5.4968E-08
8.220000E+04  5.4684E-08
8.230000E+04  5.4426E-08
8.240000E+04  5.4184E-08
8.250000E+04  5.3944E-08
8.260000E+04  5.3701E-08
8.270000E+04  5.3461E-08
8.280000E+04  5.3223E-08
8.290000E+04  5.2990E-08
8.300000E+04  5.2758E-08
8.310000E+04  5.2519E-08
8.320000E+04  5.2277E-08
8.330000E+04  5.2036E-08
8.340000E+04  5.1821E-08
8.350000E+04  5.1625E-08
8.360000E+04  5.1430E-08
8.370000E+04  5.1200E-08
8.380000E+04  5.0967E-08
8.390000E+04  5.0737E-08
8.400000E+04  5.0513E-08
8.410000E+04  5.0291E-08
8.420000E+04  5.0068E-08
8.430000E+04  4.9840E-08
8.440000E+04  4.9614E-08
8.450000E+04  4.9392E-08
8.460000E+04  4.9178E-08
8.470000E+04  4.8965E-08
8.480000E+04  4.8748E-08
8.490000E+04  4.8527E-08
8.500000E+04  4.8308E-08
8.510000E+04  4.8106E-08
8.520000E+04  4.7913E-08
8.530000E+04  4.7720E-08
8.540000E+04  4.7525E-08
8.550000E+04  4.7329E-08
8.560000E+04  4.7135E-08
8.570000E+04  4.6935E-08
8.580000E+04  4.6735E-08
8.590000E+04  4.6536E-08
8.600000E+04  4.6338E-08
8.610000E+04  4.6142E-08
8.620000E+04  4.5946E-08
8.630000E+04  4.5753E-08
8.640000E+04  4.5561E-08
8.650000E+04  4.5370E-08
8.660000E+04  4.5173E-08
8.670000E+04  4.4974E-08
8.680000E+04  4.4777E-08
8.690000E+04  4.4590E-08
8.700000E+04  4.4405E-08
8.710000E+04  4.4222E-08
8.720000E+04  4.4048E-08
8.730000E+04  4.3876E-08
8.740000E+04  4.3706E-08
8.750000E+04  4.3537E-08
8.760000E+04  4.3369E-08
8.770000E+04  4.3202E-08
8.780000E+04  4.3045E-08
8.790000E+04  4.2887E-08
8.800000E+04  4.2731E-08
8.810000E+04  4.2577E-08
8.820000E+04  4.2425E-08
8.830000E+04  4.2277E-08
8.840000E+04  4.2108E-08
8.850000E+04  4.1924E-08
8.860000E+04  4.1742E-08
8.870000E+04  4.1572E-08
8.880000E+04  4.1416E-08
8.890000E+04  4.1261E-08
8.900000E+04  4.1097E-08
8.910000E+04  4.0918E-08
8.920000E+04  4.0739E-08
8.930000E+04  4.0562E-08
8.940000E+04  4.0390E-08
8.950000E+04  4.0213E-08
8.960000E+04  4.0037E-08
8.970000E+04  3.9865E-08
8.980000E+04  3.9694E-08
8.990000E+04  3.9531E-08
9.000000E+04  3.9381E-08
9.010000E+04  3.9237E-08
9.020000E+04  3.9093E-08
9.030000E+04  3.8929E-08
9.040000E+04  3.8744E-08
9.050000E+04  3.8561E-08
9.060000E+04  3.8382E-08
9.070000E+04  3.8217E-08
9.080000E+04  3.8052E-08
9.090000E+04  3.7888E-08
9.100000E+04  3.7713E-08
9.110000E+04  3.7547E-08
9.120000E+04  3.7381E-08
9.130000E+04  3.7222E-08
9.140000E+04  3.7066E-08
9.150000E+04  3.6908E-08
9.160000E+04  3.6754E-08
9.170000E+04  3.6608E-08
9.180000E+04  3.6463E-08
9.190000E+04  3.6319E-08
9.200000E+04  3.6192E-08
9.210000E+04  3.6067E-08
9.220000E+04  3.5943E-08
9.230000E+04  3.5825E-08
9.240000E+04  3.5716E-08
9.250000E+04  3.5608E-08
9.260000E+04  3.5499E-08
9.270000E+04  3.5376E-08
9.280000E+04  3.5253E-08
9.290000E+04  3.5130E-08
9.300000E+04  3.4983E-08
9.310000E+04  3.4822E-08
9.320000E+04  3.4661E-08
9.330000E+04  3.4503E-08
9.340000E+04  3.4353E-08
9.350000E+04  3.4205E-08
9.360000E+04  3.4058E-08
9.370000E+04  3.3916E-08
9.380000E+04  3.3776E-08
9.390000E+04  3.3637E-08
9.400000E+04  3.3498E-08
9.410000E+04  3.3353E-08
9.420000E+04  3.3209E-08
9.430000E+04  3.3065E-08
9.440000E+04  3.2936E-08
9.450000E+04  3.2817E-08
9.460000E+04  3.2698E-08
9.470000E+04  3.2583E-08
9.480000E+04  3.2488E-08
9.490000E+04  3.2393E-08
9.500000E+04  3.2299E-08
9.510000E+04  3.2192E-08
9.520000E+04  3.2068E-08
9.530000E+04  3.1944E-08
9.540000E+04  3.1821E-08
9.550000E+04  3.1690E-08
9.560000E+04  3.1557E-08
9.570000E+04  3.1425E-08
9.580000E+04  3.1297E-08
9.590000E+04  3.1185E-08
9.600000E+04  3.1074E-08
9.610000E+04  3.0963E-08
9.620000E+04  3.0842E-08
9.630000E+04  3.0713E-08
9.640000E+04  3.0584E-08
9.650000E+04  3.0455E-08
9.660000E+04  3.0314E-08
9.670000E+04  3.0168E-08
9.680000E+04  3.0023E-08
9.690000E+04  2.9879E-08
9.700000E+04  2.9790E-08
9.710000E+04  2.9697E-08
9.720000E+04  2.9606E-08
9.730000E+04  2.9514E-08
9.740000E+04  2.9421E-08
9.750000E+04  2.9334E-08
9.760000E+04  2.9248E-08
9.770000E+04  2.9151E-08
9.780000E+04  2.9039E-08
9.790000E+04  2.8925E-08
9.800000E+04  2.8812E-08
9.810000E+04  2.8706E-08
9.820000E+04  2.8604E-08
9.830000E+04  2.8502E-08
9.840000E+04  2.8400E-08
9.850000E+04  2.8313E-08
9.860000E+04  2.8231E-08
9.870000E+04  2.8149E-08
9.880000E+04  2.8068E-08
9.890000E+04  2.7960E-08
9.900000E+04  2.7847E-08
9.910000E+04  2.7732E-08
9.920000E+04  2.7619E-08
9.930000E+04  2.7494E-08
9.940000E+04  2.7368E-08
9.950000E+04  2.7245E-08
9.960000E+04  2.7123E-08
9.970000E+04  2.7004E-08
9.980000E+04  2.6885E-08
9.990000E+04  2.6767E-08
1.000000E+05  2.6649E-08
1.002000E+05  2.6436E-08
1.050000E+05  2.2140E-08
1.100000E+05  1.8348E-08
1.130000E+05  1.6564E-08
1.160000E+05  1.4807E-08
1.200000E+05  1.2952E-08
1.250000E+05  1.1369E-08
1.300000E+05  9.7322E-09
1.350000E+05  8.3805E-09
1.400000E+05  7.2565E-09
1.450000E+05  6.3156E-09
1.500000E+05  5.5229E-09
1.600000E+05  4.2792E-09
1.700000E+05  3.3679E-09
1.800000E+05  2.6877E-09
1.900000E+05  2.1715E-09
2.000000E+05  1.7740E-09
2.200000E+05  1.2173E-09
2.300000E+05  1.0212E-09
2.400000E+05  8.6318E-10
2.500000E+05  7.3461E-10
2.600000E+05  6.2916E-10
2.700000E+05  5.4200E-10
2.800000E+05  4.6946E-10
3.000000E+05  3.5746E-10
3.500000E+05  1.9442E-10
4.000000E+05  1.1472E-10
4.500000E+05  7.1810E-11
5.000000E+05  4.7226E-11
5.500000E+05  3.2325E-11
6.000000E+05  2.2868E-11
6.500000E+05  1.6618E-11
7.000000E+05  1.2366E-11
7.500000E+05  9.3910E-12
8.000000E+05  7.2597E-12
8.500000E+05  5.6983E-12
9.000000E+05  4.5351E-12
9.500000E+05  3.6541E-12
1.000000E+06  2.9772E-12
1.050000E+06  2.4495E-12
1.100000E+06  2.0337E-12
1.200000E+06  1.4361E-12
1.300000E+06  1.0426E-12
1.400000E+06  7.7506E-13
1.500000E+06  5.8799E-13
1.600000E+06  4.5409E-13
2.000000E+06  1.8609E-13
2.500000E+06  7.6223E-14
3.000000E+06  3.6759E-14
4.000000E+06  1.1631E-14
5.000000E+06  4.7640E-15
7.000000E+06  1.2401E-15
1.000000E+07  2.9775E-16
1.500000E+07  5.8814E-17
2.250000E+07  1.1618E-17
3.350000E+07  2.3641E-18
5.000000E+07  4.7640E-19
7.400000E+07  9.9294E-20
1.100000E+08  2.0337E-20
1.300000E+08  1.0425E-20
1.600000E+08  4.5433E-21
2.400000E+08  8.9744E-22
3.600000E+08  1.7727E-22
