# Input file name  = bc2003_lr_BaSeL_m72_salp_ssp.ised
# Output file name = spec_BC16_basel_salp_Zm72_age4.5Gyr.dat
# Record         159
# Column           2
# SED(Lo/A)       at    
# Lambda(A)    4.500E+09
9.100000E+01  3.9764E-10
9.400000E+01  6.1362E-10
9.600000E+01  8.0308E-10
9.800000E+01  1.0770E-09
1.000000E+02  1.4310E-09
1.020000E+02  1.8262E-09
1.040000E+02  2.1450E-09
1.060000E+02  2.5746E-09
1.080000E+02  3.1380E-09
1.100000E+02  4.2496E-09
1.140000E+02  5.8098E-09
1.180000E+02  7.2447E-09
1.210000E+02  2.6133E-08
1.250000E+02  3.0435E-08
1.270000E+02  3.2498E-08
1.280000E+02  3.3624E-08
1.310000E+02  3.6124E-08
1.320000E+02  4.2130E-08
1.340000E+02  4.4107E-08
1.370000E+02  5.3821E-08
1.400000E+02  5.7100E-08
1.430000E+02  1.5562E-07
1.470000E+02  3.9336E-07
1.500000E+02  4.0096E-07
1.510000E+02  4.0477E-07
1.550000E+02  4.2058E-07
1.590000E+02  4.3964E-07
1.620000E+02  4.5517E-07
1.660000E+02  4.7374E-07
1.700000E+02  4.9047E-07
1.730000E+02  5.0412E-07
1.770000E+02  5.1945E-07
1.800000E+02  5.2960E-07
1.820000E+02  5.3876E-07
1.860000E+02  5.5479E-07
1.910000E+02  5.7289E-07
1.940000E+02  5.8950E-07
1.980000E+02  6.0335E-07
2.000000E+02  6.0976E-07
2.020000E+02  6.1861E-07
2.050000E+02  6.2904E-07
2.100000E+02  6.2862E-07
2.160000E+02  6.6846E-07
2.200000E+02  6.8479E-07
2.230000E+02  6.8618E-07
2.270000E+02  7.0610E-07
2.300000E+02  1.0691E-06
2.340000E+02  1.6723E-06
2.400000E+02  2.1031E-06
2.460000E+02  1.8708E-06
2.520000E+02  1.9905E-06
2.570000E+02  1.6709E-06
2.600000E+02  1.8686E-06
2.640000E+02  1.9057E-06
2.690000E+02  1.8613E-06
2.740000E+02  1.8091E-06
2.790000E+02  1.7665E-06
2.840000E+02  1.7214E-06
2.900000E+02  1.6435E-06
2.960000E+02  1.5985E-06
3.000000E+02  1.5624E-06
3.010000E+02  1.5387E-06
3.080000E+02  1.5063E-06
3.180000E+02  1.4645E-06
3.280000E+02  1.3998E-06
3.380000E+02  1.3309E-06
3.480000E+02  1.2622E-06
3.570000E+02  1.2089E-06
3.660000E+02  1.1604E-06
3.750000E+02  1.1070E-06
3.850000E+02  1.0341E-06
3.950000E+02  1.0045E-06
4.000000E+02  9.8028E-07
4.050000E+02  9.6254E-07
4.140000E+02  9.2110E-07
4.220000E+02  8.8060E-07
4.300000E+02  8.4611E-07
4.410000E+02  8.0596E-07
4.510000E+02  7.6727E-07
4.600000E+02  7.3177E-07
4.700000E+02  6.9857E-07
4.800000E+02  6.7118E-07
4.900000E+02  6.3357E-07
5.000000E+02  6.1402E-07
5.060000E+02  5.9064E-07
5.120000E+02  5.9123E-07
5.200000E+02  5.7161E-07
5.300000E+02  5.4345E-07
5.400000E+02  5.1198E-07
5.500000E+02  4.8928E-07
5.600000E+02  4.7682E-07
5.700000E+02  4.6592E-07
5.800000E+02  4.4435E-07
5.900000E+02  4.2871E-07
6.000000E+02  4.0221E-07
6.100000E+02  3.5238E-07
6.200000E+02  3.8048E-07
6.300000E+02  3.6165E-07
6.400000E+02  3.5375E-07
6.500000E+02  3.3848E-07
6.580000E+02  3.2406E-07
6.650000E+02  3.2146E-07
6.750000E+02  3.1244E-07
6.850000E+02  2.9166E-07
6.950000E+02  2.8999E-07
7.000000E+02  2.7947E-07
7.050000E+02  2.6982E-07
7.160000E+02  2.7039E-07
7.260000E+02  2.6141E-07
7.350000E+02  2.5365E-07
7.450000E+02  2.4350E-07
7.550000E+02  2.3502E-07
7.650000E+02  2.0494E-07
7.750000E+02  2.1972E-07
7.850000E+02  2.0791E-07
7.950000E+02  2.0461E-07
8.000000E+02  2.0162E-07
8.050000E+02  1.9979E-07
8.150000E+02  1.9347E-07
8.250000E+02  1.8807E-07
8.350000E+02  1.7142E-07
8.450000E+02  1.7572E-07
8.550000E+02  1.6965E-07
8.650000E+02  1.6551E-07
8.750000E+02  1.6153E-07
8.850000E+02  1.5683E-07
8.950000E+02  1.5231E-07
9.000000E+02  1.4955E-07
9.050000E+02  1.4694E-07
9.150000E+02  1.7381E-07
9.250000E+02  2.5259E-07
9.350000E+02  3.2597E-07
9.450000E+02  3.8115E-07
9.550000E+02  4.1799E-07
9.650000E+02  4.3214E-07
9.750000E+02  2.6449E-07
9.850000E+02  3.6451E-07
9.950000E+02  3.5159E-07
1.000000E+03  3.7543E-07
1.005000E+03  4.0390E-07
1.015000E+03  4.1002E-07
1.025000E+03  2.7587E-07
1.035000E+03  3.7317E-07
1.045000E+03  4.6744E-07
1.055000E+03  4.5101E-07
1.065000E+03  3.8548E-07
1.075000E+03  4.1562E-07
1.085000E+03  3.3140E-07
1.095000E+03  4.1958E-07
1.100000E+03  4.0971E-07
1.105000E+03  4.0090E-07
1.115000E+03  3.8769E-07
1.125000E+03  3.4345E-07
1.135000E+03  3.9672E-07
1.145000E+03  3.7889E-07
1.155000E+03  3.7812E-07
1.165000E+03  3.6642E-07
1.175000E+03  2.6902E-07
1.185000E+03  3.4667E-07
1.195000E+03  3.0444E-07
1.200000E+03  2.8327E-07
1.205000E+03  2.6732E-07
1.215000E+03  2.0221E-07
1.225000E+03  2.9804E-07
1.235000E+03  3.4572E-07
1.245000E+03  3.5024E-07
1.255000E+03  3.3736E-07
1.265000E+03  3.2496E-07
1.275000E+03  3.6025E-07
1.285000E+03  3.6569E-07
1.295000E+03  3.0915E-07
1.300000E+03  3.0908E-07
1.305000E+03  3.0971E-07
1.315000E+03  3.5358E-07
1.325000E+03  3.3624E-07
1.335000E+03  3.1070E-07
1.345000E+03  3.3896E-07
1.355000E+03  3.2938E-07
1.365000E+03  3.0269E-07
1.375000E+03  3.0191E-07
1.385000E+03  2.9514E-07
1.395000E+03  2.2948E-07
1.400000E+03  2.2675E-07
1.405000E+03  2.2472E-07
1.415000E+03  2.7204E-07
1.425000E+03  2.6746E-07
1.435000E+03  2.7438E-07
1.442000E+03  2.7743E-07
1.447000E+03  2.7747E-07
1.455000E+03  2.6652E-07
1.465000E+03  2.4930E-07
1.475000E+03  2.5228E-07
1.485000E+03  2.5351E-07
1.495000E+03  2.4997E-07
1.500000E+03  2.4228E-07
1.505000E+03  2.3457E-07
1.512000E+03  2.1564E-07
1.517000E+03  2.2330E-07
1.525000E+03  2.1829E-07
1.535000E+03  1.8792E-07
1.545000E+03  1.7534E-07
1.555000E+03  1.7366E-07
1.565000E+03  1.8802E-07
1.575000E+03  1.9726E-07
1.585000E+03  2.0237E-07
1.595000E+03  2.0134E-07
1.600000E+03  1.9953E-07
1.605000E+03  1.9800E-07
1.615000E+03  1.9488E-07
1.625000E+03  1.8955E-07
1.635000E+03  1.9807E-07
1.645000E+03  1.9791E-07
1.655000E+03  1.9035E-07
1.665000E+03  1.9713E-07
1.672000E+03  1.7961E-07
1.677000E+03  2.0292E-07
1.685000E+03  2.0332E-07
1.695000E+03  1.9277E-07
1.700000E+03  1.9005E-07
1.705000E+03  1.8732E-07
1.715000E+03  1.7547E-07
1.725000E+03  1.7226E-07
1.735000E+03  1.8084E-07
1.745000E+03  1.7743E-07
1.755000E+03  1.8232E-07
1.765000E+03  1.7292E-07
1.775000E+03  1.6855E-07
1.785000E+03  1.7256E-07
1.795000E+03  1.7789E-07
1.800000E+03  1.7769E-07
1.805000E+03  1.7738E-07
1.815000E+03  1.6184E-07
1.825000E+03  1.6494E-07
1.835000E+03  1.5952E-07
1.845000E+03  1.4727E-07
1.855000E+03  1.4596E-07
1.865000E+03  1.4876E-07
1.875000E+03  1.5732E-07
1.885000E+03  1.4437E-07
1.895000E+03  1.3925E-07
1.900000E+03  1.4309E-07
1.905000E+03  1.4704E-07
1.915000E+03  1.3880E-07
1.925000E+03  1.3360E-07
1.935000E+03  1.3802E-07
1.945000E+03  1.4325E-07
1.955000E+03  1.3185E-07
1.967000E+03  1.4412E-07
1.976000E+03  1.4631E-07
1.984000E+03  1.4040E-07
1.995000E+03  1.3638E-07
2.000000E+03  1.3816E-07
2.005000E+03  1.4116E-07
2.015000E+03  1.3755E-07
2.025000E+03  1.3900E-07
2.035000E+03  1.3340E-07
2.045000E+03  1.3793E-07
2.055000E+03  1.2640E-07
2.065000E+03  1.2757E-07
2.074000E+03  1.3965E-07
2.078000E+03  1.5240E-07
2.085000E+03  1.6924E-07
2.095000E+03  1.5973E-07
2.100000E+03  1.6087E-07
2.105000E+03  1.6215E-07
2.115000E+03  1.6912E-07
2.125000E+03  1.6294E-07
2.135000E+03  1.5917E-07
2.145000E+03  1.7288E-07
2.155000E+03  1.7339E-07
2.165000E+03  1.6658E-07
2.175000E+03  1.6547E-07
2.185000E+03  1.8044E-07
2.195000E+03  1.8344E-07
2.200000E+03  1.8281E-07
2.205000E+03  1.8221E-07
2.215000E+03  1.6161E-07
2.225000E+03  1.7432E-07
2.235000E+03  2.0637E-07
2.245000E+03  2.0134E-07
2.255000E+03  1.7979E-07
2.265000E+03  1.7029E-07
2.275000E+03  1.8389E-07
2.285000E+03  2.2184E-07
2.295000E+03  1.9456E-07
2.300000E+03  2.0426E-07
2.305000E+03  2.1511E-07
2.315000E+03  1.9702E-07
2.325000E+03  1.7553E-07
2.335000E+03  1.8228E-07
2.345000E+03  1.5053E-07
2.355000E+03  2.0319E-07
2.365000E+03  1.6165E-07
2.375000E+03  1.8295E-07
2.385000E+03  1.4558E-07
2.395000E+03  1.6560E-07
2.400000E+03  1.6761E-07
2.405000E+03  1.6981E-07
2.415000E+03  1.7202E-07
2.425000E+03  2.3159E-07
2.435000E+03  2.4053E-07
2.445000E+03  2.7609E-07
2.455000E+03  2.9240E-07
2.465000E+03  2.5325E-07
2.475000E+03  2.3516E-07
2.485000E+03  1.5500E-07
2.495000E+03  1.7930E-07
2.500000E+03  2.1592E-07
2.505000E+03  2.6210E-07
2.513000E+03  1.6030E-07
2.518000E+03  1.3656E-07
2.525000E+03  1.4543E-07
2.535000E+03  2.2147E-07
2.545000E+03  2.3466E-07
2.555000E+03  4.5710E-07
2.565000E+03  3.3305E-07
2.575000E+03  4.3679E-07
2.585000E+03  3.9740E-07
2.595000E+03  3.7045E-07
2.600000E+03  3.5401E-07
2.605000E+03  3.3887E-07
2.615000E+03  3.1041E-07
2.625000E+03  4.1315E-07
2.635000E+03  7.5875E-07
2.645000E+03  9.9928E-07
2.655000E+03  1.6365E-06
2.665000E+03  8.6265E-07
2.675000E+03  9.9438E-07
2.685000E+03  1.2284E-06
2.695000E+03  8.5145E-07
2.700000E+03  9.8983E-07
2.705000E+03  1.1535E-06
2.715000E+03  7.8622E-07
2.725000E+03  5.2963E-07
2.735000E+03  7.1757E-07
2.745000E+03  4.4715E-07
2.755000E+03  6.0248E-07
2.765000E+03  7.9587E-07
2.775000E+03  8.5059E-07
2.785000E+03  5.4487E-07
2.795000E+03  2.6027E-07
2.800000E+03  2.8542E-07
2.805000E+03  3.1385E-07
2.815000E+03  7.8598E-07
2.825000E+03  1.1128E-06
2.835000E+03  1.0542E-06
2.845000E+03  6.8012E-07
2.855000E+03  3.6502E-07
2.865000E+03  1.0321E-06
2.875000E+03  1.6906E-06
2.885000E+03  1.4972E-06
2.895000E+03  1.9855E-06
2.900000E+03  2.2467E-06
2.910000E+03  2.8828E-06
2.930000E+03  2.4759E-06
2.950000E+03  2.2477E-06
2.970000E+03  2.3822E-06
2.990000E+03  2.4265E-06
3.000000E+03  2.3792E-06
3.010000E+03  2.3346E-06
3.030000E+03  2.6574E-06
3.050000E+03  2.7154E-06
3.070000E+03  3.2049E-06
3.090000E+03  3.1547E-06
3.100000E+03  3.4926E-06
3.110000E+03  3.8822E-06
3.130000E+03  3.5289E-06
3.150000E+03  3.5992E-06
3.170000E+03  4.0141E-06
3.190000E+03  3.3296E-06
3.200000E+03  3.5206E-06
3.210000E+03  3.7235E-06
3.230000E+03  3.0099E-06
3.250000E+03  4.5806E-06
3.270000E+03  5.5069E-06
3.290000E+03  5.3583E-06
3.300000E+03  5.1611E-06
3.310000E+03  4.9761E-06
3.330000E+03  5.2242E-06
3.350000E+03  5.0649E-06
3.370000E+03  3.7087E-06
3.390000E+03  4.2136E-06
3.400000E+03  4.2526E-06
3.410000E+03  4.2934E-06
3.430000E+03  4.3619E-06
3.450000E+03  4.7961E-06
3.470000E+03  4.9879E-06
3.490000E+03  5.7400E-06
3.500000E+03  5.9261E-06
3.510000E+03  6.1246E-06
3.530000E+03  5.3064E-06
3.550000E+03  6.0993E-06
3.570000E+03  3.7634E-06
3.590000E+03  4.0542E-06
3.600000E+03  4.7098E-06
3.610000E+03  5.4899E-06
3.630000E+03  5.9991E-06
3.640000E+03  6.1673E-06
3.650000E+03  7.3492E-06
3.670000E+03  7.9779E-06
3.690000E+03  6.9132E-06
3.700000E+03  7.1247E-06
3.710000E+03  7.3716E-06
3.730000E+03  4.5470E-06
3.750000E+03  5.1908E-06
3.770000E+03  6.8725E-06
3.790000E+03  6.9641E-06
3.800000E+03  6.5705E-06
3.810000E+03  6.2105E-06
3.830000E+03  3.2893E-06
3.850000E+03  4.2909E-06
3.870000E+03  4.3834E-06
3.890000E+03  6.5483E-06
3.900000E+03  7.2816E-06
3.910000E+03  8.1148E-06
3.930000E+03  3.7931E-06
3.950000E+03  6.5759E-06
3.970000E+03  4.5697E-06
3.990000E+03  1.0947E-05
4.000000E+03  1.1685E-05
4.010000E+03  1.2500E-05
4.030000E+03  1.2416E-05
4.050000E+03  1.1796E-05
4.070000E+03  1.0802E-05
4.090000E+03  1.4120E-05
4.100000E+03  1.3654E-05
4.110000E+03  1.3257E-05
4.130000E+03  1.2370E-05
4.150000E+03  1.2077E-05
4.170000E+03  1.2312E-05
4.190000E+03  1.2158E-05
4.200000E+03  1.2381E-05
4.210000E+03  1.2636E-05
4.230000E+03  1.1808E-05
4.250000E+03  1.3322E-05
4.270000E+03  1.2341E-05
4.290000E+03  1.1459E-05
4.300000E+03  1.0717E-05
4.310000E+03  1.0059E-05
4.330000E+03  1.4956E-05
4.350000E+03  1.5091E-05
4.370000E+03  1.6632E-05
4.390000E+03  1.4152E-05
4.400000E+03  1.4592E-05
4.410000E+03  1.5054E-05
4.430000E+03  1.6186E-05
4.450000E+03  1.6458E-05
4.470000E+03  1.7937E-05
4.490000E+03  1.8372E-05
4.500000E+03  2.0026E-05
4.510000E+03  2.1846E-05
4.530000E+03  1.8251E-05
4.550000E+03  1.9319E-05
4.570000E+03  2.1306E-05
4.590000E+03  1.9936E-05
4.600000E+03  2.0098E-05
4.610000E+03  2.0264E-05
4.630000E+03  1.9520E-05
4.650000E+03  1.9855E-05
4.670000E+03  2.1134E-05
4.690000E+03  2.0608E-05
4.700000E+03  2.0197E-05
4.710000E+03  1.9802E-05
4.730000E+03  2.0865E-05
4.750000E+03  2.1654E-05
4.770000E+03  2.1326E-05
4.790000E+03  2.1314E-05
4.800000E+03  2.1279E-05
4.810000E+03  2.1252E-05
4.830000E+03  2.2316E-05
4.850000E+03  2.0753E-05
4.870000E+03  1.8717E-05
4.890000E+03  2.1227E-05
4.900000E+03  2.1240E-05
4.910000E+03  2.1258E-05
4.930000E+03  2.0763E-05
4.950000E+03  2.1909E-05
4.970000E+03  2.0909E-05
4.990000E+03  1.9016E-05
5.000000E+03  1.8327E-05
5.010000E+03  1.7667E-05
5.030000E+03  1.9196E-05
5.050000E+03  1.9278E-05
5.070000E+03  2.0475E-05
5.090000E+03  1.9006E-05
5.100000E+03  1.9401E-05
5.110000E+03  1.9814E-05
5.130000E+03  1.8956E-05
5.150000E+03  1.7983E-05
5.170000E+03  1.5480E-05
5.190000E+03  1.6285E-05
5.200000E+03  1.7312E-05
5.210000E+03  1.8410E-05
5.230000E+03  2.0328E-05
5.250000E+03  2.1693E-05
5.270000E+03  1.8432E-05
5.290000E+03  2.2253E-05
5.300000E+03  2.3231E-05
5.310000E+03  2.4258E-05
5.330000E+03  2.0277E-05
5.350000E+03  2.2993E-05
5.370000E+03  2.2938E-05
5.390000E+03  2.2185E-05
5.400000E+03  2.1998E-05
5.410000E+03  2.1816E-05
5.430000E+03  2.2256E-05
5.450000E+03  2.2864E-05
5.470000E+03  2.2113E-05
5.490000E+03  2.1893E-05
5.500000E+03  2.1885E-05
5.510000E+03  2.1880E-05
5.530000E+03  2.3029E-05
5.550000E+03  2.3628E-05
5.570000E+03  2.3179E-05
5.590000E+03  2.2018E-05
5.600000E+03  2.2649E-05
5.610000E+03  2.3311E-05
5.630000E+03  2.2899E-05
5.650000E+03  2.3410E-05
5.670000E+03  2.2881E-05
5.690000E+03  2.3980E-05
5.700000E+03  2.3532E-05
5.710000E+03  2.3103E-05
5.730000E+03  2.5811E-05
5.750000E+03  2.4227E-05
5.770000E+03  2.4782E-05
5.790000E+03  2.3422E-05
5.800000E+03  2.4160E-05
5.810000E+03  2.4927E-05
5.830000E+03  2.5953E-05
5.850000E+03  2.4678E-05
5.870000E+03  2.4641E-05
5.890000E+03  1.9553E-05
5.900000E+03  2.1581E-05
5.910000E+03  2.3940E-05
5.930000E+03  2.4413E-05
5.950000E+03  2.4448E-05
5.970000E+03  2.5010E-05
5.990000E+03  2.4439E-05
6.000000E+03  2.4292E-05
6.010000E+03  2.4153E-05
6.030000E+03  2.5201E-05
6.050000E+03  2.5819E-05
6.070000E+03  2.5905E-05
6.090000E+03  2.4575E-05
6.100000E+03  2.4680E-05
6.110000E+03  2.4789E-05
6.130000E+03  2.2883E-05
6.150000E+03  2.3545E-05
6.170000E+03  2.1892E-05
6.190000E+03  2.3775E-05
6.200000E+03  2.3625E-05
6.210000E+03  2.3478E-05
6.230000E+03  2.2430E-05
6.250000E+03  2.1580E-05
6.270000E+03  2.3007E-05
6.290000E+03  2.3795E-05
6.300000E+03  2.3347E-05
6.310000E+03  2.2918E-05
6.330000E+03  2.3454E-05
6.350000E+03  2.3305E-05
6.370000E+03  2.3243E-05
6.390000E+03  2.4344E-05
6.400000E+03  2.4074E-05
6.410000E+03  2.3809E-05
6.430000E+03  2.4021E-05
6.450000E+03  2.3886E-05
6.470000E+03  2.3837E-05
6.490000E+03  2.3389E-05
6.500000E+03  2.3933E-05
6.510000E+03  2.4493E-05
6.530000E+03  2.4363E-05
6.550000E+03  2.3945E-05
6.570000E+03  2.2808E-05
6.590000E+03  2.4022E-05
6.600000E+03  2.4175E-05
6.610000E+03  2.4329E-05
6.630000E+03  2.3758E-05
6.650000E+03  2.3672E-05
6.670000E+03  2.2920E-05
6.690000E+03  2.3373E-05
6.700000E+03  2.2732E-05
6.710000E+03  2.2113E-05
6.730000E+03  2.2982E-05
6.750000E+03  2.2437E-05
6.770000E+03  2.2645E-05
6.790000E+03  2.2218E-05
6.800000E+03  2.2376E-05
6.810000E+03  2.2538E-05
6.830000E+03  2.2935E-05
6.850000E+03  2.2201E-05
6.870000E+03  2.2799E-05
6.890000E+03  2.3280E-05
6.900000E+03  2.3285E-05
6.910000E+03  2.3300E-05
6.930000E+03  2.3074E-05
6.950000E+03  2.3168E-05
6.970000E+03  2.3604E-05
6.990000E+03  2.3501E-05
7.000000E+03  2.3283E-05
7.010000E+03  2.3082E-05
7.030000E+03  2.3646E-05
7.050000E+03  2.3212E-05
7.070000E+03  2.2171E-05
7.090000E+03  2.1284E-05
7.100000E+03  2.0925E-05
7.110000E+03  2.0588E-05
7.130000E+03  1.9925E-05
7.150000E+03  1.9899E-05
7.170000E+03  2.0276E-05
7.190000E+03  1.9772E-05
7.200000E+03  2.0202E-05
7.210000E+03  2.0646E-05
7.230000E+03  2.1217E-05
7.250000E+03  2.1580E-05
7.270000E+03  2.1761E-05
7.290000E+03  2.1437E-05
7.300000E+03  2.1946E-05
7.310000E+03  2.2495E-05
7.330000E+03  2.2538E-05
7.350000E+03  2.2888E-05
7.370000E+03  2.3827E-05
7.390000E+03  2.3075E-05
7.400000E+03  2.3135E-05
7.410000E+03  2.3207E-05
7.430000E+03  2.3912E-05
7.450000E+03  2.3754E-05
7.470000E+03  2.4340E-05
7.490000E+03  2.4268E-05
7.500000E+03  2.4427E-05
7.510000E+03  2.4589E-05
7.530000E+03  2.5310E-05
7.550000E+03  2.5547E-05
7.570000E+03  2.5403E-05
7.590000E+03  2.4170E-05
7.600000E+03  2.3887E-05
7.610000E+03  2.3628E-05
7.630000E+03  2.3199E-05
7.650000E+03  2.2526E-05
7.670000E+03  2.1113E-05
7.690000E+03  2.1873E-05
7.700000E+03  2.1665E-05
7.710000E+03  2.1464E-05
7.730000E+03  2.1447E-05
7.750000E+03  2.1277E-05
7.770000E+03  2.1757E-05
7.790000E+03  2.1885E-05
7.800000E+03  2.1848E-05
7.810000E+03  2.1815E-05
7.830000E+03  2.1813E-05
7.850000E+03  2.1433E-05
7.870000E+03  2.1811E-05
7.890000E+03  2.1550E-05
7.900000E+03  2.1215E-05
7.910000E+03  2.0891E-05
7.930000E+03  2.0966E-05
7.950000E+03  2.0783E-05
7.970000E+03  2.1610E-05
7.990000E+03  2.1548E-05
8.000000E+03  2.1718E-05
8.010000E+03  2.1908E-05
8.030000E+03  2.2073E-05
8.050000E+03  2.2045E-05
8.070000E+03  2.2517E-05
8.090000E+03  2.2381E-05
8.100000E+03  2.2532E-05
8.110000E+03  2.2687E-05
8.130000E+03  2.3714E-05
8.150000E+03  2.4342E-05
8.170000E+03  2.4822E-05
8.190000E+03  2.3321E-05
8.200000E+03  2.3198E-05
8.210000E+03  2.3212E-05
8.230000E+03  2.3354E-05
8.250000E+03  2.3395E-05
8.270000E+03  2.3474E-05
8.290000E+03  2.3127E-05
8.300000E+03  2.2635E-05
8.310000E+03  2.2156E-05
8.330000E+03  2.1931E-05
8.350000E+03  2.1949E-05
8.370000E+03  2.2186E-05
8.390000E+03  2.1298E-05
8.400000E+03  2.1790E-05
8.410000E+03  2.2298E-05
8.430000E+03  2.1239E-05
8.450000E+03  2.0601E-05
8.470000E+03  2.0543E-05
8.490000E+03  2.0535E-05
8.500000E+03  2.0056E-05
8.510000E+03  1.9592E-05
8.530000E+03  2.0153E-05
8.550000E+03  1.7618E-05
8.570000E+03  2.1382E-05
8.590000E+03  2.1026E-05
8.600000E+03  2.1197E-05
8.610000E+03  2.1375E-05
8.630000E+03  2.1852E-05
8.650000E+03  2.1584E-05
8.670000E+03  1.8471E-05
8.690000E+03  2.1092E-05
8.700000E+03  2.1634E-05
8.710000E+03  2.2198E-05
8.730000E+03  2.2462E-05
8.750000E+03  2.2318E-05
8.770000E+03  2.2872E-05
8.790000E+03  2.3372E-05
8.800000E+03  2.3119E-05
8.810000E+03  2.2873E-05
8.830000E+03  2.3097E-05
8.850000E+03  2.2969E-05
8.870000E+03  2.1806E-05
8.890000E+03  2.2009E-05
8.900000E+03  2.2198E-05
8.910000E+03  2.2384E-05
8.930000E+03  2.1977E-05
8.950000E+03  2.2193E-05
8.970000E+03  2.2304E-05
8.990000E+03  2.2303E-05
9.000000E+03  2.2049E-05
9.010000E+03  2.1810E-05
9.030000E+03  2.2989E-05
9.050000E+03  2.3984E-05
9.070000E+03  2.4090E-05
9.090000E+03  2.3804E-05
9.100000E+03  2.4107E-05
9.110000E+03  2.4423E-05
9.130000E+03  2.5015E-05
9.150000E+03  2.4833E-05
9.170000E+03  2.4834E-05
9.190000E+03  2.5276E-05
9.200000E+03  2.4600E-05
9.210000E+03  2.3950E-05
9.230000E+03  2.2850E-05
9.250000E+03  2.2662E-05
9.270000E+03  2.3105E-05
9.290000E+03  2.2507E-05
9.300000E+03  2.2552E-05
9.310000E+03  2.2600E-05
9.330000E+03  2.2838E-05
9.350000E+03  2.2751E-05
9.370000E+03  2.2229E-05
9.390000E+03  2.2793E-05
9.400000E+03  2.2595E-05
9.410000E+03  2.2402E-05
9.430000E+03  2.3204E-05
9.450000E+03  2.2819E-05
9.470000E+03  2.3663E-05
9.490000E+03  2.3765E-05
9.500000E+03  2.3363E-05
9.510000E+03  2.2972E-05
9.530000E+03  2.3352E-05
9.550000E+03  2.2922E-05
9.570000E+03  2.3243E-05
9.590000E+03  2.3698E-05
9.600000E+03  2.3465E-05
9.610000E+03  2.3230E-05
9.630000E+03  2.3478E-05
9.650000E+03  2.2821E-05
9.670000E+03  2.2878E-05
9.690000E+03  2.3366E-05
9.700000E+03  2.3034E-05
9.710000E+03  2.2718E-05
9.730000E+03  2.2361E-05
9.750000E+03  2.2389E-05
9.770000E+03  2.2643E-05
9.790000E+03  2.2239E-05
9.800000E+03  2.2704E-05
9.810000E+03  2.3203E-05
9.830000E+03  2.2892E-05
9.850000E+03  2.3179E-05
9.870000E+03  2.3030E-05
9.890000E+03  2.3050E-05
9.900000E+03  2.2743E-05
9.910000E+03  2.2472E-05
9.930000E+03  2.2935E-05
9.950000E+03  2.3168E-05
9.970000E+03  2.3236E-05
9.990000E+03  2.3196E-05
1.000000E+04  2.3316E-05
1.002500E+04  2.3651E-05
1.007500E+04  2.3377E-05
1.010000E+04  2.3773E-05
1.012500E+04  2.4190E-05
1.017500E+04  2.3983E-05
1.020000E+04  2.4232E-05
1.022500E+04  2.4497E-05
1.027500E+04  2.4870E-05
1.030000E+04  2.4890E-05
1.032500E+04  2.4917E-05
1.037500E+04  2.4827E-05
1.040000E+04  2.4976E-05
1.042500E+04  2.5135E-05
1.047500E+04  2.4308E-05
1.050000E+04  2.3777E-05
1.052500E+04  2.3302E-05
1.057500E+04  2.2217E-05
1.060000E+04  2.1984E-05
1.062500E+04  2.1745E-05
1.067500E+04  2.1918E-05
1.070000E+04  2.2235E-05
1.072500E+04  2.2564E-05
1.077500E+04  2.2760E-05
1.080000E+04  2.2579E-05
1.082500E+04  2.2415E-05
1.087500E+04  2.2388E-05
1.090000E+04  2.2359E-05
1.092500E+04  2.2323E-05
1.097500E+04  2.1909E-05
1.100000E+04  2.1629E-05
1.102500E+04  2.1381E-05
1.107500E+04  2.0521E-05
1.110000E+04  2.0604E-05
1.112500E+04  2.0686E-05
1.117500E+04  2.0672E-05
1.120000E+04  2.0736E-05
1.122500E+04  2.0806E-05
1.127500E+04  2.0740E-05
1.130000E+04  2.0784E-05
1.132500E+04  2.0831E-05
1.137500E+04  2.0641E-05
1.140000E+04  2.0565E-05
1.142500E+04  2.0473E-05
1.147500E+04  2.1088E-05
1.150000E+04  2.1151E-05
1.152500E+04  2.1205E-05
1.157500E+04  2.0962E-05
1.160000E+04  2.0764E-05
1.162500E+04  2.0565E-05
1.167500E+04  2.0638E-05
1.170000E+04  2.0624E-05
1.172500E+04  2.0629E-05
1.177500E+04  1.9681E-05
1.180000E+04  1.9485E-05
1.182500E+04  1.9306E-05
1.187500E+04  1.8700E-05
1.190000E+04  1.8929E-05
1.192500E+04  1.9150E-05
1.197500E+04  1.8393E-05
1.200000E+04  1.8767E-05
1.202500E+04  1.9149E-05
1.207500E+04  1.9191E-05
1.210000E+04  1.9265E-05
1.212500E+04  1.9363E-05
1.217500E+04  1.9523E-05
1.220000E+04  1.9501E-05
1.222500E+04  1.9469E-05
1.227500E+04  1.9360E-05
1.230000E+04  1.9299E-05
1.232500E+04  1.9222E-05
1.237500E+04  1.9212E-05
1.240000E+04  1.8872E-05
1.242500E+04  1.8535E-05
1.247500E+04  1.8440E-05
1.250000E+04  1.8369E-05
1.252500E+04  1.8293E-05
1.257500E+04  1.8240E-05
1.260000E+04  1.8190E-05
1.262500E+04  1.8122E-05
1.267500E+04  1.7992E-05
1.270000E+04  1.8040E-05
1.272500E+04  1.8080E-05
1.277500E+04  1.8122E-05
1.280000E+04  1.7786E-05
1.282500E+04  1.7460E-05
1.287500E+04  1.7869E-05
1.290000E+04  1.7765E-05
1.292500E+04  1.7653E-05
1.297500E+04  1.7960E-05
1.300000E+04  1.7880E-05
1.302500E+04  1.7801E-05
1.307500E+04  1.7820E-05
1.310000E+04  1.7493E-05
1.312500E+04  1.7189E-05
1.317500E+04  1.7219E-05
1.320000E+04  1.7194E-05
1.322500E+04  1.7157E-05
1.327500E+04  1.6734E-05
1.330000E+04  1.6677E-05
1.332500E+04  1.6624E-05
1.337500E+04  1.6425E-05
1.340000E+04  1.6402E-05
1.342500E+04  1.6368E-05
1.347500E+04  1.6118E-05
1.350000E+04  1.6022E-05
1.352500E+04  1.5928E-05
1.357500E+04  1.5560E-05
1.360000E+04  1.5499E-05
1.362500E+04  1.5420E-05
1.367500E+04  1.5628E-05
1.370000E+04  1.5688E-05
1.372500E+04  1.5744E-05
1.377500E+04  1.5737E-05
1.380000E+04  1.5746E-05
1.382500E+04  1.5750E-05
1.387500E+04  1.5514E-05
1.390000E+04  1.4798E-05
1.392500E+04  1.4203E-05
1.397500E+04  1.3993E-05
1.400000E+04  1.3911E-05
1.402500E+04  1.3826E-05
1.407500E+04  1.3936E-05
1.410000E+04  1.3829E-05
1.412500E+04  1.3726E-05
1.417500E+04  1.3867E-05
1.420000E+04  1.3778E-05
1.422500E+04  1.3703E-05
1.427500E+04  1.3466E-05
1.430000E+04  1.3642E-05
1.432500E+04  1.3839E-05
1.437500E+04  1.3959E-05
1.440000E+04  1.3805E-05
1.442500E+04  1.3638E-05
1.447500E+04  1.3961E-05
1.450000E+04  1.3892E-05
1.452500E+04  1.3821E-05
1.457000E+04  1.3971E-05
1.460000E+04  1.3668E-05
1.462000E+04  1.3471E-05
1.467500E+04  1.3350E-05
1.470000E+04  1.3292E-05
1.472500E+04  1.3256E-05
1.477500E+04  1.3393E-05
1.480000E+04  1.3455E-05
1.482500E+04  1.3531E-05
1.487500E+04  1.3466E-05
1.490000E+04  1.3685E-05
1.492500E+04  1.3929E-05
1.497500E+04  1.3853E-05
1.500000E+04  1.3704E-05
1.502500E+04  1.3556E-05
1.507500E+04  1.3807E-05
1.510000E+04  1.3970E-05
1.512500E+04  1.4127E-05
1.517500E+04  1.4244E-05
1.520000E+04  1.4267E-05
1.522500E+04  1.4266E-05
1.527500E+04  1.4479E-05
1.530000E+04  1.4463E-05
1.532500E+04  1.4453E-05
1.537500E+04  1.4401E-05
1.540000E+04  1.4357E-05
1.542500E+04  1.4305E-05
1.547500E+04  1.4338E-05
1.550000E+04  1.4302E-05
1.552500E+04  1.4264E-05
1.557500E+04  1.3813E-05
1.560000E+04  1.3777E-05
1.562500E+04  1.3737E-05
1.567500E+04  1.3828E-05
1.570000E+04  1.4022E-05
1.572500E+04  1.4223E-05
1.577500E+04  1.3257E-05
1.580000E+04  1.3143E-05
1.582500E+04  1.3062E-05
1.587500E+04  1.3239E-05
1.590000E+04  1.3535E-05
1.592500E+04  1.3823E-05
1.597500E+04  1.3468E-05
1.600000E+04  1.3401E-05
1.605000E+04  1.3279E-05
1.610000E+04  1.3524E-05
1.615000E+04  1.3796E-05
1.620000E+04  1.3476E-05
1.625000E+04  1.3165E-05
1.630000E+04  1.3542E-05
1.635000E+04  1.3930E-05
1.640000E+04  1.3563E-05
1.645000E+04  1.3206E-05
1.650000E+04  1.3534E-05
1.655000E+04  1.3878E-05
1.660000E+04  1.3735E-05
1.665000E+04  1.3567E-05
1.670000E+04  1.3636E-05
1.675000E+04  1.3697E-05
1.680000E+04  1.3674E-05
1.685000E+04  1.3686E-05
1.690000E+04  1.3733E-05
1.695000E+04  1.3771E-05
1.700000E+04  1.3737E-05
1.705000E+04  1.3699E-05
1.710000E+04  1.3542E-05
1.715000E+04  1.3378E-05
1.720000E+04  1.3293E-05
1.725000E+04  1.3214E-05
1.730000E+04  1.2994E-05
1.735000E+04  1.2779E-05
1.740000E+04  1.2636E-05
1.745000E+04  1.2497E-05
1.750000E+04  1.2338E-05
1.755000E+04  1.2213E-05
1.760000E+04  1.1998E-05
1.765000E+04  1.1780E-05
1.770000E+04  1.1530E-05
1.775000E+04  1.1314E-05
1.780000E+04  1.1159E-05
1.785000E+04  1.1023E-05
1.790000E+04  1.0755E-05
1.795000E+04  1.0533E-05
1.800000E+04  1.0376E-05
1.805000E+04  1.0171E-05
1.810000E+04  1.0092E-05
1.815000E+04  9.9932E-06
1.820000E+04  9.9085E-06
1.825000E+04  9.8004E-06
1.830000E+04  9.7179E-06
1.835000E+04  9.6311E-06
1.840000E+04  9.4907E-06
1.845000E+04  9.3915E-06
1.850000E+04  9.3381E-06
1.855000E+04  9.2448E-06
1.860000E+04  9.0702E-06
1.865000E+04  8.8966E-06
1.870000E+04  8.8416E-06
1.875000E+04  8.7289E-06
1.880000E+04  8.7096E-06
1.885000E+04  8.6886E-06
1.890000E+04  8.5558E-06
1.895000E+04  8.4517E-06
1.900000E+04  8.5395E-06
1.905000E+04  8.6231E-06
1.910000E+04  8.5420E-06
1.915000E+04  8.4679E-06
1.920000E+04  8.4449E-06
1.925000E+04  8.4309E-06
1.930000E+04  8.3407E-06
1.935000E+04  8.2406E-06
1.940000E+04  8.1335E-06
1.945000E+04  8.0457E-06
1.950000E+04  8.0185E-06
1.955000E+04  7.9905E-06
1.960000E+04  7.9094E-06
1.965000E+04  7.8122E-06
1.970000E+04  7.6841E-06
1.975000E+04  7.5371E-06
1.980000E+04  7.4696E-06
1.985000E+04  7.4168E-06
1.990000E+04  7.3997E-06
1.995000E+04  7.3706E-06
2.000000E+04  7.3602E-06
2.005000E+04  7.3777E-06
2.010000E+04  7.3513E-06
2.015000E+04  7.3179E-06
2.020000E+04  7.2377E-06
2.025000E+04  7.1548E-06
2.030000E+04  7.1309E-06
2.035000E+04  7.1167E-06
2.040000E+04  7.1237E-06
2.045000E+04  7.1480E-06
2.050000E+04  7.1200E-06
2.055000E+04  7.0889E-06
2.060000E+04  7.0534E-06
2.065000E+04  7.0266E-06
2.070000E+04  7.0267E-06
2.075000E+04  7.0225E-06
2.080000E+04  7.0136E-06
2.085000E+04  7.0186E-06
2.090000E+04  6.9813E-06
2.095000E+04  6.9300E-06
2.100000E+04  6.9461E-06
2.105000E+04  6.9703E-06
2.110000E+04  6.9423E-06
2.115000E+04  6.9037E-06
2.120000E+04  6.8851E-06
2.125000E+04  6.8838E-06
2.130000E+04  6.8816E-06
2.135000E+04  6.8836E-06
2.140000E+04  6.8635E-06
2.145000E+04  6.8352E-06
2.150000E+04  6.8133E-06
2.155000E+04  6.7860E-06
2.160000E+04  6.7391E-06
2.165000E+04  6.6967E-06
2.170000E+04  6.6469E-06
2.175000E+04  6.5996E-06
2.180000E+04  6.5840E-06
2.185000E+04  6.5620E-06
2.190000E+04  6.5317E-06
2.195000E+04  6.5040E-06
2.200000E+04  6.4063E-06
2.205000E+04  6.3152E-06
2.210000E+04  6.3400E-06
2.215000E+04  6.3709E-06
2.220000E+04  6.2983E-06
2.225000E+04  6.2280E-06
2.230000E+04  6.2097E-06
2.235000E+04  6.1817E-06
2.240000E+04  6.1484E-06
2.245000E+04  6.1217E-06
2.250000E+04  6.0865E-06
2.255000E+04  6.0486E-06
2.260000E+04  5.9773E-06
2.265000E+04  5.9196E-06
2.270000E+04  5.9218E-06
2.275000E+04  5.9141E-06
2.280000E+04  5.8454E-06
2.285000E+04  5.7840E-06
2.290000E+04  5.2610E-06
2.295000E+04  4.7953E-06
2.300000E+04  4.9321E-06
2.305000E+04  5.0706E-06
2.310000E+04  5.0936E-06
2.315000E+04  5.0947E-06
2.320000E+04  4.6713E-06
2.325000E+04  4.3205E-06
2.330000E+04  4.4975E-06
2.335000E+04  4.6444E-06
2.340000E+04  4.5073E-06
2.345000E+04  4.3957E-06
2.350000E+04  4.1716E-06
2.355000E+04  3.9740E-06
2.360000E+04  4.1050E-06
2.365000E+04  4.2550E-06
2.370000E+04  4.1558E-06
2.375000E+04  4.0488E-06
2.380000E+04  3.8781E-06
2.385000E+04  3.7154E-06
2.390000E+04  3.8219E-06
2.395000E+04  3.9129E-06
2.400000E+04  3.8339E-06
2.405000E+04  3.7591E-06
2.410000E+04  3.5921E-06
2.415000E+04  3.4356E-06
2.420000E+04  3.4560E-06
2.425000E+04  3.4874E-06
2.430000E+04  3.4101E-06
2.435000E+04  3.3346E-06
2.440000E+04  3.2468E-06
2.445000E+04  3.1503E-06
2.450000E+04  3.0943E-06
2.455000E+04  3.0443E-06
2.460000E+04  3.0189E-06
2.465000E+04  2.9951E-06
2.470000E+04  2.9295E-06
2.475000E+04  2.8648E-06
2.480000E+04  2.6661E-06
2.485000E+04  2.4929E-06
2.490000E+04  2.4297E-06
2.495000E+04  2.3747E-06
2.500000E+04  2.3847E-06
2.505000E+04  2.3974E-06
2.510000E+04  2.3389E-06
2.515000E+04  2.2858E-06
2.520000E+04  2.3104E-06
2.525000E+04  2.3376E-06
2.530000E+04  2.3363E-06
2.535000E+04  2.3338E-06
2.540000E+04  2.3212E-06
2.545000E+04  2.3128E-06
2.550000E+04  2.3182E-06
2.555000E+04  2.3214E-06
2.560000E+04  2.3351E-06
2.565000E+04  2.3496E-06
2.570000E+04  2.3650E-06
2.575000E+04  2.3825E-06
2.580000E+04  2.3593E-06
2.585000E+04  2.3357E-06
2.590000E+04  2.3428E-06
2.595000E+04  2.3562E-06
2.600000E+04  2.3659E-06
2.605000E+04  2.3731E-06
2.610000E+04  2.3610E-06
2.615000E+04  2.3403E-06
2.620000E+04  2.3214E-06
2.625000E+04  2.3066E-06
2.630000E+04  2.3179E-06
2.635000E+04  2.3190E-06
2.640000E+04  2.3051E-06
2.645000E+04  2.2886E-06
2.650000E+04  2.2822E-06
2.655000E+04  2.2798E-06
2.660000E+04  2.2788E-06
2.665000E+04  2.2624E-06
2.670000E+04  2.2670E-06
2.675000E+04  2.2662E-06
2.680000E+04  2.2470E-06
2.685000E+04  2.2281E-06
2.690000E+04  2.2074E-06
2.695000E+04  2.1960E-06
2.700000E+04  2.2003E-06
2.705000E+04  2.1903E-06
2.710000E+04  2.1682E-06
2.715000E+04  2.1614E-06
2.720000E+04  2.1731E-06
2.725000E+04  2.1713E-06
2.730000E+04  2.1559E-06
2.735000E+04  2.1337E-06
2.740000E+04  2.1449E-06
2.745000E+04  2.1485E-06
2.750000E+04  2.1337E-06
2.755000E+04  2.1149E-06
2.760000E+04  2.0927E-06
2.765000E+04  2.0810E-06
2.770000E+04  2.0697E-06
2.775000E+04  2.0600E-06
2.780000E+04  2.0614E-06
2.785000E+04  2.0631E-06
2.790000E+04  2.0531E-06
2.795000E+04  2.0577E-06
2.800000E+04  2.0346E-06
2.805000E+04  2.0246E-06
2.810000E+04  1.9988E-06
2.815000E+04  1.9932E-06
2.820000E+04  1.9888E-06
2.825000E+04  1.9854E-06
2.830000E+04  1.9789E-06
2.835000E+04  1.9540E-06
2.840000E+04  1.9231E-06
2.845000E+04  1.8961E-06
2.850000E+04  1.9002E-06
2.855000E+04  1.9122E-06
2.860000E+04  1.9135E-06
2.865000E+04  1.9060E-06
2.870000E+04  1.8837E-06
2.875000E+04  1.8787E-06
2.880000E+04  1.8726E-06
2.885000E+04  1.8529E-06
2.890000E+04  1.8375E-06
2.895000E+04  1.8206E-06
2.900000E+04  1.8290E-06
2.905000E+04  1.8237E-06
2.910000E+04  1.8099E-06
2.915000E+04  1.7919E-06
2.920000E+04  1.7681E-06
2.925000E+04  1.7473E-06
2.930000E+04  1.7512E-06
2.935000E+04  1.7406E-06
2.940000E+04  1.7295E-06
2.945000E+04  1.7149E-06
2.950000E+04  1.7026E-06
2.955000E+04  1.6941E-06
2.960000E+04  1.6871E-06
2.965000E+04  1.6797E-06
2.970000E+04  1.6719E-06
2.975000E+04  1.6631E-06
2.980000E+04  1.6532E-06
2.985000E+04  1.6412E-06
2.990000E+04  1.6323E-06
2.995000E+04  1.6255E-06
3.000000E+04  1.6204E-06
3.005000E+04  1.6149E-06
3.010000E+04  1.6128E-06
3.015000E+04  1.6094E-06
3.020000E+04  1.6032E-06
3.025000E+04  1.5972E-06
3.030000E+04  1.5917E-06
3.035000E+04  1.5865E-06
3.040000E+04  1.5851E-06
3.045000E+04  1.5839E-06
3.050000E+04  1.5792E-06
3.055000E+04  1.5748E-06
3.060000E+04  1.5721E-06
3.065000E+04  1.5686E-06
3.070000E+04  1.5670E-06
3.075000E+04  1.5657E-06
3.080000E+04  1.5600E-06
3.085000E+04  1.5548E-06
3.090000E+04  1.5536E-06
3.095000E+04  1.5523E-06
3.100000E+04  1.5519E-06
3.105000E+04  1.5514E-06
3.110000E+04  1.5433E-06
3.115000E+04  1.5345E-06
3.120000E+04  1.5343E-06
3.125000E+04  1.5342E-06
3.130000E+04  1.5303E-06
3.135000E+04  1.5270E-06
3.140000E+04  1.5230E-06
3.145000E+04  1.5193E-06
3.150000E+04  1.5146E-06
3.155000E+04  1.5098E-06
3.160000E+04  1.5046E-06
3.165000E+04  1.4991E-06
3.170000E+04  1.4979E-06
3.175000E+04  1.4969E-06
3.180000E+04  1.4946E-06
3.185000E+04  1.4926E-06
3.190000E+04  1.4923E-06
3.195000E+04  1.4917E-06
3.200000E+04  1.4889E-06
3.210000E+04  1.4825E-06
3.220000E+04  1.4761E-06
3.230000E+04  1.4708E-06
3.240000E+04  1.4673E-06
3.250000E+04  1.4645E-06
3.260000E+04  1.4578E-06
3.270000E+04  1.4511E-06
3.280000E+04  1.4436E-06
3.290000E+04  1.4367E-06
3.300000E+04  1.4325E-06
3.310000E+04  1.4276E-06
3.320000E+04  1.4226E-06
3.330000E+04  1.4182E-06
3.340000E+04  1.4162E-06
3.350000E+04  1.4166E-06
3.360000E+04  1.4086E-06
3.370000E+04  1.3968E-06
3.380000E+04  1.3931E-06
3.390000E+04  1.3867E-06
3.400000E+04  1.3784E-06
3.410000E+04  1.3758E-06
3.420000E+04  1.3705E-06
3.430000E+04  1.3744E-06
3.440000E+04  1.3702E-06
3.450000E+04  1.3551E-06
3.460000E+04  1.3400E-06
3.470000E+04  1.3361E-06
3.480000E+04  1.3247E-06
3.490000E+04  1.3094E-06
3.500000E+04  1.3008E-06
3.510000E+04  1.2999E-06
3.520000E+04  1.2843E-06
3.530000E+04  1.2780E-06
3.540000E+04  1.2605E-06
3.550000E+04  1.2483E-06
3.560000E+04  1.2428E-06
3.570000E+04  1.2371E-06
3.580000E+04  1.2257E-06
3.590000E+04  1.2138E-06
3.600000E+04  1.2104E-06
3.610000E+04  1.2014E-06
3.620000E+04  1.1893E-06
3.630000E+04  1.1725E-06
3.640000E+04  1.1628E-06
3.650000E+04  1.1502E-06
3.660000E+04  1.1394E-06
3.670000E+04  1.1315E-06
3.680000E+04  1.1182E-06
3.690000E+04  1.1055E-06
3.700000E+04  1.0921E-06
3.710000E+04  1.0817E-06
3.720000E+04  1.0739E-06
3.730000E+04  1.0654E-06
3.740000E+04  1.0523E-06
3.750000E+04  1.0406E-06
3.760000E+04  1.0332E-06
3.770000E+04  1.0262E-06
3.780000E+04  1.0160E-06
3.790000E+04  1.0068E-06
3.800000E+04  9.9812E-07
3.810000E+04  9.8899E-07
3.820000E+04  9.8091E-07
3.830000E+04  9.7346E-07
3.840000E+04  9.6566E-07
3.850000E+04  9.5747E-07
3.860000E+04  9.4751E-07
3.870000E+04  9.3783E-07
3.880000E+04  9.2974E-07
3.890000E+04  9.2150E-07
3.900000E+04  9.1387E-07
3.910000E+04  9.0646E-07
3.920000E+04  8.9870E-07
3.930000E+04  8.9111E-07
3.940000E+04  8.8171E-07
3.950000E+04  8.7263E-07
3.960000E+04  8.6508E-07
3.970000E+04  8.5813E-07
3.980000E+04  8.4740E-07
3.990000E+04  8.3729E-07
4.000000E+04  8.3185E-07
4.010000E+04  8.2687E-07
4.020000E+04  8.2003E-07
4.030000E+04  8.1427E-07
4.040000E+04  8.0739E-07
4.050000E+04  7.9984E-07
4.060000E+04  7.9321E-07
4.070000E+04  7.8626E-07
4.080000E+04  7.8135E-07
4.090000E+04  7.7596E-07
4.100000E+04  7.7153E-07
4.110000E+04  7.6578E-07
4.120000E+04  7.6036E-07
4.130000E+04  7.5417E-07
4.140000E+04  7.4544E-07
4.150000E+04  7.3855E-07
4.160000E+04  7.3246E-07
4.170000E+04  7.2987E-07
4.180000E+04  7.2418E-07
4.190000E+04  7.1924E-07
4.200000E+04  7.1112E-07
4.210000E+04  7.0523E-07
4.220000E+04  7.0279E-07
4.230000E+04  7.0026E-07
4.240000E+04  6.9558E-07
4.250000E+04  6.8853E-07
4.260000E+04  6.8359E-07
4.270000E+04  6.7957E-07
4.280000E+04  6.6428E-07
4.290000E+04  6.5018E-07
4.300000E+04  6.3190E-07
4.310000E+04  6.1608E-07
4.320000E+04  6.1660E-07
4.330000E+04  6.1351E-07
4.340000E+04  5.9879E-07
4.350000E+04  5.8589E-07
4.360000E+04  5.7730E-07
4.370000E+04  5.7232E-07
4.380000E+04  5.6503E-07
4.390000E+04  5.6005E-07
4.400000E+04  5.5207E-07
4.410000E+04  5.4720E-07
4.420000E+04  5.4174E-07
4.430000E+04  5.3450E-07
4.440000E+04  5.3201E-07
4.450000E+04  5.2493E-07
4.460000E+04  5.2068E-07
4.470000E+04  5.1616E-07
4.480000E+04  5.1168E-07
4.490000E+04  5.0947E-07
4.500000E+04  5.0575E-07
4.510000E+04  5.0206E-07
4.520000E+04  4.9679E-07
4.530000E+04  4.9250E-07
4.540000E+04  4.8718E-07
4.550000E+04  4.8219E-07
4.560000E+04  4.7673E-07
4.570000E+04  4.7253E-07
4.580000E+04  4.6690E-07
4.590000E+04  4.6063E-07
4.600000E+04  4.5986E-07
4.610000E+04  4.5927E-07
4.620000E+04  4.5532E-07
4.630000E+04  4.5234E-07
4.640000E+04  4.4965E-07
4.650000E+04  4.4671E-07
4.660000E+04  4.4575E-07
4.670000E+04  4.4440E-07
4.680000E+04  4.3856E-07
4.690000E+04  4.3368E-07
4.700000E+04  4.3080E-07
4.710000E+04  4.2765E-07
4.720000E+04  4.2756E-07
4.730000E+04  4.2792E-07
4.740000E+04  4.2234E-07
4.750000E+04  4.1703E-07
4.760000E+04  4.1586E-07
4.770000E+04  4.1417E-07
4.780000E+04  4.1165E-07
4.790000E+04  4.0927E-07
4.800000E+04  4.0361E-07
4.810000E+04  3.9866E-07
4.820000E+04  3.9930E-07
4.830000E+04  4.0007E-07
4.840000E+04  3.9531E-07
4.850000E+04  3.9025E-07
4.860000E+04  3.8716E-07
4.870000E+04  3.8410E-07
4.880000E+04  3.8102E-07
4.890000E+04  3.7847E-07
4.900000E+04  3.7533E-07
4.910000E+04  3.7188E-07
4.920000E+04  3.7111E-07
4.930000E+04  3.7025E-07
4.940000E+04  3.6577E-07
4.950000E+04  3.6190E-07
4.960000E+04  3.6102E-07
4.970000E+04  3.5991E-07
4.980000E+04  3.5572E-07
4.990000E+04  3.5306E-07
5.000000E+04  3.5079E-07
5.010000E+04  3.4848E-07
5.020000E+04  3.4623E-07
5.030000E+04  3.4347E-07
5.040000E+04  3.4023E-07
5.050000E+04  3.3716E-07
5.060000E+04  3.3530E-07
5.070000E+04  3.3342E-07
5.080000E+04  3.3140E-07
5.090000E+04  3.2938E-07
5.100000E+04  3.2728E-07
5.110000E+04  3.2483E-07
5.120000E+04  3.2342E-07
5.130000E+04  3.2159E-07
5.140000E+04  3.1899E-07
5.150000E+04  3.1659E-07
5.160000E+04  3.1532E-07
5.170000E+04  3.1386E-07
5.180000E+04  3.1132E-07
5.190000E+04  3.0910E-07
5.200000E+04  3.0739E-07
5.210000E+04  3.0522E-07
5.220000E+04  3.0291E-07
5.230000E+04  3.0084E-07
5.240000E+04  2.9978E-07
5.250000E+04  2.9817E-07
5.260000E+04  2.9708E-07
5.270000E+04  2.9616E-07
5.280000E+04  2.9386E-07
5.290000E+04  2.9143E-07
5.300000E+04  2.8955E-07
5.310000E+04  2.8769E-07
5.320000E+04  2.8637E-07
5.330000E+04  2.8489E-07
5.340000E+04  2.8313E-07
5.350000E+04  2.8133E-07
5.360000E+04  2.7983E-07
5.370000E+04  2.7841E-07
5.380000E+04  2.7687E-07
5.390000E+04  2.7531E-07
5.400000E+04  2.7379E-07
5.410000E+04  2.7229E-07
5.420000E+04  2.7038E-07
5.430000E+04  2.6834E-07
5.440000E+04  2.6712E-07
5.450000E+04  2.6591E-07
5.460000E+04  2.6386E-07
5.470000E+04  2.6185E-07
5.480000E+04  2.6046E-07
5.490000E+04  2.5899E-07
5.500000E+04  2.5719E-07
5.510000E+04  2.5542E-07
5.520000E+04  2.5477E-07
5.530000E+04  2.5433E-07
5.540000E+04  2.5138E-07
5.550000E+04  2.4907E-07
5.560000E+04  2.4852E-07
5.570000E+04  2.4781E-07
5.580000E+04  2.4586E-07
5.590000E+04  2.4380E-07
5.600000E+04  2.4278E-07
5.610000E+04  2.4163E-07
5.620000E+04  2.3952E-07
5.630000E+04  2.3769E-07
5.640000E+04  2.3677E-07
5.650000E+04  2.3582E-07
5.660000E+04  2.3436E-07
5.670000E+04  2.3280E-07
5.680000E+04  2.3101E-07
5.690000E+04  2.2922E-07
5.700000E+04  2.2823E-07
5.710000E+04  2.2723E-07
5.720000E+04  2.2580E-07
5.730000E+04  2.2449E-07
5.740000E+04  2.2312E-07
5.750000E+04  2.2165E-07
5.760000E+04  2.2003E-07
5.770000E+04  2.1870E-07
5.780000E+04  2.1792E-07
5.790000E+04  2.1714E-07
5.800000E+04  2.1564E-07
5.810000E+04  2.1424E-07
5.820000E+04  2.1315E-07
5.830000E+04  2.1207E-07
5.840000E+04  2.1097E-07
5.850000E+04  2.0963E-07
5.860000E+04  2.0821E-07
5.870000E+04  2.0692E-07
5.880000E+04  2.0566E-07
5.890000E+04  2.0447E-07
5.900000E+04  2.0331E-07
5.910000E+04  2.0213E-07
5.920000E+04  2.0085E-07
5.930000E+04  1.9959E-07
5.940000E+04  1.9816E-07
5.950000E+04  1.9698E-07
5.960000E+04  1.9611E-07
5.970000E+04  1.9520E-07
5.980000E+04  1.9401E-07
5.990000E+04  1.9279E-07
6.000000E+04  1.9156E-07
6.010000E+04  1.9035E-07
6.020000E+04  1.8926E-07
6.030000E+04  1.8824E-07
6.040000E+04  1.8716E-07
6.050000E+04  1.8610E-07
6.060000E+04  1.8519E-07
6.070000E+04  1.8424E-07
6.080000E+04  1.8313E-07
6.090000E+04  1.8203E-07
6.100000E+04  1.8089E-07
6.110000E+04  1.7967E-07
6.120000E+04  1.7869E-07
6.130000E+04  1.7773E-07
6.140000E+04  1.7673E-07
6.150000E+04  1.7574E-07
6.160000E+04  1.7477E-07
6.170000E+04  1.7371E-07
6.180000E+04  1.7257E-07
6.190000E+04  1.7144E-07
6.200000E+04  1.7044E-07
6.210000E+04  1.6954E-07
6.220000E+04  1.6851E-07
6.230000E+04  1.6749E-07
6.240000E+04  1.6653E-07
6.250000E+04  1.6559E-07
6.260000E+04  1.6456E-07
6.270000E+04  1.6352E-07
6.280000E+04  1.6253E-07
6.290000E+04  1.6156E-07
6.300000E+04  1.6052E-07
6.310000E+04  1.5957E-07
6.320000E+04  1.5884E-07
6.330000E+04  1.5813E-07
6.340000E+04  1.5728E-07
6.350000E+04  1.5643E-07
6.360000E+04  1.5574E-07
6.370000E+04  1.5500E-07
6.380000E+04  1.5399E-07
6.390000E+04  1.5292E-07
6.400000E+04  1.5197E-07
6.410000E+04  1.5101E-07
6.420000E+04  1.5012E-07
6.430000E+04  1.4921E-07
6.440000E+04  1.4837E-07
6.450000E+04  1.4751E-07
6.460000E+04  1.4665E-07
6.470000E+04  1.4577E-07
6.480000E+04  1.4495E-07
6.490000E+04  1.4427E-07
6.500000E+04  1.4354E-07
6.510000E+04  1.4279E-07
6.520000E+04  1.4200E-07
6.530000E+04  1.4120E-07
6.540000E+04  1.4040E-07
6.550000E+04  1.3962E-07
6.560000E+04  1.3884E-07
6.570000E+04  1.3797E-07
6.580000E+04  1.3710E-07
6.590000E+04  1.3626E-07
6.600000E+04  1.3545E-07
6.610000E+04  1.3467E-07
6.620000E+04  1.3394E-07
6.630000E+04  1.3325E-07
6.640000E+04  1.3258E-07
6.650000E+04  1.3192E-07
6.660000E+04  1.3128E-07
6.670000E+04  1.3064E-07
6.680000E+04  1.3002E-07
6.690000E+04  1.2933E-07
6.700000E+04  1.2858E-07
6.710000E+04  1.2783E-07
6.720000E+04  1.2709E-07
6.730000E+04  1.2643E-07
6.740000E+04  1.2577E-07
6.750000E+04  1.2508E-07
6.760000E+04  1.2438E-07
6.770000E+04  1.2363E-07
6.780000E+04  1.2296E-07
6.790000E+04  1.2236E-07
6.800000E+04  1.2174E-07
6.810000E+04  1.2112E-07
6.820000E+04  1.2044E-07
6.830000E+04  1.1977E-07
6.840000E+04  1.1916E-07
6.850000E+04  1.1855E-07
6.860000E+04  1.1797E-07
6.870000E+04  1.1734E-07
6.880000E+04  1.1663E-07
6.890000E+04  1.1592E-07
6.900000E+04  1.1519E-07
6.910000E+04  1.1452E-07
6.920000E+04  1.1393E-07
6.930000E+04  1.1334E-07
6.940000E+04  1.1276E-07
6.950000E+04  1.1215E-07
6.960000E+04  1.1153E-07
6.970000E+04  1.1096E-07
6.980000E+04  1.1042E-07
6.990000E+04  1.0987E-07
7.000000E+04  1.0932E-07
7.010000E+04  1.0875E-07
7.020000E+04  1.0817E-07
7.030000E+04  1.0759E-07
7.040000E+04  1.0701E-07
7.050000E+04  1.0646E-07
7.060000E+04  1.0593E-07
7.070000E+04  1.0539E-07
7.080000E+04  1.0486E-07
7.090000E+04  1.0432E-07
7.100000E+04  1.0379E-07
7.110000E+04  1.0325E-07
7.120000E+04  1.0272E-07
7.130000E+04  1.0221E-07
7.140000E+04  1.0169E-07
7.150000E+04  1.0119E-07
7.160000E+04  1.0069E-07
7.170000E+04  1.0020E-07
7.180000E+04  9.9706E-08
7.190000E+04  9.9225E-08
7.200000E+04  9.8749E-08
7.210000E+04  9.8284E-08
7.220000E+04  9.7829E-08
7.230000E+04  9.7365E-08
7.240000E+04  9.6900E-08
7.250000E+04  9.6427E-08
7.260000E+04  9.5940E-08
7.270000E+04  9.5451E-08
7.280000E+04  9.4935E-08
7.290000E+04  9.4434E-08
7.300000E+04  9.4002E-08
7.310000E+04  9.3564E-08
7.320000E+04  9.3076E-08
7.330000E+04  9.2592E-08
7.340000E+04  9.2074E-08
7.350000E+04  9.1562E-08
7.360000E+04  9.1095E-08
7.370000E+04  9.0650E-08
7.380000E+04  9.0215E-08
7.390000E+04  8.9770E-08
7.400000E+04  8.9317E-08
7.410000E+04  8.8848E-08
7.420000E+04  8.8384E-08
7.430000E+04  8.7950E-08
7.440000E+04  8.7518E-08
7.450000E+04  8.7170E-08
7.460000E+04  8.6829E-08
7.470000E+04  8.6412E-08
7.480000E+04  8.5966E-08
7.490000E+04  8.5549E-08
7.500000E+04  8.5161E-08
7.510000E+04  8.4761E-08
7.520000E+04  8.4349E-08
7.530000E+04  8.3940E-08
7.540000E+04  8.3533E-08
7.550000E+04  8.3145E-08
7.560000E+04  8.2679E-08
7.570000E+04  8.2188E-08
7.580000E+04  8.1749E-08
7.590000E+04  8.1362E-08
7.600000E+04  8.0976E-08
7.610000E+04  8.0578E-08
7.620000E+04  8.0183E-08
7.630000E+04  7.9775E-08
7.640000E+04  7.9365E-08
7.650000E+04  7.8943E-08
7.660000E+04  7.8507E-08
7.670000E+04  7.8086E-08
7.680000E+04  7.7773E-08
7.690000E+04  7.7464E-08
7.700000E+04  7.7134E-08
7.710000E+04  7.6806E-08
7.720000E+04  7.6467E-08
7.730000E+04  7.6109E-08
7.740000E+04  7.5752E-08
7.750000E+04  7.5377E-08
7.760000E+04  7.5004E-08
7.770000E+04  7.4671E-08
7.780000E+04  7.4365E-08
7.790000E+04  7.4046E-08
7.800000E+04  7.3666E-08
7.810000E+04  7.3288E-08
7.820000E+04  7.2902E-08
7.830000E+04  7.2518E-08
7.840000E+04  7.2147E-08
7.850000E+04  7.1802E-08
7.860000E+04  7.1458E-08
7.870000E+04  7.1123E-08
7.880000E+04  7.0791E-08
7.890000E+04  7.0468E-08
7.900000E+04  7.0162E-08
7.910000E+04  6.9857E-08
7.920000E+04  6.9562E-08
7.930000E+04  6.9270E-08
7.940000E+04  6.8971E-08
7.950000E+04  6.8660E-08
7.960000E+04  6.8350E-08
7.970000E+04  6.8029E-08
7.980000E+04  6.7707E-08
7.990000E+04  6.7387E-08
8.000000E+04  6.7094E-08
8.010000E+04  6.6802E-08
8.020000E+04  6.6469E-08
8.030000E+04  6.6127E-08
8.040000E+04  6.5793E-08
8.050000E+04  6.5492E-08
8.060000E+04  6.5192E-08
8.070000E+04  6.4903E-08
8.080000E+04  6.4617E-08
8.090000E+04  6.4333E-08
8.100000E+04  6.4039E-08
8.110000E+04  6.3737E-08
8.120000E+04  6.3437E-08
8.130000E+04  6.3139E-08
8.140000E+04  6.2843E-08
8.150000E+04  6.2565E-08
8.160000E+04  6.2292E-08
8.170000E+04  6.2021E-08
8.180000E+04  6.1730E-08
8.190000E+04  6.1437E-08
8.200000E+04  6.1140E-08
8.210000E+04  6.0835E-08
8.220000E+04  6.0533E-08
8.230000E+04  6.0252E-08
8.240000E+04  5.9986E-08
8.250000E+04  5.9721E-08
8.260000E+04  5.9455E-08
8.270000E+04  5.9191E-08
8.280000E+04  5.8929E-08
8.290000E+04  5.8671E-08
8.300000E+04  5.8415E-08
8.310000E+04  5.8153E-08
8.320000E+04  5.7889E-08
8.330000E+04  5.7626E-08
8.340000E+04  5.7387E-08
8.350000E+04  5.7162E-08
8.360000E+04  5.6939E-08
8.370000E+04  5.6685E-08
8.380000E+04  5.6429E-08
8.390000E+04  5.6181E-08
8.400000E+04  5.5937E-08
8.410000E+04  5.5696E-08
8.420000E+04  5.5454E-08
8.430000E+04  5.5205E-08
8.440000E+04  5.4957E-08
8.450000E+04  5.4714E-08
8.460000E+04  5.4477E-08
8.470000E+04  5.4243E-08
8.480000E+04  5.4006E-08
8.490000E+04  5.3766E-08
8.500000E+04  5.3528E-08
8.510000E+04  5.3304E-08
8.520000E+04  5.3089E-08
8.530000E+04  5.2875E-08
8.540000E+04  5.2658E-08
8.550000E+04  5.2441E-08
8.560000E+04  5.2225E-08
8.570000E+04  5.2004E-08
8.580000E+04  5.1784E-08
8.590000E+04  5.1564E-08
8.600000E+04  5.1346E-08
8.610000E+04  5.1129E-08
8.620000E+04  5.0913E-08
8.630000E+04  5.0700E-08
8.640000E+04  5.0487E-08
8.650000E+04  5.0276E-08
8.660000E+04  5.0060E-08
8.670000E+04  4.9844E-08
8.680000E+04  4.9629E-08
8.690000E+04  4.9424E-08
8.700000E+04  4.9220E-08
8.710000E+04  4.9017E-08
8.720000E+04  4.8823E-08
8.730000E+04  4.8630E-08
8.740000E+04  4.8438E-08
8.750000E+04  4.8248E-08
8.760000E+04  4.8059E-08
8.770000E+04  4.7871E-08
8.780000E+04  4.7691E-08
8.790000E+04  4.7512E-08
8.800000E+04  4.7335E-08
8.810000E+04  4.7160E-08
8.820000E+04  4.6987E-08
8.830000E+04  4.6817E-08
8.840000E+04  4.6629E-08
8.850000E+04  4.6429E-08
8.860000E+04  4.6231E-08
8.870000E+04  4.6042E-08
8.880000E+04  4.5866E-08
8.890000E+04  4.5690E-08
8.900000E+04  4.5508E-08
8.910000E+04  4.5313E-08
8.920000E+04  4.5120E-08
8.930000E+04  4.4928E-08
8.940000E+04  4.4741E-08
8.950000E+04  4.4547E-08
8.960000E+04  4.4354E-08
8.970000E+04  4.4164E-08
8.980000E+04  4.3976E-08
8.990000E+04  4.3799E-08
9.000000E+04  4.3634E-08
9.010000E+04  4.3474E-08
9.020000E+04  4.3314E-08
9.030000E+04  4.3133E-08
9.040000E+04  4.2934E-08
9.050000E+04  4.2736E-08
9.060000E+04  4.2544E-08
9.070000E+04  4.2363E-08
9.080000E+04  4.2183E-08
9.090000E+04  4.2004E-08
9.100000E+04  4.1816E-08
9.110000E+04  4.1637E-08
9.120000E+04  4.1459E-08
9.130000E+04  4.1286E-08
9.140000E+04  4.1117E-08
9.150000E+04  4.0944E-08
9.160000E+04  4.0775E-08
9.170000E+04  4.0612E-08
9.180000E+04  4.0451E-08
9.190000E+04  4.0293E-08
9.200000E+04  4.0149E-08
9.210000E+04  4.0007E-08
9.220000E+04  3.9867E-08
9.230000E+04  3.9730E-08
9.240000E+04  3.9602E-08
9.250000E+04  3.9475E-08
9.260000E+04  3.9347E-08
9.270000E+04  3.9207E-08
9.280000E+04  3.9068E-08
9.290000E+04  3.8930E-08
9.300000E+04  3.8770E-08
9.310000E+04  3.8596E-08
9.320000E+04  3.8423E-08
9.330000E+04  3.8253E-08
9.340000E+04  3.8090E-08
9.350000E+04  3.7929E-08
9.360000E+04  3.7770E-08
9.370000E+04  3.7614E-08
9.380000E+04  3.7462E-08
9.390000E+04  3.7310E-08
9.400000E+04  3.7159E-08
9.410000E+04  3.7003E-08
9.420000E+04  3.6848E-08
9.430000E+04  3.6692E-08
9.440000E+04  3.6549E-08
9.450000E+04  3.6415E-08
9.460000E+04  3.6282E-08
9.470000E+04  3.6151E-08
9.480000E+04  3.6038E-08
9.490000E+04  3.5926E-08
9.500000E+04  3.5815E-08
9.510000E+04  3.5693E-08
9.520000E+04  3.5556E-08
9.530000E+04  3.5420E-08
9.540000E+04  3.5284E-08
9.550000E+04  3.5141E-08
9.560000E+04  3.4997E-08
9.570000E+04  3.4854E-08
9.580000E+04  3.4714E-08
9.590000E+04  3.4589E-08
9.600000E+04  3.4464E-08
9.610000E+04  3.4341E-08
9.620000E+04  3.4208E-08
9.630000E+04  3.4067E-08
9.640000E+04  3.3926E-08
9.650000E+04  3.3786E-08
9.660000E+04  3.3635E-08
9.670000E+04  3.3481E-08
9.680000E+04  3.3328E-08
9.690000E+04  3.3177E-08
9.700000E+04  3.3073E-08
9.710000E+04  3.2964E-08
9.720000E+04  3.2857E-08
9.730000E+04  3.2749E-08
9.740000E+04  3.2641E-08
9.750000E+04  3.2540E-08
9.760000E+04  3.2440E-08
9.770000E+04  3.2330E-08
9.780000E+04  3.2207E-08
9.790000E+04  3.2084E-08
9.800000E+04  3.1962E-08
9.810000E+04  3.1846E-08
9.820000E+04  3.1733E-08
9.830000E+04  3.1618E-08
9.840000E+04  3.1504E-08
9.850000E+04  3.1402E-08
9.860000E+04  3.1304E-08
9.870000E+04  3.1208E-08
9.880000E+04  3.1113E-08
9.890000E+04  3.0994E-08
9.900000E+04  3.0871E-08
9.910000E+04  3.0747E-08
9.920000E+04  3.0625E-08
9.930000E+04  3.0492E-08
9.940000E+04  3.0359E-08
9.950000E+04  3.0228E-08
9.960000E+04  3.0099E-08
9.970000E+04  2.9971E-08
9.980000E+04  2.9845E-08
9.990000E+04  2.9718E-08
1.000000E+05  2.9592E-08
1.002000E+05  2.9359E-08
1.050000E+05  2.4599E-08
1.100000E+05  2.0446E-08
1.130000E+05  1.8464E-08
1.160000E+05  1.6556E-08
1.200000E+05  1.4504E-08
1.250000E+05  1.2669E-08
1.300000E+05  1.0865E-08
1.350000E+05  9.3727E-09
1.400000E+05  8.1295E-09
1.450000E+05  7.0870E-09
1.500000E+05  6.2073E-09
1.600000E+05  4.8238E-09
1.700000E+05  3.8072E-09
1.800000E+05  3.0462E-09
1.900000E+05  2.4671E-09
2.000000E+05  2.0202E-09
2.200000E+05  1.3885E-09
2.300000E+05  1.1658E-09
2.400000E+05  9.8607E-10
2.500000E+05  8.3979E-10
2.600000E+05  7.1973E-10
2.700000E+05  6.2044E-10
2.800000E+05  5.3774E-10
3.000000E+05  4.0994E-10
3.500000E+05  2.2357E-10
4.000000E+05  1.3223E-10
4.500000E+05  8.2886E-11
5.000000E+05  5.4579E-11
5.500000E+05  3.7401E-11
6.000000E+05  2.6487E-11
6.500000E+05  1.9264E-11
7.000000E+05  1.4345E-11
7.500000E+05  1.0902E-11
8.000000E+05  8.4332E-12
8.500000E+05  6.6230E-12
9.000000E+05  5.2738E-12
9.500000E+05  4.2515E-12
1.000000E+06  3.4654E-12
1.050000E+06  2.8524E-12
1.100000E+06  2.3692E-12
1.200000E+06  1.6743E-12
1.300000E+06  1.2163E-12
1.400000E+06  9.0478E-13
1.500000E+06  6.8678E-13
1.600000E+06  5.3067E-13
2.000000E+06  2.1724E-13
2.500000E+06  8.8981E-14
3.000000E+06  4.2911E-14
4.000000E+06  1.3577E-14
5.000000E+06  5.5613E-15
7.000000E+06  1.4477E-15
1.000000E+07  3.4758E-16
1.500000E+07  6.8658E-17
2.250000E+07  1.3562E-17
3.350000E+07  2.7598E-18
5.000000E+07  5.5613E-19
7.400000E+07  1.1591E-19
1.100000E+08  2.3740E-20
1.300000E+08  1.2170E-20
1.600000E+08  5.3037E-21
2.400000E+08  1.0476E-21
3.600000E+08  2.0694E-22
