# Input file name  = bc2003_lr_BaSeL_m62_chab_ssp.ised
# Output file name = spec_BC16_basel_chab_Zm62_age9.0Gyr.dat
# Record         177
# Column           2
# SED(Lo/A)       at    
# Lambda(A)    9.000E+09
9.100000E+01  5.1875E-10
9.400000E+01  7.9844E-10
9.600000E+01  1.0427E-09
9.800000E+01  1.3972E-09
1.000000E+02  1.8573E-09
1.020000E+02  2.3641E-09
1.040000E+02  2.7572E-09
1.060000E+02  3.2956E-09
1.080000E+02  4.0074E-09
1.100000E+02  5.4556E-09
1.140000E+02  7.4003E-09
1.180000E+02  9.1235E-09
1.210000E+02  3.4178E-08
1.250000E+02  3.9515E-08
1.270000E+02  4.2006E-08
1.280000E+02  4.3351E-08
1.310000E+02  4.6237E-08
1.320000E+02  5.3946E-08
1.340000E+02  5.6177E-08
1.370000E+02  6.8497E-08
1.400000E+02  7.2285E-08
1.430000E+02  1.9307E-07
1.470000E+02  4.6118E-07
1.500000E+02  4.7168E-07
1.510000E+02  4.7623E-07
1.550000E+02  4.9509E-07
1.590000E+02  5.1912E-07
1.620000E+02  5.3751E-07
1.660000E+02  5.5944E-07
1.700000E+02  5.7971E-07
1.730000E+02  5.9658E-07
1.770000E+02  6.1530E-07
1.800000E+02  6.2729E-07
1.820000E+02  6.3760E-07
1.860000E+02  6.5693E-07
1.910000E+02  6.7850E-07
1.940000E+02  6.9830E-07
1.980000E+02  7.1490E-07
2.000000E+02  7.2235E-07
2.020000E+02  7.3278E-07
2.050000E+02  7.4508E-07
2.100000E+02  7.4497E-07
2.160000E+02  7.9209E-07
2.200000E+02  8.1120E-07
2.230000E+02  8.1301E-07
2.270000E+02  8.3657E-07
2.300000E+02  1.2569E-06
2.340000E+02  1.9162E-06
2.400000E+02  2.4709E-06
2.460000E+02  2.1925E-06
2.520000E+02  2.3590E-06
2.570000E+02  1.9586E-06
2.600000E+02  2.2319E-06
2.640000E+02  2.2985E-06
2.690000E+02  2.2545E-06
2.740000E+02  2.1992E-06
2.790000E+02  2.1458E-06
2.840000E+02  2.1088E-06
2.900000E+02  2.0245E-06
2.960000E+02  1.9670E-06
3.000000E+02  1.9159E-06
3.010000E+02  1.8791E-06
3.080000E+02  1.8556E-06
3.180000E+02  1.8174E-06
3.280000E+02  1.7470E-06
3.380000E+02  1.6650E-06
3.480000E+02  1.5835E-06
3.570000E+02  1.5329E-06
3.660000E+02  1.4972E-06
3.750000E+02  1.4341E-06
3.850000E+02  1.3347E-06
3.950000E+02  1.3194E-06
4.000000E+02  1.2968E-06
4.050000E+02  1.2819E-06
4.140000E+02  1.2322E-06
4.220000E+02  1.1773E-06
4.300000E+02  1.1318E-06
4.410000E+02  1.0938E-06
4.510000E+02  1.0472E-06
4.600000E+02  9.9562E-07
4.700000E+02  9.5550E-07
4.800000E+02  9.2718E-07
4.900000E+02  8.7336E-07
5.000000E+02  8.5880E-07
5.060000E+02  8.2466E-07
5.120000E+02  8.5005E-07
5.200000E+02  8.2137E-07
5.300000E+02  7.7929E-07
5.400000E+02  7.2511E-07
5.500000E+02  6.9287E-07
5.600000E+02  6.9357E-07
5.700000E+02  6.8519E-07
5.800000E+02  6.5560E-07
5.900000E+02  6.3588E-07
6.000000E+02  5.9260E-07
6.100000E+02  5.1334E-07
6.200000E+02  5.7295E-07
6.300000E+02  5.4247E-07
6.400000E+02  5.3872E-07
6.500000E+02  5.1543E-07
6.580000E+02  4.9144E-07
6.650000E+02  4.9392E-07
6.750000E+02  4.8369E-07
6.850000E+02  4.4765E-07
6.950000E+02  4.5201E-07
7.000000E+02  4.3268E-07
7.050000E+02  4.1506E-07
7.160000E+02  4.2582E-07
7.260000E+02  4.1406E-07
7.350000E+02  4.0336E-07
7.450000E+02  3.8714E-07
7.550000E+02  3.7442E-07
7.650000E+02  3.2501E-07
7.750000E+02  3.5282E-07
7.850000E+02  3.3178E-07
7.950000E+02  3.3038E-07
8.000000E+02  3.2694E-07
8.050000E+02  3.2481E-07
8.150000E+02  3.1608E-07
8.250000E+02  3.0857E-07
8.350000E+02  2.7711E-07
8.450000E+02  2.9021E-07
8.550000E+02  2.8065E-07
8.650000E+02  2.7584E-07
8.750000E+02  2.6995E-07
8.850000E+02  2.6271E-07
8.950000E+02  2.5618E-07
9.000000E+02  2.5200E-07
9.050000E+02  2.4795E-07
9.150000E+02  2.7631E-07
9.250000E+02  4.3666E-07
9.350000E+02  5.8186E-07
9.450000E+02  6.9345E-07
9.550000E+02  7.5820E-07
9.650000E+02  7.8731E-07
9.750000E+02  4.6337E-07
9.850000E+02  6.6333E-07
9.950000E+02  6.4134E-07
1.000000E+03  6.8386E-07
1.005000E+03  7.3340E-07
1.015000E+03  7.4230E-07
1.025000E+03  5.1805E-07
1.035000E+03  6.6880E-07
1.045000E+03  8.2519E-07
1.055000E+03  7.9618E-07
1.065000E+03  6.9728E-07
1.075000E+03  7.4193E-07
1.085000E+03  6.0586E-07
1.095000E+03  7.4607E-07
1.100000E+03  7.2814E-07
1.105000E+03  7.1156E-07
1.115000E+03  6.9193E-07
1.125000E+03  6.2027E-07
1.135000E+03  7.0241E-07
1.145000E+03  6.7252E-07
1.155000E+03  6.6873E-07
1.165000E+03  6.5372E-07
1.175000E+03  4.8965E-07
1.185000E+03  6.2033E-07
1.195000E+03  5.5015E-07
1.200000E+03  5.1013E-07
1.205000E+03  4.7895E-07
1.215000E+03  3.7066E-07
1.225000E+03  5.4020E-07
1.235000E+03  6.0702E-07
1.245000E+03  6.1349E-07
1.255000E+03  5.9508E-07
1.265000E+03  5.7589E-07
1.275000E+03  6.1824E-07
1.285000E+03  6.1997E-07
1.295000E+03  5.3844E-07
1.300000E+03  5.3912E-07
1.305000E+03  5.4057E-07
1.315000E+03  5.9843E-07
1.325000E+03  5.7185E-07
1.335000E+03  5.2995E-07
1.345000E+03  5.7211E-07
1.355000E+03  5.5693E-07
1.365000E+03  5.1773E-07
1.375000E+03  5.1458E-07
1.385000E+03  5.0739E-07
1.395000E+03  4.0431E-07
1.400000E+03  3.9945E-07
1.405000E+03  3.9567E-07
1.415000E+03  4.7142E-07
1.425000E+03  4.5991E-07
1.435000E+03  4.6989E-07
1.442000E+03  4.7363E-07
1.447000E+03  4.7147E-07
1.455000E+03  4.5607E-07
1.465000E+03  4.3193E-07
1.475000E+03  4.3304E-07
1.485000E+03  4.3357E-07
1.495000E+03  4.2610E-07
1.500000E+03  4.1573E-07
1.505000E+03  4.0522E-07
1.512000E+03  3.7520E-07
1.517000E+03  3.8528E-07
1.525000E+03  3.8134E-07
1.535000E+03  3.3605E-07
1.545000E+03  3.1324E-07
1.555000E+03  3.0938E-07
1.565000E+03  3.3246E-07
1.575000E+03  3.4615E-07
1.585000E+03  3.5117E-07
1.595000E+03  3.4986E-07
1.600000E+03  3.4550E-07
1.605000E+03  3.4153E-07
1.615000E+03  3.3638E-07
1.625000E+03  3.2799E-07
1.635000E+03  3.3947E-07
1.645000E+03  3.3706E-07
1.655000E+03  3.2784E-07
1.665000E+03  3.3695E-07
1.672000E+03  3.1198E-07
1.677000E+03  3.4302E-07
1.685000E+03  3.4213E-07
1.695000E+03  3.2644E-07
1.700000E+03  3.2180E-07
1.705000E+03  3.1715E-07
1.715000E+03  3.0004E-07
1.725000E+03  2.9564E-07
1.735000E+03  3.0786E-07
1.745000E+03  3.0116E-07
1.755000E+03  3.0756E-07
1.765000E+03  2.9463E-07
1.775000E+03  2.8780E-07
1.785000E+03  2.9228E-07
1.795000E+03  2.9963E-07
1.800000E+03  2.9921E-07
1.805000E+03  2.9863E-07
1.815000E+03  2.7518E-07
1.825000E+03  2.8024E-07
1.835000E+03  2.7220E-07
1.845000E+03  2.5281E-07
1.855000E+03  2.4942E-07
1.865000E+03  2.5388E-07
1.875000E+03  2.6679E-07
1.885000E+03  2.4676E-07
1.895000E+03  2.3794E-07
1.900000E+03  2.4406E-07
1.905000E+03  2.5035E-07
1.915000E+03  2.3805E-07
1.925000E+03  2.2910E-07
1.935000E+03  2.3505E-07
1.945000E+03  2.4454E-07
1.955000E+03  2.2730E-07
1.967000E+03  2.4586E-07
1.976000E+03  2.4824E-07
1.984000E+03  2.4084E-07
1.995000E+03  2.3543E-07
2.000000E+03  2.3760E-07
2.005000E+03  2.4148E-07
2.015000E+03  2.3718E-07
2.025000E+03  2.3739E-07
2.035000E+03  2.3137E-07
2.045000E+03  2.3896E-07
2.055000E+03  2.1991E-07
2.065000E+03  2.2339E-07
2.074000E+03  2.4282E-07
2.078000E+03  3.0409E-07
2.085000E+03  3.5497E-07
2.095000E+03  3.3151E-07
2.100000E+03  3.3161E-07
2.105000E+03  3.3191E-07
2.115000E+03  3.5846E-07
2.125000E+03  3.3548E-07
2.135000E+03  3.2668E-07
2.145000E+03  3.7623E-07
2.155000E+03  3.7239E-07
2.165000E+03  3.4015E-07
2.175000E+03  3.3790E-07
2.185000E+03  4.0310E-07
2.195000E+03  3.9382E-07
2.200000E+03  3.9257E-07
2.205000E+03  3.9140E-07
2.215000E+03  3.2348E-07
2.225000E+03  3.6834E-07
2.235000E+03  4.6523E-07
2.245000E+03  4.4807E-07
2.255000E+03  3.6251E-07
2.265000E+03  3.3507E-07
2.275000E+03  3.5862E-07
2.285000E+03  4.7642E-07
2.295000E+03  3.9530E-07
2.300000E+03  4.3058E-07
2.305000E+03  4.7137E-07
2.315000E+03  4.0478E-07
2.325000E+03  3.4152E-07
2.335000E+03  3.2876E-07
2.345000E+03  2.5660E-07
2.355000E+03  3.9306E-07
2.365000E+03  2.7648E-07
2.375000E+03  3.2401E-07
2.385000E+03  2.4105E-07
2.395000E+03  2.7664E-07
2.400000E+03  2.7800E-07
2.405000E+03  2.7959E-07
2.415000E+03  3.0231E-07
2.425000E+03  4.6142E-07
2.435000E+03  4.7228E-07
2.445000E+03  5.6005E-07
2.455000E+03  6.0036E-07
2.465000E+03  4.9559E-07
2.475000E+03  4.4472E-07
2.485000E+03  2.7026E-07
2.495000E+03  3.2801E-07
2.500000E+03  4.0238E-07
2.505000E+03  4.9919E-07
2.513000E+03  2.6203E-07
2.518000E+03  2.2644E-07
2.525000E+03  2.4010E-07
2.535000E+03  3.8044E-07
2.545000E+03  3.9584E-07
2.555000E+03  7.8523E-07
2.565000E+03  5.6211E-07
2.575000E+03  7.4538E-07
2.585000E+03  6.5404E-07
2.595000E+03  5.9051E-07
2.600000E+03  5.5103E-07
2.605000E+03  5.1548E-07
2.615000E+03  4.6874E-07
2.625000E+03  6.3161E-07
2.635000E+03  1.2001E-06
2.645000E+03  1.6027E-06
2.655000E+03  2.4483E-06
2.665000E+03  1.4148E-06
2.675000E+03  1.6171E-06
2.685000E+03  1.9637E-06
2.695000E+03  1.3320E-06
2.700000E+03  1.5173E-06
2.705000E+03  1.7348E-06
2.715000E+03  1.1924E-06
2.725000E+03  8.3319E-07
2.735000E+03  1.1392E-06
2.745000E+03  6.5898E-07
2.755000E+03  9.2012E-07
2.765000E+03  1.2431E-06
2.775000E+03  1.3090E-06
2.785000E+03  7.6498E-07
2.795000E+03  3.7423E-07
2.800000E+03  4.0768E-07
2.805000E+03  4.4518E-07
2.815000E+03  1.1354E-06
2.825000E+03  1.6868E-06
2.835000E+03  1.5407E-06
2.845000E+03  9.7428E-07
2.855000E+03  5.2664E-07
2.865000E+03  1.4633E-06
2.875000E+03  2.2944E-06
2.885000E+03  2.0701E-06
2.895000E+03  2.7647E-06
2.900000E+03  3.1021E-06
2.910000E+03  3.9259E-06
2.930000E+03  3.3396E-06
2.950000E+03  3.0000E-06
2.970000E+03  3.1146E-06
2.990000E+03  3.1703E-06
3.000000E+03  3.1304E-06
3.010000E+03  3.0940E-06
3.030000E+03  3.4407E-06
3.050000E+03  3.5908E-06
3.070000E+03  4.1130E-06
3.090000E+03  3.9395E-06
3.100000E+03  4.3683E-06
3.110000E+03  4.8702E-06
3.130000E+03  4.3860E-06
3.150000E+03  4.4578E-06
3.170000E+03  5.0150E-06
3.190000E+03  4.2119E-06
3.200000E+03  4.4402E-06
3.210000E+03  4.6815E-06
3.230000E+03  3.8491E-06
3.250000E+03  5.8106E-06
3.270000E+03  6.9426E-06
3.290000E+03  6.8170E-06
3.300000E+03  6.5040E-06
3.310000E+03  6.2135E-06
3.330000E+03  6.4816E-06
3.350000E+03  6.2161E-06
3.370000E+03  4.3859E-06
3.390000E+03  5.0753E-06
3.400000E+03  5.1456E-06
3.410000E+03  5.2190E-06
3.430000E+03  5.5376E-06
3.450000E+03  5.8669E-06
3.470000E+03  6.1286E-06
3.490000E+03  7.0840E-06
3.500000E+03  7.3491E-06
3.510000E+03  7.6298E-06
3.530000E+03  6.6810E-06
3.550000E+03  7.8129E-06
3.570000E+03  4.9370E-06
3.590000E+03  5.1470E-06
3.600000E+03  5.9088E-06
3.610000E+03  6.8110E-06
3.630000E+03  7.3093E-06
3.640000E+03  7.6457E-06
3.650000E+03  8.8222E-06
3.670000E+03  9.4969E-06
3.690000E+03  8.3770E-06
3.700000E+03  8.6100E-06
3.710000E+03  8.8721E-06
3.730000E+03  5.4621E-06
3.750000E+03  6.3041E-06
3.770000E+03  8.4045E-06
3.790000E+03  8.6021E-06
3.800000E+03  8.2185E-06
3.810000E+03  7.8665E-06
3.830000E+03  4.1733E-06
3.850000E+03  5.7879E-06
3.870000E+03  5.7366E-06
3.890000E+03  7.8096E-06
3.900000E+03  8.6885E-06
3.910000E+03  9.6841E-06
3.930000E+03  4.5697E-06
3.950000E+03  8.2250E-06
3.970000E+03  5.6393E-06
3.990000E+03  1.2857E-05
4.000000E+03  1.3549E-05
4.010000E+03  1.4302E-05
4.030000E+03  1.4100E-05
4.050000E+03  1.3417E-05
4.070000E+03  1.2442E-05
4.090000E+03  1.5828E-05
4.100000E+03  1.5323E-05
4.110000E+03  1.4879E-05
4.130000E+03  1.4186E-05
4.150000E+03  1.3735E-05
4.170000E+03  1.4058E-05
4.190000E+03  1.3664E-05
4.200000E+03  1.3867E-05
4.210000E+03  1.4094E-05
4.230000E+03  1.3539E-05
4.250000E+03  1.4482E-05
4.270000E+03  1.3469E-05
4.290000E+03  1.2440E-05
4.300000E+03  1.1540E-05
4.310000E+03  1.0743E-05
4.330000E+03  1.6101E-05
4.350000E+03  1.6041E-05
4.370000E+03  1.7430E-05
4.390000E+03  1.5166E-05
4.400000E+03  1.5687E-05
4.410000E+03  1.6233E-05
4.430000E+03  1.7758E-05
4.450000E+03  1.7829E-05
4.470000E+03  1.9258E-05
4.490000E+03  1.9709E-05
4.500000E+03  2.1221E-05
4.510000E+03  2.2870E-05
4.530000E+03  1.9608E-05
4.550000E+03  2.0665E-05
4.570000E+03  2.2423E-05
4.590000E+03  2.1123E-05
4.600000E+03  2.1356E-05
4.610000E+03  2.1595E-05
4.630000E+03  2.1044E-05
4.650000E+03  2.1301E-05
4.670000E+03  2.2439E-05
4.690000E+03  2.1974E-05
4.700000E+03  2.1660E-05
4.710000E+03  2.1358E-05
4.730000E+03  2.2211E-05
4.750000E+03  2.2953E-05
4.770000E+03  2.2702E-05
4.790000E+03  2.2615E-05
4.800000E+03  2.2589E-05
4.810000E+03  2.2569E-05
4.830000E+03  2.3354E-05
4.850000E+03  2.2082E-05
4.870000E+03  2.0093E-05
4.890000E+03  2.2399E-05
4.900000E+03  2.2434E-05
4.910000E+03  2.2478E-05
4.930000E+03  2.2003E-05
4.950000E+03  2.3110E-05
4.970000E+03  2.2371E-05
4.990000E+03  2.0619E-05
5.000000E+03  2.0014E-05
5.010000E+03  1.9432E-05
5.030000E+03  2.0802E-05
5.050000E+03  2.0816E-05
5.070000E+03  2.1999E-05
5.090000E+03  2.0644E-05
5.100000E+03  2.0972E-05
5.110000E+03  2.1323E-05
5.130000E+03  2.0659E-05
5.150000E+03  1.9623E-05
5.170000E+03  1.7288E-05
5.190000E+03  1.8117E-05
5.200000E+03  1.9026E-05
5.210000E+03  1.9988E-05
5.230000E+03  2.1597E-05
5.250000E+03  2.2815E-05
5.270000E+03  1.9826E-05
5.290000E+03  2.3320E-05
5.300000E+03  2.4171E-05
5.310000E+03  2.5060E-05
5.330000E+03  2.1643E-05
5.350000E+03  2.4000E-05
5.370000E+03  2.3957E-05
5.390000E+03  2.3328E-05
5.400000E+03  2.3121E-05
5.410000E+03  2.2920E-05
5.430000E+03  2.3226E-05
5.450000E+03  2.3797E-05
5.470000E+03  2.3181E-05
5.490000E+03  2.3297E-05
5.500000E+03  2.3183E-05
5.510000E+03  2.3077E-05
5.530000E+03  2.4005E-05
5.550000E+03  2.4531E-05
5.570000E+03  2.4055E-05
5.590000E+03  2.3010E-05
5.600000E+03  2.3535E-05
5.610000E+03  2.4088E-05
5.630000E+03  2.3796E-05
5.650000E+03  2.4176E-05
5.670000E+03  2.3669E-05
5.690000E+03  2.4561E-05
5.700000E+03  2.4168E-05
5.710000E+03  2.3790E-05
5.730000E+03  2.6077E-05
5.750000E+03  2.4909E-05
5.770000E+03  2.5292E-05
5.790000E+03  2.4220E-05
5.800000E+03  2.4788E-05
5.810000E+03  2.5375E-05
5.830000E+03  2.6088E-05
5.850000E+03  2.5059E-05
5.870000E+03  2.5073E-05
5.890000E+03  2.2114E-05
5.900000E+03  2.3287E-05
5.910000E+03  2.4573E-05
5.930000E+03  2.4692E-05
5.950000E+03  2.4703E-05
5.970000E+03  2.5144E-05
5.990000E+03  2.4763E-05
6.000000E+03  2.4612E-05
6.010000E+03  2.4470E-05
6.030000E+03  2.5251E-05
6.050000E+03  2.5791E-05
6.070000E+03  2.5792E-05
6.090000E+03  2.4815E-05
6.100000E+03  2.4938E-05
6.110000E+03  2.5066E-05
6.130000E+03  2.3444E-05
6.150000E+03  2.3895E-05
6.170000E+03  2.2514E-05
6.190000E+03  2.3943E-05
6.200000E+03  2.3827E-05
6.210000E+03  2.3714E-05
6.230000E+03  2.2867E-05
6.250000E+03  2.2112E-05
6.270000E+03  2.3319E-05
6.290000E+03  2.3860E-05
6.300000E+03  2.3550E-05
6.310000E+03  2.3254E-05
6.330000E+03  2.3726E-05
6.350000E+03  2.3869E-05
6.370000E+03  2.3815E-05
6.390000E+03  2.4351E-05
6.400000E+03  2.4123E-05
6.410000E+03  2.3899E-05
6.430000E+03  2.4094E-05
6.450000E+03  2.4031E-05
6.470000E+03  2.3924E-05
6.490000E+03  2.3487E-05
6.500000E+03  2.3961E-05
6.510000E+03  2.4453E-05
6.530000E+03  2.4463E-05
6.550000E+03  2.3887E-05
6.570000E+03  2.2611E-05
6.590000E+03  2.3897E-05
6.600000E+03  2.4036E-05
6.610000E+03  2.4177E-05
6.630000E+03  2.3732E-05
6.650000E+03  2.3581E-05
6.670000E+03  2.2989E-05
6.690000E+03  2.3468E-05
6.700000E+03  2.2949E-05
6.710000E+03  2.2445E-05
6.730000E+03  2.3125E-05
6.750000E+03  2.2696E-05
6.770000E+03  2.2873E-05
6.790000E+03  2.2624E-05
6.800000E+03  2.2681E-05
6.810000E+03  2.2740E-05
6.830000E+03  2.3041E-05
6.850000E+03  2.2411E-05
6.870000E+03  2.2837E-05
6.890000E+03  2.3200E-05
6.900000E+03  2.3189E-05
6.910000E+03  2.3186E-05
6.930000E+03  2.3007E-05
6.950000E+03  2.3003E-05
6.970000E+03  2.3346E-05
6.990000E+03  2.3309E-05
7.000000E+03  2.3119E-05
7.010000E+03  2.2944E-05
7.030000E+03  2.3388E-05
7.050000E+03  2.2911E-05
7.070000E+03  2.2070E-05
7.090000E+03  2.1511E-05
7.100000E+03  2.1302E-05
7.110000E+03  2.1107E-05
7.130000E+03  2.0600E-05
7.150000E+03  2.0570E-05
7.170000E+03  2.0841E-05
7.190000E+03  2.0308E-05
7.200000E+03  2.0652E-05
7.210000E+03  2.1006E-05
7.230000E+03  2.1440E-05
7.250000E+03  2.1654E-05
7.270000E+03  2.1782E-05
7.290000E+03  2.1472E-05
7.300000E+03  2.1881E-05
7.310000E+03  2.2328E-05
7.330000E+03  2.2353E-05
7.350000E+03  2.2716E-05
7.370000E+03  2.3500E-05
7.390000E+03  2.2924E-05
7.400000E+03  2.2971E-05
7.410000E+03  2.3037E-05
7.430000E+03  2.3758E-05
7.450000E+03  2.3682E-05
7.470000E+03  2.4233E-05
7.490000E+03  2.4173E-05
7.500000E+03  2.4280E-05
7.510000E+03  2.4389E-05
7.530000E+03  2.4919E-05
7.550000E+03  2.5119E-05
7.570000E+03  2.4915E-05
7.590000E+03  2.3904E-05
7.600000E+03  2.3594E-05
7.610000E+03  2.3315E-05
7.630000E+03  2.2769E-05
7.650000E+03  2.2076E-05
7.670000E+03  2.0914E-05
7.690000E+03  2.1532E-05
7.700000E+03  2.1325E-05
7.710000E+03  2.1122E-05
7.730000E+03  2.1178E-05
7.750000E+03  2.0980E-05
7.770000E+03  2.1412E-05
7.790000E+03  2.1403E-05
7.800000E+03  2.1409E-05
7.810000E+03  2.1420E-05
7.830000E+03  2.1404E-05
7.850000E+03  2.1182E-05
7.870000E+03  2.1447E-05
7.890000E+03  2.1306E-05
7.900000E+03  2.1017E-05
7.910000E+03  2.0734E-05
7.930000E+03  2.0802E-05
7.950000E+03  2.0760E-05
7.970000E+03  2.1407E-05
7.990000E+03  2.1380E-05
8.000000E+03  2.1535E-05
8.010000E+03  2.1715E-05
8.030000E+03  2.1847E-05
8.050000E+03  2.1784E-05
8.070000E+03  2.2294E-05
8.090000E+03  2.2139E-05
8.100000E+03  2.2250E-05
8.110000E+03  2.2362E-05
8.130000E+03  2.3176E-05
8.150000E+03  2.3636E-05
8.170000E+03  2.3863E-05
8.190000E+03  2.2779E-05
8.200000E+03  2.2570E-05
8.210000E+03  2.2476E-05
8.230000E+03  2.2453E-05
8.250000E+03  2.2477E-05
8.270000E+03  2.2554E-05
8.290000E+03  2.2271E-05
8.300000E+03  2.1900E-05
8.310000E+03  2.1538E-05
8.330000E+03  2.1293E-05
8.350000E+03  2.1326E-05
8.370000E+03  2.1450E-05
8.390000E+03  2.0690E-05
8.400000E+03  2.1097E-05
8.410000E+03  2.1520E-05
8.430000E+03  2.0649E-05
8.450000E+03  2.0293E-05
8.470000E+03  2.0178E-05
8.490000E+03  2.0402E-05
8.500000E+03  1.9977E-05
8.510000E+03  1.9564E-05
8.530000E+03  2.0323E-05
8.550000E+03  1.9167E-05
8.570000E+03  2.0960E-05
8.590000E+03  2.0621E-05
8.600000E+03  2.0758E-05
8.610000E+03  2.0904E-05
8.630000E+03  2.1328E-05
8.650000E+03  2.1371E-05
8.670000E+03  1.9632E-05
8.690000E+03  2.0865E-05
8.700000E+03  2.1271E-05
8.710000E+03  2.1697E-05
8.730000E+03  2.1864E-05
8.750000E+03  2.1712E-05
8.770000E+03  2.2125E-05
8.790000E+03  2.2498E-05
8.800000E+03  2.2263E-05
8.810000E+03  2.2032E-05
8.830000E+03  2.2220E-05
8.850000E+03  2.1986E-05
8.870000E+03  2.0976E-05
8.890000E+03  2.1117E-05
8.900000E+03  2.1253E-05
8.910000E+03  2.1388E-05
8.930000E+03  2.1056E-05
8.950000E+03  2.1148E-05
8.970000E+03  2.1242E-05
8.990000E+03  2.1232E-05
9.000000E+03  2.0973E-05
9.010000E+03  2.0727E-05
9.030000E+03  2.1642E-05
9.050000E+03  2.2375E-05
9.070000E+03  2.2410E-05
9.090000E+03  2.2108E-05
9.100000E+03  2.2296E-05
9.110000E+03  2.2487E-05
9.130000E+03  2.2844E-05
9.150000E+03  2.2707E-05
9.170000E+03  2.2666E-05
9.190000E+03  2.2884E-05
9.200000E+03  2.2465E-05
9.210000E+03  2.2059E-05
9.230000E+03  2.1420E-05
9.250000E+03  2.1306E-05
9.270000E+03  2.1590E-05
9.290000E+03  2.1209E-05
9.300000E+03  2.1240E-05
9.310000E+03  2.1274E-05
9.330000E+03  2.1401E-05
9.350000E+03  2.1315E-05
9.370000E+03  2.0917E-05
9.390000E+03  2.1315E-05
9.400000E+03  2.1135E-05
9.410000E+03  2.0959E-05
9.430000E+03  2.1519E-05
9.450000E+03  2.1197E-05
9.470000E+03  2.1728E-05
9.490000E+03  2.1740E-05
9.500000E+03  2.1483E-05
9.510000E+03  2.1231E-05
9.530000E+03  2.1460E-05
9.550000E+03  2.1155E-05
9.570000E+03  2.1364E-05
9.590000E+03  2.1724E-05
9.600000E+03  2.1574E-05
9.610000E+03  2.1422E-05
9.630000E+03  2.1579E-05
9.650000E+03  2.1165E-05
9.670000E+03  2.1196E-05
9.690000E+03  2.1492E-05
9.700000E+03  2.1275E-05
9.710000E+03  2.1066E-05
9.730000E+03  2.0811E-05
9.750000E+03  2.0779E-05
9.770000E+03  2.0880E-05
9.790000E+03  2.0547E-05
9.800000E+03  2.0827E-05
9.810000E+03  2.1122E-05
9.830000E+03  2.0920E-05
9.850000E+03  2.1026E-05
9.870000E+03  2.0869E-05
9.890000E+03  2.0851E-05
9.900000E+03  2.0688E-05
9.910000E+03  2.0541E-05
9.930000E+03  2.0760E-05
9.950000E+03  2.0849E-05
9.970000E+03  2.0853E-05
9.990000E+03  2.0778E-05
1.000000E+04  2.0798E-05
1.002500E+04  2.0861E-05
1.007500E+04  2.0620E-05
1.010000E+04  2.0731E-05
1.012500E+04  2.0844E-05
1.017500E+04  2.0616E-05
1.020000E+04  2.0651E-05
1.022500E+04  2.0688E-05
1.027500E+04  2.0739E-05
1.030000E+04  2.0627E-05
1.032500E+04  2.0515E-05
1.037500E+04  2.0357E-05
1.040000E+04  2.0377E-05
1.042500E+04  2.0401E-05
1.047500E+04  2.0084E-05
1.050000E+04  1.9995E-05
1.052500E+04  1.9904E-05
1.057500E+04  1.9513E-05
1.060000E+04  1.9420E-05
1.062500E+04  1.9318E-05
1.067500E+04  1.9133E-05
1.070000E+04  1.9178E-05
1.072500E+04  1.9214E-05
1.077500E+04  1.9073E-05
1.080000E+04  1.8903E-05
1.082500E+04  1.8743E-05
1.087500E+04  1.8613E-05
1.090000E+04  1.8568E-05
1.092500E+04  1.8517E-05
1.097500E+04  1.8187E-05
1.100000E+04  1.8076E-05
1.102500E+04  1.7980E-05
1.107500E+04  1.7682E-05
1.110000E+04  1.7662E-05
1.112500E+04  1.7639E-05
1.117500E+04  1.7528E-05
1.120000E+04  1.7520E-05
1.122500E+04  1.7515E-05
1.127500E+04  1.7324E-05
1.130000E+04  1.7312E-05
1.132500E+04  1.7301E-05
1.137500E+04  1.7117E-05
1.140000E+04  1.7028E-05
1.142500E+04  1.6928E-05
1.147500E+04  1.7160E-05
1.150000E+04  1.7139E-05
1.152500E+04  1.7113E-05
1.157500E+04  1.6897E-05
1.160000E+04  1.6767E-05
1.162500E+04  1.6633E-05
1.167500E+04  1.6616E-05
1.170000E+04  1.6648E-05
1.172500E+04  1.6684E-05
1.177500E+04  1.6316E-05
1.180000E+04  1.6241E-05
1.182500E+04  1.6169E-05
1.187500E+04  1.5910E-05
1.190000E+04  1.6019E-05
1.192500E+04  1.6121E-05
1.197500E+04  1.5589E-05
1.200000E+04  1.5723E-05
1.202500E+04  1.5855E-05
1.207500E+04  1.5718E-05
1.210000E+04  1.5712E-05
1.212500E+04  1.5720E-05
1.217500E+04  1.5738E-05
1.220000E+04  1.5687E-05
1.222500E+04  1.5630E-05
1.227500E+04  1.5506E-05
1.230000E+04  1.5457E-05
1.232500E+04  1.5398E-05
1.237500E+04  1.5337E-05
1.240000E+04  1.5220E-05
1.242500E+04  1.5098E-05
1.247500E+04  1.5065E-05
1.250000E+04  1.4993E-05
1.252500E+04  1.4916E-05
1.257500E+04  1.4873E-05
1.260000E+04  1.4835E-05
1.262500E+04  1.4786E-05
1.267500E+04  1.4641E-05
1.270000E+04  1.4647E-05
1.272500E+04  1.4648E-05
1.277500E+04  1.4623E-05
1.280000E+04  1.4395E-05
1.282500E+04  1.4168E-05
1.287500E+04  1.4359E-05
1.290000E+04  1.4288E-05
1.292500E+04  1.4211E-05
1.297500E+04  1.4313E-05
1.300000E+04  1.4235E-05
1.302500E+04  1.4159E-05
1.307500E+04  1.4165E-05
1.310000E+04  1.4003E-05
1.312500E+04  1.3851E-05
1.317500E+04  1.3828E-05
1.320000E+04  1.3826E-05
1.322500E+04  1.3816E-05
1.327500E+04  1.3583E-05
1.330000E+04  1.3574E-05
1.332500E+04  1.3567E-05
1.337500E+04  1.3445E-05
1.340000E+04  1.3450E-05
1.342500E+04  1.3447E-05
1.347500E+04  1.3321E-05
1.350000E+04  1.3277E-05
1.352500E+04  1.3235E-05
1.357500E+04  1.3016E-05
1.360000E+04  1.2990E-05
1.362500E+04  1.2952E-05
1.367500E+04  1.3019E-05
1.370000E+04  1.3037E-05
1.372500E+04  1.3051E-05
1.377500E+04  1.3021E-05
1.380000E+04  1.3016E-05
1.382500E+04  1.3009E-05
1.387500E+04  1.2873E-05
1.390000E+04  1.2490E-05
1.392500E+04  1.2153E-05
1.397500E+04  1.2051E-05
1.400000E+04  1.1993E-05
1.402500E+04  1.1934E-05
1.407500E+04  1.1992E-05
1.410000E+04  1.1921E-05
1.412500E+04  1.1854E-05
1.417500E+04  1.1931E-05
1.420000E+04  1.1864E-05
1.422500E+04  1.1804E-05
1.427500E+04  1.1671E-05
1.430000E+04  1.1768E-05
1.432500E+04  1.1877E-05
1.437500E+04  1.1939E-05
1.440000E+04  1.1821E-05
1.442500E+04  1.1694E-05
1.447500E+04  1.1894E-05
1.450000E+04  1.1834E-05
1.452500E+04  1.1773E-05
1.457000E+04  1.1845E-05
1.460000E+04  1.1641E-05
1.462000E+04  1.1508E-05
1.467500E+04  1.1433E-05
1.470000E+04  1.1383E-05
1.472500E+04  1.1347E-05
1.477500E+04  1.1423E-05
1.480000E+04  1.1449E-05
1.482500E+04  1.1484E-05
1.487500E+04  1.1406E-05
1.490000E+04  1.1533E-05
1.492500E+04  1.1672E-05
1.497500E+04  1.1602E-05
1.500000E+04  1.1511E-05
1.502500E+04  1.1418E-05
1.507500E+04  1.1512E-05
1.510000E+04  1.1608E-05
1.512500E+04  1.1699E-05
1.517500E+04  1.1754E-05
1.520000E+04  1.1751E-05
1.522500E+04  1.1733E-05
1.527500E+04  1.1825E-05
1.530000E+04  1.1800E-05
1.532500E+04  1.1780E-05
1.537500E+04  1.1736E-05
1.540000E+04  1.1712E-05
1.542500E+04  1.1682E-05
1.547500E+04  1.1690E-05
1.550000E+04  1.1655E-05
1.552500E+04  1.1619E-05
1.557500E+04  1.1350E-05
1.560000E+04  1.1363E-05
1.562500E+04  1.1371E-05
1.567500E+04  1.1369E-05
1.570000E+04  1.1470E-05
1.572500E+04  1.1574E-05
1.577500E+04  1.0965E-05
1.580000E+04  1.0923E-05
1.582500E+04  1.0898E-05
1.587500E+04  1.0937E-05
1.590000E+04  1.1115E-05
1.592500E+04  1.1285E-05
1.597500E+04  1.1062E-05
1.600000E+04  1.1048E-05
1.605000E+04  1.1025E-05
1.610000E+04  1.1138E-05
1.615000E+04  1.1265E-05
1.620000E+04  1.1070E-05
1.625000E+04  1.0879E-05
1.630000E+04  1.1051E-05
1.635000E+04  1.1223E-05
1.640000E+04  1.1018E-05
1.645000E+04  1.0816E-05
1.650000E+04  1.0927E-05
1.655000E+04  1.1042E-05
1.660000E+04  1.0946E-05
1.665000E+04  1.0833E-05
1.670000E+04  1.0802E-05
1.675000E+04  1.0763E-05
1.680000E+04  1.0685E-05
1.685000E+04  1.0628E-05
1.690000E+04  1.0621E-05
1.695000E+04  1.0609E-05
1.700000E+04  1.0531E-05
1.705000E+04  1.0448E-05
1.710000E+04  1.0353E-05
1.715000E+04  1.0253E-05
1.720000E+04  1.0165E-05
1.725000E+04  1.0080E-05
1.730000E+04  9.9463E-06
1.735000E+04  9.8152E-06
1.740000E+04  9.7407E-06
1.745000E+04  9.6666E-06
1.750000E+04  9.5804E-06
1.755000E+04  9.5144E-06
1.760000E+04  9.4061E-06
1.765000E+04  9.2920E-06
1.770000E+04  9.1684E-06
1.775000E+04  9.0618E-06
1.780000E+04  8.9894E-06
1.785000E+04  8.9249E-06
1.790000E+04  8.7844E-06
1.795000E+04  8.6692E-06
1.800000E+04  8.5851E-06
1.805000E+04  8.4687E-06
1.810000E+04  8.3979E-06
1.815000E+04  8.3142E-06
1.820000E+04  8.2554E-06
1.825000E+04  8.1819E-06
1.830000E+04  8.1201E-06
1.835000E+04  8.0556E-06
1.840000E+04  7.9607E-06
1.845000E+04  7.8911E-06
1.850000E+04  7.8574E-06
1.855000E+04  7.7983E-06
1.860000E+04  7.6919E-06
1.865000E+04  7.5854E-06
1.870000E+04  7.5193E-06
1.875000E+04  7.4178E-06
1.880000E+04  7.3963E-06
1.885000E+04  7.3738E-06
1.890000E+04  7.2552E-06
1.895000E+04  7.1546E-06
1.900000E+04  7.1789E-06
1.905000E+04  7.1998E-06
1.910000E+04  7.1245E-06
1.915000E+04  7.0535E-06
1.920000E+04  7.0070E-06
1.925000E+04  6.9664E-06
1.930000E+04  6.8877E-06
1.935000E+04  6.8026E-06
1.940000E+04  6.7087E-06
1.945000E+04  6.6272E-06
1.950000E+04  6.6076E-06
1.955000E+04  6.5873E-06
1.960000E+04  6.5275E-06
1.965000E+04  6.4576E-06
1.970000E+04  6.3792E-06
1.975000E+04  6.2884E-06
1.980000E+04  6.2324E-06
1.985000E+04  6.1856E-06
1.990000E+04  6.1574E-06
1.995000E+04  6.1218E-06
2.000000E+04  6.0920E-06
2.005000E+04  6.0793E-06
2.010000E+04  6.0474E-06
2.015000E+04  6.0113E-06
2.020000E+04  5.9423E-06
2.025000E+04  5.8715E-06
2.030000E+04  5.8289E-06
2.035000E+04  5.7922E-06
2.040000E+04  5.7740E-06
2.045000E+04  5.7663E-06
2.050000E+04  5.7262E-06
2.055000E+04  5.6840E-06
2.060000E+04  5.6379E-06
2.065000E+04  5.5971E-06
2.070000E+04  5.5724E-06
2.075000E+04  5.5449E-06
2.080000E+04  5.5167E-06
2.085000E+04  5.4969E-06
2.090000E+04  5.4521E-06
2.095000E+04  5.3985E-06
2.100000E+04  5.3848E-06
2.105000E+04  5.3758E-06
2.110000E+04  5.3379E-06
2.115000E+04  5.2933E-06
2.120000E+04  5.2599E-06
2.125000E+04  5.2372E-06
2.130000E+04  5.2141E-06
2.135000E+04  5.1935E-06
2.140000E+04  5.1603E-06
2.145000E+04  5.1221E-06
2.150000E+04  5.0928E-06
2.155000E+04  5.0603E-06
2.160000E+04  5.0104E-06
2.165000E+04  4.9637E-06
2.170000E+04  4.9304E-06
2.175000E+04  4.8985E-06
2.180000E+04  4.8744E-06
2.185000E+04  4.8463E-06
2.190000E+04  4.8162E-06
2.195000E+04  4.7876E-06
2.200000E+04  4.7277E-06
2.205000E+04  4.6708E-06
2.210000E+04  4.6665E-06
2.215000E+04  4.6646E-06
2.220000E+04  4.6183E-06
2.225000E+04  4.5730E-06
2.230000E+04  4.5496E-06
2.235000E+04  4.5202E-06
2.240000E+04  4.4916E-06
2.245000E+04  4.4671E-06
2.250000E+04  4.4362E-06
2.255000E+04  4.4037E-06
2.260000E+04  4.3586E-06
2.265000E+04  4.3216E-06
2.270000E+04  4.3109E-06
2.275000E+04  4.2938E-06
2.280000E+04  4.2489E-06
2.285000E+04  4.2084E-06
2.290000E+04  3.8639E-06
2.295000E+04  3.5537E-06
2.300000E+04  3.6611E-06
2.305000E+04  3.7698E-06
2.310000E+04  3.7798E-06
2.315000E+04  3.7758E-06
2.320000E+04  3.4817E-06
2.325000E+04  3.2346E-06
2.330000E+04  3.3659E-06
2.335000E+04  3.4794E-06
2.340000E+04  3.3908E-06
2.345000E+04  3.3174E-06
2.350000E+04  3.1520E-06
2.355000E+04  3.0042E-06
2.360000E+04  3.1062E-06
2.365000E+04  3.2207E-06
2.370000E+04  3.1547E-06
2.375000E+04  3.0838E-06
2.380000E+04  2.9590E-06
2.385000E+04  2.8399E-06
2.390000E+04  2.9290E-06
2.395000E+04  3.0088E-06
2.400000E+04  2.9672E-06
2.405000E+04  2.9277E-06
2.410000E+04  2.8120E-06
2.415000E+04  2.7030E-06
2.420000E+04  2.7374E-06
2.425000E+04  2.7782E-06
2.430000E+04  2.7355E-06
2.435000E+04  2.6931E-06
2.440000E+04  2.6376E-06
2.445000E+04  2.5761E-06
2.450000E+04  2.5518E-06
2.455000E+04  2.5303E-06
2.460000E+04  2.5230E-06
2.465000E+04  2.5163E-06
2.470000E+04  2.4717E-06
2.475000E+04  2.4275E-06
2.480000E+04  2.2703E-06
2.485000E+04  2.1320E-06
2.490000E+04  2.0869E-06
2.495000E+04  2.0471E-06
2.500000E+04  2.0609E-06
2.505000E+04  2.0762E-06
2.510000E+04  2.0317E-06
2.515000E+04  1.9909E-06
2.520000E+04  2.0139E-06
2.525000E+04  2.0385E-06
2.530000E+04  2.0411E-06
2.535000E+04  2.0429E-06
2.540000E+04  2.0333E-06
2.545000E+04  2.0264E-06
2.550000E+04  2.0300E-06
2.555000E+04  2.0323E-06
2.560000E+04  2.0416E-06
2.565000E+04  2.0514E-06
2.570000E+04  2.0619E-06
2.575000E+04  2.0736E-06
2.580000E+04  2.0515E-06
2.585000E+04  2.0292E-06
2.590000E+04  2.0342E-06
2.595000E+04  2.0431E-06
2.600000E+04  2.0468E-06
2.605000E+04  2.0489E-06
2.610000E+04  2.0364E-06
2.615000E+04  2.0186E-06
2.620000E+04  2.0037E-06
2.625000E+04  1.9914E-06
2.630000E+04  1.9979E-06
2.635000E+04  1.9981E-06
2.640000E+04  1.9869E-06
2.645000E+04  1.9742E-06
2.650000E+04  1.9662E-06
2.655000E+04  1.9607E-06
2.660000E+04  1.9560E-06
2.665000E+04  1.9418E-06
2.670000E+04  1.9449E-06
2.675000E+04  1.9446E-06
2.680000E+04  1.9300E-06
2.685000E+04  1.9156E-06
2.690000E+04  1.9005E-06
2.695000E+04  1.8912E-06
2.700000E+04  1.8923E-06
2.705000E+04  1.8845E-06
2.710000E+04  1.8687E-06
2.715000E+04  1.8624E-06
2.720000E+04  1.8679E-06
2.725000E+04  1.8649E-06
2.730000E+04  1.8520E-06
2.735000E+04  1.8349E-06
2.740000E+04  1.8401E-06
2.745000E+04  1.8406E-06
2.750000E+04  1.8288E-06
2.755000E+04  1.8145E-06
2.760000E+04  1.7981E-06
2.765000E+04  1.7883E-06
2.770000E+04  1.7795E-06
2.775000E+04  1.7717E-06
2.780000E+04  1.7701E-06
2.785000E+04  1.7687E-06
2.790000E+04  1.7606E-06
2.795000E+04  1.7616E-06
2.800000E+04  1.7447E-06
2.805000E+04  1.7359E-06
2.810000E+04  1.7177E-06
2.815000E+04  1.7121E-06
2.820000E+04  1.7067E-06
2.825000E+04  1.7020E-06
2.830000E+04  1.6954E-06
2.835000E+04  1.6773E-06
2.840000E+04  1.6554E-06
2.845000E+04  1.6360E-06
2.850000E+04  1.6361E-06
2.855000E+04  1.6411E-06
2.860000E+04  1.6392E-06
2.865000E+04  1.6318E-06
2.870000E+04  1.6147E-06
2.875000E+04  1.6085E-06
2.880000E+04  1.6030E-06
2.885000E+04  1.5890E-06
2.890000E+04  1.5769E-06
2.895000E+04  1.5640E-06
2.900000E+04  1.5665E-06
2.905000E+04  1.5606E-06
2.910000E+04  1.5497E-06
2.915000E+04  1.5363E-06
2.920000E+04  1.5192E-06
2.925000E+04  1.5040E-06
2.930000E+04  1.5040E-06
2.935000E+04  1.4950E-06
2.940000E+04  1.4851E-06
2.945000E+04  1.4731E-06
2.950000E+04  1.4633E-06
2.955000E+04  1.4559E-06
2.960000E+04  1.4490E-06
2.965000E+04  1.4419E-06
2.970000E+04  1.4346E-06
2.975000E+04  1.4267E-06
2.980000E+04  1.4184E-06
2.985000E+04  1.4088E-06
2.990000E+04  1.4009E-06
2.995000E+04  1.3943E-06
3.000000E+04  1.3886E-06
3.005000E+04  1.3827E-06
3.010000E+04  1.3787E-06
3.015000E+04  1.3740E-06
3.020000E+04  1.3676E-06
3.025000E+04  1.3613E-06
3.030000E+04  1.3546E-06
3.035000E+04  1.3480E-06
3.040000E+04  1.3452E-06
3.045000E+04  1.3426E-06
3.050000E+04  1.3371E-06
3.055000E+04  1.3319E-06
3.060000E+04  1.3273E-06
3.065000E+04  1.3222E-06
3.070000E+04  1.3187E-06
3.075000E+04  1.3154E-06
3.080000E+04  1.3090E-06
3.085000E+04  1.3028E-06
3.090000E+04  1.2991E-06
3.095000E+04  1.2952E-06
3.100000E+04  1.2923E-06
3.105000E+04  1.2894E-06
3.110000E+04  1.2815E-06
3.115000E+04  1.2732E-06
3.120000E+04  1.2705E-06
3.125000E+04  1.2679E-06
3.130000E+04  1.2629E-06
3.135000E+04  1.2582E-06
3.140000E+04  1.2534E-06
3.145000E+04  1.2487E-06
3.150000E+04  1.2429E-06
3.155000E+04  1.2371E-06
3.160000E+04  1.2317E-06
3.165000E+04  1.2262E-06
3.170000E+04  1.2228E-06
3.175000E+04  1.2193E-06
3.180000E+04  1.2152E-06
3.185000E+04  1.2113E-06
3.190000E+04  1.2081E-06
3.195000E+04  1.2048E-06
3.200000E+04  1.2001E-06
3.210000E+04  1.1903E-06
3.220000E+04  1.1811E-06
3.230000E+04  1.1725E-06
3.240000E+04  1.1646E-06
3.250000E+04  1.1570E-06
3.260000E+04  1.1479E-06
3.270000E+04  1.1389E-06
3.280000E+04  1.1292E-06
3.290000E+04  1.1200E-06
3.300000E+04  1.1122E-06
3.310000E+04  1.1040E-06
3.320000E+04  1.0959E-06
3.330000E+04  1.0882E-06
3.340000E+04  1.0826E-06
3.350000E+04  1.0784E-06
3.360000E+04  1.0689E-06
3.370000E+04  1.0571E-06
3.380000E+04  1.0507E-06
3.390000E+04  1.0427E-06
3.400000E+04  1.0340E-06
3.410000E+04  1.0289E-06
3.420000E+04  1.0218E-06
3.430000E+04  1.0203E-06
3.440000E+04  1.0146E-06
3.450000E+04  1.0022E-06
3.460000E+04  9.8941E-07
3.470000E+04  9.8367E-07
3.480000E+04  9.7332E-07
3.490000E+04  9.6061E-07
3.500000E+04  9.5209E-07
3.510000E+04  9.4846E-07
3.520000E+04  9.3562E-07
3.530000E+04  9.2858E-07
3.540000E+04  9.1505E-07
3.550000E+04  9.0485E-07
3.560000E+04  8.9887E-07
3.570000E+04  8.9277E-07
3.580000E+04  8.8292E-07
3.590000E+04  8.7285E-07
3.600000E+04  8.6837E-07
3.610000E+04  8.6046E-07
3.620000E+04  8.5079E-07
3.630000E+04  8.3823E-07
3.640000E+04  8.3002E-07
3.650000E+04  8.2000E-07
3.660000E+04  8.1085E-07
3.670000E+04  8.0358E-07
3.680000E+04  7.9329E-07
3.690000E+04  7.8333E-07
3.700000E+04  7.7318E-07
3.710000E+04  7.6486E-07
3.720000E+04  7.5849E-07
3.730000E+04  7.5164E-07
3.740000E+04  7.4145E-07
3.750000E+04  7.3214E-07
3.760000E+04  7.2599E-07
3.770000E+04  7.2016E-07
3.780000E+04  7.1276E-07
3.790000E+04  7.0597E-07
3.800000E+04  6.9961E-07
3.810000E+04  6.9300E-07
3.820000E+04  6.8665E-07
3.830000E+04  6.8071E-07
3.840000E+04  6.7470E-07
3.850000E+04  6.6846E-07
3.860000E+04  6.6140E-07
3.870000E+04  6.5452E-07
3.880000E+04  6.4872E-07
3.890000E+04  6.4282E-07
3.900000E+04  6.3721E-07
3.910000E+04  6.3174E-07
3.920000E+04  6.2624E-07
3.930000E+04  6.2085E-07
3.940000E+04  6.1438E-07
3.950000E+04  6.0812E-07
3.960000E+04  6.0278E-07
3.970000E+04  5.9784E-07
3.980000E+04  5.9110E-07
3.990000E+04  5.8473E-07
4.000000E+04  5.8040E-07
4.010000E+04  5.7636E-07
4.020000E+04  5.7161E-07
4.030000E+04  5.6754E-07
4.040000E+04  5.6267E-07
4.050000E+04  5.5738E-07
4.060000E+04  5.5311E-07
4.070000E+04  5.4863E-07
4.080000E+04  5.4492E-07
4.090000E+04  5.4091E-07
4.100000E+04  5.3770E-07
4.110000E+04  5.3369E-07
4.120000E+04  5.2963E-07
4.130000E+04  5.2511E-07
4.140000E+04  5.1911E-07
4.150000E+04  5.1425E-07
4.160000E+04  5.0991E-07
4.170000E+04  5.0775E-07
4.180000E+04  5.0387E-07
4.190000E+04  5.0046E-07
4.200000E+04  4.9484E-07
4.210000E+04  4.9062E-07
4.220000E+04  4.8849E-07
4.230000E+04  4.8631E-07
4.240000E+04  4.8289E-07
4.250000E+04  4.7799E-07
4.260000E+04  4.7451E-07
4.270000E+04  4.7161E-07
4.280000E+04  4.6124E-07
4.290000E+04  4.5159E-07
4.300000E+04  4.4051E-07
4.310000E+04  4.3070E-07
4.320000E+04  4.3101E-07
4.330000E+04  4.2907E-07
4.340000E+04  4.1879E-07
4.350000E+04  4.0965E-07
4.360000E+04  4.0371E-07
4.370000E+04  4.0001E-07
4.380000E+04  3.9519E-07
4.390000E+04  3.9179E-07
4.400000E+04  3.8514E-07
4.410000E+04  3.8048E-07
4.420000E+04  3.7760E-07
4.430000E+04  3.7352E-07
4.440000E+04  3.7152E-07
4.450000E+04  3.6669E-07
4.460000E+04  3.6236E-07
4.470000E+04  3.5786E-07
4.480000E+04  3.5580E-07
4.490000E+04  3.5510E-07
4.500000E+04  3.5187E-07
4.510000E+04  3.4865E-07
4.520000E+04  3.4417E-07
4.530000E+04  3.4029E-07
4.540000E+04  3.3737E-07
4.550000E+04  3.3464E-07
4.560000E+04  3.3118E-07
4.570000E+04  3.2852E-07
4.580000E+04  3.2414E-07
4.590000E+04  3.1938E-07
4.600000E+04  3.1907E-07
4.610000E+04  3.1889E-07
4.620000E+04  3.1598E-07
4.630000E+04  3.1368E-07
4.640000E+04  3.1188E-07
4.650000E+04  3.0992E-07
4.660000E+04  3.0891E-07
4.670000E+04  3.0762E-07
4.680000E+04  3.0386E-07
4.690000E+04  3.0069E-07
4.700000E+04  2.9848E-07
4.710000E+04  2.9612E-07
4.720000E+04  2.9610E-07
4.730000E+04  2.9636E-07
4.740000E+04  2.9281E-07
4.750000E+04  2.8941E-07
4.760000E+04  2.8808E-07
4.770000E+04  2.8640E-07
4.780000E+04  2.8461E-07
4.790000E+04  2.8291E-07
4.800000E+04  2.7928E-07
4.810000E+04  2.7607E-07
4.820000E+04  2.7628E-07
4.830000E+04  2.7655E-07
4.840000E+04  2.7363E-07
4.850000E+04  2.7050E-07
4.860000E+04  2.6820E-07
4.870000E+04  2.6593E-07
4.880000E+04  2.6394E-07
4.890000E+04  2.6227E-07
4.900000E+04  2.6023E-07
4.910000E+04  2.5799E-07
4.920000E+04  2.5693E-07
4.930000E+04  2.5580E-07
4.940000E+04  2.5294E-07
4.950000E+04  2.5045E-07
4.960000E+04  2.4959E-07
4.970000E+04  2.4857E-07
4.980000E+04  2.4593E-07
4.990000E+04  2.4422E-07
5.000000E+04  2.4278E-07
5.010000E+04  2.4132E-07
5.020000E+04  2.3973E-07
5.030000E+04  2.3784E-07
5.040000E+04  2.3548E-07
5.050000E+04  2.3322E-07
5.060000E+04  2.3196E-07
5.070000E+04  2.3069E-07
5.080000E+04  2.2933E-07
5.090000E+04  2.2798E-07
5.100000E+04  2.2638E-07
5.110000E+04  2.2457E-07
5.120000E+04  2.2363E-07
5.130000E+04  2.2243E-07
5.140000E+04  2.2059E-07
5.150000E+04  2.1888E-07
5.160000E+04  2.1812E-07
5.170000E+04  2.1724E-07
5.180000E+04  2.1537E-07
5.190000E+04  2.1370E-07
5.200000E+04  2.1249E-07
5.210000E+04  2.1099E-07
5.220000E+04  2.0932E-07
5.230000E+04  2.0780E-07
5.240000E+04  2.0706E-07
5.250000E+04  2.0597E-07
5.260000E+04  2.0524E-07
5.270000E+04  2.0461E-07
5.280000E+04  2.0278E-07
5.290000E+04  2.0089E-07
5.300000E+04  1.9958E-07
5.310000E+04  1.9829E-07
5.320000E+04  1.9735E-07
5.330000E+04  1.9631E-07
5.340000E+04  1.9506E-07
5.350000E+04  1.9379E-07
5.360000E+04  1.9272E-07
5.370000E+04  1.9169E-07
5.380000E+04  1.9059E-07
5.390000E+04  1.8948E-07
5.400000E+04  1.8840E-07
5.410000E+04  1.8733E-07
5.420000E+04  1.8595E-07
5.430000E+04  1.8448E-07
5.440000E+04  1.8372E-07
5.450000E+04  1.8296E-07
5.460000E+04  1.8155E-07
5.470000E+04  1.8018E-07
5.480000E+04  1.7920E-07
5.490000E+04  1.7817E-07
5.500000E+04  1.7695E-07
5.510000E+04  1.7575E-07
5.520000E+04  1.7540E-07
5.530000E+04  1.7517E-07
5.540000E+04  1.7303E-07
5.550000E+04  1.7130E-07
5.560000E+04  1.7099E-07
5.570000E+04  1.7059E-07
5.580000E+04  1.6919E-07
5.590000E+04  1.6772E-07
5.600000E+04  1.6701E-07
5.610000E+04  1.6622E-07
5.620000E+04  1.6474E-07
5.630000E+04  1.6342E-07
5.640000E+04  1.6284E-07
5.650000E+04  1.6224E-07
5.660000E+04  1.6122E-07
5.670000E+04  1.6014E-07
5.680000E+04  1.5885E-07
5.690000E+04  1.5757E-07
5.700000E+04  1.5694E-07
5.710000E+04  1.5630E-07
5.720000E+04  1.5530E-07
5.730000E+04  1.5438E-07
5.740000E+04  1.5343E-07
5.750000E+04  1.5243E-07
5.760000E+04  1.5130E-07
5.770000E+04  1.5035E-07
5.780000E+04  1.4982E-07
5.790000E+04  1.4930E-07
5.800000E+04  1.4823E-07
5.810000E+04  1.4722E-07
5.820000E+04  1.4646E-07
5.830000E+04  1.4571E-07
5.840000E+04  1.4495E-07
5.850000E+04  1.4404E-07
5.860000E+04  1.4303E-07
5.870000E+04  1.4211E-07
5.880000E+04  1.4125E-07
5.890000E+04  1.4043E-07
5.900000E+04  1.3963E-07
5.910000E+04  1.3883E-07
5.920000E+04  1.3795E-07
5.930000E+04  1.3709E-07
5.940000E+04  1.3611E-07
5.950000E+04  1.3527E-07
5.960000E+04  1.3468E-07
5.970000E+04  1.3405E-07
5.980000E+04  1.3323E-07
5.990000E+04  1.3238E-07
6.000000E+04  1.3154E-07
6.010000E+04  1.3070E-07
6.020000E+04  1.2995E-07
6.030000E+04  1.2924E-07
6.040000E+04  1.2846E-07
6.050000E+04  1.2770E-07
6.060000E+04  1.2706E-07
6.070000E+04  1.2640E-07
6.080000E+04  1.2563E-07
6.090000E+04  1.2487E-07
6.100000E+04  1.2407E-07
6.110000E+04  1.2322E-07
6.120000E+04  1.2255E-07
6.130000E+04  1.2189E-07
6.140000E+04  1.2120E-07
6.150000E+04  1.2053E-07
6.160000E+04  1.1987E-07
6.170000E+04  1.1915E-07
6.180000E+04  1.1837E-07
6.190000E+04  1.1760E-07
6.200000E+04  1.1691E-07
6.210000E+04  1.1627E-07
6.220000E+04  1.1555E-07
6.230000E+04  1.1483E-07
6.240000E+04  1.1415E-07
6.250000E+04  1.1349E-07
6.260000E+04  1.1279E-07
6.270000E+04  1.1208E-07
6.280000E+04  1.1140E-07
6.290000E+04  1.1073E-07
6.300000E+04  1.1002E-07
6.310000E+04  1.0937E-07
6.320000E+04  1.0886E-07
6.330000E+04  1.0837E-07
6.340000E+04  1.0776E-07
6.350000E+04  1.0716E-07
6.360000E+04  1.0668E-07
6.370000E+04  1.0618E-07
6.380000E+04  1.0550E-07
6.390000E+04  1.0477E-07
6.400000E+04  1.0411E-07
6.410000E+04  1.0344E-07
6.420000E+04  1.0282E-07
6.430000E+04  1.0219E-07
6.440000E+04  1.0160E-07
6.450000E+04  1.0101E-07
6.460000E+04  1.0041E-07
6.470000E+04  9.9804E-08
6.480000E+04  9.9242E-08
6.490000E+04  9.8760E-08
6.500000E+04  9.8252E-08
6.510000E+04  9.7730E-08
6.520000E+04  9.7178E-08
6.530000E+04  9.6627E-08
6.540000E+04  9.6072E-08
6.550000E+04  9.5533E-08
6.560000E+04  9.4999E-08
6.570000E+04  9.4406E-08
6.580000E+04  9.3811E-08
6.590000E+04  9.3237E-08
6.600000E+04  9.2677E-08
6.610000E+04  9.2138E-08
6.620000E+04  9.1626E-08
6.630000E+04  9.1148E-08
6.640000E+04  9.0681E-08
6.650000E+04  9.0219E-08
6.660000E+04  8.9769E-08
6.670000E+04  8.9323E-08
6.680000E+04  8.8887E-08
6.690000E+04  8.8408E-08
6.700000E+04  8.7893E-08
6.710000E+04  8.7378E-08
6.720000E+04  8.6869E-08
6.730000E+04  8.6410E-08
6.740000E+04  8.5951E-08
6.750000E+04  8.5476E-08
6.760000E+04  8.4991E-08
6.770000E+04  8.4479E-08
6.780000E+04  8.4016E-08
6.790000E+04  8.3595E-08
6.800000E+04  8.3167E-08
6.810000E+04  8.2738E-08
6.820000E+04  8.2269E-08
6.830000E+04  8.1804E-08
6.840000E+04  8.1378E-08
6.850000E+04  8.0958E-08
6.860000E+04  8.0549E-08
6.870000E+04  8.0115E-08
6.880000E+04  7.9629E-08
6.890000E+04  7.9140E-08
6.900000E+04  7.8641E-08
6.910000E+04  7.8182E-08
6.920000E+04  7.7771E-08
6.930000E+04  7.7364E-08
6.940000E+04  7.6959E-08
6.950000E+04  7.6543E-08
6.960000E+04  7.6116E-08
6.970000E+04  7.5721E-08
6.980000E+04  7.5346E-08
6.990000E+04  7.4961E-08
7.000000E+04  7.4578E-08
7.010000E+04  7.4182E-08
7.020000E+04  7.3781E-08
7.030000E+04  7.3385E-08
7.040000E+04  7.2988E-08
7.050000E+04  7.2611E-08
7.060000E+04  7.2243E-08
7.070000E+04  7.1872E-08
7.080000E+04  7.1504E-08
7.090000E+04  7.1132E-08
7.100000E+04  7.0760E-08
7.110000E+04  7.0391E-08
7.120000E+04  7.0023E-08
7.130000E+04  6.9662E-08
7.140000E+04  6.9305E-08
7.150000E+04  6.8955E-08
7.160000E+04  6.8612E-08
7.170000E+04  6.8269E-08
7.180000E+04  6.7927E-08
7.190000E+04  6.7593E-08
7.200000E+04  6.7262E-08
7.210000E+04  6.6938E-08
7.220000E+04  6.6621E-08
7.230000E+04  6.6299E-08
7.240000E+04  6.5977E-08
7.250000E+04  6.5650E-08
7.260000E+04  6.5314E-08
7.270000E+04  6.4978E-08
7.280000E+04  6.4625E-08
7.290000E+04  6.4281E-08
7.300000E+04  6.3981E-08
7.310000E+04  6.3675E-08
7.320000E+04  6.3339E-08
7.330000E+04  6.3005E-08
7.340000E+04  6.2651E-08
7.350000E+04  6.2303E-08
7.360000E+04  6.1984E-08
7.370000E+04  6.1678E-08
7.380000E+04  6.1378E-08
7.390000E+04  6.1072E-08
7.400000E+04  6.0761E-08
7.410000E+04  6.0441E-08
7.420000E+04  6.0124E-08
7.430000E+04  5.9822E-08
7.440000E+04  5.9522E-08
7.450000E+04  5.9274E-08
7.460000E+04  5.9031E-08
7.470000E+04  5.8743E-08
7.480000E+04  5.8438E-08
7.490000E+04  5.8152E-08
7.500000E+04  5.7883E-08
7.510000E+04  5.7606E-08
7.520000E+04  5.7322E-08
7.530000E+04  5.7039E-08
7.540000E+04  5.6759E-08
7.550000E+04  5.6490E-08
7.560000E+04  5.6173E-08
7.570000E+04  5.5840E-08
7.580000E+04  5.5540E-08
7.590000E+04  5.5274E-08
7.600000E+04  5.5007E-08
7.610000E+04  5.4734E-08
7.620000E+04  5.4463E-08
7.630000E+04  5.4183E-08
7.640000E+04  5.3904E-08
7.650000E+04  5.3616E-08
7.660000E+04  5.3320E-08
7.670000E+04  5.3033E-08
7.680000E+04  5.2813E-08
7.690000E+04  5.2596E-08
7.700000E+04  5.2366E-08
7.710000E+04  5.2137E-08
7.720000E+04  5.1902E-08
7.730000E+04  5.1654E-08
7.740000E+04  5.1408E-08
7.750000E+04  5.1152E-08
7.760000E+04  5.0897E-08
7.770000E+04  5.0667E-08
7.780000E+04  5.0455E-08
7.790000E+04  5.0234E-08
7.800000E+04  4.9975E-08
7.810000E+04  4.9718E-08
7.820000E+04  4.9456E-08
7.830000E+04  4.9195E-08
7.840000E+04  4.8941E-08
7.850000E+04  4.8704E-08
7.860000E+04  4.8468E-08
7.870000E+04  4.8238E-08
7.880000E+04  4.8009E-08
7.890000E+04  4.7787E-08
7.900000E+04  4.7575E-08
7.910000E+04  4.7365E-08
7.920000E+04  4.7160E-08
7.930000E+04  4.6957E-08
7.940000E+04  4.6751E-08
7.950000E+04  4.6537E-08
7.960000E+04  4.6324E-08
7.970000E+04  4.6104E-08
7.980000E+04  4.5883E-08
7.990000E+04  4.5665E-08
8.000000E+04  4.5463E-08
8.010000E+04  4.5262E-08
8.020000E+04  4.5036E-08
8.030000E+04  4.4804E-08
8.040000E+04  4.4576E-08
8.050000E+04  4.4369E-08
8.060000E+04  4.4163E-08
8.070000E+04  4.3964E-08
8.080000E+04  4.3767E-08
8.090000E+04  4.3571E-08
8.100000E+04  4.3369E-08
8.110000E+04  4.3162E-08
8.120000E+04  4.2956E-08
8.130000E+04  4.2752E-08
8.140000E+04  4.2549E-08
8.150000E+04  4.2358E-08
8.160000E+04  4.2171E-08
8.170000E+04  4.1985E-08
8.180000E+04  4.1787E-08
8.190000E+04  4.1587E-08
8.200000E+04  4.1385E-08
8.210000E+04  4.1178E-08
8.220000E+04  4.0972E-08
8.230000E+04  4.0780E-08
8.240000E+04  4.0598E-08
8.250000E+04  4.0416E-08
8.260000E+04  4.0234E-08
8.270000E+04  4.0053E-08
8.280000E+04  3.9875E-08
8.290000E+04  3.9698E-08
8.300000E+04  3.9523E-08
8.310000E+04  3.9344E-08
8.320000E+04  3.9163E-08
8.330000E+04  3.8983E-08
8.340000E+04  3.8818E-08
8.350000E+04  3.8663E-08
8.360000E+04  3.8510E-08
8.370000E+04  3.8337E-08
8.380000E+04  3.8164E-08
8.390000E+04  3.7992E-08
8.400000E+04  3.7825E-08
8.410000E+04  3.7658E-08
8.420000E+04  3.7491E-08
8.430000E+04  3.7321E-08
8.440000E+04  3.7152E-08
8.450000E+04  3.6986E-08
8.460000E+04  3.6824E-08
8.470000E+04  3.6664E-08
8.480000E+04  3.6502E-08
8.490000E+04  3.6338E-08
8.500000E+04  3.6175E-08
8.510000E+04  3.6021E-08
8.520000E+04  3.5872E-08
8.530000E+04  3.5724E-08
8.540000E+04  3.5575E-08
8.550000E+04  3.5426E-08
8.560000E+04  3.5278E-08
8.570000E+04  3.5126E-08
8.580000E+04  3.4976E-08
8.590000E+04  3.4826E-08
8.600000E+04  3.4677E-08
8.610000E+04  3.4529E-08
8.620000E+04  3.4381E-08
8.630000E+04  3.4235E-08
8.640000E+04  3.4090E-08
8.650000E+04  3.3946E-08
8.660000E+04  3.3798E-08
8.670000E+04  3.3650E-08
8.680000E+04  3.3503E-08
8.690000E+04  3.3361E-08
8.700000E+04  3.3221E-08
8.710000E+04  3.3082E-08
8.720000E+04  3.2949E-08
8.730000E+04  3.2817E-08
8.740000E+04  3.2685E-08
8.750000E+04  3.2555E-08
8.760000E+04  3.2426E-08
8.770000E+04  3.2297E-08
8.780000E+04  3.2174E-08
8.790000E+04  3.2051E-08
8.800000E+04  3.1928E-08
8.810000E+04  3.1807E-08
8.820000E+04  3.1686E-08
8.830000E+04  3.1569E-08
8.840000E+04  3.1441E-08
8.850000E+04  3.1305E-08
8.860000E+04  3.1170E-08
8.870000E+04  3.1041E-08
8.880000E+04  3.0920E-08
8.890000E+04  3.0800E-08
8.900000E+04  3.0676E-08
8.910000E+04  3.0543E-08
8.920000E+04  3.0411E-08
8.930000E+04  3.0280E-08
8.940000E+04  3.0152E-08
8.950000E+04  3.0021E-08
8.960000E+04  2.9891E-08
8.970000E+04  2.9762E-08
8.980000E+04  2.9635E-08
8.990000E+04  2.9513E-08
9.000000E+04  2.9398E-08
9.010000E+04  2.9287E-08
9.020000E+04  2.9176E-08
9.030000E+04  2.9054E-08
9.040000E+04  2.8920E-08
9.050000E+04  2.8788E-08
9.060000E+04  2.8659E-08
9.070000E+04  2.8536E-08
9.080000E+04  2.8413E-08
9.090000E+04  2.8291E-08
9.100000E+04  2.8163E-08
9.110000E+04  2.8042E-08
9.120000E+04  2.7921E-08
9.130000E+04  2.7803E-08
9.140000E+04  2.7687E-08
9.150000E+04  2.7571E-08
9.160000E+04  2.7456E-08
9.170000E+04  2.7346E-08
9.180000E+04  2.7236E-08
9.190000E+04  2.7128E-08
9.200000E+04  2.7028E-08
9.210000E+04  2.6930E-08
9.220000E+04  2.6833E-08
9.230000E+04  2.6739E-08
9.240000E+04  2.6650E-08
9.250000E+04  2.6562E-08
9.260000E+04  2.6473E-08
9.270000E+04  2.6377E-08
9.280000E+04  2.6281E-08
9.290000E+04  2.6186E-08
9.300000E+04  2.6077E-08
9.310000E+04  2.5960E-08
9.320000E+04  2.5844E-08
9.330000E+04  2.5730E-08
9.340000E+04  2.5621E-08
9.350000E+04  2.5512E-08
9.360000E+04  2.5404E-08
9.370000E+04  2.5299E-08
9.380000E+04  2.5196E-08
9.390000E+04  2.5092E-08
9.400000E+04  2.4989E-08
9.410000E+04  2.4883E-08
9.420000E+04  2.4778E-08
9.430000E+04  2.4672E-08
9.440000E+04  2.4575E-08
9.450000E+04  2.4484E-08
9.460000E+04  2.4392E-08
9.470000E+04  2.4303E-08
9.480000E+04  2.4225E-08
9.490000E+04  2.4148E-08
9.500000E+04  2.4071E-08
9.510000E+04  2.3987E-08
9.520000E+04  2.3893E-08
9.530000E+04  2.3800E-08
9.540000E+04  2.3708E-08
9.550000E+04  2.3611E-08
9.560000E+04  2.3514E-08
9.570000E+04  2.3417E-08
9.580000E+04  2.3322E-08
9.590000E+04  2.3237E-08
9.600000E+04  2.3151E-08
9.610000E+04  2.3066E-08
9.620000E+04  2.2976E-08
9.630000E+04  2.2881E-08
9.640000E+04  2.2787E-08
9.650000E+04  2.2693E-08
9.660000E+04  2.2592E-08
9.670000E+04  2.2489E-08
9.680000E+04  2.2386E-08
9.690000E+04  2.2284E-08
9.700000E+04  2.2212E-08
9.710000E+04  2.2138E-08
9.720000E+04  2.2064E-08
9.730000E+04  2.1990E-08
9.740000E+04  2.1916E-08
9.750000E+04  2.1846E-08
9.760000E+04  2.1777E-08
9.770000E+04  2.1702E-08
9.780000E+04  2.1618E-08
9.790000E+04  2.1534E-08
9.800000E+04  2.1450E-08
9.810000E+04  2.1370E-08
9.820000E+04  2.1293E-08
9.830000E+04  2.1215E-08
9.840000E+04  2.1138E-08
9.850000E+04  2.1069E-08
9.860000E+04  2.1002E-08
9.870000E+04  2.0936E-08
9.880000E+04  2.0871E-08
9.890000E+04  2.0790E-08
9.900000E+04  2.0707E-08
9.910000E+04  2.0624E-08
9.920000E+04  2.0541E-08
9.930000E+04  2.0451E-08
9.940000E+04  2.0362E-08
9.950000E+04  2.0274E-08
9.960000E+04  2.0187E-08
9.970000E+04  2.0101E-08
9.980000E+04  2.0016E-08
9.990000E+04  1.9932E-08
1.000000E+05  1.9847E-08
1.002000E+05  1.9691E-08
1.050000E+05  1.6476E-08
1.100000E+05  1.3685E-08
1.130000E+05  1.2349E-08
1.160000E+05  1.1072E-08
1.200000E+05  9.6930E-09
1.250000E+05  8.4459E-09
1.300000E+05  7.2377E-09
1.350000E+05  6.2390E-09
1.400000E+05  5.4076E-09
1.450000E+05  4.7108E-09
1.500000E+05  4.1232E-09
1.600000E+05  3.2000E-09
1.700000E+05  2.5224E-09
1.800000E+05  2.0157E-09
1.900000E+05  1.6307E-09
2.000000E+05  1.3338E-09
2.200000E+05  9.1566E-10
2.300000E+05  7.6834E-10
2.400000E+05  6.4955E-10
2.500000E+05  5.5290E-10
2.600000E+05  4.7363E-10
2.700000E+05  4.0809E-10
2.800000E+05  3.5354E-10
3.000000E+05  2.6928E-10
3.500000E+05  1.4657E-10
4.000000E+05  8.6544E-11
4.500000E+05  5.4191E-11
5.000000E+05  3.5650E-11
5.500000E+05  2.4409E-11
6.000000E+05  1.7273E-11
6.500000E+05  1.2555E-11
7.000000E+05  9.3439E-12
7.500000E+05  7.0974E-12
8.000000E+05  5.4876E-12
8.500000E+05  4.3079E-12
9.000000E+05  3.4290E-12
9.500000E+05  2.7633E-12
1.000000E+06  2.2516E-12
1.050000E+06  1.8527E-12
1.100000E+06  1.5384E-12
1.200000E+06  1.0865E-12
1.300000E+06  7.8891E-13
1.400000E+06  5.8658E-13
1.500000E+06  4.4505E-13
1.600000E+06  3.4375E-13
2.000000E+06  1.4084E-13
2.500000E+06  5.7687E-14
3.000000E+06  2.7820E-14
4.000000E+06  8.8024E-15
5.000000E+06  3.6054E-15
7.000000E+06  9.3853E-16
1.000000E+07  2.2534E-16
1.500000E+07  4.4512E-17
2.250000E+07  8.7924E-18
3.350000E+07  1.7892E-18
5.000000E+07  3.6054E-19
7.400000E+07  7.5147E-20
1.100000E+08  1.5391E-20
1.300000E+08  7.8898E-21
1.600000E+08  3.4384E-21
2.400000E+08  6.7920E-22
3.600000E+08  1.3416E-22
