# Input file name  = bc2003_lr_BaSeL_m72_salp_ssp.ised
# Output file name = spec_BC16_basel_salp_Zm72_age11.5Gyr.dat
# Record         187
# Column           2
# SED(Lo/A)       at    
# Lambda(A)    1.150E+10
9.100000E+01  3.1366E-10
9.400000E+01  5.0132E-10
9.600000E+01  6.6970E-10
9.800000E+01  9.2085E-10
1.000000E+02  1.2578E-09
1.020000E+02  1.6349E-09
1.040000E+02  1.9322E-09
1.060000E+02  2.3422E-09
1.080000E+02  2.8875E-09
1.100000E+02  3.9731E-09
1.140000E+02  5.5035E-09
1.180000E+02  6.8631E-09
1.210000E+02  2.6705E-08
1.250000E+02  3.1427E-08
1.270000E+02  3.3510E-08
1.280000E+02  3.4652E-08
1.310000E+02  3.7314E-08
1.320000E+02  4.3818E-08
1.340000E+02  4.5750E-08
1.370000E+02  5.6227E-08
1.400000E+02  5.9676E-08
1.430000E+02  1.5570E-07
1.470000E+02  3.7132E-07
1.500000E+02  3.8437E-07
1.510000E+02  3.8915E-07
1.550000E+02  4.0946E-07
1.590000E+02  4.3785E-07
1.620000E+02  4.5814E-07
1.660000E+02  4.8116E-07
1.700000E+02  5.0391E-07
1.730000E+02  5.2315E-07
1.770000E+02  5.4423E-07
1.800000E+02  5.5701E-07
1.820000E+02  5.6784E-07
1.860000E+02  5.8932E-07
1.910000E+02  6.1309E-07
1.940000E+02  6.3403E-07
1.980000E+02  6.5251E-07
2.000000E+02  6.6069E-07
2.020000E+02  6.7175E-07
2.050000E+02  6.8548E-07
2.100000E+02  6.8925E-07
2.160000E+02  7.3778E-07
2.200000E+02  7.5826E-07
2.230000E+02  7.6236E-07
2.270000E+02  7.8655E-07
2.300000E+02  1.2305E-06
2.340000E+02  1.8664E-06
2.400000E+02  2.6221E-06
2.460000E+02  2.3037E-06
2.520000E+02  2.5429E-06
2.570000E+02  2.0198E-06
2.600000E+02  2.4369E-06
2.640000E+02  2.5271E-06
2.690000E+02  2.4891E-06
2.740000E+02  2.4340E-06
2.790000E+02  2.3993E-06
2.840000E+02  2.3552E-06
2.900000E+02  2.2661E-06
2.960000E+02  2.2084E-06
3.000000E+02  2.1525E-06
3.010000E+02  2.0943E-06
3.080000E+02  2.1084E-06
3.180000E+02  2.1108E-06
3.280000E+02  2.0469E-06
3.380000E+02  1.9694E-06
3.480000E+02  1.8867E-06
3.570000E+02  1.8381E-06
3.660000E+02  1.8209E-06
3.750000E+02  1.7485E-06
3.850000E+02  1.6354E-06
3.950000E+02  1.6515E-06
4.000000E+02  1.6417E-06
4.050000E+02  1.6437E-06
4.140000E+02  1.5862E-06
4.220000E+02  1.5068E-06
4.300000E+02  1.4550E-06
4.410000E+02  1.4287E-06
4.510000E+02  1.3773E-06
4.600000E+02  1.2954E-06
4.700000E+02  1.2546E-06
4.800000E+02  1.2418E-06
4.900000E+02  1.1473E-06
5.000000E+02  1.1655E-06
5.060000E+02  1.0873E-06
5.120000E+02  1.2005E-06
5.200000E+02  1.1592E-06
5.300000E+02  1.0939E-06
5.400000E+02  1.0009E-06
5.500000E+02  9.6000E-07
5.600000E+02  9.9663E-07
5.700000E+02  1.0202E-06
5.800000E+02  9.7754E-07
5.900000E+02  9.5450E-07
6.000000E+02  8.5286E-07
6.100000E+02  7.3043E-07
6.200000E+02  8.7390E-07
6.300000E+02  8.2544E-07
6.400000E+02  8.3704E-07
6.500000E+02  7.9670E-07
6.580000E+02  7.4504E-07
6.650000E+02  7.7499E-07
6.750000E+02  7.7499E-07
6.850000E+02  6.8897E-07
6.950000E+02  7.2840E-07
7.000000E+02  6.7625E-07
7.050000E+02  6.3151E-07
7.160000E+02  6.9946E-07
7.260000E+02  6.8432E-07
7.350000E+02  6.6937E-07
7.450000E+02  6.3745E-07
7.550000E+02  6.1912E-07
7.650000E+02  5.1895E-07
7.750000E+02  5.8774E-07
7.850000E+02  5.4039E-07
7.950000E+02  5.5243E-07
8.000000E+02  5.4961E-07
8.050000E+02  5.4822E-07
8.150000E+02  5.3526E-07
8.250000E+02  5.2740E-07
8.350000E+02  4.4172E-07
8.450000E+02  4.9492E-07
8.550000E+02  4.7744E-07
8.650000E+02  4.7689E-07
8.750000E+02  4.6821E-07
8.850000E+02  4.5823E-07
8.950000E+02  4.4811E-07
9.000000E+02  4.3943E-07
9.050000E+02  4.3094E-07
9.150000E+02  4.1266E-07
9.250000E+02  6.6795E-07
9.350000E+02  9.1939E-07
9.450000E+02  1.0929E-06
9.550000E+02  1.1956E-06
9.650000E+02  1.1891E-06
9.750000E+02  6.3062E-07
9.850000E+02  8.9162E-07
9.950000E+02  8.7571E-07
1.000000E+03  9.5220E-07
1.005000E+03  1.0479E-06
1.015000E+03  1.0916E-06
1.025000E+03  8.0431E-07
1.035000E+03  9.6628E-07
1.045000E+03  1.2309E-06
1.055000E+03  1.1661E-06
1.065000E+03  9.6567E-07
1.075000E+03  1.0404E-06
1.085000E+03  8.4266E-07
1.095000E+03  1.0482E-06
1.100000E+03  1.0156E-06
1.105000E+03  9.8581E-07
1.115000E+03  9.4443E-07
1.125000E+03  8.0703E-07
1.135000E+03  9.6298E-07
1.145000E+03  9.2182E-07
1.155000E+03  9.0836E-07
1.165000E+03  8.6542E-07
1.175000E+03  5.8205E-07
1.185000E+03  8.0699E-07
1.195000E+03  7.0302E-07
1.200000E+03  6.4027E-07
1.205000E+03  5.9491E-07
1.215000E+03  5.0642E-07
1.225000E+03  7.0845E-07
1.235000E+03  8.1272E-07
1.245000E+03  8.1484E-07
1.255000E+03  7.8014E-07
1.265000E+03  7.6020E-07
1.275000E+03  8.3206E-07
1.285000E+03  8.3948E-07
1.295000E+03  6.9106E-07
1.300000E+03  6.9379E-07
1.305000E+03  6.9796E-07
1.315000E+03  8.0459E-07
1.325000E+03  7.5984E-07
1.335000E+03  6.8923E-07
1.345000E+03  7.6500E-07
1.355000E+03  7.4004E-07
1.365000E+03  6.7196E-07
1.375000E+03  6.6388E-07
1.385000E+03  6.4548E-07
1.395000E+03  4.7355E-07
1.400000E+03  4.6712E-07
1.405000E+03  4.6270E-07
1.415000E+03  5.8905E-07
1.425000E+03  5.7696E-07
1.435000E+03  5.9840E-07
1.442000E+03  6.0259E-07
1.447000E+03  6.0198E-07
1.455000E+03  5.7514E-07
1.465000E+03  5.3528E-07
1.475000E+03  5.4574E-07
1.485000E+03  5.5018E-07
1.495000E+03  5.3936E-07
1.500000E+03  5.2141E-07
1.505000E+03  5.0389E-07
1.512000E+03  4.5948E-07
1.517000E+03  4.7757E-07
1.525000E+03  4.7077E-07
1.535000E+03  3.9877E-07
1.545000E+03  3.6064E-07
1.555000E+03  3.6058E-07
1.565000E+03  3.9938E-07
1.575000E+03  4.2137E-07
1.585000E+03  4.3528E-07
1.595000E+03  4.3216E-07
1.600000E+03  4.2873E-07
1.605000E+03  4.2564E-07
1.615000E+03  4.1895E-07
1.625000E+03  4.0723E-07
1.635000E+03  4.2899E-07
1.645000E+03  4.2821E-07
1.655000E+03  4.1246E-07
1.665000E+03  4.2699E-07
1.672000E+03  3.8494E-07
1.677000E+03  4.4061E-07
1.685000E+03  4.4105E-07
1.695000E+03  4.1681E-07
1.700000E+03  4.1094E-07
1.705000E+03  4.0520E-07
1.715000E+03  3.7618E-07
1.725000E+03  3.6961E-07
1.735000E+03  3.9000E-07
1.745000E+03  3.8166E-07
1.755000E+03  3.9217E-07
1.765000E+03  3.7304E-07
1.775000E+03  3.5952E-07
1.785000E+03  3.6916E-07
1.795000E+03  3.8105E-07
1.800000E+03  3.8157E-07
1.805000E+03  3.8211E-07
1.815000E+03  3.4442E-07
1.825000E+03  3.5273E-07
1.835000E+03  3.4162E-07
1.845000E+03  3.1500E-07
1.855000E+03  3.0747E-07
1.865000E+03  3.1419E-07
1.875000E+03  3.3785E-07
1.885000E+03  3.0558E-07
1.895000E+03  2.9006E-07
1.900000E+03  3.0125E-07
1.905000E+03  3.1323E-07
1.915000E+03  2.9082E-07
1.925000E+03  2.8012E-07
1.935000E+03  2.9983E-07
1.945000E+03  3.0347E-07
1.955000E+03  2.7500E-07
1.967000E+03  3.0225E-07
1.976000E+03  3.0998E-07
1.984000E+03  2.9257E-07
1.995000E+03  2.8361E-07
2.000000E+03  2.9001E-07
2.005000E+03  2.9840E-07
2.015000E+03  2.8810E-07
2.025000E+03  2.9916E-07
2.035000E+03  2.7537E-07
2.045000E+03  2.8365E-07
2.055000E+03  2.5234E-07
2.065000E+03  2.5701E-07
2.074000E+03  2.8812E-07
2.078000E+03  2.6430E-07
2.085000E+03  2.7841E-07
2.095000E+03  2.6266E-07
2.100000E+03  2.6461E-07
2.105000E+03  2.6667E-07
2.115000E+03  2.7074E-07
2.125000E+03  2.6962E-07
2.135000E+03  2.5904E-07
2.145000E+03  2.5532E-07
2.155000E+03  2.6424E-07
2.165000E+03  2.5785E-07
2.175000E+03  2.5660E-07
2.185000E+03  2.4700E-07
2.195000E+03  2.5681E-07
2.200000E+03  2.5447E-07
2.205000E+03  2.5220E-07
2.215000E+03  2.4093E-07
2.225000E+03  2.3560E-07
2.235000E+03  2.4309E-07
2.245000E+03  2.3810E-07
2.255000E+03  2.2724E-07
2.265000E+03  2.3049E-07
2.275000E+03  2.3274E-07
2.285000E+03  2.3623E-07
2.295000E+03  2.1926E-07
2.300000E+03  2.2082E-07
2.305000E+03  2.2268E-07
2.315000E+03  2.1369E-07
2.325000E+03  1.7616E-07
2.335000E+03  2.0361E-07
2.345000E+03  1.9943E-07
2.355000E+03  2.0683E-07
2.365000E+03  1.9608E-07
2.375000E+03  1.9701E-07
2.385000E+03  1.8675E-07
2.395000E+03  1.9450E-07
2.400000E+03  1.9240E-07
2.405000E+03  1.9048E-07
2.415000E+03  1.9076E-07
2.425000E+03  2.0053E-07
2.435000E+03  1.9608E-07
2.445000E+03  2.0600E-07
2.455000E+03  2.0575E-07
2.465000E+03  1.9760E-07
2.475000E+03  1.9213E-07
2.485000E+03  1.7947E-07
2.495000E+03  1.5888E-07
2.500000E+03  1.7431E-07
2.505000E+03  1.9235E-07
2.513000E+03  1.6940E-07
2.518000E+03  1.7346E-07
2.525000E+03  1.7017E-07
2.535000E+03  1.8487E-07
2.545000E+03  1.8129E-07
2.555000E+03  2.1794E-07
2.565000E+03  1.9740E-07
2.575000E+03  2.1936E-07
2.585000E+03  2.1245E-07
2.595000E+03  2.0942E-07
2.600000E+03  2.0768E-07
2.605000E+03  2.0613E-07
2.615000E+03  1.9801E-07
2.625000E+03  2.1945E-07
2.635000E+03  2.8400E-07
2.645000E+03  3.1439E-07
2.655000E+03  4.5207E-07
2.665000E+03  2.9511E-07
2.675000E+03  3.1053E-07
2.685000E+03  3.6309E-07
2.695000E+03  2.7302E-07
2.700000E+03  3.0345E-07
2.705000E+03  3.4138E-07
2.715000E+03  2.7176E-07
2.725000E+03  2.1938E-07
2.735000E+03  2.5480E-07
2.745000E+03  2.1597E-07
2.755000E+03  2.4523E-07
2.765000E+03  2.8743E-07
2.775000E+03  3.0781E-07
2.785000E+03  2.4134E-07
2.795000E+03  1.7291E-07
2.800000E+03  1.8051E-07
2.805000E+03  1.8905E-07
2.815000E+03  2.9058E-07
2.825000E+03  3.3968E-07
2.835000E+03  3.0008E-07
2.845000E+03  2.2577E-07
2.855000E+03  1.6997E-07
2.865000E+03  2.7847E-07
2.875000E+03  4.0096E-07
2.885000E+03  4.0910E-07
2.895000E+03  5.3901E-07
2.900000E+03  6.1030E-07
2.910000E+03  7.9242E-07
2.930000E+03  6.8122E-07
2.950000E+03  6.0210E-07
2.970000E+03  6.1424E-07
2.990000E+03  6.1419E-07
3.000000E+03  5.8791E-07
3.010000E+03  5.6334E-07
3.030000E+03  6.7328E-07
3.050000E+03  6.8477E-07
3.070000E+03  8.8388E-07
3.090000E+03  8.5473E-07
3.100000E+03  9.8921E-07
3.110000E+03  1.1531E-06
3.130000E+03  1.0139E-06
3.150000E+03  1.1069E-06
3.170000E+03  1.2652E-06
3.190000E+03  1.0185E-06
3.200000E+03  1.0614E-06
3.210000E+03  1.1069E-06
3.230000E+03  9.2661E-07
3.250000E+03  1.4607E-06
3.270000E+03  1.7916E-06
3.290000E+03  1.8061E-06
3.300000E+03  1.7024E-06
3.310000E+03  1.6066E-06
3.330000E+03  1.7066E-06
3.350000E+03  1.6479E-06
3.370000E+03  1.1270E-06
3.390000E+03  1.2990E-06
3.400000E+03  1.3131E-06
3.410000E+03  1.3283E-06
3.430000E+03  1.3818E-06
3.450000E+03  1.4707E-06
3.470000E+03  1.5470E-06
3.490000E+03  1.8712E-06
3.500000E+03  1.9615E-06
3.510000E+03  2.0592E-06
3.530000E+03  1.7229E-06
3.550000E+03  2.0048E-06
3.570000E+03  1.1131E-06
3.590000E+03  1.2573E-06
3.600000E+03  1.5011E-06
3.610000E+03  1.8013E-06
3.630000E+03  2.0681E-06
3.640000E+03  2.1608E-06
3.650000E+03  2.6087E-06
3.670000E+03  2.9466E-06
3.690000E+03  2.4355E-06
3.700000E+03  2.4782E-06
3.710000E+03  2.5403E-06
3.730000E+03  1.3367E-06
3.750000E+03  1.5730E-06
3.770000E+03  2.3189E-06
3.790000E+03  2.3611E-06
3.800000E+03  2.1725E-06
3.810000E+03  2.0028E-06
3.830000E+03  9.9123E-07
3.850000E+03  1.3284E-06
3.870000E+03  1.3802E-06
3.890000E+03  2.1625E-06
3.900000E+03  2.4790E-06
3.910000E+03  2.8479E-06
3.930000E+03  1.3625E-06
3.950000E+03  2.3967E-06
3.970000E+03  1.6670E-06
3.990000E+03  4.1672E-06
4.000000E+03  4.4945E-06
4.010000E+03  4.8633E-06
4.030000E+03  4.7011E-06
4.050000E+03  4.4457E-06
4.070000E+03  3.9428E-06
4.090000E+03  5.5594E-06
4.100000E+03  5.2944E-06
4.110000E+03  5.0770E-06
4.130000E+03  4.6195E-06
4.150000E+03  4.3940E-06
4.170000E+03  4.6146E-06
4.190000E+03  4.5448E-06
4.200000E+03  4.6273E-06
4.210000E+03  4.7276E-06
4.230000E+03  4.3076E-06
4.250000E+03  5.1144E-06
4.270000E+03  4.7313E-06
4.290000E+03  4.4073E-06
4.300000E+03  4.1893E-06
4.310000E+03  4.0046E-06
4.330000E+03  6.0400E-06
4.350000E+03  6.2384E-06
4.370000E+03  6.8000E-06
4.390000E+03  5.6417E-06
4.400000E+03  5.8032E-06
4.410000E+03  5.9743E-06
4.430000E+03  6.5448E-06
4.450000E+03  6.6985E-06
4.470000E+03  7.3824E-06
4.490000E+03  7.6349E-06
4.500000E+03  8.4088E-06
4.510000E+03  9.2686E-06
4.530000E+03  7.5550E-06
4.550000E+03  8.1212E-06
4.570000E+03  9.0207E-06
4.590000E+03  8.4393E-06
4.600000E+03  8.5047E-06
4.610000E+03  8.5719E-06
4.630000E+03  8.2696E-06
4.650000E+03  8.3818E-06
4.670000E+03  9.0413E-06
4.690000E+03  8.8253E-06
4.700000E+03  8.6477E-06
4.710000E+03  8.4783E-06
4.730000E+03  8.8882E-06
4.750000E+03  9.2432E-06
4.770000E+03  9.0014E-06
4.790000E+03  9.0452E-06
4.800000E+03  9.0790E-06
4.810000E+03  9.1170E-06
4.830000E+03  9.5926E-06
4.850000E+03  9.0288E-06
4.870000E+03  8.1749E-06
4.890000E+03  9.1822E-06
4.900000E+03  9.2053E-06
4.910000E+03  9.2327E-06
4.930000E+03  8.9783E-06
4.950000E+03  9.4324E-06
4.970000E+03  8.9103E-06
4.990000E+03  8.0842E-06
5.000000E+03  7.7540E-06
5.010000E+03  7.4396E-06
5.030000E+03  8.1605E-06
5.050000E+03  8.1435E-06
5.070000E+03  8.6726E-06
5.090000E+03  8.0276E-06
5.100000E+03  8.2092E-06
5.110000E+03  8.4000E-06
5.130000E+03  8.0344E-06
5.150000E+03  7.5553E-06
5.170000E+03  6.2922E-06
5.190000E+03  6.7144E-06
5.200000E+03  7.2126E-06
5.210000E+03  7.7510E-06
5.230000E+03  8.8564E-06
5.250000E+03  9.5992E-06
5.270000E+03  8.0289E-06
5.290000E+03  9.9268E-06
5.300000E+03  1.0431E-05
5.310000E+03  1.0964E-05
5.330000E+03  9.0034E-06
5.350000E+03  1.0314E-05
5.370000E+03  1.0264E-05
5.390000E+03  9.9209E-06
5.400000E+03  9.8530E-06
5.410000E+03  9.7875E-06
5.430000E+03  9.9369E-06
5.450000E+03  1.0146E-05
5.470000E+03  9.8829E-06
5.490000E+03  9.8172E-06
5.500000E+03  9.7980E-06
5.510000E+03  9.7812E-06
5.530000E+03  1.0410E-05
5.550000E+03  1.0734E-05
5.570000E+03  1.0528E-05
5.590000E+03  9.8952E-06
5.600000E+03  1.0201E-05
5.610000E+03  1.0524E-05
5.630000E+03  1.0366E-05
5.650000E+03  1.0657E-05
5.670000E+03  1.0437E-05
5.690000E+03  1.0976E-05
5.700000E+03  1.0758E-05
5.710000E+03  1.0551E-05
5.730000E+03  1.1872E-05
5.750000E+03  1.1139E-05
5.770000E+03  1.1391E-05
5.790000E+03  1.0744E-05
5.800000E+03  1.1108E-05
5.810000E+03  1.1488E-05
5.830000E+03  1.1985E-05
5.850000E+03  1.1337E-05
5.870000E+03  1.1292E-05
5.890000E+03  8.5119E-06
5.900000E+03  9.6186E-06
5.910000E+03  1.0924E-05
5.930000E+03  1.1215E-05
5.950000E+03  1.1239E-05
5.970000E+03  1.1528E-05
5.990000E+03  1.1279E-05
6.000000E+03  1.1223E-05
6.010000E+03  1.1171E-05
6.030000E+03  1.1718E-05
6.050000E+03  1.2020E-05
6.070000E+03  1.2089E-05
6.090000E+03  1.1467E-05
6.100000E+03  1.1535E-05
6.110000E+03  1.1605E-05
6.130000E+03  1.0636E-05
6.150000E+03  1.0951E-05
6.170000E+03  1.0027E-05
6.190000E+03  1.0976E-05
6.200000E+03  1.0890E-05
6.210000E+03  1.0806E-05
6.230000E+03  1.0302E-05
6.250000E+03  9.9361E-06
6.270000E+03  1.0601E-05
6.290000E+03  1.1024E-05
6.300000E+03  1.0820E-05
6.310000E+03  1.0626E-05
6.330000E+03  1.0908E-05
6.350000E+03  1.0856E-05
6.370000E+03  1.0849E-05
6.390000E+03  1.1400E-05
6.400000E+03  1.1283E-05
6.410000E+03  1.1167E-05
6.430000E+03  1.1246E-05
6.450000E+03  1.1190E-05
6.470000E+03  1.1157E-05
6.490000E+03  1.0956E-05
6.500000E+03  1.1251E-05
6.510000E+03  1.1556E-05
6.530000E+03  1.1521E-05
6.550000E+03  1.1360E-05
6.570000E+03  1.0955E-05
6.590000E+03  1.1338E-05
6.600000E+03  1.1404E-05
6.610000E+03  1.1471E-05
6.630000E+03  1.1157E-05
6.650000E+03  1.1109E-05
6.670000E+03  1.0722E-05
6.690000E+03  1.0917E-05
6.700000E+03  1.0593E-05
6.710000E+03  1.0280E-05
6.730000E+03  1.0720E-05
6.750000E+03  1.0463E-05
6.770000E+03  1.0573E-05
6.790000E+03  1.0364E-05
6.800000E+03  1.0456E-05
6.810000E+03  1.0550E-05
6.830000E+03  1.0758E-05
6.850000E+03  1.0420E-05
6.870000E+03  1.0712E-05
6.890000E+03  1.0964E-05
6.900000E+03  1.0987E-05
6.910000E+03  1.1017E-05
6.930000E+03  1.0903E-05
6.950000E+03  1.0990E-05
6.970000E+03  1.1242E-05
6.990000E+03  1.1199E-05
7.000000E+03  1.1134E-05
7.010000E+03  1.1078E-05
7.030000E+03  1.1365E-05
7.050000E+03  1.1012E-05
7.070000E+03  1.0469E-05
7.090000E+03  9.9979E-06
7.100000E+03  9.8014E-06
7.110000E+03  9.6181E-06
7.130000E+03  9.2845E-06
7.150000E+03  9.2651E-06
7.170000E+03  9.4919E-06
7.190000E+03  9.2682E-06
7.200000E+03  9.4786E-06
7.210000E+03  9.6964E-06
7.230000E+03  1.0024E-05
7.250000E+03  1.0232E-05
7.270000E+03  1.0356E-05
7.290000E+03  1.0242E-05
7.300000E+03  1.0525E-05
7.310000E+03  1.0834E-05
7.330000E+03  1.0849E-05
7.350000E+03  1.1046E-05
7.370000E+03  1.1604E-05
7.390000E+03  1.1235E-05
7.400000E+03  1.1280E-05
7.410000E+03  1.1332E-05
7.430000E+03  1.1709E-05
7.450000E+03  1.1585E-05
7.470000E+03  1.1907E-05
7.490000E+03  1.1895E-05
7.500000E+03  1.1974E-05
7.510000E+03  1.2053E-05
7.530000E+03  1.2477E-05
7.550000E+03  1.2608E-05
7.570000E+03  1.2527E-05
7.590000E+03  1.1753E-05
7.600000E+03  1.1625E-05
7.610000E+03  1.1509E-05
7.630000E+03  1.1265E-05
7.650000E+03  1.0876E-05
7.670000E+03  1.0129E-05
7.690000E+03  1.0530E-05
7.700000E+03  1.0431E-05
7.710000E+03  1.0335E-05
7.730000E+03  1.0347E-05
7.750000E+03  1.0272E-05
7.770000E+03  1.0522E-05
7.790000E+03  1.0576E-05
7.800000E+03  1.0570E-05
7.810000E+03  1.0565E-05
7.830000E+03  1.0592E-05
7.850000E+03  1.0408E-05
7.870000E+03  1.0580E-05
7.890000E+03  1.0487E-05
7.900000E+03  1.0311E-05
7.910000E+03  1.0142E-05
7.930000E+03  1.0201E-05
7.950000E+03  1.0112E-05
7.970000E+03  1.0539E-05
7.990000E+03  1.0485E-05
8.000000E+03  1.0601E-05
8.010000E+03  1.0729E-05
8.030000E+03  1.0845E-05
8.050000E+03  1.0842E-05
8.070000E+03  1.1137E-05
8.090000E+03  1.1121E-05
8.100000E+03  1.1206E-05
8.110000E+03  1.1294E-05
8.130000E+03  1.1872E-05
8.150000E+03  1.2275E-05
8.170000E+03  1.2550E-05
8.190000E+03  1.1531E-05
8.200000E+03  1.1581E-05
8.210000E+03  1.1719E-05
8.230000E+03  1.1811E-05
8.250000E+03  1.1851E-05
8.270000E+03  1.1834E-05
8.290000E+03  1.1645E-05
8.300000E+03  1.1404E-05
8.310000E+03  1.1170E-05
8.330000E+03  1.0977E-05
8.350000E+03  1.1017E-05
8.370000E+03  1.1127E-05
8.390000E+03  1.0611E-05
8.400000E+03  1.0896E-05
8.410000E+03  1.1192E-05
8.430000E+03  1.0604E-05
8.450000E+03  1.0226E-05
8.470000E+03  1.0188E-05
8.490000E+03  1.0218E-05
8.500000E+03  9.9907E-06
8.510000E+03  9.7704E-06
8.530000E+03  1.0044E-05
8.550000E+03  8.8732E-06
8.570000E+03  1.0688E-05
8.590000E+03  1.0512E-05
8.600000E+03  1.0599E-05
8.610000E+03  1.0690E-05
8.630000E+03  1.0950E-05
8.650000E+03  1.0833E-05
8.670000E+03  9.2925E-06
8.690000E+03  1.0523E-05
8.700000E+03  1.0832E-05
8.710000E+03  1.1157E-05
8.730000E+03  1.1308E-05
8.750000E+03  1.1275E-05
8.770000E+03  1.1536E-05
8.790000E+03  1.1842E-05
8.800000E+03  1.1712E-05
8.810000E+03  1.1586E-05
8.830000E+03  1.1665E-05
8.850000E+03  1.1653E-05
8.870000E+03  1.1082E-05
8.890000E+03  1.1169E-05
8.900000E+03  1.1264E-05
8.910000E+03  1.1358E-05
8.930000E+03  1.1197E-05
8.950000E+03  1.1313E-05
8.970000E+03  1.1386E-05
8.990000E+03  1.1374E-05
9.000000E+03  1.1272E-05
9.010000E+03  1.1177E-05
9.030000E+03  1.1806E-05
9.050000E+03  1.2312E-05
9.070000E+03  1.2356E-05
9.090000E+03  1.2231E-05
9.100000E+03  1.2412E-05
9.110000E+03  1.2603E-05
9.130000E+03  1.2899E-05
9.150000E+03  1.2819E-05
9.170000E+03  1.2831E-05
9.190000E+03  1.3073E-05
9.200000E+03  1.2718E-05
9.210000E+03  1.2377E-05
9.230000E+03  1.1805E-05
9.250000E+03  1.1660E-05
9.270000E+03  1.1891E-05
9.290000E+03  1.1528E-05
9.300000E+03  1.1555E-05
9.310000E+03  1.1583E-05
9.330000E+03  1.1736E-05
9.350000E+03  1.1677E-05
9.370000E+03  1.1387E-05
9.390000E+03  1.1715E-05
9.400000E+03  1.1636E-05
9.410000E+03  1.1560E-05
9.430000E+03  1.1957E-05
9.450000E+03  1.1764E-05
9.470000E+03  1.2223E-05
9.490000E+03  1.2283E-05
9.500000E+03  1.2083E-05
9.510000E+03  1.1890E-05
9.530000E+03  1.2100E-05
9.550000E+03  1.1897E-05
9.570000E+03  1.2027E-05
9.590000E+03  1.2250E-05
9.600000E+03  1.2116E-05
9.610000E+03  1.1982E-05
9.630000E+03  1.2123E-05
9.650000E+03  1.1706E-05
9.670000E+03  1.1752E-05
9.690000E+03  1.2034E-05
9.700000E+03  1.1853E-05
9.710000E+03  1.1679E-05
9.730000E+03  1.1483E-05
9.750000E+03  1.1538E-05
9.770000E+03  1.1695E-05
9.790000E+03  1.1448E-05
9.800000E+03  1.1733E-05
9.810000E+03  1.2038E-05
9.830000E+03  1.1878E-05
9.850000E+03  1.2052E-05
9.870000E+03  1.1982E-05
9.890000E+03  1.2001E-05
9.900000E+03  1.1754E-05
9.910000E+03  1.1540E-05
9.930000E+03  1.1840E-05
9.950000E+03  1.2000E-05
9.970000E+03  1.2047E-05
9.990000E+03  1.2038E-05
1.000000E+04  1.2112E-05
1.002500E+04  1.2316E-05
1.007500E+04  1.2198E-05
1.010000E+04  1.2419E-05
1.012500E+04  1.2653E-05
1.017500E+04  1.2555E-05
1.020000E+04  1.2701E-05
1.022500E+04  1.2855E-05
1.027500E+04  1.3074E-05
1.030000E+04  1.3098E-05
1.032500E+04  1.3127E-05
1.037500E+04  1.3093E-05
1.040000E+04  1.3188E-05
1.042500E+04  1.3286E-05
1.047500E+04  1.2810E-05
1.050000E+04  1.2491E-05
1.052500E+04  1.2208E-05
1.057500E+04  1.1575E-05
1.060000E+04  1.1443E-05
1.062500E+04  1.1312E-05
1.067500E+04  1.1444E-05
1.070000E+04  1.1630E-05
1.072500E+04  1.1827E-05
1.077500E+04  1.1975E-05
1.080000E+04  1.1881E-05
1.082500E+04  1.1795E-05
1.087500E+04  1.1822E-05
1.090000E+04  1.1822E-05
1.092500E+04  1.1819E-05
1.097500E+04  1.1599E-05
1.100000E+04  1.1440E-05
1.102500E+04  1.1295E-05
1.107500E+04  1.0820E-05
1.110000E+04  1.0863E-05
1.112500E+04  1.0908E-05
1.117500E+04  1.0904E-05
1.120000E+04  1.0945E-05
1.122500E+04  1.0988E-05
1.127500E+04  1.0956E-05
1.130000E+04  1.0987E-05
1.132500E+04  1.1018E-05
1.137500E+04  1.0869E-05
1.140000E+04  1.0821E-05
1.142500E+04  1.0770E-05
1.147500E+04  1.1171E-05
1.150000E+04  1.1213E-05
1.152500E+04  1.1254E-05
1.157500E+04  1.1113E-05
1.160000E+04  1.0988E-05
1.162500E+04  1.0865E-05
1.167500E+04  1.0924E-05
1.170000E+04  1.0926E-05
1.172500E+04  1.0938E-05
1.177500E+04  1.0348E-05
1.180000E+04  1.0251E-05
1.182500E+04  1.0165E-05
1.187500E+04  9.8105E-06
1.190000E+04  9.9469E-06
1.192500E+04  1.0083E-05
1.197500E+04  9.6412E-06
1.200000E+04  9.8623E-06
1.202500E+04  1.0090E-05
1.207500E+04  1.0148E-05
1.210000E+04  1.0195E-05
1.212500E+04  1.0251E-05
1.217500E+04  1.0350E-05
1.220000E+04  1.0342E-05
1.222500E+04  1.0331E-05
1.227500E+04  1.0279E-05
1.230000E+04  1.0247E-05
1.232500E+04  1.0210E-05
1.237500E+04  1.0209E-05
1.240000E+04  9.9973E-06
1.242500E+04  9.7914E-06
1.247500E+04  9.7632E-06
1.250000E+04  9.7211E-06
1.252500E+04  9.6787E-06
1.257500E+04  9.6740E-06
1.260000E+04  9.6428E-06
1.262500E+04  9.6061E-06
1.267500E+04  9.5416E-06
1.270000E+04  9.5706E-06
1.272500E+04  9.5970E-06
1.277500E+04  9.6264E-06
1.280000E+04  9.4496E-06
1.282500E+04  9.2806E-06
1.287500E+04  9.5035E-06
1.290000E+04  9.4398E-06
1.292500E+04  9.3743E-06
1.297500E+04  9.5626E-06
1.300000E+04  9.5264E-06
1.302500E+04  9.4910E-06
1.307500E+04  9.4929E-06
1.310000E+04  9.2928E-06
1.312500E+04  9.1046E-06
1.317500E+04  9.1456E-06
1.320000E+04  9.1303E-06
1.322500E+04  9.1120E-06
1.327500E+04  8.8668E-06
1.330000E+04  8.8209E-06
1.332500E+04  8.7773E-06
1.337500E+04  8.6726E-06
1.340000E+04  8.6480E-06
1.342500E+04  8.6208E-06
1.347500E+04  8.4738E-06
1.350000E+04  8.4153E-06
1.352500E+04  8.3583E-06
1.357500E+04  8.1561E-06
1.360000E+04  8.1149E-06
1.362500E+04  8.0684E-06
1.367500E+04  8.2009E-06
1.370000E+04  8.2405E-06
1.372500E+04  8.2789E-06
1.377500E+04  8.2786E-06
1.380000E+04  8.2837E-06
1.382500E+04  8.2875E-06
1.387500E+04  8.1500E-06
1.390000E+04  7.7580E-06
1.392500E+04  7.4362E-06
1.397500E+04  7.3141E-06
1.400000E+04  7.2668E-06
1.402500E+04  7.2195E-06
1.407500E+04  7.2860E-06
1.410000E+04  7.2309E-06
1.412500E+04  7.1777E-06
1.417500E+04  7.2522E-06
1.420000E+04  7.2055E-06
1.422500E+04  7.1635E-06
1.427500E+04  7.0218E-06
1.430000E+04  7.1260E-06
1.432500E+04  7.2389E-06
1.437500E+04  7.3035E-06
1.440000E+04  7.2252E-06
1.442500E+04  7.1438E-06
1.447500E+04  7.3190E-06
1.450000E+04  7.2845E-06
1.452500E+04  7.2501E-06
1.457000E+04  7.3277E-06
1.460000E+04  7.1711E-06
1.462000E+04  7.0716E-06
1.467500E+04  7.0009E-06
1.470000E+04  6.9746E-06
1.472500E+04  6.9562E-06
1.477500E+04  7.0323E-06
1.480000E+04  7.0695E-06
1.482500E+04  7.1112E-06
1.487500E+04  7.0739E-06
1.490000E+04  7.1993E-06
1.492500E+04  7.3337E-06
1.497500E+04  7.3005E-06
1.500000E+04  7.2028E-06
1.502500E+04  7.1094E-06
1.507500E+04  7.2822E-06
1.510000E+04  7.3777E-06
1.512500E+04  7.4721E-06
1.517500E+04  7.5295E-06
1.520000E+04  7.5481E-06
1.522500E+04  7.5588E-06
1.527500E+04  7.6764E-06
1.530000E+04  7.6726E-06
1.532500E+04  7.6713E-06
1.537500E+04  7.6507E-06
1.540000E+04  7.6259E-06
1.542500E+04  7.5985E-06
1.547500E+04  7.6182E-06
1.550000E+04  7.6016E-06
1.552500E+04  7.5852E-06
1.557500E+04  7.3615E-06
1.560000E+04  7.3370E-06
1.562500E+04  7.3123E-06
1.567500E+04  7.3709E-06
1.570000E+04  7.4704E-06
1.572500E+04  7.5733E-06
1.577500E+04  7.0747E-06
1.580000E+04  7.0229E-06
1.582500E+04  6.9849E-06
1.587500E+04  7.0865E-06
1.590000E+04  7.2453E-06
1.592500E+04  7.4036E-06
1.597500E+04  7.2186E-06
1.600000E+04  7.1880E-06
1.605000E+04  7.1306E-06
1.610000E+04  7.2633E-06
1.615000E+04  7.4086E-06
1.620000E+04  7.2443E-06
1.625000E+04  7.0872E-06
1.630000E+04  7.2842E-06
1.635000E+04  7.4906E-06
1.640000E+04  7.3010E-06
1.645000E+04  7.1170E-06
1.650000E+04  7.2967E-06
1.655000E+04  7.4851E-06
1.660000E+04  7.4108E-06
1.665000E+04  7.3292E-06
1.670000E+04  7.3543E-06
1.675000E+04  7.3786E-06
1.680000E+04  7.3893E-06
1.685000E+04  7.4122E-06
1.690000E+04  7.4331E-06
1.695000E+04  7.4513E-06
1.700000E+04  7.4327E-06
1.705000E+04  7.4144E-06
1.710000E+04  7.3179E-06
1.715000E+04  7.2202E-06
1.720000E+04  7.1762E-06
1.725000E+04  7.1344E-06
1.730000E+04  7.0120E-06
1.735000E+04  6.8932E-06
1.740000E+04  6.8012E-06
1.745000E+04  6.7118E-06
1.750000E+04  6.6192E-06
1.755000E+04  6.5390E-06
1.760000E+04  6.4113E-06
1.765000E+04  6.2852E-06
1.770000E+04  6.1418E-06
1.775000E+04  6.0119E-06
1.780000E+04  5.9154E-06
1.785000E+04  5.8274E-06
1.790000E+04  5.6801E-06
1.795000E+04  5.5512E-06
1.800000E+04  5.4531E-06
1.805000E+04  5.3409E-06
1.810000E+04  5.2969E-06
1.815000E+04  5.2466E-06
1.820000E+04  5.1998E-06
1.825000E+04  5.1456E-06
1.830000E+04  5.1017E-06
1.835000E+04  5.0566E-06
1.840000E+04  4.9772E-06
1.845000E+04  4.9121E-06
1.850000E+04  4.8787E-06
1.855000E+04  4.8330E-06
1.860000E+04  4.7375E-06
1.865000E+04  4.6435E-06
1.870000E+04  4.6125E-06
1.875000E+04  4.5630E-06
1.880000E+04  4.5515E-06
1.885000E+04  4.5397E-06
1.890000E+04  4.4755E-06
1.895000E+04  4.4214E-06
1.900000E+04  4.4688E-06
1.905000E+04  4.5153E-06
1.910000E+04  4.4783E-06
1.915000E+04  4.4437E-06
1.920000E+04  4.4346E-06
1.925000E+04  4.4285E-06
1.930000E+04  4.3781E-06
1.935000E+04  4.3253E-06
1.940000E+04  4.2758E-06
1.945000E+04  4.2328E-06
1.950000E+04  4.2153E-06
1.955000E+04  4.1979E-06
1.960000E+04  4.1548E-06
1.965000E+04  4.1069E-06
1.970000E+04  4.0299E-06
1.975000E+04  3.9479E-06
1.980000E+04  3.9152E-06
1.985000E+04  3.8874E-06
1.990000E+04  3.8775E-06
1.995000E+04  3.8637E-06
2.000000E+04  3.8664E-06
2.005000E+04  3.8785E-06
2.010000E+04  3.8631E-06
2.015000E+04  3.8456E-06
2.020000E+04  3.8063E-06
2.025000E+04  3.7666E-06
2.030000E+04  3.7596E-06
2.035000E+04  3.7561E-06
2.040000E+04  3.7654E-06
2.045000E+04  3.7806E-06
2.050000E+04  3.7692E-06
2.055000E+04  3.7571E-06
2.060000E+04  3.7422E-06
2.065000E+04  3.7305E-06
2.070000E+04  3.7345E-06
2.075000E+04  3.7374E-06
2.080000E+04  3.7348E-06
2.085000E+04  3.7370E-06
2.090000E+04  3.7198E-06
2.095000E+04  3.6985E-06
2.100000E+04  3.7113E-06
2.105000E+04  3.7268E-06
2.110000E+04  3.7146E-06
2.115000E+04  3.6991E-06
2.120000E+04  3.6946E-06
2.125000E+04  3.6959E-06
2.130000E+04  3.6985E-06
2.135000E+04  3.7026E-06
2.140000E+04  3.6950E-06
2.145000E+04  3.6848E-06
2.150000E+04  3.6747E-06
2.155000E+04  3.6629E-06
2.160000E+04  3.6423E-06
2.165000E+04  3.6232E-06
2.170000E+04  3.5960E-06
2.175000E+04  3.5697E-06
2.180000E+04  3.5625E-06
2.185000E+04  3.5533E-06
2.190000E+04  3.5388E-06
2.195000E+04  3.5251E-06
2.200000E+04  3.4685E-06
2.205000E+04  3.4151E-06
2.210000E+04  3.4355E-06
2.215000E+04  3.4588E-06
2.220000E+04  3.4167E-06
2.225000E+04  3.3759E-06
2.230000E+04  3.3667E-06
2.235000E+04  3.3544E-06
2.240000E+04  3.3368E-06
2.245000E+04  3.3214E-06
2.250000E+04  3.3044E-06
2.255000E+04  3.2867E-06
2.260000E+04  3.2476E-06
2.265000E+04  3.2131E-06
2.270000E+04  3.2143E-06
2.275000E+04  3.2124E-06
2.280000E+04  3.1755E-06
2.285000E+04  3.1413E-06
2.290000E+04  2.8536E-06
2.295000E+04  2.5967E-06
2.300000E+04  2.6650E-06
2.305000E+04  2.7347E-06
2.310000E+04  2.7450E-06
2.315000E+04  2.7486E-06
2.320000E+04  2.5228E-06
2.325000E+04  2.3282E-06
2.330000E+04  2.4135E-06
2.335000E+04  2.4900E-06
2.340000E+04  2.4249E-06
2.345000E+04  2.3699E-06
2.350000E+04  2.2476E-06
2.355000E+04  2.1370E-06
2.360000E+04  2.2065E-06
2.365000E+04  2.2830E-06
2.370000E+04  2.2292E-06
2.375000E+04  2.1741E-06
2.380000E+04  2.0821E-06
2.385000E+04  1.9946E-06
2.390000E+04  2.0430E-06
2.395000E+04  2.0869E-06
2.400000E+04  2.0456E-06
2.405000E+04  2.0064E-06
2.410000E+04  1.9175E-06
2.415000E+04  1.8337E-06
2.420000E+04  1.8415E-06
2.425000E+04  1.8534E-06
2.430000E+04  1.8115E-06
2.435000E+04  1.7711E-06
2.440000E+04  1.7194E-06
2.445000E+04  1.6658E-06
2.450000E+04  1.6332E-06
2.455000E+04  1.6033E-06
2.460000E+04  1.5889E-06
2.465000E+04  1.5758E-06
2.470000E+04  1.5397E-06
2.475000E+04  1.5045E-06
2.480000E+04  1.4048E-06
2.485000E+04  1.3164E-06
2.490000E+04  1.2845E-06
2.495000E+04  1.2566E-06
2.500000E+04  1.2603E-06
2.505000E+04  1.2650E-06
2.510000E+04  1.2334E-06
2.515000E+04  1.2042E-06
2.520000E+04  1.2159E-06
2.525000E+04  1.2287E-06
2.530000E+04  1.2272E-06
2.535000E+04  1.2253E-06
2.540000E+04  1.2181E-06
2.545000E+04  1.2123E-06
2.550000E+04  1.2142E-06
2.555000E+04  1.2154E-06
2.560000E+04  1.2223E-06
2.565000E+04  1.2295E-06
2.570000E+04  1.2369E-06
2.575000E+04  1.2450E-06
2.580000E+04  1.2328E-06
2.585000E+04  1.2208E-06
2.590000E+04  1.2255E-06
2.595000E+04  1.2323E-06
2.600000E+04  1.2361E-06
2.605000E+04  1.2392E-06
2.610000E+04  1.2328E-06
2.615000E+04  1.2237E-06
2.620000E+04  1.2126E-06
2.625000E+04  1.2030E-06
2.630000E+04  1.2064E-06
2.635000E+04  1.2066E-06
2.640000E+04  1.2004E-06
2.645000E+04  1.1933E-06
2.650000E+04  1.1890E-06
2.655000E+04  1.1859E-06
2.660000E+04  1.1823E-06
2.665000E+04  1.1736E-06
2.670000E+04  1.1766E-06
2.675000E+04  1.1778E-06
2.680000E+04  1.1688E-06
2.685000E+04  1.1600E-06
2.690000E+04  1.1475E-06
2.695000E+04  1.1382E-06
2.700000E+04  1.1378E-06
2.705000E+04  1.1328E-06
2.710000E+04  1.1225E-06
2.715000E+04  1.1172E-06
2.720000E+04  1.1187E-06
2.725000E+04  1.1158E-06
2.730000E+04  1.1076E-06
2.735000E+04  1.0972E-06
2.740000E+04  1.0998E-06
2.745000E+04  1.1000E-06
2.750000E+04  1.0936E-06
2.755000E+04  1.0859E-06
2.760000E+04  1.0759E-06
2.765000E+04  1.0693E-06
2.770000E+04  1.0623E-06
2.775000E+04  1.0558E-06
2.780000E+04  1.0553E-06
2.785000E+04  1.0549E-06
2.790000E+04  1.0502E-06
2.795000E+04  1.0502E-06
2.800000E+04  1.0403E-06
2.805000E+04  1.0346E-06
2.810000E+04  1.0237E-06
2.815000E+04  1.0193E-06
2.820000E+04  1.0164E-06
2.825000E+04  1.0139E-06
2.830000E+04  1.0107E-06
2.835000E+04  1.0015E-06
2.840000E+04  9.8911E-07
2.845000E+04  9.7799E-07
2.850000E+04  9.7754E-07
2.855000E+04  9.7965E-07
2.860000E+04  9.7857E-07
2.865000E+04  9.7467E-07
2.870000E+04  9.6618E-07
2.875000E+04  9.6331E-07
2.880000E+04  9.5942E-07
2.885000E+04  9.5113E-07
2.890000E+04  9.4456E-07
2.895000E+04  9.3752E-07
2.900000E+04  9.3860E-07
2.905000E+04  9.3526E-07
2.910000E+04  9.2944E-07
2.915000E+04  9.2225E-07
2.920000E+04  9.1158E-07
2.925000E+04  9.0198E-07
2.930000E+04  9.0307E-07
2.935000E+04  8.9948E-07
2.940000E+04  8.9421E-07
2.945000E+04  8.8783E-07
2.950000E+04  8.8251E-07
2.955000E+04  8.7847E-07
2.960000E+04  8.7526E-07
2.965000E+04  8.7193E-07
2.970000E+04  8.6817E-07
2.975000E+04  8.6408E-07
2.980000E+04  8.5922E-07
2.985000E+04  8.5370E-07
2.990000E+04  8.4941E-07
2.995000E+04  8.4579E-07
3.000000E+04  8.4325E-07
3.005000E+04  8.4061E-07
3.010000E+04  8.3966E-07
3.015000E+04  8.3833E-07
3.020000E+04  8.3536E-07
3.025000E+04  8.3245E-07
3.030000E+04  8.3002E-07
3.035000E+04  8.2767E-07
3.040000E+04  8.2700E-07
3.045000E+04  8.2641E-07
3.050000E+04  8.2402E-07
3.055000E+04  8.2178E-07
3.060000E+04  8.2055E-07
3.065000E+04  8.1905E-07
3.070000E+04  8.1843E-07
3.075000E+04  8.1789E-07
3.080000E+04  8.1534E-07
3.085000E+04  8.1295E-07
3.090000E+04  8.1269E-07
3.095000E+04  8.1239E-07
3.100000E+04  8.1226E-07
3.105000E+04  8.1211E-07
3.110000E+04  8.0782E-07
3.115000E+04  8.0332E-07
3.120000E+04  8.0372E-07
3.125000E+04  8.0419E-07
3.130000E+04  8.0249E-07
3.135000E+04  8.0097E-07
3.140000E+04  7.9908E-07
3.145000E+04  7.9727E-07
3.150000E+04  7.9505E-07
3.155000E+04  7.9278E-07
3.160000E+04  7.9026E-07
3.165000E+04  7.8765E-07
3.170000E+04  7.8728E-07
3.175000E+04  7.8694E-07
3.180000E+04  7.8596E-07
3.185000E+04  7.8511E-07
3.190000E+04  7.8508E-07
3.195000E+04  7.8499E-07
3.200000E+04  7.8377E-07
3.210000E+04  7.8111E-07
3.220000E+04  7.7844E-07
3.230000E+04  7.7611E-07
3.240000E+04  7.7484E-07
3.250000E+04  7.7381E-07
3.260000E+04  7.7066E-07
3.270000E+04  7.6753E-07
3.280000E+04  7.6397E-07
3.290000E+04  7.6067E-07
3.300000E+04  7.5889E-07
3.310000E+04  7.5693E-07
3.320000E+04  7.5437E-07
3.330000E+04  7.5201E-07
3.340000E+04  7.5075E-07
3.350000E+04  7.5026E-07
3.360000E+04  7.4655E-07
3.370000E+04  7.4166E-07
3.380000E+04  7.3898E-07
3.390000E+04  7.3545E-07
3.400000E+04  7.3105E-07
3.410000E+04  7.2849E-07
3.420000E+04  7.2588E-07
3.430000E+04  7.2623E-07
3.440000E+04  7.2322E-07
3.450000E+04  7.1667E-07
3.460000E+04  7.1017E-07
3.470000E+04  7.0733E-07
3.480000E+04  7.0222E-07
3.490000E+04  6.9586E-07
3.500000E+04  6.9157E-07
3.510000E+04  6.8982E-07
3.520000E+04  6.8303E-07
3.530000E+04  6.7926E-07
3.540000E+04  6.7201E-07
3.550000E+04  6.6650E-07
3.560000E+04  6.6297E-07
3.570000E+04  6.5937E-07
3.580000E+04  6.5418E-07
3.590000E+04  6.4887E-07
3.600000E+04  6.4630E-07
3.610000E+04  6.4193E-07
3.620000E+04  6.3618E-07
3.630000E+04  6.2893E-07
3.640000E+04  6.2391E-07
3.650000E+04  6.1796E-07
3.660000E+04  6.1284E-07
3.670000E+04  6.0869E-07
3.680000E+04  6.0243E-07
3.690000E+04  5.9635E-07
3.700000E+04  5.9013E-07
3.710000E+04  5.8486E-07
3.720000E+04  5.8086E-07
3.730000E+04  5.7661E-07
3.740000E+04  5.7042E-07
3.750000E+04  5.6470E-07
3.760000E+04  5.6090E-07
3.770000E+04  5.5727E-07
3.780000E+04  5.5191E-07
3.790000E+04  5.4689E-07
3.800000E+04  5.4218E-07
3.810000E+04  5.3734E-07
3.820000E+04  5.3312E-07
3.830000E+04  5.2913E-07
3.840000E+04  5.2486E-07
3.850000E+04  5.2047E-07
3.860000E+04  5.1511E-07
3.870000E+04  5.0987E-07
3.880000E+04  5.0544E-07
3.890000E+04  5.0098E-07
3.900000E+04  4.9682E-07
3.910000E+04  4.9274E-07
3.920000E+04  4.8840E-07
3.930000E+04  4.8414E-07
3.940000E+04  4.7894E-07
3.950000E+04  4.7388E-07
3.960000E+04  4.6972E-07
3.970000E+04  4.6578E-07
3.980000E+04  4.5970E-07
3.990000E+04  4.5386E-07
4.000000E+04  4.5104E-07
4.010000E+04  4.4839E-07
4.020000E+04  4.4462E-07
4.030000E+04  4.4121E-07
4.040000E+04  4.3720E-07
4.050000E+04  4.3299E-07
4.060000E+04  4.2908E-07
4.070000E+04  4.2509E-07
4.080000E+04  4.2213E-07
4.090000E+04  4.1901E-07
4.100000E+04  4.1611E-07
4.110000E+04  4.1280E-07
4.120000E+04  4.0977E-07
4.130000E+04  4.0651E-07
4.140000E+04  4.0223E-07
4.150000E+04  3.9857E-07
4.160000E+04  3.9527E-07
4.170000E+04  3.9313E-07
4.180000E+04  3.8974E-07
4.190000E+04  3.8661E-07
4.200000E+04  3.8257E-07
4.210000E+04  3.7928E-07
4.220000E+04  3.7766E-07
4.230000E+04  3.7603E-07
4.240000E+04  3.7315E-07
4.250000E+04  3.6951E-07
4.260000E+04  3.6678E-07
4.270000E+04  3.6437E-07
4.280000E+04  3.5591E-07
4.290000E+04  3.4801E-07
4.300000E+04  3.3769E-07
4.310000E+04  3.2852E-07
4.320000E+04  3.2874E-07
4.330000E+04  3.2781E-07
4.340000E+04  3.1970E-07
4.350000E+04  3.1236E-07
4.360000E+04  3.0810E-07
4.370000E+04  3.0503E-07
4.380000E+04  3.0129E-07
4.390000E+04  2.9832E-07
4.400000E+04  2.9451E-07
4.410000E+04  2.9175E-07
4.420000E+04  2.8750E-07
4.430000E+04  2.8289E-07
4.440000E+04  2.8125E-07
4.450000E+04  2.7813E-07
4.460000E+04  2.7650E-07
4.470000E+04  2.7490E-07
4.480000E+04  2.7185E-07
4.490000E+04  2.6965E-07
4.500000E+04  2.6813E-07
4.510000E+04  2.6665E-07
4.520000E+04  2.6479E-07
4.530000E+04  2.6330E-07
4.540000E+04  2.6043E-07
4.550000E+04  2.5771E-07
4.560000E+04  2.5498E-07
4.570000E+04  2.5268E-07
4.580000E+04  2.4943E-07
4.590000E+04  2.4601E-07
4.600000E+04  2.4562E-07
4.610000E+04  2.4531E-07
4.620000E+04  2.4335E-07
4.630000E+04  2.4171E-07
4.640000E+04  2.4023E-07
4.650000E+04  2.3868E-07
4.660000E+04  2.3858E-07
4.670000E+04  2.3839E-07
4.680000E+04  2.3529E-07
4.690000E+04  2.3254E-07
4.700000E+04  2.3104E-07
4.710000E+04  2.2946E-07
4.720000E+04  2.2935E-07
4.730000E+04  2.2939E-07
4.740000E+04  2.2596E-07
4.750000E+04  2.2271E-07
4.760000E+04  2.2257E-07
4.770000E+04  2.2234E-07
4.780000E+04  2.2103E-07
4.790000E+04  2.1978E-07
4.800000E+04  2.1645E-07
4.810000E+04  2.1342E-07
4.820000E+04  2.1420E-07
4.830000E+04  2.1510E-07
4.840000E+04  2.1206E-07
4.850000E+04  2.0900E-07
4.860000E+04  2.0734E-07
4.870000E+04  2.0570E-07
4.880000E+04  2.0396E-07
4.890000E+04  2.0241E-07
4.900000E+04  2.0055E-07
4.910000E+04  1.9861E-07
4.920000E+04  1.9858E-07
4.930000E+04  1.9859E-07
4.940000E+04  1.9621E-07
4.950000E+04  1.9405E-07
4.960000E+04  1.9388E-07
4.970000E+04  1.9367E-07
4.980000E+04  1.9108E-07
4.990000E+04  1.8905E-07
5.000000E+04  1.8779E-07
5.010000E+04  1.8653E-07
5.020000E+04  1.8529E-07
5.030000E+04  1.8389E-07
5.040000E+04  1.8223E-07
5.050000E+04  1.8063E-07
5.060000E+04  1.7961E-07
5.070000E+04  1.7859E-07
5.080000E+04  1.7743E-07
5.090000E+04  1.7628E-07
5.100000E+04  1.7505E-07
5.110000E+04  1.7372E-07
5.120000E+04  1.7291E-07
5.130000E+04  1.7195E-07
5.140000E+04  1.7057E-07
5.150000E+04  1.6925E-07
5.160000E+04  1.6849E-07
5.170000E+04  1.6768E-07
5.180000E+04  1.6634E-07
5.190000E+04  1.6512E-07
5.200000E+04  1.6421E-07
5.210000E+04  1.6316E-07
5.220000E+04  1.6199E-07
5.230000E+04  1.6091E-07
5.240000E+04  1.6031E-07
5.250000E+04  1.5953E-07
5.260000E+04  1.5897E-07
5.270000E+04  1.5846E-07
5.280000E+04  1.5725E-07
5.290000E+04  1.5601E-07
5.300000E+04  1.5507E-07
5.310000E+04  1.5414E-07
5.320000E+04  1.5348E-07
5.330000E+04  1.5276E-07
5.340000E+04  1.5187E-07
5.350000E+04  1.5098E-07
5.360000E+04  1.5022E-07
5.370000E+04  1.4948E-07
5.380000E+04  1.4870E-07
5.390000E+04  1.4791E-07
5.400000E+04  1.4708E-07
5.410000E+04  1.4626E-07
5.420000E+04  1.4517E-07
5.430000E+04  1.4404E-07
5.440000E+04  1.4335E-07
5.450000E+04  1.4267E-07
5.460000E+04  1.4156E-07
5.470000E+04  1.4048E-07
5.480000E+04  1.3968E-07
5.490000E+04  1.3886E-07
5.500000E+04  1.3788E-07
5.510000E+04  1.3692E-07
5.520000E+04  1.3654E-07
5.530000E+04  1.3624E-07
5.540000E+04  1.3478E-07
5.550000E+04  1.3353E-07
5.560000E+04  1.3314E-07
5.570000E+04  1.3271E-07
5.580000E+04  1.3170E-07
5.590000E+04  1.3066E-07
5.600000E+04  1.3006E-07
5.610000E+04  1.2943E-07
5.620000E+04  1.2837E-07
5.630000E+04  1.2739E-07
5.640000E+04  1.2686E-07
5.650000E+04  1.2633E-07
5.660000E+04  1.2555E-07
5.670000E+04  1.2475E-07
5.680000E+04  1.2380E-07
5.690000E+04  1.2286E-07
5.700000E+04  1.2234E-07
5.710000E+04  1.2181E-07
5.720000E+04  1.2105E-07
5.730000E+04  1.2033E-07
5.740000E+04  1.1960E-07
5.750000E+04  1.1885E-07
5.760000E+04  1.1802E-07
5.770000E+04  1.1729E-07
5.780000E+04  1.1681E-07
5.790000E+04  1.1634E-07
5.800000E+04  1.1554E-07
5.810000E+04  1.1477E-07
5.820000E+04  1.1416E-07
5.830000E+04  1.1356E-07
5.840000E+04  1.1294E-07
5.850000E+04  1.1225E-07
5.860000E+04  1.1149E-07
5.870000E+04  1.1077E-07
5.880000E+04  1.1012E-07
5.890000E+04  1.0949E-07
5.900000E+04  1.0888E-07
5.910000E+04  1.0827E-07
5.920000E+04  1.0761E-07
5.930000E+04  1.0696E-07
5.940000E+04  1.0622E-07
5.950000E+04  1.0557E-07
5.960000E+04  1.0508E-07
5.970000E+04  1.0457E-07
5.980000E+04  1.0395E-07
5.990000E+04  1.0331E-07
6.000000E+04  1.0268E-07
6.010000E+04  1.0205E-07
6.020000E+04  1.0146E-07
6.030000E+04  1.0089E-07
6.040000E+04  1.0028E-07
6.050000E+04  9.9690E-08
6.060000E+04  9.9171E-08
6.070000E+04  9.8643E-08
6.080000E+04  9.8054E-08
6.090000E+04  9.7471E-08
6.100000E+04  9.6869E-08
6.110000E+04  9.6245E-08
6.120000E+04  9.5726E-08
6.130000E+04  9.5219E-08
6.140000E+04  9.4686E-08
6.150000E+04  9.4160E-08
6.160000E+04  9.3646E-08
6.170000E+04  9.3105E-08
6.180000E+04  9.2521E-08
6.190000E+04  9.1945E-08
6.200000E+04  9.1426E-08
6.210000E+04  9.0939E-08
6.220000E+04  9.0381E-08
6.230000E+04  8.9828E-08
6.240000E+04  8.9300E-08
6.250000E+04  8.8781E-08
6.260000E+04  8.8248E-08
6.270000E+04  8.7715E-08
6.280000E+04  8.7208E-08
6.290000E+04  8.6714E-08
6.300000E+04  8.6175E-08
6.310000E+04  8.5664E-08
6.320000E+04  8.5264E-08
6.330000E+04  8.4870E-08
6.340000E+04  8.4394E-08
6.350000E+04  8.3917E-08
6.360000E+04  8.3527E-08
6.370000E+04  8.3123E-08
6.380000E+04  8.2590E-08
6.390000E+04  8.2035E-08
6.400000E+04  8.1556E-08
6.410000E+04  8.1071E-08
6.420000E+04  8.0615E-08
6.430000E+04  8.0138E-08
6.440000E+04  7.9685E-08
6.450000E+04  7.9228E-08
6.460000E+04  7.8771E-08
6.470000E+04  7.8313E-08
6.480000E+04  7.7878E-08
6.490000E+04  7.7487E-08
6.500000E+04  7.7083E-08
6.510000E+04  7.6674E-08
6.520000E+04  7.6251E-08
6.530000E+04  7.5828E-08
6.540000E+04  7.5405E-08
6.550000E+04  7.4990E-08
6.560000E+04  7.4579E-08
6.570000E+04  7.4137E-08
6.580000E+04  7.3696E-08
6.590000E+04  7.3264E-08
6.600000E+04  7.2840E-08
6.610000E+04  7.2428E-08
6.620000E+04  7.2032E-08
6.630000E+04  7.1656E-08
6.640000E+04  7.1286E-08
6.650000E+04  7.0920E-08
6.660000E+04  7.0561E-08
6.670000E+04  7.0203E-08
6.680000E+04  6.9851E-08
6.690000E+04  6.9478E-08
6.700000E+04  6.9087E-08
6.710000E+04  6.8693E-08
6.720000E+04  6.8304E-08
6.730000E+04  6.7942E-08
6.740000E+04  6.7580E-08
6.750000E+04  6.7216E-08
6.760000E+04  6.6846E-08
6.770000E+04  6.6463E-08
6.780000E+04  6.6107E-08
6.790000E+04  6.5770E-08
6.800000E+04  6.5431E-08
6.810000E+04  6.5092E-08
6.820000E+04  6.4733E-08
6.830000E+04  6.4381E-08
6.840000E+04  6.4050E-08
6.850000E+04  6.3722E-08
6.860000E+04  6.3401E-08
6.870000E+04  6.3064E-08
6.880000E+04  6.2701E-08
6.890000E+04  6.2337E-08
6.900000E+04  6.1968E-08
6.910000E+04  6.1622E-08
6.920000E+04  6.1302E-08
6.930000E+04  6.0985E-08
6.940000E+04  6.0670E-08
6.950000E+04  6.0348E-08
6.960000E+04  6.0021E-08
6.970000E+04  5.9712E-08
6.980000E+04  5.9414E-08
6.990000E+04  5.9110E-08
7.000000E+04  5.8808E-08
7.010000E+04  5.8499E-08
7.020000E+04  5.8189E-08
7.030000E+04  5.7883E-08
7.040000E+04  5.7577E-08
7.050000E+04  5.7283E-08
7.060000E+04  5.6994E-08
7.070000E+04  5.6703E-08
7.080000E+04  5.6415E-08
7.090000E+04  5.6125E-08
7.100000E+04  5.5835E-08
7.110000E+04  5.5550E-08
7.120000E+04  5.5266E-08
7.130000E+04  5.4986E-08
7.140000E+04  5.4709E-08
7.150000E+04  5.4433E-08
7.160000E+04  5.4162E-08
7.170000E+04  5.3891E-08
7.180000E+04  5.3621E-08
7.190000E+04  5.3358E-08
7.200000E+04  5.3097E-08
7.210000E+04  5.2840E-08
7.220000E+04  5.2587E-08
7.230000E+04  5.2330E-08
7.240000E+04  5.2074E-08
7.250000E+04  5.1815E-08
7.260000E+04  5.1553E-08
7.270000E+04  5.1292E-08
7.280000E+04  5.1023E-08
7.290000E+04  5.0759E-08
7.300000E+04  5.0518E-08
7.310000E+04  5.0274E-08
7.320000E+04  5.0015E-08
7.330000E+04  4.9758E-08
7.340000E+04  4.9490E-08
7.350000E+04  4.9227E-08
7.360000E+04  4.8979E-08
7.370000E+04  4.8738E-08
7.380000E+04  4.8502E-08
7.390000E+04  4.8258E-08
7.400000E+04  4.8013E-08
7.410000E+04  4.7763E-08
7.420000E+04  4.7516E-08
7.430000E+04  4.7283E-08
7.440000E+04  4.7051E-08
7.450000E+04  4.6847E-08
7.460000E+04  4.6646E-08
7.470000E+04  4.6420E-08
7.480000E+04  4.6186E-08
7.490000E+04  4.5961E-08
7.500000E+04  4.5746E-08
7.510000E+04  4.5527E-08
7.520000E+04  4.5304E-08
7.530000E+04  4.5083E-08
7.540000E+04  4.4862E-08
7.550000E+04  4.4652E-08
7.560000E+04  4.4418E-08
7.570000E+04  4.4175E-08
7.580000E+04  4.3950E-08
7.590000E+04  4.3740E-08
7.600000E+04  4.3531E-08
7.610000E+04  4.3318E-08
7.620000E+04  4.3106E-08
7.630000E+04  4.2891E-08
7.640000E+04  4.2676E-08
7.650000E+04  4.2457E-08
7.660000E+04  4.2235E-08
7.670000E+04  4.2017E-08
7.680000E+04  4.1835E-08
7.690000E+04  4.1655E-08
7.700000E+04  4.1468E-08
7.710000E+04  4.1283E-08
7.720000E+04  4.1096E-08
7.730000E+04  4.0902E-08
7.740000E+04  4.0710E-08
7.750000E+04  4.0511E-08
7.760000E+04  4.0314E-08
7.770000E+04  4.0130E-08
7.780000E+04  3.9955E-08
7.790000E+04  3.9776E-08
7.800000E+04  3.9578E-08
7.810000E+04  3.9382E-08
7.820000E+04  3.9182E-08
7.830000E+04  3.8985E-08
7.840000E+04  3.8792E-08
7.850000E+04  3.8608E-08
7.860000E+04  3.8425E-08
7.870000E+04  3.8244E-08
7.880000E+04  3.8064E-08
7.890000E+04  3.7889E-08
7.900000E+04  3.7719E-08
7.910000E+04  3.7550E-08
7.920000E+04  3.7385E-08
7.930000E+04  3.7221E-08
7.940000E+04  3.7055E-08
7.950000E+04  3.6886E-08
7.960000E+04  3.6718E-08
7.970000E+04  3.6546E-08
7.980000E+04  3.6375E-08
7.990000E+04  3.6202E-08
8.000000E+04  3.6039E-08
8.010000E+04  3.5877E-08
8.020000E+04  3.5702E-08
8.030000E+04  3.5526E-08
8.040000E+04  3.5353E-08
8.050000E+04  3.5191E-08
8.060000E+04  3.5030E-08
8.070000E+04  3.4873E-08
8.080000E+04  3.4718E-08
8.090000E+04  3.4563E-08
8.100000E+04  3.4406E-08
8.110000E+04  3.4245E-08
8.120000E+04  3.4086E-08
8.130000E+04  3.3927E-08
8.140000E+04  3.3769E-08
8.150000E+04  3.3619E-08
8.160000E+04  3.3470E-08
8.170000E+04  3.3322E-08
8.180000E+04  3.3169E-08
8.190000E+04  3.3014E-08
8.200000E+04  3.2859E-08
8.210000E+04  3.2701E-08
8.220000E+04  3.2544E-08
8.230000E+04  3.2395E-08
8.240000E+04  3.2250E-08
8.250000E+04  3.2107E-08
8.260000E+04  3.1963E-08
8.270000E+04  3.1820E-08
8.280000E+04  3.1678E-08
8.290000E+04  3.1538E-08
8.300000E+04  3.1399E-08
8.310000E+04  3.1258E-08
8.320000E+04  3.1116E-08
8.330000E+04  3.0975E-08
8.340000E+04  3.0842E-08
8.350000E+04  3.0715E-08
8.360000E+04  3.0588E-08
8.370000E+04  3.0451E-08
8.380000E+04  3.0314E-08
8.390000E+04  3.0182E-08
8.400000E+04  3.0051E-08
8.410000E+04  2.9921E-08
8.420000E+04  2.9791E-08
8.430000E+04  2.9658E-08
8.440000E+04  2.9525E-08
8.450000E+04  2.9394E-08
8.460000E+04  2.9266E-08
8.470000E+04  2.9139E-08
8.480000E+04  2.9012E-08
8.490000E+04  2.8883E-08
8.500000E+04  2.8756E-08
8.510000E+04  2.8634E-08
8.520000E+04  2.8515E-08
8.530000E+04  2.8396E-08
8.540000E+04  2.8277E-08
8.550000E+04  2.8158E-08
8.560000E+04  2.8039E-08
8.570000E+04  2.7919E-08
8.580000E+04  2.7800E-08
8.590000E+04  2.7681E-08
8.600000E+04  2.7563E-08
8.610000E+04  2.7445E-08
8.620000E+04  2.7329E-08
8.630000E+04  2.7213E-08
8.640000E+04  2.7098E-08
8.650000E+04  2.6983E-08
8.660000E+04  2.6867E-08
8.670000E+04  2.6751E-08
8.680000E+04  2.6636E-08
8.690000E+04  2.6524E-08
8.700000E+04  2.6413E-08
8.710000E+04  2.6302E-08
8.720000E+04  2.6195E-08
8.730000E+04  2.6088E-08
8.740000E+04  2.5982E-08
8.750000E+04  2.5876E-08
8.760000E+04  2.5771E-08
8.770000E+04  2.5667E-08
8.780000E+04  2.5565E-08
8.790000E+04  2.5464E-08
8.800000E+04  2.5363E-08
8.810000E+04  2.5264E-08
8.820000E+04  2.5165E-08
8.830000E+04  2.5068E-08
8.840000E+04  2.4966E-08
8.850000E+04  2.4859E-08
8.860000E+04  2.4754E-08
8.870000E+04  2.4651E-08
8.880000E+04  2.4553E-08
8.890000E+04  2.4455E-08
8.900000E+04  2.4356E-08
8.910000E+04  2.4253E-08
8.920000E+04  2.4150E-08
8.930000E+04  2.4048E-08
8.940000E+04  2.3948E-08
8.950000E+04  2.3845E-08
8.960000E+04  2.3743E-08
8.970000E+04  2.3641E-08
8.980000E+04  2.3541E-08
8.990000E+04  2.3446E-08
9.000000E+04  2.3355E-08
9.010000E+04  2.3266E-08
9.020000E+04  2.3177E-08
9.030000E+04  2.3080E-08
9.040000E+04  2.2978E-08
9.050000E+04  2.2877E-08
9.060000E+04  2.2777E-08
9.070000E+04  2.2680E-08
9.080000E+04  2.2584E-08
9.090000E+04  2.2488E-08
9.100000E+04  2.2390E-08
9.110000E+04  2.2297E-08
9.120000E+04  2.2204E-08
9.130000E+04  2.2112E-08
9.140000E+04  2.2022E-08
9.150000E+04  2.1931E-08
9.160000E+04  2.1840E-08
9.170000E+04  2.1752E-08
9.180000E+04  2.1665E-08
9.190000E+04  2.1579E-08
9.200000E+04  2.1498E-08
9.210000E+04  2.1418E-08
9.220000E+04  2.1338E-08
9.230000E+04  2.1260E-08
9.240000E+04  2.1184E-08
9.250000E+04  2.1109E-08
9.260000E+04  2.1034E-08
9.270000E+04  2.0956E-08
9.280000E+04  2.0877E-08
9.290000E+04  2.0799E-08
9.300000E+04  2.0715E-08
9.310000E+04  2.0625E-08
9.320000E+04  2.0537E-08
9.330000E+04  2.0449E-08
9.340000E+04  2.0364E-08
9.350000E+04  2.0280E-08
9.360000E+04  2.0196E-08
9.370000E+04  2.0114E-08
9.380000E+04  2.0033E-08
9.390000E+04  1.9952E-08
9.400000E+04  1.9872E-08
9.410000E+04  1.9790E-08
9.420000E+04  1.9709E-08
9.430000E+04  1.9627E-08
9.440000E+04  1.9550E-08
9.450000E+04  1.9475E-08
9.460000E+04  1.9402E-08
9.470000E+04  1.9329E-08
9.480000E+04  1.9263E-08
9.490000E+04  1.9196E-08
9.500000E+04  1.9131E-08
9.510000E+04  1.9061E-08
9.520000E+04  1.8988E-08
9.530000E+04  1.8914E-08
9.540000E+04  1.8841E-08
9.550000E+04  1.8766E-08
9.560000E+04  1.8690E-08
9.570000E+04  1.8615E-08
9.580000E+04  1.8540E-08
9.590000E+04  1.8472E-08
9.600000E+04  1.8403E-08
9.610000E+04  1.8335E-08
9.620000E+04  1.8264E-08
9.630000E+04  1.8190E-08
9.640000E+04  1.8116E-08
9.650000E+04  1.8043E-08
9.660000E+04  1.7966E-08
9.670000E+04  1.7889E-08
9.680000E+04  1.7812E-08
9.690000E+04  1.7736E-08
9.700000E+04  1.7675E-08
9.710000E+04  1.7612E-08
9.720000E+04  1.7549E-08
9.730000E+04  1.7487E-08
9.740000E+04  1.7425E-08
9.750000E+04  1.7366E-08
9.760000E+04  1.7308E-08
9.770000E+04  1.7247E-08
9.780000E+04  1.7182E-08
9.790000E+04  1.7117E-08
9.800000E+04  1.7052E-08
9.810000E+04  1.6988E-08
9.820000E+04  1.6927E-08
9.830000E+04  1.6864E-08
9.840000E+04  1.6802E-08
9.850000E+04  1.6743E-08
9.860000E+04  1.6687E-08
9.870000E+04  1.6631E-08
9.880000E+04  1.6575E-08
9.890000E+04  1.6511E-08
9.900000E+04  1.6447E-08
9.910000E+04  1.6382E-08
9.920000E+04  1.6318E-08
9.930000E+04  1.6250E-08
9.940000E+04  1.6183E-08
9.950000E+04  1.6117E-08
9.960000E+04  1.6051E-08
9.970000E+04  1.5986E-08
9.980000E+04  1.5922E-08
9.990000E+04  1.5857E-08
1.000000E+05  1.5793E-08
1.002000E+05  1.5670E-08
1.050000E+05  1.3116E-08
1.100000E+05  1.0928E-08
1.130000E+05  9.8636E-09
1.160000E+05  8.8739E-09
1.200000E+05  7.7806E-09
1.250000E+05  6.7394E-09
1.300000E+05  5.7866E-09
1.350000E+05  4.9974E-09
1.400000E+05  4.3391E-09
1.450000E+05  3.7864E-09
1.500000E+05  3.3196E-09
1.600000E+05  2.5842E-09
1.700000E+05  2.0428E-09
1.800000E+05  1.6368E-09
1.900000E+05  1.3275E-09
2.000000E+05  1.0883E-09
2.200000E+05  7.4832E-10
2.300000E+05  6.2839E-10
2.400000E+05  5.3162E-10
2.500000E+05  4.5283E-10
2.600000E+05  3.8816E-10
2.700000E+05  3.3466E-10
2.800000E+05  2.9010E-10
3.000000E+05  2.2122E-10
3.500000E+05  1.2072E-10
4.000000E+05  7.1442E-11
4.500000E+05  4.4795E-11
5.000000E+05  2.9505E-11
5.500000E+05  2.0224E-11
6.000000E+05  1.4325E-11
6.500000E+05  1.0420E-11
7.000000E+05  7.7608E-12
7.500000E+05  5.8988E-12
8.000000E+05  4.5637E-12
8.500000E+05  3.5845E-12
9.000000E+05  2.8546E-12
9.500000E+05  2.3014E-12
1.000000E+06  1.8761E-12
1.050000E+06  1.5444E-12
1.100000E+06  1.2828E-12
1.200000E+06  9.0668E-13
1.300000E+06  6.5872E-13
1.400000E+06  4.9005E-13
1.500000E+06  3.7201E-13
1.600000E+06  2.8748E-13
2.000000E+06  1.1766E-13
2.500000E+06  4.8194E-14
3.000000E+06  2.3242E-14
4.000000E+06  7.3539E-15
5.000000E+06  3.0121E-15
7.000000E+06  7.8408E-16
1.000000E+07  1.8826E-16
1.500000E+07  3.7187E-17
2.250000E+07  7.3456E-18
3.350000E+07  1.4948E-18
5.000000E+07  3.0121E-19
7.400000E+07  6.2781E-20
1.100000E+08  1.2858E-20
1.300000E+08  6.5915E-21
1.600000E+08  2.8726E-21
2.400000E+08  5.6743E-22
3.600000E+08  1.1208E-22
