# Input file name  = bc2003_lr_BaSeL_m62_salp_ssp.ised
# Output file name = spec_BC16_basel_salp_Zm62_age1.25Gyr.dat
# Record         138
# Column           2
# SED(Lo/A)       at    
# Lambda(A)    1.278E+09
9.100000E+01  5.1868E-10
9.400000E+01  8.2668E-10
9.600000E+01  1.1032E-09
9.800000E+01  1.5123E-09
1.000000E+02  2.0566E-09
1.020000E+02  2.6719E-09
1.040000E+02  3.1741E-09
1.060000E+02  3.8562E-09
1.080000E+02  4.7558E-09
1.100000E+02  6.5006E-09
1.140000E+02  9.0477E-09
1.180000E+02  1.1395E-08
1.210000E+02  4.2487E-08
1.250000E+02  5.0236E-08
1.270000E+02  5.3767E-08
1.280000E+02  5.5717E-08
1.310000E+02  6.0351E-08
1.320000E+02  7.0768E-08
1.340000E+02  7.4226E-08
1.370000E+02  9.1211E-08
1.400000E+02  9.7251E-08
1.430000E+02  2.5867E-07
1.470000E+02  6.7131E-07
1.500000E+02  6.9086E-07
1.510000E+02  6.9938E-07
1.550000E+02  7.3603E-07
1.590000E+02  7.8693E-07
1.620000E+02  8.2491E-07
1.660000E+02  8.6763E-07
1.700000E+02  9.0773E-07
1.730000E+02  9.4215E-07
1.770000E+02  9.7948E-07
1.800000E+02  1.0031E-06
1.820000E+02  1.0233E-06
1.860000E+02  1.0616E-06
1.910000E+02  1.1048E-06
1.940000E+02  1.1426E-06
1.980000E+02  1.1761E-06
2.000000E+02  1.1917E-06
2.020000E+02  1.2116E-06
2.050000E+02  1.2370E-06
2.100000E+02  1.2430E-06
2.160000E+02  1.3324E-06
2.200000E+02  1.3708E-06
2.230000E+02  1.3783E-06
2.270000E+02  1.4234E-06
2.300000E+02  2.2354E-06
2.340000E+02  3.2974E-06
2.400000E+02  4.2346E-06
2.460000E+02  3.7612E-06
2.520000E+02  4.0696E-06
2.570000E+02  3.4091E-06
2.600000E+02  3.8660E-06
2.640000E+02  3.9829E-06
2.690000E+02  3.9179E-06
2.740000E+02  3.8300E-06
2.790000E+02  3.7430E-06
2.840000E+02  3.6914E-06
2.900000E+02  3.5534E-06
2.960000E+02  3.4622E-06
3.000000E+02  3.3770E-06
3.010000E+02  3.3173E-06
3.080000E+02  3.2790E-06
3.180000E+02  3.2041E-06
3.280000E+02  3.0900E-06
3.380000E+02  2.9521E-06
3.480000E+02  2.8134E-06
3.570000E+02  2.7321E-06
3.660000E+02  2.6798E-06
3.750000E+02  2.5723E-06
3.850000E+02  2.3961E-06
3.950000E+02  2.3762E-06
4.000000E+02  2.3393E-06
4.050000E+02  2.3160E-06
4.140000E+02  2.2280E-06
4.220000E+02  2.1299E-06
4.300000E+02  2.0499E-06
4.410000E+02  1.9857E-06
4.510000E+02  1.9040E-06
4.600000E+02  1.8101E-06
4.700000E+02  1.7393E-06
4.800000E+02  1.6897E-06
4.900000E+02  1.5936E-06
5.000000E+02  1.5688E-06
5.060000E+02  1.5033E-06
5.120000E+02  1.5345E-06
5.200000E+02  1.4824E-06
5.300000E+02  1.4094E-06
5.400000E+02  1.3121E-06
5.500000E+02  1.2536E-06
5.600000E+02  1.2487E-06
5.700000E+02  1.2286E-06
5.800000E+02  1.1767E-06
5.900000E+02  1.1404E-06
6.000000E+02  1.0706E-06
6.100000E+02  9.2641E-07
6.200000E+02  1.0219E-06
6.300000E+02  9.6647E-07
6.400000E+02  9.5770E-07
6.500000E+02  9.1697E-07
6.580000E+02  8.7757E-07
6.650000E+02  8.7699E-07
6.750000E+02  8.5380E-07
6.850000E+02  7.9852E-07
6.950000E+02  7.9748E-07
7.000000E+02  7.6917E-07
7.050000E+02  7.4256E-07
7.160000E+02  7.4614E-07
7.260000E+02  7.2487E-07
7.350000E+02  7.0458E-07
7.450000E+02  6.7781E-07
7.550000E+02  6.5439E-07
7.650000E+02  5.7305E-07
7.750000E+02  6.1516E-07
7.850000E+02  5.8016E-07
7.950000E+02  5.7396E-07
8.000000E+02  5.6773E-07
8.050000E+02  5.6408E-07
8.150000E+02  5.4782E-07
8.250000E+02  5.3358E-07
8.350000E+02  4.8998E-07
8.450000E+02  5.0151E-07
8.550000E+02  4.8423E-07
8.650000E+02  4.7404E-07
8.750000E+02  4.6357E-07
8.850000E+02  4.5024E-07
8.950000E+02  4.3835E-07
9.000000E+02  4.3122E-07
9.050000E+02  4.2433E-07
9.150000E+02  4.6551E-07
9.250000E+02  6.6945E-07
9.350000E+02  8.5759E-07
9.450000E+02  1.0449E-06
9.550000E+02  1.1676E-06
9.650000E+02  1.2668E-06
9.750000E+02  7.6263E-07
9.850000E+02  1.1600E-06
9.950000E+02  1.0873E-06
1.000000E+03  1.1424E-06
1.005000E+03  1.2028E-06
1.015000E+03  1.1695E-06
1.025000E+03  7.1930E-07
1.035000E+03  1.0616E-06
1.045000E+03  1.3097E-06
1.055000E+03  1.2695E-06
1.065000E+03  1.1166E-06
1.075000E+03  1.1871E-06
1.085000E+03  9.7028E-07
1.095000E+03  1.1699E-06
1.100000E+03  1.1420E-06
1.105000E+03  1.1172E-06
1.115000E+03  1.0870E-06
1.125000E+03  9.8829E-07
1.135000E+03  1.0854E-06
1.145000E+03  1.0256E-06
1.155000E+03  1.0220E-06
1.165000E+03  1.0005E-06
1.175000E+03  7.9166E-07
1.185000E+03  9.4209E-07
1.195000E+03  8.4194E-07
1.200000E+03  7.9229E-07
1.205000E+03  7.5153E-07
1.215000E+03  4.9662E-07
1.225000E+03  7.6627E-07
1.235000E+03  8.7329E-07
1.245000E+03  8.8572E-07
1.255000E+03  8.6305E-07
1.265000E+03  8.2682E-07
1.275000E+03  8.9157E-07
1.285000E+03  8.9610E-07
1.295000E+03  7.9881E-07
1.300000E+03  7.9376E-07
1.305000E+03  7.8992E-07
1.315000E+03  8.5952E-07
1.325000E+03  8.2285E-07
1.335000E+03  7.8044E-07
1.345000E+03  8.1359E-07
1.355000E+03  7.9143E-07
1.365000E+03  7.4283E-07
1.375000E+03  7.3851E-07
1.385000E+03  7.2863E-07
1.395000E+03  6.1005E-07
1.400000E+03  5.9999E-07
1.405000E+03  5.9125E-07
1.415000E+03  6.7726E-07
1.425000E+03  6.5781E-07
1.435000E+03  6.6553E-07
1.442000E+03  6.7092E-07
1.447000E+03  6.6769E-07
1.455000E+03  6.4829E-07
1.465000E+03  6.1748E-07
1.475000E+03  6.1444E-07
1.485000E+03  6.1187E-07
1.495000E+03  6.0470E-07
1.500000E+03  5.9157E-07
1.505000E+03  5.7805E-07
1.512000E+03  5.4333E-07
1.517000E+03  5.5437E-07
1.525000E+03  5.5129E-07
1.535000E+03  5.0066E-07
1.545000E+03  4.8023E-07
1.555000E+03  4.7621E-07
1.565000E+03  4.9819E-07
1.575000E+03  5.3293E-07
1.585000E+03  5.4602E-07
1.595000E+03  5.5801E-07
1.600000E+03  5.4968E-07
1.605000E+03  5.4198E-07
1.615000E+03  5.3357E-07
1.625000E+03  5.1640E-07
1.635000E+03  5.4255E-07
1.645000E+03  5.6746E-07
1.655000E+03  5.1111E-07
1.665000E+03  5.7423E-07
1.672000E+03  4.9788E-07
1.677000E+03  1.3249E-06
1.685000E+03  1.3472E-06
1.695000E+03  1.1038E-06
1.700000E+03  1.1597E-06
1.705000E+03  1.2217E-06
1.715000E+03  1.7635E-06
1.725000E+03  1.9568E-06
1.735000E+03  2.4244E-06
1.745000E+03  2.2275E-06
1.755000E+03  2.9291E-06
1.765000E+03  2.1469E-06
1.775000E+03  2.7837E-06
1.785000E+03  2.7977E-06
1.795000E+03  4.0557E-06
1.800000E+03  3.7103E-06
1.805000E+03  3.3994E-06
1.815000E+03  3.6574E-06
1.825000E+03  3.4887E-06
1.835000E+03  3.2013E-06
1.845000E+03  2.5768E-06
1.855000E+03  3.5275E-06
1.865000E+03  4.5461E-06
1.875000E+03  4.1330E-06
1.885000E+03  4.3279E-06
1.895000E+03  5.0965E-06
1.900000E+03  4.9322E-06
1.905000E+03  4.7744E-06
1.915000E+03  5.0951E-06
1.925000E+03  4.3042E-06
1.935000E+03  2.2409E-06
1.945000E+03  5.6090E-06
1.955000E+03  5.8821E-06
1.967000E+03  6.9923E-06
1.976000E+03  6.3724E-06
1.984000E+03  7.0394E-06
1.995000E+03  7.0781E-06
2.000000E+03  6.6917E-06
2.005000E+03  6.3316E-06
2.015000E+03  6.3630E-06
2.025000E+03  5.4671E-06
2.035000E+03  7.1410E-06
2.045000E+03  8.0050E-06
2.055000E+03  7.5197E-06
2.065000E+03  6.9598E-06
2.074000E+03  8.5327E-06
2.078000E+03  1.2032E-05
2.085000E+03  1.2955E-05
2.095000E+03  1.1930E-05
2.100000E+03  1.1267E-05
2.105000E+03  1.0644E-05
2.115000E+03  1.1498E-05
2.125000E+03  1.0768E-05
2.135000E+03  9.1519E-06
2.145000E+03  1.1646E-05
2.155000E+03  1.1860E-05
2.165000E+03  1.0386E-05
2.175000E+03  1.0652E-05
2.185000E+03  1.2287E-05
2.195000E+03  1.2957E-05
2.200000E+03  1.2538E-05
2.205000E+03  1.2134E-05
2.215000E+03  9.6160E-06
2.225000E+03  1.0042E-05
2.235000E+03  1.3223E-05
2.245000E+03  1.2269E-05
2.255000E+03  9.5836E-06
2.265000E+03  9.5589E-06
2.275000E+03  1.0906E-05
2.285000E+03  1.3054E-05
2.295000E+03  1.1171E-05
2.300000E+03  1.2000E-05
2.305000E+03  1.2894E-05
2.315000E+03  1.1383E-05
2.325000E+03  7.6777E-06
2.335000E+03  7.4958E-06
2.345000E+03  5.0338E-06
2.355000E+03  9.9410E-06
2.365000E+03  5.4776E-06
2.375000E+03  7.6091E-06
2.385000E+03  4.0040E-06
2.395000E+03  5.4171E-06
2.400000E+03  5.3888E-06
2.405000E+03  5.3611E-06
2.415000E+03  6.5597E-06
2.425000E+03  1.1078E-05
2.435000E+03  1.0946E-05
2.445000E+03  1.2772E-05
2.455000E+03  1.3248E-05
2.465000E+03  1.2283E-05
2.475000E+03  1.0843E-05
2.485000E+03  9.0421E-06
2.495000E+03  9.2215E-06
2.500000E+03  1.1352E-05
2.505000E+03  1.3987E-05
2.513000E+03  6.5715E-06
2.518000E+03  5.0084E-06
2.525000E+03  5.6533E-06
2.535000E+03  7.6527E-06
2.545000E+03  8.3496E-06
2.555000E+03  1.2414E-05
2.565000E+03  9.9162E-06
2.575000E+03  1.2114E-05
2.585000E+03  1.1140E-05
2.595000E+03  1.0084E-05
2.600000E+03  9.4330E-06
2.605000E+03  8.8286E-06
2.615000E+03  7.7692E-06
2.625000E+03  1.1142E-05
2.635000E+03  1.5696E-05
2.645000E+03  2.1547E-05
2.655000E+03  2.5716E-05
2.665000E+03  1.7964E-05
2.675000E+03  2.0804E-05
2.685000E+03  2.1958E-05
2.695000E+03  1.8026E-05
2.700000E+03  1.9470E-05
2.705000E+03  2.1054E-05
2.715000E+03  1.6689E-05
2.725000E+03  1.6087E-05
2.735000E+03  1.8452E-05
2.745000E+03  9.9429E-06
2.755000E+03  1.2771E-05
2.765000E+03  1.5701E-05
2.775000E+03  1.7762E-05
2.785000E+03  1.1363E-05
2.795000E+03  4.2244E-06
2.800000E+03  4.7883E-06
2.805000E+03  5.4286E-06
2.815000E+03  1.6330E-05
2.825000E+03  2.3220E-05
2.835000E+03  2.2776E-05
2.845000E+03  2.0855E-05
2.855000E+03  1.5215E-05
2.865000E+03  2.4875E-05
2.875000E+03  2.6750E-05
2.885000E+03  2.5188E-05
2.895000E+03  2.6143E-05
2.900000E+03  2.8325E-05
2.910000E+03  3.3305E-05
2.930000E+03  2.9987E-05
2.950000E+03  2.8940E-05
2.970000E+03  3.1404E-05
2.990000E+03  3.1808E-05
3.000000E+03  3.2627E-05
3.010000E+03  3.3482E-05
3.030000E+03  3.3480E-05
3.050000E+03  3.4470E-05
3.070000E+03  3.5946E-05
3.090000E+03  3.7023E-05
3.100000E+03  3.7418E-05
3.110000E+03  3.7954E-05
3.130000E+03  3.6856E-05
3.150000E+03  3.7308E-05
3.170000E+03  3.8646E-05
3.190000E+03  3.4413E-05
3.200000E+03  3.6081E-05
3.210000E+03  3.7828E-05
3.230000E+03  3.3024E-05
3.250000E+03  4.0053E-05
3.270000E+03  4.4370E-05
3.290000E+03  4.3694E-05
3.300000E+03  4.3729E-05
3.310000E+03  4.3817E-05
3.330000E+03  4.3866E-05
3.350000E+03  4.3102E-05
3.370000E+03  3.8244E-05
3.390000E+03  4.0431E-05
3.400000E+03  4.0588E-05
3.410000E+03  4.0757E-05
3.430000E+03  4.1508E-05
3.450000E+03  4.2946E-05
3.470000E+03  4.3130E-05
3.490000E+03  4.5491E-05
3.500000E+03  4.6388E-05
3.510000E+03  4.7315E-05
3.530000E+03  4.4338E-05
3.550000E+03  4.9212E-05
3.570000E+03  4.0357E-05
3.590000E+03  4.0281E-05
3.600000E+03  4.2270E-05
3.610000E+03  4.4583E-05
3.630000E+03  4.6088E-05
3.640000E+03  4.6757E-05
3.650000E+03  5.1887E-05
3.670000E+03  5.1570E-05
3.690000E+03  4.7717E-05
3.700000E+03  4.9958E-05
3.710000E+03  5.2342E-05
3.730000E+03  4.4517E-05
3.750000E+03  5.0610E-05
3.770000E+03  5.7279E-05
3.790000E+03  6.1895E-05
3.800000E+03  6.3582E-05
3.810000E+03  6.5459E-05
3.830000E+03  4.8836E-05
3.850000E+03  6.3855E-05
3.870000E+03  6.7210E-05
3.890000E+03  5.9206E-05
3.900000E+03  6.5708E-05
3.910000E+03  7.2977E-05
3.930000E+03  4.0454E-05
3.950000E+03  6.2803E-05
3.970000E+03  4.2750E-05
3.990000E+03  8.1970E-05
4.000000E+03  8.5680E-05
4.010000E+03  8.9609E-05
4.030000E+03  9.0270E-05
4.050000E+03  8.7774E-05
4.070000E+03  8.4962E-05
4.090000E+03  8.9556E-05
4.100000E+03  8.4895E-05
4.110000E+03  8.0576E-05
4.130000E+03  8.9306E-05
4.150000E+03  9.0762E-05
4.170000E+03  9.0569E-05
4.190000E+03  9.0314E-05
4.200000E+03  9.0983E-05
4.210000E+03  9.1723E-05
4.230000E+03  8.9789E-05
4.250000E+03  9.2997E-05
4.270000E+03  8.9135E-05
4.290000E+03  8.6201E-05
4.300000E+03  8.1921E-05
4.310000E+03  7.7929E-05
4.330000E+03  8.9342E-05
4.350000E+03  8.4051E-05
4.370000E+03  9.9677E-05
4.390000E+03  9.3525E-05
4.400000E+03  9.4642E-05
4.410000E+03  9.5817E-05
4.430000E+03  9.8689E-05
4.450000E+03  9.9364E-05
4.470000E+03  1.0350E-04
4.490000E+03  1.0413E-04
4.500000E+03  1.0924E-04
4.510000E+03  1.1471E-04
4.530000E+03  1.0355E-04
4.550000E+03  1.0593E-04
4.570000E+03  1.1289E-04
4.590000E+03  1.0714E-04
4.600000E+03  1.0833E-04
4.610000E+03  1.0953E-04
4.630000E+03  1.0648E-04
4.650000E+03  1.0802E-04
4.670000E+03  1.1110E-04
4.690000E+03  1.0832E-04
4.700000E+03  1.0656E-04
4.710000E+03  1.0485E-04
4.730000E+03  1.0959E-04
4.750000E+03  1.1191E-04
4.770000E+03  1.1124E-04
4.790000E+03  1.1045E-04
4.800000E+03  1.0983E-04
4.810000E+03  1.0922E-04
4.830000E+03  1.1082E-04
4.850000E+03  1.0097E-04
4.870000E+03  8.9046E-05
4.890000E+03  1.0572E-04
4.900000E+03  1.0604E-04
4.910000E+03  1.0637E-04
4.930000E+03  1.0471E-04
4.950000E+03  1.0918E-04
4.970000E+03  1.0749E-04
4.990000E+03  1.0039E-04
5.000000E+03  9.8135E-05
5.010000E+03  9.5969E-05
5.030000E+03  1.0109E-04
5.050000E+03  1.0085E-04
5.070000E+03  1.0502E-04
5.090000E+03  1.0017E-04
5.100000E+03  1.0117E-04
5.110000E+03  1.0224E-04
5.130000E+03  9.9151E-05
5.150000E+03  9.5806E-05
5.170000E+03  9.0039E-05
5.190000E+03  9.1724E-05
5.200000E+03  9.3845E-05
5.210000E+03  9.6062E-05
5.230000E+03  9.9580E-05
5.250000E+03  1.0272E-04
5.270000E+03  9.2508E-05
5.290000E+03  1.0305E-04
5.300000E+03  1.0514E-04
5.310000E+03  1.0731E-04
5.330000E+03  9.6932E-05
5.350000E+03  1.0428E-04
5.370000E+03  1.0391E-04
5.390000E+03  1.0154E-04
5.400000E+03  1.0060E-04
5.410000E+03  9.9657E-05
5.430000E+03  1.0106E-04
5.450000E+03  1.0352E-04
5.470000E+03  1.0059E-04
5.490000E+03  1.0073E-04
5.500000E+03  1.0037E-04
5.510000E+03  9.9983E-05
5.530000E+03  1.0183E-04
5.550000E+03  1.0314E-04
5.570000E+03  1.0125E-04
5.590000E+03  9.8601E-05
5.600000E+03  1.0003E-04
5.610000E+03  1.0155E-04
5.630000E+03  1.0045E-04
5.650000E+03  1.0104E-04
5.670000E+03  9.8900E-05
5.690000E+03  1.0147E-04
5.700000E+03  1.0017E-04
5.710000E+03  9.8932E-05
5.730000E+03  1.0562E-04
5.750000E+03  1.0153E-04
5.770000E+03  1.0265E-04
5.790000E+03  9.9304E-05
5.800000E+03  1.0083E-04
5.810000E+03  1.0242E-04
5.830000E+03  1.0449E-04
5.850000E+03  1.0133E-04
5.870000E+03  1.0135E-04
5.890000E+03  9.3454E-05
5.900000E+03  9.6424E-05
5.910000E+03  9.9641E-05
5.930000E+03  9.9649E-05
5.950000E+03  9.9593E-05
5.970000E+03  1.0062E-04
5.990000E+03  9.8990E-05
6.000000E+03  9.8249E-05
6.010000E+03  9.7608E-05
6.030000E+03  9.9582E-05
6.050000E+03  1.0092E-04
6.070000E+03  1.0073E-04
6.090000E+03  9.7498E-05
6.100000E+03  9.7583E-05
6.110000E+03  9.7701E-05
6.130000E+03  9.2968E-05
6.150000E+03  9.4121E-05
6.170000E+03  9.0855E-05
6.190000E+03  9.5100E-05
6.200000E+03  9.4747E-05
6.210000E+03  9.4328E-05
6.230000E+03  9.1617E-05
6.250000E+03  8.8494E-05
6.270000E+03  9.2588E-05
6.290000E+03  9.3848E-05
6.300000E+03  9.2666E-05
6.310000E+03  9.1508E-05
6.330000E+03  9.2603E-05
6.350000E+03  9.2564E-05
6.370000E+03  9.2152E-05
6.390000E+03  9.3608E-05
6.400000E+03  9.2782E-05
6.410000E+03  9.1712E-05
6.430000E+03  9.2402E-05
6.450000E+03  9.1979E-05
6.470000E+03  9.1646E-05
6.490000E+03  8.9768E-05
6.500000E+03  9.0941E-05
6.510000E+03  9.2071E-05
6.530000E+03  9.1504E-05
6.550000E+03  8.7842E-05
6.570000E+03  8.0013E-05
6.590000E+03  8.9391E-05
6.600000E+03  9.0127E-05
6.610000E+03  9.0961E-05
6.630000E+03  9.0032E-05
6.650000E+03  8.9549E-05
6.670000E+03  8.7732E-05
6.690000E+03  8.9338E-05
6.700000E+03  8.7843E-05
6.710000E+03  8.6390E-05
6.730000E+03  8.8246E-05
6.750000E+03  8.6715E-05
6.770000E+03  8.7361E-05
6.790000E+03  8.6339E-05
6.800000E+03  8.6371E-05
6.810000E+03  8.6461E-05
6.830000E+03  8.7027E-05
6.850000E+03  8.4937E-05
6.870000E+03  8.6151E-05
6.890000E+03  8.6929E-05
6.900000E+03  8.6793E-05
6.910000E+03  8.6490E-05
6.930000E+03  8.5780E-05
6.950000E+03  8.5230E-05
6.970000E+03  8.5790E-05
6.990000E+03  8.5595E-05
7.000000E+03  8.4379E-05
7.010000E+03  8.3759E-05
7.030000E+03  8.4916E-05
7.050000E+03  8.4355E-05
7.070000E+03  8.2416E-05
7.090000E+03  8.0744E-05
7.100000E+03  7.9886E-05
7.110000E+03  7.9385E-05
7.130000E+03  7.7983E-05
7.150000E+03  7.7723E-05
7.170000E+03  7.8167E-05
7.190000E+03  7.6711E-05
7.200000E+03  7.7475E-05
7.210000E+03  7.8396E-05
7.230000E+03  7.9540E-05
7.250000E+03  7.9617E-05
7.270000E+03  7.9573E-05
7.290000E+03  7.8196E-05
7.300000E+03  7.8809E-05
7.310000E+03  8.0073E-05
7.330000E+03  7.9957E-05
7.350000E+03  8.0421E-05
7.370000E+03  8.2426E-05
7.390000E+03  8.0057E-05
7.400000E+03  8.0253E-05
7.410000E+03  8.0298E-05
7.430000E+03  8.1938E-05
7.450000E+03  8.1642E-05
7.470000E+03  8.2750E-05
7.490000E+03  8.2212E-05
7.500000E+03  8.2470E-05
7.510000E+03  8.3023E-05
7.530000E+03  8.3879E-05
7.550000E+03  8.4305E-05
7.570000E+03  8.3485E-05
7.590000E+03  8.1522E-05
7.600000E+03  8.1003E-05
7.610000E+03  8.0392E-05
7.630000E+03  7.9342E-05
7.650000E+03  7.7577E-05
7.670000E+03  7.4705E-05
7.690000E+03  7.6568E-05
7.700000E+03  7.5471E-05
7.710000E+03  7.4998E-05
7.730000E+03  7.5273E-05
7.750000E+03  7.4592E-05
7.770000E+03  7.5246E-05
7.790000E+03  7.5711E-05
7.800000E+03  7.5545E-05
7.810000E+03  7.5439E-05
7.830000E+03  7.5047E-05
7.850000E+03  7.4242E-05
7.870000E+03  7.4377E-05
7.890000E+03  7.3211E-05
7.900000E+03  7.2360E-05
7.910000E+03  7.1559E-05
7.930000E+03  7.1991E-05
7.950000E+03  7.1244E-05
7.970000E+03  7.2919E-05
7.990000E+03  7.3097E-05
8.000000E+03  7.3606E-05
8.010000E+03  7.3862E-05
8.030000E+03  7.3766E-05
8.050000E+03  7.3318E-05
8.070000E+03  7.3915E-05
8.090000E+03  7.2869E-05
8.100000E+03  7.3199E-05
8.110000E+03  7.3092E-05
8.130000E+03  7.4793E-05
8.150000E+03  7.5548E-05
8.170000E+03  7.5730E-05
8.190000E+03  7.3374E-05
8.200000E+03  7.2956E-05
8.210000E+03  7.2856E-05
8.230000E+03  7.2833E-05
8.250000E+03  7.2847E-05
8.270000E+03  7.3191E-05
8.290000E+03  7.2699E-05
8.300000E+03  7.1476E-05
8.310000E+03  7.0279E-05
8.330000E+03  6.9987E-05
8.350000E+03  6.9974E-05
8.370000E+03  7.0227E-05
8.390000E+03  6.8657E-05
8.400000E+03  6.9493E-05
8.410000E+03  7.0301E-05
8.430000E+03  6.8252E-05
8.450000E+03  6.7179E-05
8.470000E+03  6.6936E-05
8.490000E+03  6.7573E-05
8.500000E+03  6.6026E-05
8.510000E+03  6.4726E-05
8.530000E+03  6.7510E-05
8.550000E+03  6.2437E-05
8.570000E+03  6.8753E-05
8.590000E+03  6.7280E-05
8.600000E+03  6.7420E-05
8.610000E+03  6.7683E-05
8.630000E+03  6.9561E-05
8.650000E+03  6.9369E-05
8.670000E+03  6.2888E-05
8.690000E+03  6.7714E-05
8.700000E+03  6.8894E-05
8.710000E+03  6.9994E-05
8.730000E+03  6.9466E-05
8.750000E+03  6.7126E-05
8.770000E+03  6.9764E-05
8.790000E+03  7.1013E-05
8.800000E+03  7.0011E-05
8.810000E+03  6.8662E-05
8.830000E+03  6.9709E-05
8.850000E+03  6.8733E-05
8.870000E+03  6.5788E-05
8.890000E+03  6.7105E-05
8.900000E+03  6.7843E-05
8.910000E+03  6.8040E-05
8.930000E+03  6.7050E-05
8.950000E+03  6.7585E-05
8.970000E+03  6.7521E-05
8.990000E+03  6.7193E-05
9.000000E+03  6.5757E-05
9.010000E+03  6.4347E-05
9.030000E+03  6.7000E-05
9.050000E+03  6.8957E-05
9.070000E+03  6.8835E-05
9.090000E+03  6.7100E-05
9.100000E+03  6.7631E-05
9.110000E+03  6.7835E-05
9.130000E+03  6.8917E-05
9.150000E+03  6.8535E-05
9.170000E+03  6.8209E-05
9.190000E+03  6.8406E-05
9.200000E+03  6.6902E-05
9.210000E+03  6.5458E-05
9.230000E+03  6.3454E-05
9.250000E+03  6.4326E-05
9.270000E+03  6.5476E-05
9.290000E+03  6.5398E-05
9.300000E+03  6.5220E-05
9.310000E+03  6.5090E-05
9.330000E+03  6.5321E-05
9.350000E+03  6.4872E-05
9.370000E+03  6.4297E-05
9.390000E+03  6.5073E-05
9.400000E+03  6.4587E-05
9.410000E+03  6.3440E-05
9.430000E+03  6.5028E-05
9.450000E+03  6.3138E-05
9.470000E+03  6.4925E-05
9.490000E+03  6.4786E-05
9.500000E+03  6.4743E-05
9.510000E+03  6.3838E-05
9.530000E+03  6.4057E-05
9.550000E+03  6.1653E-05
9.570000E+03  6.3515E-05
9.590000E+03  6.4332E-05
9.600000E+03  6.4321E-05
9.610000E+03  6.3711E-05
9.630000E+03  6.3868E-05
9.650000E+03  6.2761E-05
9.670000E+03  6.2865E-05
9.690000E+03  6.3425E-05
9.700000E+03  6.2970E-05
9.710000E+03  6.2888E-05
9.730000E+03  6.2312E-05
9.750000E+03  6.1495E-05
9.770000E+03  6.2215E-05
9.790000E+03  6.1194E-05
9.800000E+03  6.1813E-05
9.810000E+03  6.2760E-05
9.830000E+03  6.2526E-05
9.850000E+03  6.2258E-05
9.870000E+03  6.1413E-05
9.890000E+03  6.1250E-05
9.900000E+03  6.1441E-05
9.910000E+03  6.0964E-05
9.930000E+03  6.1582E-05
9.950000E+03  6.1567E-05
9.970000E+03  6.1513E-05
9.990000E+03  6.1458E-05
1.000000E+04  6.0947E-05
1.002500E+04  6.0494E-05
1.007500E+04  5.9289E-05
1.010000E+04  5.9617E-05
1.012500E+04  5.9853E-05
1.017500E+04  5.8671E-05
1.020000E+04  5.8612E-05
1.022500E+04  5.8771E-05
1.027500E+04  5.8885E-05
1.030000E+04  5.8847E-05
1.032500E+04  5.8554E-05
1.037500E+04  5.7789E-05
1.040000E+04  5.7193E-05
1.042500E+04  5.7259E-05
1.047500E+04  5.6716E-05
1.050000E+04  5.6766E-05
1.052500E+04  5.6229E-05
1.057500E+04  5.5854E-05
1.060000E+04  5.6307E-05
1.062500E+04  5.5513E-05
1.067500E+04  5.4505E-05
1.070000E+04  5.5213E-05
1.072500E+04  5.4655E-05
1.077500E+04  5.4552E-05
1.080000E+04  5.3447E-05
1.082500E+04  5.3272E-05
1.087500E+04  5.2251E-05
1.090000E+04  5.2168E-05
1.092500E+04  5.1422E-05
1.097500E+04  5.0722E-05
1.100000E+04  4.9996E-05
1.102500E+04  5.0590E-05
1.107500E+04  4.9550E-05
1.110000E+04  5.0065E-05
1.112500E+04  5.0043E-05
1.117500E+04  5.0041E-05
1.120000E+04  4.9864E-05
1.122500E+04  5.0050E-05
1.127500E+04  4.9276E-05
1.130000E+04  4.8953E-05
1.132500E+04  4.8776E-05
1.137500E+04  4.7924E-05
1.140000E+04  4.8322E-05
1.142500E+04  4.7225E-05
1.147500E+04  4.7847E-05
1.150000E+04  4.8516E-05
1.152500E+04  4.8422E-05
1.157500E+04  4.7929E-05
1.160000E+04  4.8030E-05
1.162500E+04  4.7356E-05
1.167500E+04  4.6767E-05
1.170000E+04  4.6462E-05
1.172500E+04  4.6391E-05
1.177500E+04  4.6135E-05
1.180000E+04  4.5741E-05
1.182500E+04  4.5532E-05
1.187500E+04  4.5013E-05
1.190000E+04  4.5476E-05
1.192500E+04  4.4794E-05
1.197500E+04  4.3377E-05
1.200000E+04  4.4360E-05
1.202500E+04  4.4703E-05
1.207500E+04  4.3328E-05
1.210000E+04  4.2811E-05
1.212500E+04  4.3879E-05
1.217500E+04  4.3815E-05
1.220000E+04  4.4197E-05
1.222500E+04  4.3836E-05
1.227500E+04  4.3328E-05
1.230000E+04  4.3474E-05
1.232500E+04  4.2559E-05
1.237500E+04  4.2821E-05
1.240000E+04  4.2739E-05
1.242500E+04  4.2009E-05
1.247500E+04  4.1422E-05
1.250000E+04  4.1664E-05
1.252500E+04  4.1389E-05
1.257500E+04  4.1077E-05
1.260000E+04  4.1999E-05
1.262500E+04  4.1711E-05
1.267500E+04  4.0367E-05
1.270000E+04  4.1054E-05
1.272500E+04  4.1091E-05
1.277500E+04  4.0533E-05
1.280000E+04  4.0183E-05
1.282500E+04  3.9134E-05
1.287500E+04  3.9512E-05
1.290000E+04  4.0200E-05
1.292500E+04  4.0227E-05
1.297500E+04  3.9764E-05
1.300000E+04  3.9940E-05
1.302500E+04  4.0082E-05
1.307500E+04  3.9709E-05
1.310000E+04  3.9120E-05
1.312500E+04  3.9197E-05
1.317500E+04  3.8825E-05
1.320000E+04  3.9212E-05
1.322500E+04  3.8784E-05
1.327500E+04  3.8071E-05
1.330000E+04  3.8041E-05
1.332500E+04  3.8075E-05
1.337500E+04  3.7404E-05
1.340000E+04  3.8228E-05
1.342500E+04  3.8280E-05
1.347500E+04  3.8149E-05
1.350000E+04  3.8123E-05
1.352500E+04  3.8135E-05
1.357500E+04  3.6889E-05
1.360000E+04  3.7342E-05
1.362500E+04  3.6461E-05
1.367500E+04  3.7158E-05
1.370000E+04  3.6980E-05
1.372500E+04  3.6448E-05
1.377500E+04  3.6968E-05
1.380000E+04  3.7092E-05
1.382500E+04  3.6920E-05
1.387500E+04  3.6512E-05
1.390000E+04  3.6128E-05
1.392500E+04  3.5729E-05
1.397500E+04  3.4717E-05
1.400000E+04  3.5023E-05
1.402500E+04  3.5040E-05
1.407500E+04  3.4239E-05
1.410000E+04  3.3662E-05
1.412500E+04  3.3277E-05
1.417500E+04  3.3504E-05
1.420000E+04  3.3228E-05
1.422500E+04  3.3733E-05
1.427500E+04  3.3976E-05
1.430000E+04  3.3269E-05
1.432500E+04  3.3699E-05
1.437500E+04  3.4138E-05
1.440000E+04  3.4212E-05
1.442500E+04  3.3080E-05
1.447500E+04  3.3099E-05
1.450000E+04  3.2814E-05
1.452500E+04  3.2281E-05
1.457000E+04  3.3169E-05
1.460000E+04  3.3147E-05
1.462000E+04  3.2579E-05
1.467500E+04  3.2028E-05
1.470000E+04  3.1146E-05
1.472500E+04  3.1658E-05
1.477500E+04  3.1748E-05
1.480000E+04  3.1669E-05
1.482500E+04  3.2428E-05
1.487500E+04  3.2449E-05
1.490000E+04  3.2115E-05
1.492500E+04  3.3023E-05
1.497500E+04  3.2523E-05
1.500000E+04  3.2366E-05
1.502500E+04  3.1507E-05
1.507500E+04  3.2068E-05
1.510000E+04  3.2000E-05
1.512500E+04  3.1331E-05
1.517500E+04  3.2362E-05
1.520000E+04  3.2960E-05
1.522500E+04  3.1786E-05
1.527500E+04  3.2697E-05
1.530000E+04  3.2152E-05
1.532500E+04  3.2009E-05
1.537500E+04  3.1264E-05
1.540000E+04  3.1935E-05
1.542500E+04  3.1920E-05
1.547500E+04  3.1638E-05
1.550000E+04  3.1496E-05
1.552500E+04  3.1075E-05
1.557500E+04  3.0371E-05
1.560000E+04  3.1006E-05
1.562500E+04  3.0969E-05
1.567500E+04  3.1203E-05
1.570000E+04  3.1367E-05
1.572500E+04  3.1561E-05
1.577500E+04  2.9086E-05
1.580000E+04  2.8750E-05
1.582500E+04  2.9580E-05
1.587500E+04  2.9816E-05
1.590000E+04  3.0602E-05
1.592500E+04  3.0270E-05
1.597500E+04  3.0268E-05
1.600000E+04  3.0116E-05
1.605000E+04  3.0195E-05
1.610000E+04  2.9962E-05
1.615000E+04  3.0382E-05
1.620000E+04  2.9923E-05
1.625000E+04  2.8884E-05
1.630000E+04  3.0216E-05
1.635000E+04  3.0411E-05
1.640000E+04  3.0341E-05
1.645000E+04  3.0112E-05
1.650000E+04  2.9598E-05
1.655000E+04  2.9193E-05
1.660000E+04  2.9740E-05
1.665000E+04  2.8454E-05
1.670000E+04  2.9965E-05
1.675000E+04  3.0441E-05
1.680000E+04  2.8458E-05
1.685000E+04  2.8439E-05
1.690000E+04  2.8985E-05
1.695000E+04  2.8840E-05
1.700000E+04  2.8957E-05
1.705000E+04  2.8328E-05
1.710000E+04  2.8803E-05
1.715000E+04  2.8577E-05
1.720000E+04  2.7876E-05
1.725000E+04  2.7404E-05
1.730000E+04  2.7339E-05
1.735000E+04  2.7341E-05
1.740000E+04  2.7248E-05
1.745000E+04  2.7059E-05
1.750000E+04  2.6292E-05
1.755000E+04  2.7441E-05
1.760000E+04  2.7221E-05
1.765000E+04  2.6220E-05
1.770000E+04  2.5012E-05
1.775000E+04  2.5349E-05
1.780000E+04  2.5599E-05
1.785000E+04  2.6431E-05
1.790000E+04  2.3728E-05
1.795000E+04  2.3342E-05
1.800000E+04  2.5350E-05
1.805000E+04  2.3950E-05
1.810000E+04  2.4715E-05
1.815000E+04  2.4110E-05
1.820000E+04  2.4052E-05
1.825000E+04  2.2421E-05
1.830000E+04  2.2257E-05
1.835000E+04  2.1747E-05
1.840000E+04  2.1274E-05
1.845000E+04  2.3119E-05
1.850000E+04  2.4336E-05
1.855000E+04  2.2992E-05
1.860000E+04  2.2544E-05
1.865000E+04  2.1852E-05
1.870000E+04  2.3243E-05
1.875000E+04  2.1043E-05
1.880000E+04  2.1166E-05
1.885000E+04  2.1112E-05
1.890000E+04  2.0027E-05
1.895000E+04  2.0520E-05
1.900000E+04  2.1558E-05
1.905000E+04  2.2200E-05
1.910000E+04  2.1190E-05
1.915000E+04  2.0517E-05
1.920000E+04  2.0502E-05
1.925000E+04  2.0996E-05
1.930000E+04  2.1434E-05
1.935000E+04  2.1108E-05
1.940000E+04  1.9460E-05
1.945000E+04  1.8951E-05
1.950000E+04  1.9361E-05
1.955000E+04  1.9647E-05
1.960000E+04  2.0112E-05
1.965000E+04  1.9492E-05
1.970000E+04  1.9933E-05
1.975000E+04  1.9008E-05
1.980000E+04  1.7985E-05
1.985000E+04  1.7849E-05
1.990000E+04  1.8773E-05
1.995000E+04  1.8926E-05
2.000000E+04  1.7948E-05
2.005000E+04  1.8571E-05
2.010000E+04  1.9180E-05
2.015000E+04  1.9359E-05
2.020000E+04  1.8891E-05
2.025000E+04  1.8150E-05
2.030000E+04  1.7559E-05
2.035000E+04  1.7504E-05
2.040000E+04  1.6671E-05
2.045000E+04  1.6835E-05
2.050000E+04  1.6832E-05
2.055000E+04  1.6565E-05
2.060000E+04  1.6112E-05
2.065000E+04  1.6107E-05
2.070000E+04  1.6067E-05
2.075000E+04  1.5750E-05
2.080000E+04  1.6109E-05
2.085000E+04  1.7247E-05
2.090000E+04  1.6977E-05
2.095000E+04  1.5818E-05
2.100000E+04  1.5697E-05
2.105000E+04  1.6032E-05
2.110000E+04  1.6083E-05
2.115000E+04  1.5428E-05
2.120000E+04  1.5058E-05
2.125000E+04  1.5711E-05
2.130000E+04  1.5431E-05
2.135000E+04  1.5380E-05
2.140000E+04  1.5287E-05
2.145000E+04  1.4645E-05
2.150000E+04  1.4890E-05
2.155000E+04  1.4816E-05
2.160000E+04  1.4514E-05
2.165000E+04  1.4429E-05
2.170000E+04  1.4038E-05
2.175000E+04  1.3769E-05
2.180000E+04  1.3926E-05
2.185000E+04  1.3642E-05
2.190000E+04  1.3286E-05
2.195000E+04  1.3076E-05
2.200000E+04  1.2672E-05
2.205000E+04  1.2434E-05
2.210000E+04  1.2364E-05
2.215000E+04  1.2473E-05
2.220000E+04  1.2679E-05
2.225000E+04  1.2871E-05
2.230000E+04  1.3083E-05
2.235000E+04  1.2737E-05
2.240000E+04  1.2734E-05
2.245000E+04  1.3082E-05
2.250000E+04  1.2692E-05
2.255000E+04  1.2165E-05
2.260000E+04  1.1793E-05
2.265000E+04  1.2025E-05
2.270000E+04  1.2348E-05
2.275000E+04  1.2155E-05
2.280000E+04  1.1837E-05
2.285000E+04  1.1819E-05
2.290000E+04  1.1173E-05
2.295000E+04  1.0665E-05
2.300000E+04  1.1374E-05
2.305000E+04  1.1936E-05
2.310000E+04  1.2688E-05
2.315000E+04  1.2476E-05
2.320000E+04  1.0687E-05
2.325000E+04  1.0541E-05
2.330000E+04  1.2132E-05
2.335000E+04  1.2241E-05
2.340000E+04  1.1320E-05
2.345000E+04  1.1087E-05
2.350000E+04  1.0395E-05
2.355000E+04  1.0221E-05
2.360000E+04  1.0231E-05
2.365000E+04  1.0753E-05
2.370000E+04  1.1142E-05
2.375000E+04  1.1004E-05
2.380000E+04  1.0189E-05
2.385000E+04  9.3890E-06
2.390000E+04  1.0407E-05
2.395000E+04  1.0757E-05
2.400000E+04  1.0385E-05
2.405000E+04  1.0060E-05
2.410000E+04  9.2193E-06
2.415000E+04  8.4990E-06
2.420000E+04  8.3308E-06
2.425000E+04  8.4840E-06
2.430000E+04  8.4093E-06
2.435000E+04  8.2542E-06
2.440000E+04  8.3334E-06
2.445000E+04  7.9580E-06
2.450000E+04  7.7501E-06
2.455000E+04  7.6550E-06
2.460000E+04  7.6268E-06
2.465000E+04  7.5567E-06
2.470000E+04  7.4028E-06
2.475000E+04  7.1914E-06
2.480000E+04  6.6789E-06
2.485000E+04  6.3975E-06
2.490000E+04  6.3316E-06
2.495000E+04  6.2532E-06
2.500000E+04  6.2521E-06
2.505000E+04  6.3388E-06
2.510000E+04  6.1535E-06
2.515000E+04  6.0464E-06
2.520000E+04  6.0962E-06
2.525000E+04  6.2132E-06
2.530000E+04  6.2286E-06
2.535000E+04  6.1879E-06
2.540000E+04  6.1131E-06
2.545000E+04  6.1694E-06
2.550000E+04  6.2649E-06
2.555000E+04  6.2702E-06
2.560000E+04  6.2781E-06
2.565000E+04  6.2978E-06
2.570000E+04  6.3503E-06
2.575000E+04  6.4684E-06
2.580000E+04  6.4785E-06
2.585000E+04  6.4294E-06
2.590000E+04  6.3365E-06
2.595000E+04  6.4376E-06
2.600000E+04  6.6295E-06
2.605000E+04  6.7428E-06
2.610000E+04  6.8051E-06
2.615000E+04  6.5955E-06
2.620000E+04  6.6703E-06
2.625000E+04  6.8401E-06
2.630000E+04  7.1134E-06
2.635000E+04  7.0854E-06
2.640000E+04  6.9328E-06
2.645000E+04  6.6984E-06
2.650000E+04  6.8233E-06
2.655000E+04  7.0465E-06
2.660000E+04  7.4293E-06
2.665000E+04  7.3749E-06
2.670000E+04  7.2509E-06
2.675000E+04  6.9765E-06
2.680000E+04  6.7388E-06
2.685000E+04  6.5042E-06
2.690000E+04  6.5656E-06
2.695000E+04  6.8615E-06
2.700000E+04  7.0649E-06
2.705000E+04  6.8762E-06
2.710000E+04  6.6037E-06
2.715000E+04  6.7145E-06
2.720000E+04  7.2257E-06
2.725000E+04  7.3826E-06
2.730000E+04  7.3828E-06
2.735000E+04  7.2074E-06
2.740000E+04  7.5393E-06
2.745000E+04  7.6810E-06
2.750000E+04  7.4809E-06
2.755000E+04  7.1756E-06
2.760000E+04  6.9281E-06
2.765000E+04  6.9235E-06
2.770000E+04  7.0024E-06
2.775000E+04  7.1119E-06
2.780000E+04  7.2221E-06
2.785000E+04  7.3299E-06
2.790000E+04  7.1993E-06
2.795000E+04  7.4136E-06
2.800000E+04  7.0914E-06
2.805000E+04  7.0870E-06
2.810000E+04  6.7498E-06
2.815000E+04  6.9012E-06
2.820000E+04  6.9322E-06
2.825000E+04  6.9933E-06
2.830000E+04  6.9340E-06
2.835000E+04  6.4383E-06
2.840000E+04  5.9548E-06
2.845000E+04  5.5629E-06
2.850000E+04  5.8458E-06
2.855000E+04  6.3148E-06
2.860000E+04  6.5191E-06
2.865000E+04  6.5049E-06
2.870000E+04  6.1364E-06
2.875000E+04  6.1670E-06
2.880000E+04  6.2062E-06
2.885000E+04  5.9304E-06
2.890000E+04  5.7401E-06
2.895000E+04  5.5115E-06
2.900000E+04  5.8745E-06
2.905000E+04  5.9241E-06
2.910000E+04  5.7499E-06
2.915000E+04  5.4820E-06
2.920000E+04  5.2272E-06
2.925000E+04  5.0418E-06
2.930000E+04  5.1716E-06
2.935000E+04  4.9621E-06
2.940000E+04  4.9016E-06
2.945000E+04  4.7546E-06
2.950000E+04  4.6144E-06
2.955000E+04  4.5642E-06
2.960000E+04  4.5081E-06
2.965000E+04  4.4440E-06
2.970000E+04  4.4138E-06
2.975000E+04  4.3598E-06
2.980000E+04  4.3198E-06
2.985000E+04  4.2283E-06
2.990000E+04  4.1893E-06
2.995000E+04  4.1962E-06
3.000000E+04  4.1885E-06
3.005000E+04  4.1718E-06
3.010000E+04  4.1551E-06
3.015000E+04  4.1096E-06
3.020000E+04  4.0834E-06
3.025000E+04  4.0582E-06
3.030000E+04  4.0321E-06
3.035000E+04  4.0093E-06
3.040000E+04  4.0015E-06
3.045000E+04  3.9971E-06
3.050000E+04  3.9803E-06
3.055000E+04  3.9710E-06
3.060000E+04  3.9716E-06
3.065000E+04  3.9522E-06
3.070000E+04  3.9419E-06
3.075000E+04  3.9352E-06
3.080000E+04  3.9063E-06
3.085000E+04  3.8841E-06
3.090000E+04  3.8635E-06
3.095000E+04  3.8383E-06
3.100000E+04  3.8399E-06
3.105000E+04  3.8391E-06
3.110000E+04  3.8297E-06
3.115000E+04  3.8010E-06
3.120000E+04  3.7774E-06
3.125000E+04  3.7567E-06
3.130000E+04  3.7281E-06
3.135000E+04  3.7101E-06
3.140000E+04  3.6953E-06
3.145000E+04  3.6833E-06
3.150000E+04  3.6677E-06
3.155000E+04  3.6469E-06
3.160000E+04  3.6285E-06
3.165000E+04  3.6014E-06
3.170000E+04  3.5894E-06
3.175000E+04  3.5784E-06
3.180000E+04  3.5712E-06
3.185000E+04  3.5706E-06
3.190000E+04  3.5729E-06
3.195000E+04  3.5694E-06
3.200000E+04  3.5582E-06
3.210000E+04  3.5168E-06
3.220000E+04  3.4803E-06
3.230000E+04  3.4589E-06
3.240000E+04  3.4497E-06
3.250000E+04  3.4500E-06
3.260000E+04  3.4320E-06
3.270000E+04  3.4097E-06
3.280000E+04  3.3929E-06
3.290000E+04  3.3881E-06
3.300000E+04  3.3727E-06
3.310000E+04  3.3421E-06
3.320000E+04  3.3608E-06
3.330000E+04  3.3872E-06
3.340000E+04  3.4397E-06
3.350000E+04  3.5342E-06
3.360000E+04  3.5026E-06
3.370000E+04  3.3927E-06
3.380000E+04  3.4680E-06
3.390000E+04  3.4873E-06
3.400000E+04  3.4922E-06
3.410000E+04  3.6041E-06
3.420000E+04  3.6069E-06
3.430000E+04  3.7757E-06
3.440000E+04  3.8440E-06
3.450000E+04  3.7018E-06
3.460000E+04  3.5672E-06
3.470000E+04  3.6458E-06
3.480000E+04  3.5689E-06
3.490000E+04  3.4156E-06
3.500000E+04  3.3897E-06
3.510000E+04  3.5110E-06
3.520000E+04  3.3767E-06
3.530000E+04  3.4142E-06
3.540000E+04  3.2261E-06
3.550000E+04  3.1366E-06
3.560000E+04  3.1920E-06
3.570000E+04  3.2424E-06
3.580000E+04  3.1655E-06
3.590000E+04  3.0786E-06
3.600000E+04  3.1432E-06
3.610000E+04  3.1003E-06
3.620000E+04  3.0273E-06
3.630000E+04  2.8650E-06
3.640000E+04  2.8477E-06
3.650000E+04  2.7717E-06
3.660000E+04  2.7095E-06
3.670000E+04  2.7015E-06
3.680000E+04  2.6222E-06
3.690000E+04  2.5518E-06
3.700000E+04  2.4593E-06
3.710000E+04  2.4201E-06
3.720000E+04  2.3896E-06
3.730000E+04  2.3421E-06
3.740000E+04  2.2670E-06
3.750000E+04  2.2160E-06
3.760000E+04  2.1788E-06
3.770000E+04  2.1504E-06
3.780000E+04  2.1209E-06
3.790000E+04  2.1079E-06
3.800000E+04  2.0888E-06
3.810000E+04  2.0593E-06
3.820000E+04  2.0309E-06
3.830000E+04  2.0132E-06
3.840000E+04  2.0043E-06
3.850000E+04  1.9865E-06
3.860000E+04  1.9671E-06
3.870000E+04  1.9503E-06
3.880000E+04  1.9389E-06
3.890000E+04  1.9227E-06
3.900000E+04  1.9069E-06
3.910000E+04  1.8941E-06
3.920000E+04  1.8892E-06
3.930000E+04  1.8854E-06
3.940000E+04  1.8766E-06
3.950000E+04  1.8716E-06
3.960000E+04  1.8608E-06
3.970000E+04  1.8606E-06
3.980000E+04  1.8466E-06
3.990000E+04  1.8412E-06
4.000000E+04  1.8284E-06
4.010000E+04  1.8241E-06
4.020000E+04  1.8110E-06
4.030000E+04  1.8196E-06
4.040000E+04  1.8295E-06
4.050000E+04  1.8248E-06
4.060000E+04  1.8301E-06
4.070000E+04  1.8269E-06
4.080000E+04  1.8406E-06
4.090000E+04  1.8439E-06
4.100000E+04  1.8710E-06
4.110000E+04  1.8713E-06
4.120000E+04  1.8654E-06
4.130000E+04  1.8427E-06
4.140000E+04  1.7862E-06
4.150000E+04  1.7651E-06
4.160000E+04  1.7498E-06
4.170000E+04  1.8033E-06
4.180000E+04  1.8109E-06
4.190000E+04  1.8325E-06
4.200000E+04  1.7860E-06
4.210000E+04  1.7813E-06
4.220000E+04  1.7984E-06
4.230000E+04  1.8138E-06
4.240000E+04  1.8324E-06
4.250000E+04  1.8043E-06
4.260000E+04  1.7953E-06
4.270000E+04  1.8030E-06
4.280000E+04  1.7563E-06
4.290000E+04  1.7222E-06
4.300000E+04  1.6636E-06
4.310000E+04  1.6299E-06
4.320000E+04  1.6543E-06
4.330000E+04  1.6088E-06
4.340000E+04  1.5401E-06
4.350000E+04  1.4967E-06
4.360000E+04  1.4402E-06
4.370000E+04  1.4499E-06
4.380000E+04  1.4076E-06
4.390000E+04  1.4069E-06
4.400000E+04  1.3739E-06
4.410000E+04  1.3971E-06
4.420000E+04  1.4139E-06
4.430000E+04  1.3895E-06
4.440000E+04  1.4109E-06
4.450000E+04  1.3442E-06
4.460000E+04  1.3371E-06
4.470000E+04  1.3200E-06
4.480000E+04  1.3085E-06
4.490000E+04  1.3360E-06
4.500000E+04  1.3215E-06
4.510000E+04  1.3051E-06
4.520000E+04  1.2580E-06
4.530000E+04  1.2270E-06
4.540000E+04  1.1871E-06
4.550000E+04  1.1514E-06
4.560000E+04  1.1127E-06
4.570000E+04  1.0977E-06
4.580000E+04  1.0936E-06
4.590000E+04  1.0756E-06
4.600000E+04  1.0788E-06
4.610000E+04  1.0853E-06
4.620000E+04  1.0702E-06
4.630000E+04  1.0730E-06
4.640000E+04  1.0724E-06
4.650000E+04  1.0665E-06
4.660000E+04  1.0600E-06
4.670000E+04  1.0435E-06
4.680000E+04  1.0109E-06
4.690000E+04  9.9517E-07
4.700000E+04  9.9341E-07
4.710000E+04  9.8554E-07
4.720000E+04  1.0009E-06
4.730000E+04  1.0237E-06
4.740000E+04  1.0096E-06
4.750000E+04  9.9743E-07
4.760000E+04  9.9361E-07
4.770000E+04  9.7703E-07
4.780000E+04  9.6759E-07
4.790000E+04  9.6000E-07
4.800000E+04  9.4267E-07
4.810000E+04  9.3605E-07
4.820000E+04  9.3520E-07
4.830000E+04  9.3424E-07
4.840000E+04  9.2938E-07
4.850000E+04  9.1540E-07
4.860000E+04  9.0867E-07
4.870000E+04  9.0215E-07
4.880000E+04  8.9461E-07
4.890000E+04  8.9644E-07
4.900000E+04  8.9054E-07
4.910000E+04  8.7712E-07
4.920000E+04  8.7569E-07
4.930000E+04  8.6999E-07
4.940000E+04  8.4565E-07
4.950000E+04  8.3126E-07
4.960000E+04  8.2518E-07
4.970000E+04  8.1321E-07
4.980000E+04  8.0236E-07
4.990000E+04  8.1837E-07
5.000000E+04  8.1623E-07
5.010000E+04  8.1312E-07
5.020000E+04  8.1011E-07
5.030000E+04  7.9735E-07
5.040000E+04  7.8329E-07
5.050000E+04  7.7239E-07
5.060000E+04  7.6870E-07
5.070000E+04  7.6441E-07
5.080000E+04  7.6539E-07
5.090000E+04  7.6622E-07
5.100000E+04  7.6823E-07
5.110000E+04  7.6313E-07
5.120000E+04  7.6500E-07
5.130000E+04  7.5839E-07
5.140000E+04  7.5087E-07
5.150000E+04  7.4707E-07
5.160000E+04  7.4919E-07
5.170000E+04  7.4720E-07
5.180000E+04  7.3818E-07
5.190000E+04  7.3526E-07
5.200000E+04  7.3304E-07
5.210000E+04  7.2150E-07
5.220000E+04  7.1343E-07
5.230000E+04  7.0961E-07
5.240000E+04  7.1256E-07
5.250000E+04  7.0464E-07
5.260000E+04  7.0274E-07
5.270000E+04  7.0408E-07
5.280000E+04  7.0078E-07
5.290000E+04  6.9453E-07
5.300000E+04  6.8816E-07
5.310000E+04  6.8217E-07
5.320000E+04  6.7859E-07
5.330000E+04  6.7150E-07
5.340000E+04  6.6550E-07
5.350000E+04  6.5844E-07
5.360000E+04  6.5487E-07
5.370000E+04  6.5238E-07
5.380000E+04  6.4842E-07
5.390000E+04  6.4375E-07
5.400000E+04  6.4209E-07
5.410000E+04  6.4066E-07
5.420000E+04  6.4092E-07
5.430000E+04  6.3822E-07
5.440000E+04  6.3630E-07
5.450000E+04  6.3425E-07
5.460000E+04  6.2984E-07
5.470000E+04  6.2602E-07
5.480000E+04  6.2505E-07
5.490000E+04  6.2228E-07
5.500000E+04  6.1813E-07
5.510000E+04  6.1421E-07
5.520000E+04  6.1380E-07
5.530000E+04  6.1715E-07
5.540000E+04  6.0176E-07
5.550000E+04  5.9830E-07
5.560000E+04  6.0361E-07
5.570000E+04  6.0579E-07
5.580000E+04  5.9876E-07
5.590000E+04  5.8925E-07
5.600000E+04  5.8953E-07
5.610000E+04  5.8726E-07
5.620000E+04  5.7792E-07
5.630000E+04  5.7369E-07
5.640000E+04  5.7360E-07
5.650000E+04  5.7275E-07
5.660000E+04  5.6872E-07
5.670000E+04  5.6242E-07
5.680000E+04  5.5790E-07
5.690000E+04  5.5299E-07
5.700000E+04  5.4917E-07
5.710000E+04  5.4516E-07
5.720000E+04  5.4144E-07
5.730000E+04  5.3987E-07
5.740000E+04  5.3598E-07
5.750000E+04  5.3001E-07
5.760000E+04  5.2272E-07
5.770000E+04  5.2083E-07
5.780000E+04  5.2346E-07
5.790000E+04  5.2609E-07
5.800000E+04  5.2261E-07
5.810000E+04  5.2085E-07
5.820000E+04  5.1997E-07
5.830000E+04  5.1927E-07
5.840000E+04  5.1875E-07
5.850000E+04  5.1369E-07
5.860000E+04  5.1099E-07
5.870000E+04  5.1062E-07
5.880000E+04  5.0558E-07
5.890000E+04  5.0190E-07
5.900000E+04  4.9812E-07
5.910000E+04  4.9396E-07
5.920000E+04  4.8810E-07
5.930000E+04  4.8260E-07
5.940000E+04  4.7749E-07
5.950000E+04  4.7683E-07
5.960000E+04  4.7639E-07
5.970000E+04  4.7482E-07
5.980000E+04  4.7100E-07
5.990000E+04  4.6656E-07
6.000000E+04  4.6198E-07
6.010000E+04  4.5744E-07
6.020000E+04  4.5556E-07
6.030000E+04  4.5468E-07
6.040000E+04  4.5428E-07
6.050000E+04  4.5433E-07
6.060000E+04  4.5439E-07
6.070000E+04  4.5373E-07
6.080000E+04  4.5074E-07
6.090000E+04  4.4784E-07
6.100000E+04  4.4438E-07
6.110000E+04  4.3937E-07
6.120000E+04  4.3582E-07
6.130000E+04  4.3274E-07
6.140000E+04  4.2990E-07
6.150000E+04  4.2728E-07
6.160000E+04  4.2425E-07
6.170000E+04  4.1937E-07
6.180000E+04  4.1434E-07
6.190000E+04  4.0958E-07
6.200000E+04  4.0581E-07
6.210000E+04  4.0370E-07
6.220000E+04  4.0209E-07
6.230000E+04  4.0047E-07
6.240000E+04  3.9931E-07
6.250000E+04  3.9843E-07
6.260000E+04  3.9441E-07
6.270000E+04  3.9013E-07
6.280000E+04  3.8554E-07
6.290000E+04  3.8137E-07
6.300000E+04  3.7772E-07
6.310000E+04  3.7562E-07
6.320000E+04  3.7415E-07
6.330000E+04  3.7295E-07
6.340000E+04  3.7285E-07
6.350000E+04  3.7248E-07
6.360000E+04  3.7221E-07
6.370000E+04  3.7098E-07
6.380000E+04  3.6863E-07
6.390000E+04  3.6472E-07
6.400000E+04  3.6013E-07
6.410000E+04  3.5501E-07
6.420000E+04  3.5137E-07
6.430000E+04  3.4829E-07
6.440000E+04  3.4642E-07
6.450000E+04  3.4414E-07
6.460000E+04  3.4166E-07
6.470000E+04  3.3837E-07
6.480000E+04  3.3631E-07
6.490000E+04  3.3666E-07
6.500000E+04  3.3611E-07
6.510000E+04  3.3507E-07
6.520000E+04  3.3304E-07
6.530000E+04  3.3089E-07
6.540000E+04  3.2850E-07
6.550000E+04  3.2617E-07
6.560000E+04  3.2386E-07
6.570000E+04  3.1962E-07
6.580000E+04  3.1524E-07
6.590000E+04  3.1219E-07
6.600000E+04  3.0945E-07
6.610000E+04  3.0720E-07
6.620000E+04  3.0572E-07
6.630000E+04  3.0475E-07
6.640000E+04  3.0405E-07
6.650000E+04  3.0342E-07
6.660000E+04  3.0306E-07
6.670000E+04  3.0280E-07
6.680000E+04  3.0275E-07
6.690000E+04  3.0123E-07
6.700000E+04  2.9855E-07
6.710000E+04  2.9616E-07
6.720000E+04  2.9390E-07
6.730000E+04  2.9305E-07
6.740000E+04  2.9210E-07
6.750000E+04  2.9020E-07
6.760000E+04  2.8786E-07
6.770000E+04  2.8458E-07
6.780000E+04  2.8278E-07
6.790000E+04  2.8244E-07
6.800000E+04  2.8182E-07
6.810000E+04  2.8104E-07
6.820000E+04  2.7895E-07
6.830000E+04  2.7660E-07
6.840000E+04  2.7536E-07
6.850000E+04  2.7422E-07
6.860000E+04  2.7338E-07
6.870000E+04  2.7207E-07
6.880000E+04  2.6898E-07
6.890000E+04  2.6574E-07
6.900000E+04  2.6211E-07
6.910000E+04  2.5948E-07
6.920000E+04  2.5829E-07
6.930000E+04  2.5710E-07
6.940000E+04  2.5593E-07
6.950000E+04  2.5427E-07
6.960000E+04  2.5222E-07
6.970000E+04  2.5107E-07
6.980000E+04  2.5048E-07
6.990000E+04  2.4984E-07
7.000000E+04  2.4920E-07
7.010000E+04  2.4805E-07
7.020000E+04  2.4669E-07
7.030000E+04  2.4497E-07
7.040000E+04  2.4312E-07
7.050000E+04  2.4186E-07
7.060000E+04  2.4078E-07
7.070000E+04  2.3983E-07
7.080000E+04  2.3894E-07
7.090000E+04  2.3781E-07
7.100000E+04  2.3663E-07
7.110000E+04  2.3535E-07
7.120000E+04  2.3405E-07
7.130000E+04  2.3292E-07
7.140000E+04  2.3184E-07
7.150000E+04  2.3108E-07
7.160000E+04  2.3045E-07
7.170000E+04  2.2974E-07
7.180000E+04  2.2899E-07
7.190000E+04  2.2830E-07
7.200000E+04  2.2765E-07
7.210000E+04  2.2716E-07
7.220000E+04  2.2683E-07
7.230000E+04  2.2642E-07
7.240000E+04  2.2592E-07
7.250000E+04  2.2521E-07
7.260000E+04  2.2413E-07
7.270000E+04  2.2287E-07
7.280000E+04  2.2105E-07
7.290000E+04  2.1945E-07
7.300000E+04  2.1914E-07
7.310000E+04  2.1882E-07
7.320000E+04  2.1747E-07
7.330000E+04  2.1614E-07
7.340000E+04  2.1409E-07
7.350000E+04  2.1196E-07
7.360000E+04  2.1068E-07
7.370000E+04  2.0975E-07
7.380000E+04  2.0899E-07
7.390000E+04  2.0833E-07
7.400000E+04  2.0748E-07
7.410000E+04  2.0628E-07
7.420000E+04  2.0513E-07
7.430000E+04  2.0415E-07
7.440000E+04  2.0318E-07
7.450000E+04  2.0378E-07
7.460000E+04  2.0448E-07
7.470000E+04  2.0360E-07
7.480000E+04  2.0213E-07
7.490000E+04  2.0117E-07
7.500000E+04  2.0072E-07
7.510000E+04  2.0019E-07
7.520000E+04  1.9937E-07
7.530000E+04  1.9855E-07
7.540000E+04  1.9775E-07
7.550000E+04  1.9695E-07
7.560000E+04  1.9463E-07
7.570000E+04  1.9177E-07
7.580000E+04  1.8987E-07
7.590000E+04  1.8918E-07
7.600000E+04  1.8846E-07
7.610000E+04  1.8748E-07
7.620000E+04  1.8652E-07
7.630000E+04  1.8524E-07
7.640000E+04  1.8390E-07
7.650000E+04  1.8227E-07
7.660000E+04  1.8031E-07
7.670000E+04  1.7869E-07
7.680000E+04  1.7913E-07
7.690000E+04  1.7960E-07
7.700000E+04  1.7963E-07
7.710000E+04  1.7955E-07
7.720000E+04  1.7919E-07
7.730000E+04  1.7841E-07
7.740000E+04  1.7764E-07
7.750000E+04  1.7650E-07
7.760000E+04  1.7537E-07
7.770000E+04  1.7501E-07
7.780000E+04  1.7516E-07
7.790000E+04  1.7502E-07
7.800000E+04  1.7366E-07
7.810000E+04  1.7231E-07
7.820000E+04  1.7079E-07
7.830000E+04  1.6922E-07
7.840000E+04  1.6787E-07
7.850000E+04  1.6698E-07
7.860000E+04  1.6610E-07
7.870000E+04  1.6536E-07
7.880000E+04  1.6466E-07
7.890000E+04  1.6411E-07
7.900000E+04  1.6381E-07
7.910000E+04  1.6352E-07
7.920000E+04  1.6339E-07
7.930000E+04  1.6329E-07
7.940000E+04  1.6302E-07
7.950000E+04  1.6245E-07
7.960000E+04  1.6188E-07
7.970000E+04  1.6105E-07
7.980000E+04  1.6016E-07
7.990000E+04  1.5945E-07
8.000000E+04  1.5924E-07
8.010000E+04  1.5903E-07
8.020000E+04  1.5798E-07
8.030000E+04  1.5663E-07
8.040000E+04  1.5539E-07
8.050000E+04  1.5474E-07
8.060000E+04  1.5409E-07
8.070000E+04  1.5349E-07
8.080000E+04  1.5293E-07
8.090000E+04  1.5237E-07
8.100000E+04  1.5160E-07
8.110000E+04  1.5081E-07
8.120000E+04  1.5002E-07
8.130000E+04  1.4924E-07
8.140000E+04  1.4847E-07
8.150000E+04  1.4788E-07
8.160000E+04  1.4738E-07
8.170000E+04  1.4688E-07
8.180000E+04  1.4598E-07
8.190000E+04  1.4507E-07
8.200000E+04  1.4407E-07
8.210000E+04  1.4287E-07
8.220000E+04  1.4168E-07
8.230000E+04  1.4094E-07
8.240000E+04  1.4045E-07
8.250000E+04  1.3996E-07
8.260000E+04  1.3942E-07
8.270000E+04  1.3889E-07
8.280000E+04  1.3836E-07
8.290000E+04  1.3788E-07
8.300000E+04  1.3739E-07
8.310000E+04  1.3684E-07
8.320000E+04  1.3621E-07
8.330000E+04  1.3559E-07
8.340000E+04  1.3540E-07
8.350000E+04  1.3545E-07
8.360000E+04  1.3551E-07
8.370000E+04  1.3494E-07
8.380000E+04  1.3429E-07
8.390000E+04  1.3365E-07
8.400000E+04  1.3308E-07
8.410000E+04  1.3252E-07
8.420000E+04  1.3195E-07
8.430000E+04  1.3131E-07
8.440000E+04  1.3068E-07
8.450000E+04  1.3012E-07
8.460000E+04  1.2966E-07
8.470000E+04  1.2920E-07
8.480000E+04  1.2866E-07
8.490000E+04  1.2804E-07
8.500000E+04  1.2743E-07
8.510000E+04  1.2707E-07
8.520000E+04  1.2684E-07
8.530000E+04  1.2662E-07
8.540000E+04  1.2633E-07
8.550000E+04  1.2602E-07
8.560000E+04  1.2571E-07
8.570000E+04  1.2529E-07
8.580000E+04  1.2485E-07
8.590000E+04  1.2440E-07
8.600000E+04  1.2396E-07
8.610000E+04  1.2353E-07
8.620000E+04  1.2309E-07
8.630000E+04  1.2267E-07
8.640000E+04  1.2225E-07
8.650000E+04  1.2184E-07
8.660000E+04  1.2130E-07
8.670000E+04  1.2077E-07
8.680000E+04  1.2023E-07
8.690000E+04  1.1986E-07
8.700000E+04  1.1950E-07
8.710000E+04  1.1914E-07
8.720000E+04  1.1894E-07
8.730000E+04  1.1875E-07
8.740000E+04  1.1857E-07
8.750000E+04  1.1839E-07
8.760000E+04  1.1823E-07
8.770000E+04  1.1806E-07
8.780000E+04  1.1804E-07
8.790000E+04  1.1805E-07
8.800000E+04  1.1807E-07
8.810000E+04  1.1811E-07
8.820000E+04  1.1816E-07
8.830000E+04  1.1821E-07
8.840000E+04  1.1789E-07
8.850000E+04  1.1733E-07
8.860000E+04  1.1677E-07
8.870000E+04  1.1642E-07
8.880000E+04  1.1629E-07
8.890000E+04  1.1616E-07
8.900000E+04  1.1588E-07
8.910000E+04  1.1529E-07
8.920000E+04  1.1469E-07
8.930000E+04  1.1412E-07
8.940000E+04  1.1361E-07
8.950000E+04  1.1309E-07
8.960000E+04  1.1258E-07
8.970000E+04  1.1210E-07
8.980000E+04  1.1164E-07
8.990000E+04  1.1119E-07
9.000000E+04  1.1095E-07
9.010000E+04  1.1078E-07
9.020000E+04  1.1062E-07
9.030000E+04  1.1014E-07
9.040000E+04  1.0929E-07
9.050000E+04  1.0846E-07
9.060000E+04  1.0771E-07
9.070000E+04  1.0725E-07
9.080000E+04  1.0679E-07
9.090000E+04  1.0633E-07
9.100000E+04  1.0568E-07
9.110000E+04  1.0504E-07
9.120000E+04  1.0439E-07
9.130000E+04  1.0384E-07
9.140000E+04  1.0335E-07
9.150000E+04  1.0286E-07
9.160000E+04  1.0242E-07
9.170000E+04  1.0209E-07
9.180000E+04  1.0178E-07
9.190000E+04  1.0146E-07
9.200000E+04  1.0140E-07
9.210000E+04  1.0137E-07
9.220000E+04  1.0134E-07
9.230000E+04  1.0144E-07
9.240000E+04  1.0168E-07
9.250000E+04  1.0193E-07
9.260000E+04  1.0215E-07
9.270000E+04  1.0210E-07
9.280000E+04  1.0205E-07
9.290000E+04  1.0200E-07
9.300000E+04  1.0151E-07
9.310000E+04  1.0078E-07
9.320000E+04  1.0006E-07
9.330000E+04  9.9367E-08
9.340000E+04  9.8814E-08
9.350000E+04  9.8267E-08
9.360000E+04  9.7725E-08
9.370000E+04  9.7256E-08
9.380000E+04  9.6823E-08
9.390000E+04  9.6390E-08
9.400000E+04  9.5944E-08
9.410000E+04  9.5406E-08
9.420000E+04  9.4871E-08
9.430000E+04  9.4339E-08
9.440000E+04  9.4047E-08
9.450000E+04  9.3912E-08
9.460000E+04  9.3779E-08
9.470000E+04  9.3660E-08
9.480000E+04  9.3866E-08
9.490000E+04  9.4075E-08
9.500000E+04  9.4288E-08
9.510000E+04  9.4282E-08
9.520000E+04  9.3984E-08
9.530000E+04  9.3686E-08
9.540000E+04  9.3390E-08
9.550000E+04  9.2949E-08
9.560000E+04  9.2474E-08
9.570000E+04  9.2001E-08
9.580000E+04  9.1578E-08
9.590000E+04  9.1427E-08
9.600000E+04  9.1276E-08
9.610000E+04  9.1127E-08
9.620000E+04  9.0813E-08
9.630000E+04  9.0312E-08
9.640000E+04  8.9815E-08
9.650000E+04  8.9322E-08
9.660000E+04  8.8615E-08
9.670000E+04  8.7844E-08
9.680000E+04  8.7083E-08
9.690000E+04  8.6337E-08
9.700000E+04  8.6463E-08
9.710000E+04  8.6582E-08
9.720000E+04  8.6704E-08
9.730000E+04  8.6817E-08
9.740000E+04  8.6891E-08
9.750000E+04  8.6982E-08
9.760000E+04  8.7075E-08
9.770000E+04  8.6973E-08
9.780000E+04  8.6621E-08
9.790000E+04  8.6268E-08
9.800000E+04  8.5917E-08
9.810000E+04  8.5668E-08
9.820000E+04  8.5484E-08
9.830000E+04  8.5299E-08
9.840000E+04  8.5114E-08
9.850000E+04  8.5147E-08
9.860000E+04  8.5255E-08
9.870000E+04  8.5366E-08
9.880000E+04  8.5478E-08
9.890000E+04  8.5136E-08
9.900000E+04  8.4720E-08
9.910000E+04  8.4303E-08
9.920000E+04  8.3889E-08
9.930000E+04  8.3274E-08
9.940000E+04  8.2651E-08
9.950000E+04  8.2037E-08
9.960000E+04  8.1430E-08
9.970000E+04  8.0856E-08
9.980000E+04  8.0289E-08
9.990000E+04  7.9726E-08
1.000000E+05  7.9169E-08
1.002000E+05  7.8399E-08
1.050000E+05  6.6932E-08
1.100000E+05  5.3682E-08
1.130000E+05  4.8940E-08
1.160000E+05  4.1683E-08
1.200000E+05  3.6083E-08
1.250000E+05  3.5912E-08
1.300000E+05  3.0328E-08
1.350000E+05  2.5782E-08
1.400000E+05  2.2051E-08
1.450000E+05  1.8968E-08
1.500000E+05  1.6402E-08
1.600000E+05  1.2444E-08
1.700000E+05  9.6053E-09
1.800000E+05  7.5287E-09
1.900000E+05  5.9820E-09
2.000000E+05  4.8115E-09
2.200000E+05  3.2937E-09
2.300000E+05  2.7601E-09
2.400000E+05  2.3304E-09
2.500000E+05  1.9813E-09
2.600000E+05  1.6952E-09
2.700000E+05  1.4590E-09
2.800000E+05  1.2626E-09
3.000000E+05  9.5966E-10
3.500000E+05  5.1994E-10
4.000000E+05  3.0577E-10
4.500000E+05  1.9110E-10
5.000000E+05  1.2550E-10
5.500000E+05  8.5795E-11
6.000000E+05  6.0626E-11
6.500000E+05  4.4026E-11
7.000000E+05  3.2739E-11
7.500000E+05  2.4849E-11
8.000000E+05  1.9199E-11
8.500000E+05  1.5064E-11
9.000000E+05  1.1985E-11
9.500000E+05  9.6537E-12
1.000000E+06  7.8628E-12
1.050000E+06  6.4678E-12
1.100000E+06  5.3689E-12
1.200000E+06  3.7899E-12
1.300000E+06  2.7506E-12
1.400000E+06  2.0444E-12
1.500000E+06  1.5507E-12
1.600000E+06  1.1975E-12
2.000000E+06  4.9085E-13
2.500000E+06  2.0105E-13
3.000000E+06  9.6958E-14
4.000000E+06  3.0678E-14
5.000000E+06  1.2566E-14
7.000000E+06  3.2710E-15
1.000000E+07  7.8536E-16
1.500000E+07  1.5513E-16
2.250000E+07  3.0644E-17
3.350000E+07  6.2358E-18
5.000000E+07  1.2566E-18
7.400000E+07  2.6190E-19
1.100000E+08  5.3641E-20
1.300000E+08  2.7498E-20
1.600000E+08  1.1984E-20
2.400000E+08  2.3672E-21
3.600000E+08  4.6759E-22
