# Input file name  = bc2003_lr_BaSeL_m62_chab_ssp.ised
# Output file name = spec_BC16_basel_chab_Zm62_age1.75Gyr.dat
# Record         143
# Column           2
# SED(Lo/A)       at    
# Lambda(A)    1.800E+09
9.100000E+01  3.5983E-10
9.400000E+01  5.7223E-10
9.600000E+01  7.6262E-10
9.800000E+01  1.0440E-09
1.000000E+02  1.4179E-09
1.020000E+02  1.8399E-09
1.040000E+02  2.1832E-09
1.060000E+02  2.6498E-09
1.080000E+02  3.2653E-09
1.100000E+02  4.4627E-09
1.140000E+02  6.2017E-09
1.180000E+02  7.8002E-09
1.210000E+02  2.9115E-08
1.250000E+02  3.4380E-08
1.270000E+02  3.6781E-08
1.280000E+02  3.8106E-08
1.310000E+02  4.1236E-08
1.320000E+02  4.8343E-08
1.340000E+02  5.0682E-08
1.370000E+02  6.2254E-08
1.400000E+02  6.6334E-08
1.430000E+02  1.7646E-07
1.470000E+02  4.5481E-07
1.500000E+02  4.6797E-07
1.510000E+02  4.7367E-07
1.550000E+02  4.9813E-07
1.590000E+02  5.3192E-07
1.620000E+02  5.5713E-07
1.660000E+02  5.8559E-07
1.700000E+02  6.1234E-07
1.730000E+02  6.3522E-07
1.770000E+02  6.6010E-07
1.800000E+02  6.7584E-07
1.820000E+02  6.8927E-07
1.860000E+02  7.1482E-07
1.910000E+02  7.4357E-07
1.940000E+02  7.6876E-07
1.980000E+02  7.9106E-07
2.000000E+02  8.0136E-07
2.020000E+02  8.1469E-07
2.050000E+02  8.3156E-07
2.100000E+02  8.3530E-07
2.160000E+02  8.9491E-07
2.200000E+02  9.2042E-07
2.230000E+02  9.2525E-07
2.270000E+02  9.5530E-07
2.300000E+02  1.4907E-06
2.340000E+02  2.1945E-06
2.400000E+02  2.8136E-06
2.460000E+02  2.4998E-06
2.520000E+02  2.7022E-06
2.570000E+02  2.2636E-06
2.600000E+02  2.5665E-06
2.640000E+02  2.6430E-06
2.690000E+02  2.5988E-06
2.740000E+02  2.5395E-06
2.790000E+02  2.4829E-06
2.840000E+02  2.4459E-06
2.900000E+02  2.3530E-06
2.960000E+02  2.2928E-06
3.000000E+02  2.2365E-06
3.010000E+02  2.1965E-06
3.080000E+02  2.1716E-06
3.180000E+02  2.1260E-06
3.280000E+02  2.0498E-06
3.380000E+02  1.9586E-06
3.480000E+02  1.8667E-06
3.570000E+02  1.8106E-06
3.660000E+02  1.7718E-06
3.750000E+02  1.7002E-06
3.850000E+02  1.5858E-06
3.950000E+02  1.5684E-06
4.000000E+02  1.5425E-06
4.050000E+02  1.5256E-06
4.140000E+02  1.4673E-06
4.220000E+02  1.4035E-06
4.300000E+02  1.3509E-06
4.410000E+02  1.3061E-06
4.510000E+02  1.2518E-06
4.600000E+02  1.1911E-06
4.700000E+02  1.1440E-06
4.800000E+02  1.1098E-06
4.900000E+02  1.0475E-06
5.000000E+02  1.0288E-06
5.060000E+02  9.8740E-07
5.120000E+02  1.0053E-06
5.200000E+02  9.7149E-07
5.300000E+02  9.2402E-07
5.400000E+02  8.6222E-07
5.500000E+02  8.2414E-07
5.600000E+02  8.1853E-07
5.700000E+02  8.0415E-07
5.800000E+02  7.6988E-07
5.900000E+02  7.4589E-07
6.000000E+02  7.0106E-07
6.100000E+02  6.0608E-07
6.200000E+02  6.6824E-07
6.300000E+02  6.3275E-07
6.400000E+02  6.2564E-07
6.500000E+02  5.9924E-07
6.580000E+02  5.7392E-07
6.650000E+02  5.7263E-07
6.750000E+02  5.5728E-07
6.850000E+02  5.2169E-07
6.950000E+02  5.2030E-07
7.000000E+02  5.0223E-07
7.050000E+02  4.8523E-07
7.160000E+02  4.8666E-07
7.260000E+02  4.7252E-07
7.350000E+02  4.5927E-07
7.450000E+02  4.4191E-07
7.550000E+02  4.2670E-07
7.650000E+02  3.7307E-07
7.750000E+02  4.0096E-07
7.850000E+02  3.7871E-07
7.950000E+02  3.7417E-07
8.000000E+02  3.6993E-07
8.050000E+02  3.6737E-07
8.150000E+02  3.5671E-07
8.250000E+02  3.4735E-07
8.350000E+02  3.1917E-07
8.450000E+02  3.2641E-07
8.550000E+02  3.1526E-07
8.650000E+02  3.0841E-07
8.750000E+02  3.0153E-07
8.850000E+02  2.9286E-07
8.950000E+02  2.8509E-07
9.000000E+02  2.8045E-07
9.050000E+02  2.7597E-07
9.150000E+02  3.0817E-07
9.250000E+02  4.4609E-07
9.350000E+02  5.7230E-07
9.450000E+02  6.9611E-07
9.550000E+02  7.7835E-07
9.650000E+02  8.4356E-07
9.750000E+02  5.0854E-07
9.850000E+02  7.7592E-07
9.950000E+02  7.3066E-07
1.000000E+03  7.6946E-07
1.005000E+03  8.1226E-07
1.015000E+03  7.8701E-07
1.025000E+03  4.8212E-07
1.035000E+03  7.1224E-07
1.045000E+03  8.8924E-07
1.055000E+03  8.6581E-07
1.065000E+03  7.6078E-07
1.075000E+03  8.1184E-07
1.085000E+03  6.6156E-07
1.095000E+03  8.0234E-07
1.100000E+03  7.8515E-07
1.105000E+03  7.7257E-07
1.115000E+03  7.5423E-07
1.125000E+03  6.9017E-07
1.135000E+03  7.6028E-07
1.145000E+03  7.1643E-07
1.155000E+03  7.1689E-07
1.165000E+03  7.0497E-07
1.175000E+03  5.5680E-07
1.185000E+03  6.5865E-07
1.195000E+03  5.7648E-07
1.200000E+03  5.4072E-07
1.205000E+03  5.1163E-07
1.215000E+03  3.3803E-07
1.225000E+03  5.2606E-07
1.235000E+03  6.1050E-07
1.245000E+03  6.2875E-07
1.255000E+03  6.1613E-07
1.265000E+03  5.8117E-07
1.275000E+03  6.4968E-07
1.285000E+03  6.6304E-07
1.295000E+03  5.8939E-07
1.300000E+03  5.8111E-07
1.305000E+03  5.7449E-07
1.315000E+03  6.3899E-07
1.325000E+03  6.1482E-07
1.335000E+03  5.7876E-07
1.345000E+03  6.1406E-07
1.355000E+03  5.9492E-07
1.365000E+03  5.5579E-07
1.375000E+03  5.5995E-07
1.385000E+03  5.5362E-07
1.395000E+03  4.7283E-07
1.400000E+03  4.6590E-07
1.405000E+03  4.5986E-07
1.415000E+03  5.1405E-07
1.425000E+03  5.0406E-07
1.435000E+03  5.0485E-07
1.442000E+03  5.1373E-07
1.447000E+03  5.1443E-07
1.455000E+03  4.9879E-07
1.465000E+03  4.7222E-07
1.475000E+03  4.6809E-07
1.485000E+03  4.6769E-07
1.495000E+03  4.6523E-07
1.500000E+03  4.5530E-07
1.505000E+03  4.4510E-07
1.512000E+03  4.1547E-07
1.517000E+03  4.2770E-07
1.525000E+03  4.1341E-07
1.535000E+03  3.7051E-07
1.545000E+03  3.6507E-07
1.555000E+03  3.5661E-07
1.565000E+03  3.6964E-07
1.575000E+03  3.8737E-07
1.585000E+03  3.9444E-07
1.595000E+03  3.9733E-07
1.600000E+03  3.9156E-07
1.605000E+03  3.8624E-07
1.615000E+03  3.8124E-07
1.625000E+03  3.7044E-07
1.635000E+03  3.8330E-07
1.645000E+03  3.8680E-07
1.655000E+03  3.6263E-07
1.665000E+03  3.8755E-07
1.672000E+03  3.5068E-07
1.677000E+03  5.1604E-07
1.685000E+03  5.2032E-07
1.695000E+03  4.8386E-07
1.700000E+03  4.9381E-07
1.705000E+03  5.0553E-07
1.715000E+03  6.3393E-07
1.725000E+03  6.8553E-07
1.735000E+03  8.2797E-07
1.745000E+03  7.9996E-07
1.755000E+03  1.0452E-06
1.765000E+03  8.2108E-07
1.775000E+03  9.9362E-07
1.785000E+03  1.0573E-06
1.795000E+03  1.5036E-06
1.800000E+03  1.3774E-06
1.805000E+03  1.2645E-06
1.815000E+03  1.2638E-06
1.825000E+03  1.3095E-06
1.835000E+03  1.2398E-06
1.845000E+03  9.5862E-07
1.855000E+03  1.3853E-06
1.865000E+03  1.7979E-06
1.875000E+03  1.6857E-06
1.885000E+03  1.7487E-06
1.895000E+03  2.1191E-06
1.900000E+03  2.0576E-06
1.905000E+03  1.9987E-06
1.915000E+03  2.1252E-06
1.925000E+03  1.7243E-06
1.935000E+03  8.8323E-07
1.945000E+03  2.3727E-06
1.955000E+03  2.4927E-06
1.967000E+03  3.0338E-06
1.976000E+03  2.6599E-06
1.984000E+03  3.1795E-06
1.995000E+03  3.2733E-06
2.000000E+03  3.0956E-06
2.005000E+03  2.9310E-06
2.015000E+03  3.0029E-06
2.025000E+03  2.4655E-06
2.035000E+03  3.4023E-06
2.045000E+03  3.8394E-06
2.055000E+03  3.5768E-06
2.065000E+03  3.3189E-06
2.074000E+03  3.9865E-06
2.078000E+03  6.8818E-06
2.085000E+03  8.0981E-06
2.095000E+03  7.3923E-06
2.100000E+03  7.0230E-06
2.105000E+03  6.6744E-06
2.115000E+03  7.3620E-06
2.125000E+03  6.5598E-06
2.135000E+03  5.8016E-06
2.145000E+03  7.5777E-06
2.155000E+03  7.7357E-06
2.165000E+03  6.6203E-06
2.175000E+03  6.8443E-06
2.185000E+03  8.2529E-06
2.195000E+03  8.4493E-06
2.200000E+03  8.2054E-06
2.205000E+03  7.9695E-06
2.215000E+03  6.0319E-06
2.225000E+03  6.6353E-06
2.235000E+03  8.9584E-06
2.245000E+03  8.3827E-06
2.255000E+03  6.2424E-06
2.265000E+03  6.0923E-06
2.275000E+03  7.0248E-06
2.285000E+03  8.9122E-06
2.295000E+03  7.4759E-06
2.300000E+03  8.1893E-06
2.305000E+03  8.9738E-06
2.315000E+03  7.6188E-06
2.325000E+03  5.3811E-06
2.335000E+03  4.7288E-06
2.345000E+03  2.9650E-06
2.355000E+03  6.4958E-06
2.365000E+03  3.3035E-06
2.375000E+03  4.7205E-06
2.385000E+03  2.3469E-06
2.395000E+03  3.2237E-06
2.400000E+03  3.2055E-06
2.405000E+03  3.1879E-06
2.415000E+03  4.1445E-06
2.425000E+03  7.6173E-06
2.435000E+03  7.6477E-06
2.445000E+03  9.0911E-06
2.455000E+03  9.6145E-06
2.465000E+03  8.5242E-06
2.475000E+03  7.5043E-06
2.485000E+03  5.4322E-06
2.495000E+03  6.0112E-06
2.500000E+03  7.6142E-06
2.505000E+03  9.6511E-06
2.513000E+03  3.7337E-06
2.518000E+03  2.7462E-06
2.525000E+03  3.2757E-06
2.535000E+03  5.1599E-06
2.545000E+03  5.6945E-06
2.555000E+03  9.4416E-06
2.565000E+03  7.0929E-06
2.575000E+03  8.8863E-06
2.585000E+03  7.8842E-06
2.595000E+03  6.9459E-06
2.600000E+03  6.4157E-06
2.605000E+03  5.9295E-06
2.615000E+03  5.2014E-06
2.625000E+03  7.6456E-06
2.635000E+03  1.2277E-05
2.645000E+03  1.7235E-05
2.655000E+03  2.1667E-05
2.665000E+03  1.4344E-05
2.675000E+03  1.6711E-05
2.685000E+03  1.8195E-05
2.695000E+03  1.4357E-05
2.700000E+03  1.5713E-05
2.705000E+03  1.7219E-05
2.715000E+03  1.3014E-05
2.725000E+03  1.2001E-05
2.735000E+03  1.4146E-05
2.745000E+03  7.0904E-06
2.755000E+03  9.5944E-06
2.765000E+03  1.2360E-05
2.775000E+03  1.3817E-05
2.785000E+03  8.1428E-06
2.795000E+03  3.0222E-06
2.800000E+03  3.4120E-06
2.805000E+03  3.8530E-06
2.815000E+03  1.2322E-05
2.825000E+03  1.8635E-05
2.835000E+03  1.8419E-05
2.845000E+03  1.6112E-05
2.855000E+03  1.0349E-05
2.865000E+03  2.0335E-05
2.875000E+03  2.3017E-05
2.885000E+03  2.0962E-05
2.895000E+03  2.2761E-05
2.900000E+03  2.4805E-05
2.910000E+03  2.9510E-05
2.930000E+03  2.6207E-05
2.950000E+03  2.5122E-05
2.970000E+03  2.7382E-05
2.990000E+03  2.7673E-05
3.000000E+03  2.8425E-05
3.010000E+03  2.9212E-05
3.030000E+03  2.9428E-05
3.050000E+03  3.0521E-05
3.070000E+03  3.1776E-05
3.090000E+03  3.2529E-05
3.100000E+03  3.3236E-05
3.110000E+03  3.4093E-05
3.130000E+03  3.2911E-05
3.150000E+03  3.2802E-05
3.170000E+03  3.4605E-05
3.190000E+03  3.0531E-05
3.200000E+03  3.2215E-05
3.210000E+03  3.3990E-05
3.230000E+03  2.8996E-05
3.250000E+03  3.6761E-05
3.270000E+03  4.1403E-05
3.290000E+03  4.0499E-05
3.300000E+03  4.0318E-05
3.310000E+03  4.0188E-05
3.330000E+03  4.0491E-05
3.350000E+03  3.9720E-05
3.370000E+03  3.3851E-05
3.390000E+03  3.6612E-05
3.400000E+03  3.6823E-05
3.410000E+03  3.7044E-05
3.430000E+03  3.7799E-05
3.450000E+03  3.9557E-05
3.470000E+03  3.9969E-05
3.490000E+03  4.2682E-05
3.500000E+03  4.3599E-05
3.510000E+03  4.4548E-05
3.530000E+03  4.1313E-05
3.550000E+03  4.6548E-05
3.570000E+03  3.6873E-05
3.590000E+03  3.6714E-05
3.600000E+03  3.8972E-05
3.610000E+03  4.1575E-05
3.630000E+03  4.3067E-05
3.640000E+03  4.3907E-05
3.650000E+03  4.9173E-05
3.670000E+03  4.9481E-05
3.690000E+03  4.5703E-05
3.700000E+03  4.7649E-05
3.710000E+03  4.9715E-05
3.730000E+03  4.0665E-05
3.750000E+03  4.5666E-05
3.770000E+03  5.2649E-05
3.790000E+03  5.5924E-05
3.800000E+03  5.6799E-05
3.810000E+03  5.7816E-05
3.830000E+03  4.1014E-05
3.850000E+03  5.4069E-05
3.870000E+03  5.5768E-05
3.890000E+03  5.3610E-05
3.900000E+03  5.8372E-05
3.910000E+03  6.3609E-05
3.930000E+03  3.3465E-05
3.950000E+03  5.3983E-05
3.970000E+03  3.7226E-05
3.990000E+03  7.3464E-05
4.000000E+03  7.6645E-05
4.010000E+03  8.0021E-05
4.030000E+03  8.0598E-05
4.050000E+03  7.8041E-05
4.070000E+03  7.5399E-05
4.090000E+03  8.3110E-05
4.100000E+03  7.9676E-05
4.110000E+03  7.6459E-05
4.130000E+03  8.0823E-05
4.150000E+03  8.1439E-05
4.170000E+03  8.1267E-05
4.190000E+03  8.0750E-05
4.200000E+03  8.1414E-05
4.210000E+03  8.2161E-05
4.230000E+03  8.0225E-05
4.250000E+03  8.3540E-05
4.270000E+03  7.9810E-05
4.290000E+03  7.5904E-05
4.300000E+03  7.1612E-05
4.310000E+03  6.7631E-05
4.330000E+03  8.3835E-05
4.350000E+03  8.0071E-05
4.370000E+03  9.1956E-05
4.390000E+03  8.4649E-05
4.400000E+03  8.6172E-05
4.410000E+03  8.7765E-05
4.430000E+03  9.1428E-05
4.450000E+03  9.1818E-05
4.470000E+03  9.6417E-05
4.490000E+03  9.7260E-05
4.500000E+03  1.0256E-04
4.510000E+03  1.0823E-04
4.530000E+03  9.6807E-05
4.550000E+03  9.9615E-05
4.570000E+03  1.0661E-04
4.590000E+03  1.0101E-04
4.600000E+03  1.0216E-04
4.610000E+03  1.0333E-04
4.630000E+03  1.0054E-04
4.650000E+03  1.0207E-04
4.670000E+03  1.0547E-04
4.690000E+03  1.0310E-04
4.700000E+03  1.0144E-04
4.710000E+03  9.9829E-05
4.730000E+03  1.0430E-04
4.750000E+03  1.0673E-04
4.770000E+03  1.0619E-04
4.790000E+03  1.0545E-04
4.800000E+03  1.0497E-04
4.810000E+03  1.0450E-04
4.830000E+03  1.0672E-04
4.850000E+03  9.8636E-05
4.870000E+03  8.7936E-05
4.890000E+03  1.0204E-04
4.900000E+03  1.0214E-04
4.910000E+03  1.0224E-04
4.930000E+03  1.0061E-04
4.950000E+03  1.0506E-04
4.970000E+03  1.0320E-04
4.990000E+03  9.6108E-05
5.000000E+03  9.3892E-05
5.010000E+03  9.1748E-05
5.030000E+03  9.6994E-05
5.050000E+03  9.7053E-05
5.070000E+03  1.0141E-04
5.090000E+03  9.6428E-05
5.100000E+03  9.7496E-05
5.110000E+03  9.8616E-05
5.130000E+03  9.5536E-05
5.150000E+03  9.2124E-05
5.170000E+03  8.5839E-05
5.190000E+03  8.7668E-05
5.200000E+03  9.0157E-05
5.210000E+03  9.2755E-05
5.230000E+03  9.6714E-05
5.250000E+03  1.0007E-04
5.270000E+03  8.9671E-05
5.290000E+03  1.0072E-04
5.300000E+03  1.0303E-04
5.310000E+03  1.0544E-04
5.330000E+03  9.4579E-05
5.350000E+03  1.0231E-04
5.370000E+03  1.0203E-04
5.390000E+03  9.9624E-05
5.400000E+03  9.8691E-05
5.410000E+03  9.7772E-05
5.430000E+03  9.9308E-05
5.450000E+03  1.0189E-04
5.470000E+03  9.8945E-05
5.490000E+03  9.9133E-05
5.500000E+03  9.8788E-05
5.510000E+03  9.8449E-05
5.530000E+03  1.0061E-04
5.550000E+03  1.0201E-04
5.570000E+03  1.0008E-04
5.590000E+03  9.7307E-05
5.600000E+03  9.8870E-05
5.610000E+03  1.0051E-04
5.630000E+03  9.9388E-05
5.650000E+03  1.0009E-04
5.670000E+03  9.7979E-05
5.690000E+03  1.0074E-04
5.700000E+03  9.9414E-05
5.710000E+03  9.8137E-05
5.730000E+03  1.0527E-04
5.750000E+03  1.0110E-04
5.770000E+03  1.0234E-04
5.790000E+03  9.8811E-05
5.800000E+03  1.0050E-04
5.810000E+03  1.0224E-04
5.830000E+03  1.0448E-04
5.850000E+03  1.0123E-04
5.870000E+03  1.0131E-04
5.890000E+03  9.2985E-05
5.900000E+03  9.6163E-05
5.910000E+03  9.9587E-05
5.930000E+03  9.9695E-05
5.950000E+03  9.9657E-05
5.970000E+03  1.0081E-04
5.990000E+03  9.9241E-05
6.000000E+03  9.8561E-05
6.010000E+03  9.7927E-05
6.030000E+03  1.0003E-04
6.050000E+03  1.0158E-04
6.070000E+03  1.0134E-04
6.090000E+03  9.7985E-05
6.100000E+03  9.8112E-05
6.110000E+03  9.8255E-05
6.130000E+03  9.3278E-05
6.150000E+03  9.4738E-05
6.170000E+03  9.1120E-05
6.190000E+03  9.5571E-05
6.200000E+03  9.5188E-05
6.210000E+03  9.4786E-05
6.230000E+03  9.1917E-05
6.250000E+03  8.8781E-05
6.270000E+03  9.3148E-05
6.290000E+03  9.4574E-05
6.300000E+03  9.3371E-05
6.310000E+03  9.2203E-05
6.330000E+03  9.3527E-05
6.350000E+03  9.3607E-05
6.370000E+03  9.3215E-05
6.390000E+03  9.4834E-05
6.400000E+03  9.3928E-05
6.410000E+03  9.2951E-05
6.430000E+03  9.3663E-05
6.450000E+03  9.3275E-05
6.470000E+03  9.2966E-05
6.490000E+03  9.1130E-05
6.500000E+03  9.2383E-05
6.510000E+03  9.3642E-05
6.530000E+03  9.3235E-05
6.550000E+03  8.9989E-05
6.570000E+03  8.2646E-05
6.590000E+03  9.1283E-05
6.600000E+03  9.1953E-05
6.610000E+03  9.2659E-05
6.630000E+03  9.1631E-05
6.650000E+03  9.1142E-05
6.670000E+03  8.9247E-05
6.690000E+03  9.0881E-05
6.700000E+03  8.9282E-05
6.710000E+03  8.7723E-05
6.730000E+03  8.9654E-05
6.750000E+03  8.8099E-05
6.770000E+03  8.8670E-05
6.790000E+03  8.7740E-05
6.800000E+03  8.7800E-05
6.810000E+03  8.7883E-05
6.830000E+03  8.8625E-05
6.850000E+03  8.6481E-05
6.870000E+03  8.7782E-05
6.890000E+03  8.8775E-05
6.900000E+03  8.8600E-05
6.910000E+03  8.8379E-05
6.930000E+03  8.7698E-05
6.950000E+03  8.7237E-05
6.970000E+03  8.7869E-05
6.990000E+03  8.7581E-05
7.000000E+03  8.6520E-05
7.010000E+03  8.5683E-05
7.030000E+03  8.6944E-05
7.050000E+03  8.6388E-05
7.070000E+03  8.4148E-05
7.090000E+03  8.2428E-05
7.100000E+03  8.1584E-05
7.110000E+03  8.0888E-05
7.130000E+03  7.9329E-05
7.150000E+03  7.9221E-05
7.170000E+03  7.9765E-05
7.190000E+03  7.8093E-05
7.200000E+03  7.9101E-05
7.210000E+03  8.0181E-05
7.230000E+03  8.1305E-05
7.250000E+03  8.1663E-05
7.270000E+03  8.1755E-05
7.290000E+03  8.0344E-05
7.300000E+03  8.1223E-05
7.310000E+03  8.2358E-05
7.330000E+03  8.2319E-05
7.350000E+03  8.2871E-05
7.370000E+03  8.4639E-05
7.390000E+03  8.2517E-05
7.400000E+03  8.2418E-05
7.410000E+03  8.2291E-05
7.430000E+03  8.3963E-05
7.450000E+03  8.3884E-05
7.470000E+03  8.4790E-05
7.490000E+03  8.4245E-05
7.500000E+03  8.4535E-05
7.510000E+03  8.4930E-05
7.530000E+03  8.5788E-05
7.550000E+03  8.6181E-05
7.570000E+03  8.5407E-05
7.590000E+03  8.3657E-05
7.600000E+03  8.3064E-05
7.610000E+03  8.2468E-05
7.630000E+03  8.1604E-05
7.650000E+03  8.0272E-05
7.670000E+03  7.7182E-05
7.690000E+03  7.9031E-05
7.700000E+03  7.8179E-05
7.710000E+03  7.7548E-05
7.730000E+03  7.7710E-05
7.750000E+03  7.6982E-05
7.770000E+03  7.7909E-05
7.790000E+03  7.8184E-05
7.800000E+03  7.8053E-05
7.810000E+03  7.7950E-05
7.830000E+03  7.7561E-05
7.850000E+03  7.6742E-05
7.870000E+03  7.7278E-05
7.890000E+03  7.6161E-05
7.900000E+03  7.5304E-05
7.910000E+03  7.4478E-05
7.930000E+03  7.4535E-05
7.950000E+03  7.4008E-05
7.970000E+03  7.5895E-05
7.990000E+03  7.5901E-05
8.000000E+03  7.6135E-05
8.010000E+03  7.6307E-05
8.030000E+03  7.6319E-05
8.050000E+03  7.5899E-05
8.070000E+03  7.6431E-05
8.090000E+03  7.5283E-05
8.100000E+03  7.5517E-05
8.110000E+03  7.5599E-05
8.130000E+03  7.7090E-05
8.150000E+03  7.7546E-05
8.170000E+03  7.7765E-05
8.190000E+03  7.5502E-05
8.200000E+03  7.5154E-05
8.210000E+03  7.4983E-05
8.230000E+03  7.5121E-05
8.250000E+03  7.5208E-05
8.270000E+03  7.5734E-05
8.290000E+03  7.5096E-05
8.300000E+03  7.3906E-05
8.310000E+03  7.2743E-05
8.330000E+03  7.2439E-05
8.350000E+03  7.2459E-05
8.370000E+03  7.2841E-05
8.390000E+03  7.0978E-05
8.400000E+03  7.1925E-05
8.410000E+03  7.2880E-05
8.430000E+03  7.0734E-05
8.450000E+03  7.0121E-05
8.470000E+03  6.9843E-05
8.490000E+03  7.0359E-05
8.500000E+03  6.8791E-05
8.510000E+03  6.7344E-05
8.530000E+03  7.0065E-05
8.550000E+03  6.5064E-05
8.570000E+03  7.1361E-05
8.590000E+03  6.9922E-05
8.600000E+03  7.0084E-05
8.610000E+03  7.0301E-05
8.630000E+03  7.1760E-05
8.650000E+03  7.1603E-05
8.670000E+03  6.5213E-05
8.690000E+03  6.9712E-05
8.700000E+03  7.0731E-05
8.710000E+03  7.1736E-05
8.730000E+03  7.1663E-05
8.750000E+03  6.9923E-05
8.770000E+03  7.1914E-05
8.790000E+03  7.2480E-05
8.800000E+03  7.1621E-05
8.810000E+03  7.0648E-05
8.830000E+03  7.1473E-05
8.850000E+03  7.0961E-05
8.870000E+03  6.8188E-05
8.890000E+03  6.9716E-05
8.900000E+03  7.0188E-05
8.910000E+03  7.0464E-05
8.930000E+03  6.9164E-05
8.950000E+03  6.9443E-05
8.970000E+03  6.9505E-05
8.990000E+03  6.9363E-05
9.000000E+03  6.7952E-05
9.010000E+03  6.6581E-05
9.030000E+03  6.9144E-05
9.050000E+03  7.1048E-05
9.070000E+03  7.0516E-05
9.090000E+03  6.8718E-05
9.100000E+03  6.9143E-05
9.110000E+03  6.9451E-05
9.130000E+03  7.0625E-05
9.150000E+03  7.0145E-05
9.170000E+03  6.9802E-05
9.190000E+03  7.0141E-05
9.200000E+03  6.8885E-05
9.210000E+03  6.7661E-05
9.230000E+03  6.5911E-05
9.250000E+03  6.6523E-05
9.270000E+03  6.7378E-05
9.290000E+03  6.7125E-05
9.300000E+03  6.7164E-05
9.310000E+03  6.7221E-05
9.330000E+03  6.7154E-05
9.350000E+03  6.6884E-05
9.370000E+03  6.6043E-05
9.390000E+03  6.6739E-05
9.400000E+03  6.5976E-05
9.410000E+03  6.4984E-05
9.430000E+03  6.6661E-05
9.450000E+03  6.5211E-05
9.470000E+03  6.6629E-05
9.490000E+03  6.6597E-05
9.500000E+03  6.6274E-05
9.510000E+03  6.5635E-05
9.530000E+03  6.5762E-05
9.550000E+03  6.3552E-05
9.570000E+03  6.5021E-05
9.590000E+03  6.6003E-05
9.600000E+03  6.5696E-05
9.610000E+03  6.5172E-05
9.630000E+03  6.5211E-05
9.650000E+03  6.4255E-05
9.670000E+03  6.4171E-05
9.690000E+03  6.4887E-05
9.700000E+03  6.4515E-05
9.710000E+03  6.4283E-05
9.730000E+03  6.3782E-05
9.750000E+03  6.3226E-05
9.770000E+03  6.3578E-05
9.790000E+03  6.2653E-05
9.800000E+03  6.3268E-05
9.810000E+03  6.4017E-05
9.830000E+03  6.3584E-05
9.850000E+03  6.3651E-05
9.870000E+03  6.3001E-05
9.890000E+03  6.2857E-05
9.900000E+03  6.2794E-05
9.910000E+03  6.2490E-05
9.930000E+03  6.2882E-05
9.950000E+03  6.2867E-05
9.970000E+03  6.2808E-05
9.990000E+03  6.2580E-05
1.000000E+04  6.2302E-05
1.002500E+04  6.1925E-05
1.007500E+04  6.0836E-05
1.010000E+04  6.1099E-05
1.012500E+04  6.1329E-05
1.017500E+04  6.0381E-05
1.020000E+04  6.0334E-05
1.022500E+04  6.0373E-05
1.027500E+04  6.0367E-05
1.030000E+04  6.0053E-05
1.032500E+04  5.9639E-05
1.037500E+04  5.9025E-05
1.040000E+04  5.8799E-05
1.042500E+04  5.8815E-05
1.047500E+04  5.8092E-05
1.050000E+04  5.8041E-05
1.052500E+04  5.7772E-05
1.057500E+04  5.7125E-05
1.060000E+04  5.7160E-05
1.062500E+04  5.6712E-05
1.067500E+04  5.5682E-05
1.070000E+04  5.5952E-05
1.072500E+04  5.5734E-05
1.077500E+04  5.5357E-05
1.080000E+04  5.4635E-05
1.082500E+04  5.4271E-05
1.087500E+04  5.3609E-05
1.090000E+04  5.3364E-05
1.092500E+04  5.2870E-05
1.097500E+04  5.2185E-05
1.100000E+04  5.1846E-05
1.102500E+04  5.2019E-05
1.107500E+04  5.1314E-05
1.110000E+04  5.1406E-05
1.112500E+04  5.1286E-05
1.117500E+04  5.1004E-05
1.120000E+04  5.0893E-05
1.122500E+04  5.0921E-05
1.127500E+04  5.0151E-05
1.130000E+04  4.9977E-05
1.132500E+04  4.9862E-05
1.137500E+04  4.9297E-05
1.140000E+04  4.9270E-05
1.142500E+04  4.8667E-05
1.147500E+04  4.9202E-05
1.150000E+04  4.9374E-05
1.152500E+04  4.9265E-05
1.157500E+04  4.8680E-05
1.160000E+04  4.8498E-05
1.162500E+04  4.8018E-05
1.167500E+04  4.7689E-05
1.170000E+04  4.7643E-05
1.172500E+04  4.7695E-05
1.177500E+04  4.7023E-05
1.180000E+04  4.6758E-05
1.182500E+04  4.6558E-05
1.187500E+04  4.5947E-05
1.190000E+04  4.6307E-05
1.192500E+04  4.6230E-05
1.197500E+04  4.4745E-05
1.200000E+04  4.5299E-05
1.202500E+04  4.5612E-05
1.207500E+04  4.4752E-05
1.210000E+04  4.4533E-05
1.212500E+04  4.4920E-05
1.217500E+04  4.4911E-05
1.220000E+04  4.4936E-05
1.222500E+04  4.4676E-05
1.227500E+04  4.4236E-05
1.230000E+04  4.4197E-05
1.232500E+04  4.3735E-05
1.237500E+04  4.3703E-05
1.240000E+04  4.3526E-05
1.242500E+04  4.3088E-05
1.247500E+04  4.2781E-05
1.250000E+04  4.2715E-05
1.252500E+04  4.2453E-05
1.257500E+04  4.2219E-05
1.260000E+04  4.2489E-05
1.262500E+04  4.2293E-05
1.267500E+04  4.1497E-05
1.270000E+04  4.1745E-05
1.272500E+04  4.1748E-05
1.277500E+04  4.1441E-05
1.280000E+04  4.0769E-05
1.282500E+04  3.9843E-05
1.287500E+04  4.0511E-05
1.290000E+04  4.0647E-05
1.292500E+04  4.0528E-05
1.297500E+04  4.0491E-05
1.300000E+04  4.0382E-05
1.302500E+04  4.0268E-05
1.307500E+04  4.0169E-05
1.310000E+04  3.9712E-05
1.312500E+04  3.9517E-05
1.317500E+04  3.9282E-05
1.320000E+04  3.9425E-05
1.322500E+04  3.9252E-05
1.327500E+04  3.8600E-05
1.330000E+04  3.8606E-05
1.332500E+04  3.8639E-05
1.337500E+04  3.8152E-05
1.340000E+04  3.8494E-05
1.342500E+04  3.8524E-05
1.347500E+04  3.8269E-05
1.350000E+04  3.8194E-05
1.352500E+04  3.8138E-05
1.357500E+04  3.7274E-05
1.360000E+04  3.7409E-05
1.362500E+04  3.7020E-05
1.367500E+04  3.7291E-05
1.370000E+04  3.7206E-05
1.372500E+04  3.6980E-05
1.377500E+04  3.7078E-05
1.380000E+04  3.7102E-05
1.382500E+04  3.7008E-05
1.387500E+04  3.6636E-05
1.390000E+04  3.6189E-05
1.392500E+04  3.5763E-05
1.397500E+04  3.5259E-05
1.400000E+04  3.5225E-05
1.402500E+04  3.5082E-05
1.407500E+04  3.4824E-05
1.410000E+04  3.4443E-05
1.412500E+04  3.4137E-05
1.417500E+04  3.4302E-05
1.420000E+04  3.4044E-05
1.422500E+04  3.4084E-05
1.427500E+04  3.3914E-05
1.430000E+04  3.3781E-05
1.432500E+04  3.4096E-05
1.437500E+04  3.4316E-05
1.440000E+04  3.4073E-05
1.442500E+04  3.3355E-05
1.447500E+04  3.3710E-05
1.450000E+04  3.3449E-05
1.452500E+04  3.3097E-05
1.457000E+04  3.3552E-05
1.460000E+04  3.3333E-05
1.462000E+04  3.2979E-05
1.467500E+04  3.2679E-05
1.470000E+04  3.2203E-05
1.472500E+04  3.2272E-05
1.477500E+04  3.2365E-05
1.480000E+04  3.2342E-05
1.482500E+04  3.2651E-05
1.487500E+04  3.2455E-05
1.490000E+04  3.2503E-05
1.492500E+04  3.3046E-05
1.497500E+04  3.2647E-05
1.500000E+04  3.2457E-05
1.502500E+04  3.1985E-05
1.507500E+04  3.2170E-05
1.510000E+04  3.2269E-05
1.512500E+04  3.2128E-05
1.517500E+04  3.2555E-05
1.520000E+04  3.2733E-05
1.522500E+04  3.2214E-05
1.527500E+04  3.2659E-05
1.530000E+04  3.2382E-05
1.532500E+04  3.2258E-05
1.537500E+04  3.1955E-05
1.540000E+04  3.2161E-05
1.542500E+04  3.2104E-05
1.547500E+04  3.1965E-05
1.550000E+04  3.1809E-05
1.552500E+04  3.1551E-05
1.557500E+04  3.0835E-05
1.560000E+04  3.1172E-05
1.562500E+04  3.1244E-05
1.567500E+04  3.1128E-05
1.570000E+04  3.1317E-05
1.572500E+04  3.1526E-05
1.577500E+04  2.9666E-05
1.580000E+04  2.9533E-05
1.582500E+04  2.9866E-05
1.587500E+04  2.9725E-05
1.590000E+04  3.0287E-05
1.592500E+04  3.0407E-05
1.597500E+04  3.0153E-05
1.600000E+04  3.0082E-05
1.605000E+04  3.0087E-05
1.610000E+04  3.0042E-05
1.615000E+04  3.0252E-05
1.620000E+04  2.9891E-05
1.625000E+04  2.9295E-05
1.630000E+04  2.9921E-05
1.635000E+04  3.0114E-05
1.640000E+04  2.9767E-05
1.645000E+04  2.9365E-05
1.650000E+04  2.9253E-05
1.655000E+04  2.9215E-05
1.660000E+04  2.9252E-05
1.665000E+04  2.8559E-05
1.670000E+04  2.9021E-05
1.675000E+04  2.9084E-05
1.680000E+04  2.8102E-05
1.685000E+04  2.7906E-05
1.690000E+04  2.8128E-05
1.695000E+04  2.8095E-05
1.700000E+04  2.7952E-05
1.705000E+04  2.7524E-05
1.710000E+04  2.7595E-05
1.715000E+04  2.7389E-05
1.720000E+04  2.6936E-05
1.725000E+04  2.6568E-05
1.730000E+04  2.6316E-05
1.735000E+04  2.6095E-05
1.740000E+04  2.6008E-05
1.745000E+04  2.5885E-05
1.750000E+04  2.5467E-05
1.755000E+04  2.5827E-05
1.760000E+04  2.5610E-05
1.765000E+04  2.5079E-05
1.770000E+04  2.4453E-05
1.775000E+04  2.4435E-05
1.780000E+04  2.4448E-05
1.785000E+04  2.4715E-05
1.790000E+04  2.3491E-05
1.795000E+04  2.3195E-05
1.800000E+04  2.3859E-05
1.805000E+04  2.3141E-05
1.810000E+04  2.3301E-05
1.815000E+04  2.2896E-05
1.820000E+04  2.2786E-05
1.825000E+04  2.2060E-05
1.830000E+04  2.1890E-05
1.835000E+04  2.1587E-05
1.840000E+04  2.1252E-05
1.845000E+04  2.1870E-05
1.850000E+04  2.2296E-05
1.855000E+04  2.1671E-05
1.860000E+04  2.1329E-05
1.865000E+04  2.0899E-05
1.870000E+04  2.1305E-05
1.875000E+04  2.0253E-05
1.880000E+04  2.0277E-05
1.885000E+04  2.0240E-05
1.890000E+04  1.9619E-05
1.895000E+04  1.9625E-05
1.900000E+04  2.0070E-05
1.905000E+04  2.0355E-05
1.910000E+04  1.9823E-05
1.915000E+04  1.9428E-05
1.920000E+04  1.9343E-05
1.925000E+04  1.9466E-05
1.930000E+04  1.9500E-05
1.935000E+04  1.9223E-05
1.940000E+04  1.8406E-05
1.945000E+04  1.8039E-05
1.950000E+04  1.8213E-05
1.955000E+04  1.8339E-05
1.960000E+04  1.8418E-05
1.965000E+04  1.8068E-05
1.970000E+04  1.8132E-05
1.975000E+04  1.7643E-05
1.980000E+04  1.7170E-05
1.985000E+04  1.7044E-05
1.990000E+04  1.7346E-05
1.995000E+04  1.7346E-05
2.000000E+04  1.6906E-05
2.005000E+04  1.7121E-05
2.010000E+04  1.7309E-05
2.015000E+04  1.7319E-05
2.020000E+04  1.7006E-05
2.025000E+04  1.6582E-05
2.030000E+04  1.6257E-05
2.035000E+04  1.6150E-05
2.040000E+04  1.5793E-05
2.045000E+04  1.5840E-05
2.050000E+04  1.5753E-05
2.055000E+04  1.5564E-05
2.060000E+04  1.5300E-05
2.065000E+04  1.5220E-05
2.070000E+04  1.5153E-05
2.075000E+04  1.4968E-05
2.080000E+04  1.5045E-05
2.085000E+04  1.5438E-05
2.090000E+04  1.5250E-05
2.095000E+04  1.4695E-05
2.100000E+04  1.4615E-05
2.105000E+04  1.4717E-05
2.110000E+04  1.4658E-05
2.115000E+04  1.4321E-05
2.120000E+04  1.4117E-05
2.125000E+04  1.4314E-05
2.130000E+04  1.4162E-05
2.135000E+04  1.4101E-05
2.140000E+04  1.3997E-05
2.145000E+04  1.3680E-05
2.150000E+04  1.3720E-05
2.155000E+04  1.3622E-05
2.160000E+04  1.3396E-05
2.165000E+04  1.3264E-05
2.170000E+04  1.3082E-05
2.175000E+04  1.2940E-05
2.180000E+04  1.2951E-05
2.185000E+04  1.2799E-05
2.190000E+04  1.2617E-05
2.195000E+04  1.2488E-05
2.200000E+04  1.2242E-05
2.205000E+04  1.2065E-05
2.210000E+04  1.2020E-05
2.215000E+04  1.2044E-05
2.220000E+04  1.2045E-05
2.225000E+04  1.2048E-05
2.230000E+04  1.2090E-05
2.235000E+04  1.1913E-05
2.240000E+04  1.1868E-05
2.245000E+04  1.1957E-05
2.250000E+04  1.1757E-05
2.255000E+04  1.1502E-05
2.260000E+04  1.1291E-05
2.265000E+04  1.1327E-05
2.270000E+04  1.1436E-05
2.275000E+04  1.1336E-05
2.280000E+04  1.1142E-05
2.285000E+04  1.1069E-05
2.290000E+04  1.0338E-05
2.295000E+04  9.7113E-06
2.300000E+04  1.0151E-05
2.305000E+04  1.0535E-05
2.310000E+04  1.0841E-05
2.315000E+04  1.0744E-05
2.320000E+04  9.6216E-06
2.325000E+04  9.2165E-06
2.330000E+04  1.0036E-05
2.335000E+04  1.0242E-05
2.340000E+04  9.7669E-06
2.345000E+04  9.5889E-06
2.350000E+04  9.0510E-06
2.355000E+04  8.7489E-06
2.360000E+04  8.9078E-06
2.365000E+04  9.2893E-06
2.370000E+04  9.3555E-06
2.375000E+04  9.2084E-06
2.380000E+04  8.6873E-06
2.385000E+04  8.1785E-06
2.390000E+04  8.7269E-06
2.395000E+04  8.9909E-06
2.400000E+04  8.7934E-06
2.405000E+04  8.6182E-06
2.410000E+04  8.0992E-06
2.415000E+04  7.6411E-06
2.420000E+04  7.6445E-06
2.425000E+04  7.7820E-06
2.430000E+04  7.7016E-06
2.435000E+04  7.5895E-06
2.440000E+04  7.5356E-06
2.445000E+04  7.3007E-06
2.450000E+04  7.1973E-06
2.455000E+04  7.1446E-06
2.460000E+04  7.1435E-06
2.465000E+04  7.1298E-06
2.470000E+04  7.0057E-06
2.475000E+04  6.8660E-06
2.480000E+04  6.4611E-06
2.485000E+04  6.1623E-06
2.490000E+04  6.1087E-06
2.495000E+04  6.0555E-06
2.500000E+04  6.0906E-06
2.505000E+04  6.1561E-06
2.510000E+04  6.0064E-06
2.515000E+04  5.8921E-06
2.520000E+04  5.9599E-06
2.525000E+04  6.0514E-06
2.530000E+04  6.0644E-06
2.535000E+04  6.0581E-06
2.540000E+04  6.0154E-06
2.545000E+04  6.0218E-06
2.550000E+04  6.0569E-06
2.555000E+04  6.0590E-06
2.560000E+04  6.0722E-06
2.565000E+04  6.0920E-06
2.570000E+04  6.1246E-06
2.575000E+04  6.1810E-06
2.580000E+04  6.1279E-06
2.585000E+04  6.0523E-06
2.590000E+04  6.0274E-06
2.595000E+04  6.0800E-06
2.600000E+04  6.1571E-06
2.605000E+04  6.2031E-06
2.610000E+04  6.1973E-06
2.615000E+04  6.0839E-06
2.620000E+04  6.0804E-06
2.625000E+04  6.1208E-06
2.630000E+04  6.2422E-06
2.635000E+04  6.2400E-06
2.640000E+04  6.1613E-06
2.645000E+04  6.0510E-06
2.650000E+04  6.0824E-06
2.655000E+04  6.1575E-06
2.660000E+04  6.2953E-06
2.665000E+04  6.2488E-06
2.670000E+04  6.2075E-06
2.675000E+04  6.1012E-06
2.680000E+04  5.9843E-06
2.685000E+04  5.8710E-06
2.690000E+04  5.8670E-06
2.695000E+04  5.9654E-06
2.700000E+04  6.0455E-06
2.705000E+04  5.9616E-06
2.710000E+04  5.8257E-06
2.715000E+04  5.8595E-06
2.720000E+04  6.0690E-06
2.725000E+04  6.1259E-06
2.730000E+04  6.1014E-06
2.735000E+04  5.9986E-06
2.740000E+04  6.1429E-06
2.745000E+04  6.2016E-06
2.750000E+04  6.0964E-06
2.755000E+04  5.9467E-06
2.760000E+04  5.8183E-06
2.765000E+04  5.8041E-06
2.770000E+04  5.8191E-06
2.775000E+04  5.8492E-06
2.780000E+04  5.8880E-06
2.785000E+04  5.9282E-06
2.790000E+04  5.8621E-06
2.795000E+04  5.9508E-06
2.800000E+04  5.7948E-06
2.805000E+04  5.7770E-06
2.810000E+04  5.6084E-06
2.815000E+04  5.6540E-06
2.820000E+04  5.6573E-06
2.825000E+04  5.6718E-06
2.830000E+04  5.6372E-06
2.835000E+04  5.4094E-06
2.840000E+04  5.1810E-06
2.845000E+04  4.9929E-06
2.850000E+04  5.1038E-06
2.855000E+04  5.2956E-06
2.860000E+04  5.3675E-06
2.865000E+04  5.3472E-06
2.870000E+04  5.1679E-06
2.875000E+04  5.1659E-06
2.880000E+04  5.1742E-06
2.885000E+04  5.0432E-06
2.890000E+04  4.9439E-06
2.895000E+04  4.8286E-06
2.900000E+04  4.9753E-06
2.905000E+04  4.9833E-06
2.910000E+04  4.8968E-06
2.915000E+04  4.7667E-06
2.920000E+04  4.6369E-06
2.925000E+04  4.5376E-06
2.930000E+04  4.5852E-06
2.935000E+04  4.4873E-06
2.940000E+04  4.4446E-06
2.945000E+04  4.3662E-06
2.950000E+04  4.2946E-06
2.955000E+04  4.2615E-06
2.960000E+04  4.2271E-06
2.965000E+04  4.1887E-06
2.970000E+04  4.1633E-06
2.975000E+04  4.1275E-06
2.980000E+04  4.0964E-06
2.985000E+04  4.0439E-06
2.990000E+04  4.0140E-06
2.995000E+04  4.0035E-06
3.000000E+04  3.9883E-06
3.005000E+04  3.9693E-06
3.010000E+04  3.9532E-06
3.015000E+04  3.9248E-06
3.020000E+04  3.9004E-06
3.025000E+04  3.8765E-06
3.030000E+04  3.8485E-06
3.035000E+04  3.8222E-06
3.040000E+04  3.8134E-06
3.045000E+04  3.8062E-06
3.050000E+04  3.7885E-06
3.055000E+04  3.7742E-06
3.060000E+04  3.7633E-06
3.065000E+04  3.7439E-06
3.070000E+04  3.7310E-06
3.075000E+04  3.7195E-06
3.080000E+04  3.6934E-06
3.085000E+04  3.6702E-06
3.090000E+04  3.6524E-06
3.095000E+04  3.6328E-06
3.100000E+04  3.6256E-06
3.105000E+04  3.6176E-06
3.110000E+04  3.5977E-06
3.115000E+04  3.5698E-06
3.120000E+04  3.5535E-06
3.125000E+04  3.5383E-06
3.130000E+04  3.5165E-06
3.135000E+04  3.4993E-06
3.140000E+04  3.4830E-06
3.145000E+04  3.4679E-06
3.150000E+04  3.4499E-06
3.155000E+04  3.4297E-06
3.160000E+04  3.4113E-06
3.165000E+04  3.3892E-06
3.170000E+04  3.3767E-06
3.175000E+04  3.3646E-06
3.180000E+04  3.3520E-06
3.185000E+04  3.3423E-06
3.190000E+04  3.3347E-06
3.195000E+04  3.3247E-06
3.200000E+04  3.3099E-06
3.210000E+04  3.2722E-06
3.220000E+04  3.2384E-06
3.230000E+04  3.2114E-06
3.240000E+04  3.1897E-06
3.250000E+04  3.1721E-06
3.260000E+04  3.1463E-06
3.270000E+04  3.1192E-06
3.280000E+04  3.0924E-06
3.290000E+04  3.0712E-06
3.300000E+04  3.0507E-06
3.310000E+04  3.0231E-06
3.320000E+04  3.0139E-06
3.330000E+04  3.0083E-06
3.340000E+04  3.0171E-06
3.350000E+04  3.0449E-06
3.360000E+04  3.0152E-06
3.370000E+04  2.9518E-06
3.380000E+04  2.9697E-06
3.390000E+04  2.9637E-06
3.400000E+04  2.9511E-06
3.410000E+04  2.9858E-06
3.420000E+04  2.9746E-06
3.430000E+04  3.0400E-06
3.440000E+04  3.0582E-06
3.450000E+04  2.9827E-06
3.460000E+04  2.9088E-06
3.470000E+04  2.9302E-06
3.480000E+04  2.8822E-06
3.490000E+04  2.8005E-06
3.500000E+04  2.7768E-06
3.510000E+04  2.8191E-06
3.520000E+04  2.7451E-06
3.530000E+04  2.7493E-06
3.540000E+04  2.6518E-06
3.550000E+04  2.5991E-06
3.560000E+04  2.6114E-06
3.570000E+04  2.6209E-06
3.580000E+04  2.5736E-06
3.590000E+04  2.5219E-06
3.600000E+04  2.5411E-06
3.610000E+04  2.5122E-06
3.620000E+04  2.4685E-06
3.630000E+04  2.3841E-06
3.640000E+04  2.3635E-06
3.650000E+04  2.3168E-06
3.660000E+04  2.2771E-06
3.670000E+04  2.2621E-06
3.680000E+04  2.2140E-06
3.690000E+04  2.1694E-06
3.700000E+04  2.1172E-06
3.710000E+04  2.0889E-06
3.720000E+04  2.0671E-06
3.730000E+04  2.0381E-06
3.740000E+04  1.9923E-06
3.750000E+04  1.9572E-06
3.760000E+04  1.9349E-06
3.770000E+04  1.9164E-06
3.780000E+04  1.8939E-06
3.790000E+04  1.8786E-06
3.800000E+04  1.8618E-06
3.810000E+04  1.8406E-06
3.820000E+04  1.8201E-06
3.830000E+04  1.8046E-06
3.840000E+04  1.7922E-06
3.850000E+04  1.7760E-06
3.860000E+04  1.7575E-06
3.870000E+04  1.7404E-06
3.880000E+04  1.7275E-06
3.890000E+04  1.7125E-06
3.900000E+04  1.6979E-06
3.910000E+04  1.6847E-06
3.920000E+04  1.6747E-06
3.930000E+04  1.6655E-06
3.940000E+04  1.6521E-06
3.950000E+04  1.6405E-06
3.960000E+04  1.6285E-06
3.970000E+04  1.6211E-06
3.980000E+04  1.6056E-06
3.990000E+04  1.5939E-06
4.000000E+04  1.5828E-06
4.010000E+04  1.5752E-06
4.020000E+04  1.5637E-06
4.030000E+04  1.5609E-06
4.040000E+04  1.5568E-06
4.050000E+04  1.5464E-06
4.060000E+04  1.5430E-06
4.070000E+04  1.5362E-06
4.080000E+04  1.5361E-06
4.090000E+04  1.5314E-06
4.100000E+04  1.5374E-06
4.110000E+04  1.5317E-06
4.120000E+04  1.5234E-06
4.130000E+04  1.5083E-06
4.140000E+04  1.4774E-06
4.150000E+04  1.4620E-06
4.160000E+04  1.4496E-06
4.170000E+04  1.4669E-06
4.180000E+04  1.4644E-06
4.190000E+04  1.4678E-06
4.200000E+04  1.4411E-06
4.210000E+04  1.4330E-06
4.220000E+04  1.4370E-06
4.230000E+04  1.4401E-06
4.240000E+04  1.4421E-06
4.250000E+04  1.4234E-06
4.260000E+04  1.4149E-06
4.270000E+04  1.4141E-06
4.280000E+04  1.3796E-06
4.290000E+04  1.3510E-06
4.300000E+04  1.3110E-06
4.310000E+04  1.2829E-06
4.320000E+04  1.2933E-06
4.330000E+04  1.2723E-06
4.340000E+04  1.2298E-06
4.350000E+04  1.1989E-06
4.360000E+04  1.1671E-06
4.370000E+04  1.1653E-06
4.380000E+04  1.1412E-06
4.390000E+04  1.1360E-06
4.400000E+04  1.1114E-06
4.410000E+04  1.1123E-06
4.420000E+04  1.1165E-06
4.430000E+04  1.1020E-06
4.440000E+04  1.1072E-06
4.450000E+04  1.0730E-06
4.460000E+04  1.0618E-06
4.470000E+04  1.0463E-06
4.480000E+04  1.0402E-06
4.490000E+04  1.0516E-06
4.500000E+04  1.0398E-06
4.510000E+04  1.0275E-06
4.520000E+04  1.0008E-06
4.530000E+04  9.8121E-07
4.540000E+04  9.6218E-07
4.550000E+04  9.4513E-07
4.560000E+04  9.2479E-07
4.570000E+04  9.1500E-07
4.580000E+04  9.0646E-07
4.590000E+04  8.9167E-07
4.600000E+04  8.9315E-07
4.610000E+04  8.9604E-07
4.620000E+04  8.8528E-07
4.630000E+04  8.8251E-07
4.640000E+04  8.7920E-07
4.650000E+04  8.7352E-07
4.660000E+04  8.6915E-07
4.670000E+04  8.6056E-07
4.680000E+04  8.4269E-07
4.690000E+04  8.3226E-07
4.700000E+04  8.2790E-07
4.710000E+04  8.2097E-07
4.720000E+04  8.2709E-07
4.730000E+04  8.3680E-07
4.740000E+04  8.2659E-07
4.750000E+04  8.1727E-07
4.760000E+04  8.1311E-07
4.770000E+04  8.0343E-07
4.780000E+04  7.9702E-07
4.790000E+04  7.9161E-07
4.800000E+04  7.7992E-07
4.810000E+04  7.7300E-07
4.820000E+04  7.7280E-07
4.830000E+04  7.7261E-07
4.840000E+04  7.6681E-07
4.850000E+04  7.5712E-07
4.860000E+04  7.5092E-07
4.870000E+04  7.4489E-07
4.880000E+04  7.3930E-07
4.890000E+04  7.3793E-07
4.900000E+04  7.3284E-07
4.910000E+04  7.2462E-07
4.920000E+04  7.2175E-07
4.930000E+04  7.1707E-07
4.940000E+04  7.0325E-07
4.950000E+04  6.9421E-07
4.960000E+04  6.9024E-07
4.970000E+04  6.8379E-07
4.980000E+04  6.7627E-07
4.990000E+04  6.8074E-07
5.000000E+04  6.7798E-07
5.010000E+04  6.7479E-07
5.020000E+04  6.7135E-07
5.030000E+04  6.6352E-07
5.040000E+04  6.5437E-07
5.050000E+04  6.4650E-07
5.060000E+04  6.4336E-07
5.070000E+04  6.3993E-07
5.080000E+04  6.3839E-07
5.090000E+04  6.3674E-07
5.100000E+04  6.3514E-07
5.110000E+04  6.3037E-07
5.120000E+04  6.2965E-07
5.130000E+04  6.2516E-07
5.140000E+04  6.1965E-07
5.150000E+04  6.1580E-07
5.160000E+04  6.1576E-07
5.170000E+04  6.1394E-07
5.180000E+04  6.0753E-07
5.190000E+04  6.0381E-07
5.200000E+04  6.0105E-07
5.210000E+04  5.9425E-07
5.220000E+04  5.8847E-07
5.230000E+04  5.8461E-07
5.240000E+04  5.8475E-07
5.250000E+04  5.8008E-07
5.260000E+04  5.7846E-07
5.270000E+04  5.7822E-07
5.280000E+04  5.7383E-07
5.290000E+04  5.6821E-07
5.300000E+04  5.6365E-07
5.310000E+04  5.5928E-07
5.320000E+04  5.5653E-07
5.330000E+04  5.5229E-07
5.340000E+04  5.4802E-07
5.350000E+04  5.4327E-07
5.360000E+04  5.4021E-07
5.370000E+04  5.3767E-07
5.380000E+04  5.3449E-07
5.390000E+04  5.3099E-07
5.400000E+04  5.2874E-07
5.410000E+04  5.2665E-07
5.420000E+04  5.2459E-07
5.430000E+04  5.2128E-07
5.440000E+04  5.1960E-07
5.450000E+04  5.1787E-07
5.460000E+04  5.1398E-07
5.470000E+04  5.1034E-07
5.480000E+04  5.0865E-07
5.490000E+04  5.0617E-07
5.500000E+04  5.0272E-07
5.510000E+04  4.9938E-07
5.520000E+04  4.9896E-07
5.530000E+04  5.0021E-07
5.540000E+04  4.9072E-07
5.550000E+04  4.8652E-07
5.560000E+04  4.8832E-07
5.570000E+04  4.8877E-07
5.580000E+04  4.8382E-07
5.590000E+04  4.7782E-07
5.600000E+04  4.7702E-07
5.610000E+04  4.7512E-07
5.620000E+04  4.6914E-07
5.630000E+04  4.6538E-07
5.640000E+04  4.6464E-07
5.650000E+04  4.6357E-07
5.660000E+04  4.6048E-07
5.670000E+04  4.5641E-07
5.680000E+04  4.5258E-07
5.690000E+04  4.4865E-07
5.700000E+04  4.4636E-07
5.710000E+04  4.4399E-07
5.720000E+04  4.4106E-07
5.730000E+04  4.3907E-07
5.740000E+04  4.3616E-07
5.750000E+04  4.3235E-07
5.760000E+04  4.2778E-07
5.770000E+04  4.2561E-07
5.780000E+04  4.2594E-07
5.790000E+04  4.2628E-07
5.800000E+04  4.2326E-07
5.810000E+04  4.2100E-07
5.820000E+04  4.1954E-07
5.830000E+04  4.1817E-07
5.840000E+04  4.1685E-07
5.850000E+04  4.1348E-07
5.860000E+04  4.1083E-07
5.870000E+04  4.0924E-07
5.880000E+04  4.0603E-07
5.890000E+04  4.0336E-07
5.900000E+04  4.0058E-07
5.910000E+04  3.9764E-07
5.920000E+04  3.9424E-07
5.930000E+04  3.9099E-07
5.940000E+04  3.8746E-07
5.950000E+04  3.8589E-07
5.960000E+04  3.8494E-07
5.970000E+04  3.8351E-07
5.980000E+04  3.8080E-07
5.990000E+04  3.7774E-07
6.000000E+04  3.7465E-07
6.010000E+04  3.7162E-07
6.020000E+04  3.6973E-07
6.030000E+04  3.6833E-07
6.040000E+04  3.6700E-07
6.050000E+04  3.6584E-07
6.060000E+04  3.6495E-07
6.070000E+04  3.6376E-07
6.080000E+04  3.6142E-07
6.090000E+04  3.5913E-07
6.100000E+04  3.5655E-07
6.110000E+04  3.5330E-07
6.120000E+04  3.5094E-07
6.130000E+04  3.4879E-07
6.140000E+04  3.4667E-07
6.150000E+04  3.4466E-07
6.160000E+04  3.4253E-07
6.170000E+04  3.3959E-07
6.180000E+04  3.3644E-07
6.190000E+04  3.3341E-07
6.200000E+04  3.3093E-07
6.210000E+04  3.2919E-07
6.220000E+04  3.2743E-07
6.230000E+04  3.2569E-07
6.240000E+04  3.2422E-07
6.250000E+04  3.2287E-07
6.260000E+04  3.2025E-07
6.270000E+04  3.1753E-07
6.280000E+04  3.1471E-07
6.290000E+04  3.1211E-07
6.300000E+04  3.0962E-07
6.310000E+04  3.0778E-07
6.320000E+04  3.0653E-07
6.330000E+04  3.0539E-07
6.340000E+04  3.0444E-07
6.350000E+04  3.0337E-07
6.360000E+04  3.0260E-07
6.370000E+04  3.0138E-07
6.380000E+04  2.9939E-07
6.390000E+04  2.9675E-07
6.400000E+04  2.9397E-07
6.410000E+04  2.9096E-07
6.420000E+04  2.8863E-07
6.430000E+04  2.8650E-07
6.440000E+04  2.8491E-07
6.450000E+04  2.8314E-07
6.460000E+04  2.8129E-07
6.470000E+04  2.7910E-07
6.480000E+04  2.7745E-07
6.490000E+04  2.7689E-07
6.500000E+04  2.7592E-07
6.510000E+04  2.7473E-07
6.520000E+04  2.7310E-07
6.530000E+04  2.7143E-07
6.540000E+04  2.6967E-07
6.550000E+04  2.6796E-07
6.560000E+04  2.6628E-07
6.570000E+04  2.6373E-07
6.580000E+04  2.6114E-07
6.590000E+04  2.5907E-07
6.600000E+04  2.5715E-07
6.610000E+04  2.5548E-07
6.620000E+04  2.5414E-07
6.630000E+04  2.5306E-07
6.640000E+04  2.5209E-07
6.650000E+04  2.5115E-07
6.660000E+04  2.5034E-07
6.670000E+04  2.4958E-07
6.680000E+04  2.4893E-07
6.690000E+04  2.4763E-07
6.700000E+04  2.4582E-07
6.710000E+04  2.4412E-07
6.720000E+04  2.4247E-07
6.730000E+04  2.4147E-07
6.740000E+04  2.4042E-07
6.750000E+04  2.3898E-07
6.760000E+04  2.3734E-07
6.770000E+04  2.3532E-07
6.780000E+04  2.3393E-07
6.790000E+04  2.3317E-07
6.800000E+04  2.3228E-07
6.810000E+04  2.3133E-07
6.820000E+04  2.2981E-07
6.830000E+04  2.2820E-07
6.840000E+04  2.2709E-07
6.850000E+04  2.2603E-07
6.860000E+04  2.2509E-07
6.870000E+04  2.2393E-07
6.880000E+04  2.2201E-07
6.890000E+04  2.2002E-07
6.900000E+04  2.1786E-07
6.910000E+04  2.1615E-07
6.920000E+04  2.1508E-07
6.930000E+04  2.1402E-07
6.940000E+04  2.1297E-07
6.950000E+04  2.1171E-07
6.960000E+04  2.1027E-07
6.970000E+04  2.0925E-07
6.980000E+04  2.0847E-07
6.990000E+04  2.0765E-07
7.000000E+04  2.0684E-07
7.010000E+04  2.0580E-07
7.020000E+04  2.0468E-07
7.030000E+04  2.0343E-07
7.040000E+04  2.0212E-07
7.050000E+04  2.0108E-07
7.060000E+04  2.0011E-07
7.070000E+04  1.9919E-07
7.080000E+04  1.9828E-07
7.090000E+04  1.9728E-07
7.100000E+04  1.9627E-07
7.110000E+04  1.9522E-07
7.120000E+04  1.9418E-07
7.130000E+04  1.9320E-07
7.140000E+04  1.9225E-07
7.150000E+04  1.9143E-07
7.160000E+04  1.9068E-07
7.170000E+04  1.8989E-07
7.180000E+04  1.8909E-07
7.190000E+04  1.8833E-07
7.200000E+04  1.8760E-07
7.210000E+04  1.8693E-07
7.220000E+04  1.8633E-07
7.230000E+04  1.8569E-07
7.240000E+04  1.8501E-07
7.250000E+04  1.8424E-07
7.260000E+04  1.8333E-07
7.270000E+04  1.8235E-07
7.280000E+04  1.8111E-07
7.290000E+04  1.7997E-07
7.300000E+04  1.7941E-07
7.310000E+04  1.7883E-07
7.320000E+04  1.7780E-07
7.330000E+04  1.7678E-07
7.340000E+04  1.7545E-07
7.350000E+04  1.7411E-07
7.360000E+04  1.7315E-07
7.370000E+04  1.7234E-07
7.380000E+04  1.7160E-07
7.390000E+04  1.7089E-07
7.400000E+04  1.7009E-07
7.410000E+04  1.6914E-07
7.420000E+04  1.6821E-07
7.430000E+04  1.6737E-07
7.440000E+04  1.6654E-07
7.450000E+04  1.6640E-07
7.460000E+04  1.6631E-07
7.470000E+04  1.6555E-07
7.480000E+04  1.6452E-07
7.490000E+04  1.6373E-07
7.500000E+04  1.6316E-07
7.510000E+04  1.6256E-07
7.520000E+04  1.6183E-07
7.530000E+04  1.6110E-07
7.540000E+04  1.6038E-07
7.550000E+04  1.5968E-07
7.560000E+04  1.5830E-07
7.570000E+04  1.5668E-07
7.580000E+04  1.5550E-07
7.590000E+04  1.5483E-07
7.600000E+04  1.5416E-07
7.610000E+04  1.5337E-07
7.620000E+04  1.5258E-07
7.630000E+04  1.5167E-07
7.640000E+04  1.5072E-07
7.650000E+04  1.4966E-07
7.660000E+04  1.4845E-07
7.670000E+04  1.4739E-07
7.680000E+04  1.4724E-07
7.690000E+04  1.4711E-07
7.700000E+04  1.4678E-07
7.710000E+04  1.4641E-07
7.720000E+04  1.4592E-07
7.730000E+04  1.4526E-07
7.740000E+04  1.4460E-07
7.750000E+04  1.4378E-07
7.760000E+04  1.4297E-07
7.770000E+04  1.4249E-07
7.780000E+04  1.4224E-07
7.790000E+04  1.4186E-07
7.800000E+04  1.4095E-07
7.810000E+04  1.4004E-07
7.820000E+04  1.3906E-07
7.830000E+04  1.3805E-07
7.840000E+04  1.3714E-07
7.850000E+04  1.3644E-07
7.860000E+04  1.3574E-07
7.870000E+04  1.3512E-07
7.880000E+04  1.3451E-07
7.890000E+04  1.3396E-07
7.900000E+04  1.3354E-07
7.910000E+04  1.3312E-07
7.920000E+04  1.3277E-07
7.930000E+04  1.3243E-07
7.940000E+04  1.3203E-07
7.950000E+04  1.3149E-07
7.960000E+04  1.3095E-07
7.970000E+04  1.3030E-07
7.980000E+04  1.2964E-07
7.990000E+04  1.2904E-07
8.000000E+04  1.2865E-07
8.010000E+04  1.2827E-07
8.020000E+04  1.2751E-07
8.030000E+04  1.2663E-07
8.040000E+04  1.2580E-07
8.050000E+04  1.2524E-07
8.060000E+04  1.2468E-07
8.070000E+04  1.2415E-07
8.080000E+04  1.2365E-07
8.090000E+04  1.2315E-07
8.100000E+04  1.2255E-07
8.110000E+04  1.2193E-07
8.120000E+04  1.2132E-07
8.130000E+04  1.2072E-07
8.140000E+04  1.2012E-07
8.150000E+04  1.1961E-07
8.160000E+04  1.1914E-07
8.170000E+04  1.1868E-07
8.180000E+04  1.1804E-07
8.190000E+04  1.1739E-07
8.200000E+04  1.1670E-07
8.210000E+04  1.1593E-07
8.220000E+04  1.1517E-07
8.230000E+04  1.1459E-07
8.240000E+04  1.1413E-07
8.250000E+04  1.1368E-07
8.260000E+04  1.1319E-07
8.270000E+04  1.1272E-07
8.280000E+04  1.1225E-07
8.290000E+04  1.1180E-07
8.300000E+04  1.1136E-07
8.310000E+04  1.1088E-07
8.320000E+04  1.1037E-07
8.330000E+04  1.0986E-07
8.340000E+04  1.0954E-07
8.350000E+04  1.0933E-07
8.360000E+04  1.0912E-07
8.370000E+04  1.0865E-07
8.380000E+04  1.0814E-07
8.390000E+04  1.0764E-07
8.400000E+04  1.0717E-07
8.410000E+04  1.0671E-07
8.420000E+04  1.0624E-07
8.430000E+04  1.0575E-07
8.440000E+04  1.0525E-07
8.450000E+04  1.0479E-07
8.460000E+04  1.0438E-07
8.470000E+04  1.0396E-07
8.480000E+04  1.0351E-07
8.490000E+04  1.0303E-07
8.500000E+04  1.0256E-07
8.510000E+04  1.0219E-07
8.520000E+04  1.0189E-07
8.530000E+04  1.0159E-07
8.540000E+04  1.0126E-07
8.550000E+04  1.0092E-07
8.560000E+04  1.0058E-07
8.570000E+04  1.0020E-07
8.580000E+04  9.9808E-08
8.590000E+04  9.9418E-08
8.600000E+04  9.9032E-08
8.610000E+04  9.8647E-08
8.620000E+04  9.8265E-08
8.630000E+04  9.7892E-08
8.640000E+04  9.7521E-08
8.650000E+04  9.7152E-08
8.660000E+04  9.6733E-08
8.670000E+04  9.6309E-08
8.680000E+04  9.5888E-08
8.690000E+04  9.5539E-08
8.700000E+04  9.5196E-08
8.710000E+04  9.4856E-08
8.720000E+04  9.4582E-08
8.730000E+04  9.4315E-08
8.740000E+04  9.4049E-08
8.750000E+04  9.3794E-08
8.760000E+04  9.3540E-08
8.770000E+04  9.3289E-08
8.780000E+04  9.3104E-08
8.790000E+04  9.2931E-08
8.800000E+04  9.2760E-08
8.810000E+04  9.2600E-08
8.820000E+04  9.2446E-08
8.830000E+04  9.2302E-08
8.840000E+04  9.1990E-08
8.850000E+04  9.1571E-08
8.860000E+04  9.1155E-08
8.870000E+04  9.0829E-08
8.880000E+04  9.0607E-08
8.890000E+04  9.0387E-08
8.900000E+04  9.0099E-08
8.910000E+04  8.9672E-08
8.920000E+04  8.9247E-08
8.930000E+04  8.8830E-08
8.940000E+04  8.8445E-08
8.950000E+04  8.8049E-08
8.960000E+04  8.7656E-08
8.970000E+04  8.7283E-08
8.980000E+04  8.6914E-08
8.990000E+04  8.6562E-08
9.000000E+04  8.6306E-08
9.010000E+04  8.6087E-08
9.020000E+04  8.5870E-08
9.030000E+04  8.5504E-08
9.040000E+04  8.4980E-08
9.050000E+04  8.4461E-08
9.060000E+04  8.3980E-08
9.070000E+04  8.3620E-08
9.080000E+04  8.3261E-08
9.090000E+04  8.2904E-08
9.100000E+04  8.2462E-08
9.110000E+04  8.2033E-08
9.120000E+04  8.1607E-08
9.130000E+04  8.1218E-08
9.140000E+04  8.0857E-08
9.150000E+04  8.0493E-08
9.160000E+04  8.0149E-08
9.170000E+04  7.9863E-08
9.180000E+04  7.9579E-08
9.190000E+04  7.9296E-08
9.200000E+04  7.9127E-08
9.210000E+04  7.8975E-08
9.220000E+04  7.8824E-08
9.230000E+04  7.8729E-08
9.240000E+04  7.8698E-08
9.250000E+04  7.8669E-08
9.260000E+04  7.8633E-08
9.270000E+04  7.8474E-08
9.280000E+04  7.8316E-08
9.290000E+04  7.8159E-08
9.300000E+04  7.7812E-08
9.310000E+04  7.7355E-08
9.320000E+04  7.6901E-08
9.330000E+04  7.6463E-08
9.340000E+04  7.6085E-08
9.350000E+04  7.5712E-08
9.360000E+04  7.5342E-08
9.370000E+04  7.5005E-08
9.380000E+04  7.4686E-08
9.390000E+04  7.4366E-08
9.400000E+04  7.4040E-08
9.410000E+04  7.3673E-08
9.420000E+04  7.3308E-08
9.430000E+04  7.2944E-08
9.440000E+04  7.2689E-08
9.450000E+04  7.2506E-08
9.460000E+04  7.2325E-08
9.470000E+04  7.2152E-08
9.480000E+04  7.2123E-08
9.490000E+04  7.2097E-08
9.500000E+04  7.2073E-08
9.510000E+04  7.1951E-08
9.520000E+04  7.1697E-08
9.530000E+04  7.1444E-08
9.540000E+04  7.1193E-08
9.550000E+04  7.0875E-08
9.560000E+04  7.0543E-08
9.570000E+04  7.0213E-08
9.580000E+04  6.9906E-08
9.590000E+04  6.9724E-08
9.600000E+04  6.9543E-08
9.610000E+04  6.9363E-08
9.620000E+04  6.9109E-08
9.630000E+04  6.8774E-08
9.640000E+04  6.8440E-08
9.650000E+04  6.8109E-08
9.660000E+04  6.7678E-08
9.670000E+04  6.7216E-08
9.680000E+04  6.6759E-08
9.690000E+04  6.6310E-08
9.700000E+04  6.6260E-08
9.710000E+04  6.6203E-08
9.720000E+04  6.6149E-08
9.730000E+04  6.6091E-08
9.740000E+04  6.6018E-08
9.750000E+04  6.5961E-08
9.760000E+04  6.5905E-08
9.770000E+04  6.5760E-08
9.780000E+04  6.5500E-08
9.790000E+04  6.5238E-08
9.800000E+04  6.4977E-08
9.810000E+04  6.4763E-08
9.820000E+04  6.4578E-08
9.830000E+04  6.4393E-08
9.840000E+04  6.4209E-08
9.850000E+04  6.4127E-08
9.860000E+04  6.4081E-08
9.870000E+04  6.4036E-08
9.880000E+04  6.3993E-08
9.890000E+04  6.3739E-08
9.900000E+04  6.3452E-08
9.910000E+04  6.3163E-08
9.920000E+04  6.2877E-08
9.930000E+04  6.2500E-08
9.940000E+04  6.2121E-08
9.950000E+04  6.1748E-08
9.960000E+04  6.1378E-08
9.970000E+04  6.1025E-08
9.980000E+04  6.0675E-08
9.990000E+04  6.0326E-08
1.000000E+05  5.9981E-08
1.002000E+05  5.9445E-08
1.050000E+05  5.0261E-08
1.100000E+05  4.0948E-08
1.130000E+05  3.7141E-08
1.160000E+05  3.2390E-08
1.200000E+05  2.8172E-08
1.250000E+05  2.6381E-08
1.300000E+05  2.2413E-08
1.350000E+05  1.9164E-08
1.400000E+05  1.6482E-08
1.450000E+05  1.4253E-08
1.500000E+05  1.2388E-08
1.600000E+05  9.4893E-09
1.700000E+05  7.3908E-09
1.800000E+05  5.8416E-09
1.900000E+05  4.6780E-09
2.000000E+05  3.7902E-09
2.200000E+05  2.5965E-09
2.300000E+05  2.1765E-09
2.400000E+05  1.8383E-09
2.500000E+05  1.5633E-09
2.600000E+05  1.3380E-09
2.700000E+05  1.1519E-09
2.800000E+05  9.9706E-10
3.000000E+05  7.5824E-10
3.500000E+05  4.1128E-10
4.000000E+05  2.4211E-10
4.500000E+05  1.5136E-10
5.000000E+05  9.9434E-11
5.500000E+05  6.7992E-11
6.000000E+05  4.8058E-11
6.500000E+05  3.4901E-11
7.000000E+05  2.5955E-11
7.500000E+05  1.9701E-11
8.000000E+05  1.5222E-11
8.500000E+05  1.1944E-11
9.000000E+05  9.5021E-12
9.500000E+05  7.6538E-12
1.000000E+06  6.2338E-12
1.050000E+06  5.1276E-12
1.100000E+06  4.2562E-12
1.200000E+06  3.0042E-12
1.300000E+06  2.1801E-12
1.400000E+06  1.6201E-12
1.500000E+06  1.2288E-12
1.600000E+06  9.4872E-13
2.000000E+06  3.8899E-13
2.500000E+06  1.5933E-13
3.000000E+06  7.6838E-14
4.000000E+06  2.4312E-14
5.000000E+06  9.9582E-15
7.000000E+06  2.5922E-15
1.000000E+07  6.2239E-16
1.500000E+07  1.2294E-16
2.250000E+07  2.4285E-17
3.350000E+07  4.9418E-18
5.000000E+07  9.9582E-19
7.400000E+07  2.0756E-19
1.100000E+08  4.2510E-20
1.300000E+08  2.1792E-20
1.600000E+08  9.4969E-21
2.400000E+08  1.8759E-21
3.600000E+08  3.7056E-22
