# Input file name  = bc2003_lr_BaSeL_m62_chab_ssp.ised
# Output file name = spec_BC16_basel_chab_Zm62_age11.75Gyr.dat
# Record         188
# Column           2
# SED(Lo/A)       at    
# Lambda(A)    1.175E+10
9.100000E+01  4.5122E-10
9.400000E+01  7.1113E-10
9.600000E+01  9.4209E-10
9.800000E+01  1.2836E-09
1.000000E+02  1.7369E-09
1.020000E+02  2.2410E-09
1.040000E+02  2.6348E-09
1.060000E+02  3.1776E-09
1.080000E+02  3.8985E-09
1.100000E+02  5.3485E-09
1.140000E+02  7.3523E-09
1.180000E+02  9.1233E-09
1.210000E+02  3.5223E-08
1.250000E+02  4.1194E-08
1.270000E+02  4.3863E-08
1.280000E+02  4.5319E-08
1.310000E+02  4.8620E-08
1.320000E+02  5.6987E-08
1.340000E+02  5.9419E-08
1.370000E+02  7.2845E-08
1.400000E+02  7.7133E-08
1.430000E+02  2.0234E-07
1.470000E+02  4.7871E-07
1.500000E+02  4.9396E-07
1.510000E+02  4.9967E-07
1.550000E+02  5.2378E-07
1.590000E+02  5.5676E-07
1.620000E+02  5.8052E-07
1.660000E+02  6.0791E-07
1.700000E+02  6.3468E-07
1.730000E+02  6.5716E-07
1.770000E+02  6.8191E-07
1.800000E+02  6.9704E-07
1.820000E+02  7.0989E-07
1.860000E+02  7.3516E-07
1.910000E+02  7.6312E-07
1.940000E+02  7.8803E-07
1.980000E+02  8.0970E-07
2.000000E+02  8.1927E-07
2.020000E+02  8.3240E-07
2.050000E+02  8.4845E-07
2.100000E+02  8.5170E-07
2.160000E+02  9.0971E-07
2.200000E+02  9.3384E-07
2.230000E+02  9.3799E-07
2.270000E+02  9.6683E-07
2.300000E+02  1.4808E-06
2.340000E+02  2.2388E-06
2.400000E+02  3.0913E-06
2.460000E+02  2.7230E-06
2.520000E+02  2.9961E-06
2.570000E+02  2.4100E-06
2.600000E+02  2.8707E-06
2.640000E+02  3.0052E-06
2.690000E+02  2.9653E-06
2.740000E+02  2.9061E-06
2.790000E+02  2.8399E-06
2.840000E+02  2.8178E-06
2.900000E+02  2.7230E-06
2.960000E+02  2.6429E-06
3.000000E+02  2.5629E-06
3.010000E+02  2.4949E-06
3.080000E+02  2.5013E-06
3.180000E+02  2.4923E-06
3.280000E+02  2.4164E-06
3.380000E+02  2.3143E-06
3.480000E+02  2.2116E-06
3.570000E+02  2.1670E-06
3.660000E+02  2.1580E-06
3.750000E+02  2.0769E-06
3.850000E+02  1.9286E-06
3.950000E+02  1.9454E-06
4.000000E+02  1.9285E-06
4.050000E+02  1.9225E-06
4.140000E+02  1.8570E-06
4.220000E+02  1.7721E-06
4.300000E+02  1.7074E-06
4.410000E+02  1.6756E-06
4.510000E+02  1.6142E-06
4.600000E+02  1.5286E-06
4.700000E+02  1.4766E-06
4.800000E+02  1.4499E-06
4.900000E+02  1.3603E-06
5.000000E+02  1.3618E-06
5.060000E+02  1.2990E-06
5.120000E+02  1.3801E-06
5.200000E+02  1.3341E-06
5.300000E+02  1.2636E-06
5.400000E+02  1.1614E-06
5.500000E+02  1.1102E-06
5.600000E+02  1.1395E-06
5.700000E+02  1.1428E-06
5.800000E+02  1.0970E-06
5.900000E+02  1.0693E-06
6.000000E+02  9.8537E-07
6.100000E+02  8.3727E-07
6.200000E+02  9.7530E-07
6.300000E+02  9.2031E-07
6.400000E+02  9.2766E-07
6.500000E+02  8.8690E-07
6.580000E+02  8.4085E-07
6.650000E+02  8.5738E-07
6.750000E+02  8.4643E-07
6.850000E+02  7.7403E-07
6.950000E+02  7.9557E-07
7.000000E+02  7.5461E-07
7.050000E+02  7.1788E-07
7.160000E+02  7.5648E-07
7.260000E+02  7.3923E-07
7.350000E+02  7.2225E-07
7.450000E+02  6.9239E-07
7.550000E+02  6.7089E-07
7.650000E+02  5.7321E-07
7.750000E+02  6.3609E-07
7.850000E+02  5.9292E-07
7.950000E+02  5.9764E-07
8.000000E+02  5.9373E-07
8.050000E+02  5.9138E-07
8.150000E+02  5.7739E-07
8.250000E+02  5.6594E-07
8.350000E+02  4.9770E-07
8.450000E+02  5.3410E-07
8.550000E+02  5.1667E-07
8.650000E+02  5.1131E-07
8.750000E+02  5.0150E-07
8.850000E+02  4.8917E-07
8.950000E+02  4.7823E-07
9.000000E+02  4.7063E-07
9.050000E+02  4.6317E-07
9.150000E+02  4.5402E-07
9.250000E+02  7.3277E-07
9.350000E+02  9.9366E-07
9.450000E+02  1.1891E-06
9.550000E+02  1.2988E-06
9.650000E+02  1.3363E-06
9.750000E+02  7.5225E-07
9.850000E+02  1.0849E-06
9.950000E+02  1.0478E-06
1.000000E+03  1.1215E-06
1.005000E+03  1.2084E-06
1.015000E+03  1.2289E-06
1.025000E+03  8.7099E-07
1.035000E+03  1.0875E-06
1.045000E+03  1.3473E-06
1.055000E+03  1.2895E-06
1.065000E+03  1.1178E-06
1.075000E+03  1.1871E-06
1.085000E+03  9.7015E-07
1.095000E+03  1.1861E-06
1.100000E+03  1.1537E-06
1.105000E+03  1.1235E-06
1.115000E+03  1.0866E-06
1.125000E+03  9.6623E-07
1.135000E+03  1.1006E-06
1.145000E+03  1.0508E-06
1.155000E+03  1.0410E-06
1.165000E+03  1.0142E-06
1.175000E+03  7.4507E-07
1.185000E+03  9.5770E-07
1.195000E+03  8.4035E-07
1.200000E+03  7.7497E-07
1.205000E+03  7.2404E-07
1.215000E+03  5.7336E-07
1.225000E+03  8.2761E-07
1.235000E+03  9.2965E-07
1.245000E+03  9.3682E-07
1.255000E+03  9.0509E-07
1.265000E+03  8.7359E-07
1.275000E+03  9.3718E-07
1.285000E+03  9.3757E-07
1.295000E+03  8.0628E-07
1.300000E+03  8.0734E-07
1.305000E+03  8.0946E-07
1.315000E+03  8.9885E-07
1.325000E+03  8.5586E-07
1.335000E+03  7.8728E-07
1.345000E+03  8.5453E-07
1.355000E+03  8.2938E-07
1.365000E+03  7.6666E-07
1.375000E+03  7.6062E-07
1.385000E+03  7.4978E-07
1.395000E+03  5.9197E-07
1.400000E+03  5.8407E-07
1.405000E+03  5.7803E-07
1.415000E+03  6.9236E-07
1.425000E+03  6.7526E-07
1.435000E+03  6.9043E-07
1.442000E+03  6.9556E-07
1.447000E+03  6.9205E-07
1.455000E+03  6.6852E-07
1.465000E+03  6.3164E-07
1.475000E+03  6.3338E-07
1.485000E+03  6.3429E-07
1.495000E+03  6.2278E-07
1.500000E+03  6.0706E-07
1.505000E+03  5.9139E-07
1.512000E+03  5.4613E-07
1.517000E+03  5.6146E-07
1.525000E+03  5.5703E-07
1.535000E+03  4.8937E-07
1.545000E+03  4.5381E-07
1.555000E+03  4.4884E-07
1.565000E+03  4.8464E-07
1.575000E+03  5.0509E-07
1.585000E+03  5.1301E-07
1.595000E+03  5.1095E-07
1.600000E+03  5.0475E-07
1.605000E+03  4.9893E-07
1.615000E+03  4.9160E-07
1.625000E+03  4.7852E-07
1.635000E+03  4.9610E-07
1.645000E+03  4.9212E-07
1.655000E+03  4.7819E-07
1.665000E+03  4.9176E-07
1.672000E+03  4.5470E-07
1.677000E+03  4.9973E-07
1.685000E+03  4.9855E-07
1.695000E+03  4.7480E-07
1.700000E+03  4.6771E-07
1.705000E+03  4.6070E-07
1.715000E+03  4.3470E-07
1.725000E+03  4.2812E-07
1.735000E+03  4.4618E-07
1.745000E+03  4.3571E-07
1.755000E+03  4.4447E-07
1.765000E+03  4.2573E-07
1.775000E+03  4.1488E-07
1.785000E+03  4.2103E-07
1.795000E+03  4.3073E-07
1.800000E+03  4.3037E-07
1.805000E+03  4.2996E-07
1.815000E+03  3.9528E-07
1.825000E+03  4.0265E-07
1.835000E+03  3.9083E-07
1.845000E+03  3.6402E-07
1.855000E+03  3.5628E-07
1.865000E+03  3.6204E-07
1.875000E+03  3.8217E-07
1.885000E+03  3.5168E-07
1.895000E+03  3.3579E-07
1.900000E+03  3.4567E-07
1.905000E+03  3.5605E-07
1.915000E+03  3.3672E-07
1.925000E+03  3.2475E-07
1.935000E+03  3.3893E-07
1.945000E+03  3.4532E-07
1.955000E+03  3.1917E-07
1.967000E+03  3.4325E-07
1.976000E+03  3.4959E-07
1.984000E+03  3.3355E-07
1.995000E+03  3.2469E-07
2.000000E+03  3.2909E-07
2.005000E+03  3.3570E-07
2.015000E+03  3.2759E-07
2.025000E+03  3.3470E-07
2.035000E+03  3.1599E-07
2.045000E+03  3.2326E-07
2.055000E+03  2.9448E-07
2.065000E+03  3.0170E-07
2.074000E+03  3.2827E-07
2.078000E+03  3.3833E-07
2.085000E+03  3.6818E-07
2.095000E+03  3.4777E-07
2.100000E+03  3.4966E-07
2.105000E+03  3.5168E-07
2.115000E+03  3.6577E-07
2.125000E+03  3.5609E-07
2.135000E+03  3.4675E-07
2.145000E+03  3.6503E-07
2.155000E+03  3.6707E-07
2.165000E+03  3.4929E-07
2.175000E+03  3.4586E-07
2.185000E+03  3.7113E-07
2.195000E+03  3.7158E-07
2.200000E+03  3.7008E-07
2.205000E+03  3.6865E-07
2.215000E+03  3.3119E-07
2.225000E+03  3.4958E-07
2.235000E+03  4.0142E-07
2.245000E+03  3.9023E-07
2.255000E+03  3.4331E-07
2.265000E+03  3.2954E-07
2.275000E+03  3.4059E-07
2.285000E+03  4.0265E-07
2.295000E+03  3.5231E-07
2.300000E+03  3.6939E-07
2.305000E+03  3.8922E-07
2.315000E+03  3.5405E-07
2.325000E+03  3.0164E-07
2.335000E+03  3.1631E-07
2.345000E+03  2.7687E-07
2.355000E+03  3.4729E-07
2.365000E+03  2.8515E-07
2.375000E+03  3.0873E-07
2.385000E+03  2.6161E-07
2.395000E+03  2.8407E-07
2.400000E+03  2.8370E-07
2.405000E+03  2.8360E-07
2.415000E+03  2.9156E-07
2.425000E+03  3.7637E-07
2.435000E+03  3.7955E-07
2.445000E+03  4.3103E-07
2.455000E+03  4.5188E-07
2.465000E+03  3.8867E-07
2.475000E+03  3.5883E-07
2.485000E+03  2.6156E-07
2.495000E+03  2.8092E-07
2.500000E+03  3.2570E-07
2.505000E+03  3.8281E-07
2.513000E+03  2.5601E-07
2.518000E+03  2.3968E-07
2.525000E+03  2.4395E-07
2.535000E+03  3.2716E-07
2.545000E+03  3.3101E-07
2.555000E+03  5.7396E-07
2.565000E+03  4.3669E-07
2.575000E+03  5.5573E-07
2.585000E+03  5.0107E-07
2.595000E+03  4.6505E-07
2.600000E+03  4.4173E-07
2.605000E+03  4.2064E-07
2.615000E+03  3.8969E-07
2.625000E+03  4.9098E-07
2.635000E+03  8.5942E-07
2.645000E+03  1.1002E-06
2.655000E+03  1.6918E-06
2.665000E+03  9.9317E-07
2.675000E+03  1.1137E-06
2.685000E+03  1.3583E-06
2.695000E+03  9.1799E-07
2.700000E+03  1.0445E-06
2.705000E+03  1.1952E-06
2.715000E+03  8.3639E-07
2.725000E+03  5.8313E-07
2.735000E+03  7.8426E-07
2.745000E+03  5.0481E-07
2.755000E+03  6.7294E-07
2.765000E+03  8.8501E-07
2.775000E+03  9.2659E-07
2.785000E+03  5.7705E-07
2.795000E+03  3.2260E-07
2.800000E+03  3.4543E-07
2.805000E+03  3.7097E-07
2.815000E+03  8.1078E-07
2.825000E+03  1.1395E-06
2.835000E+03  1.0127E-06
2.845000E+03  6.3909E-07
2.855000E+03  3.7819E-07
2.865000E+03  9.2667E-07
2.875000E+03  1.4969E-06
2.885000E+03  1.3951E-06
2.895000E+03  1.9072E-06
2.900000E+03  2.1499E-06
2.910000E+03  2.7516E-06
2.930000E+03  2.3294E-06
2.950000E+03  2.0589E-06
2.970000E+03  2.1112E-06
2.990000E+03  2.1477E-06
3.000000E+03  2.0982E-06
3.010000E+03  2.0517E-06
3.030000E+03  2.3304E-06
3.050000E+03  2.4282E-06
3.070000E+03  2.8678E-06
3.090000E+03  2.7186E-06
3.100000E+03  3.0632E-06
3.110000E+03  3.4708E-06
3.130000E+03  3.0819E-06
3.150000E+03  3.1814E-06
3.170000E+03  3.6061E-06
3.190000E+03  3.0009E-06
3.200000E+03  3.1515E-06
3.210000E+03  3.3106E-06
3.230000E+03  2.7298E-06
3.250000E+03  4.2073E-06
3.270000E+03  5.0630E-06
3.290000E+03  4.9995E-06
3.300000E+03  4.7344E-06
3.310000E+03  4.4890E-06
3.330000E+03  4.7045E-06
3.350000E+03  4.4907E-06
3.370000E+03  3.0845E-06
3.390000E+03  3.5864E-06
3.400000E+03  3.6385E-06
3.410000E+03  3.6932E-06
3.430000E+03  3.9518E-06
3.450000E+03  4.1689E-06
3.470000E+03  4.3701E-06
3.490000E+03  5.1330E-06
3.500000E+03  5.3461E-06
3.510000E+03  5.5729E-06
3.530000E+03  4.8321E-06
3.550000E+03  5.6748E-06
3.570000E+03  3.4357E-06
3.590000E+03  3.6394E-06
3.600000E+03  4.2310E-06
3.610000E+03  4.9377E-06
3.630000E+03  5.3501E-06
3.640000E+03  5.6255E-06
3.650000E+03  6.5151E-06
3.670000E+03  7.0902E-06
3.690000E+03  6.1819E-06
3.700000E+03  6.3355E-06
3.710000E+03  6.5138E-06
3.730000E+03  3.7991E-06
3.750000E+03  4.4319E-06
3.770000E+03  6.0953E-06
3.790000E+03  6.2295E-06
3.800000E+03  5.8958E-06
3.810000E+03  5.5891E-06
3.830000E+03  2.8420E-06
3.850000E+03  3.9716E-06
3.870000E+03  3.9508E-06
3.890000E+03  5.6042E-06
3.900000E+03  6.2889E-06
3.910000E+03  7.0702E-06
3.930000E+03  3.3154E-06
3.950000E+03  6.0347E-06
3.970000E+03  4.1333E-06
3.990000E+03  9.6075E-06
4.000000E+03  1.0149E-05
4.010000E+03  1.0741E-05
4.030000E+03  1.0520E-05
4.050000E+03  9.9976E-06
4.070000E+03  9.1934E-06
4.090000E+03  1.1942E-05
4.100000E+03  1.1529E-05
4.110000E+03  1.1172E-05
4.130000E+03  1.0565E-05
4.150000E+03  1.0155E-05
4.170000E+03  1.0463E-05
4.190000E+03  1.0146E-05
4.200000E+03  1.0302E-05
4.210000E+03  1.0476E-05
4.230000E+03  1.0031E-05
4.250000E+03  1.0810E-05
4.270000E+03  1.0026E-05
4.290000E+03  9.2551E-06
4.300000E+03  8.6079E-06
4.310000E+03  8.0412E-06
4.330000E+03  1.2172E-05
4.350000E+03  1.2192E-05
4.370000E+03  1.3202E-05
4.390000E+03  1.1412E-05
4.400000E+03  1.1807E-05
4.410000E+03  1.2222E-05
4.430000E+03  1.3448E-05
4.450000E+03  1.3513E-05
4.470000E+03  1.4653E-05
4.490000E+03  1.5029E-05
4.500000E+03  1.6233E-05
4.510000E+03  1.7550E-05
4.530000E+03  1.4938E-05
4.550000E+03  1.5809E-05
4.570000E+03  1.7184E-05
4.590000E+03  1.6175E-05
4.600000E+03  1.6353E-05
4.610000E+03  1.6534E-05
4.630000E+03  1.6124E-05
4.650000E+03  1.6299E-05
4.670000E+03  1.7230E-05
4.690000E+03  1.6865E-05
4.700000E+03  1.6629E-05
4.710000E+03  1.6403E-05
4.730000E+03  1.7035E-05
4.750000E+03  1.7620E-05
4.770000E+03  1.7380E-05
4.790000E+03  1.7337E-05
4.800000E+03  1.7336E-05
4.810000E+03  1.7340E-05
4.830000E+03  1.7954E-05
4.850000E+03  1.7022E-05
4.870000E+03  1.5508E-05
4.890000E+03  1.7233E-05
4.900000E+03  1.7271E-05
4.910000E+03  1.7317E-05
4.930000E+03  1.6926E-05
4.950000E+03  1.7769E-05
4.970000E+03  1.7160E-05
4.990000E+03  1.5797E-05
5.000000E+03  1.5316E-05
5.010000E+03  1.4852E-05
5.030000E+03  1.5932E-05
5.050000E+03  1.5918E-05
5.070000E+03  1.6835E-05
5.090000E+03  1.5783E-05
5.100000E+03  1.6038E-05
5.110000E+03  1.6313E-05
5.130000E+03  1.5804E-05
5.150000E+03  1.4974E-05
5.170000E+03  1.3089E-05
5.190000E+03  1.3775E-05
5.200000E+03  1.4508E-05
5.210000E+03  1.5288E-05
5.230000E+03  1.6646E-05
5.250000E+03  1.7651E-05
5.270000E+03  1.5258E-05
5.290000E+03  1.8081E-05
5.300000E+03  1.8775E-05
5.310000E+03  1.9501E-05
5.330000E+03  1.6750E-05
5.350000E+03  1.8629E-05
5.370000E+03  1.8595E-05
5.390000E+03  1.8104E-05
5.400000E+03  1.7943E-05
5.410000E+03  1.7786E-05
5.430000E+03  1.8004E-05
5.450000E+03  1.8427E-05
5.470000E+03  1.7984E-05
5.490000E+03  1.8088E-05
5.500000E+03  1.7990E-05
5.510000E+03  1.7898E-05
5.530000E+03  1.8676E-05
5.550000E+03  1.9110E-05
5.570000E+03  1.8739E-05
5.590000E+03  1.7869E-05
5.600000E+03  1.8292E-05
5.610000E+03  1.8738E-05
5.630000E+03  1.8518E-05
5.650000E+03  1.8842E-05
5.670000E+03  1.8451E-05
5.690000E+03  1.9166E-05
5.700000E+03  1.8854E-05
5.710000E+03  1.8554E-05
5.730000E+03  2.0388E-05
5.750000E+03  1.9470E-05
5.770000E+03  1.9771E-05
5.790000E+03  1.8919E-05
5.800000E+03  1.9374E-05
5.810000E+03  1.9842E-05
5.830000E+03  2.0408E-05
5.850000E+03  1.9581E-05
5.870000E+03  1.9584E-05
5.890000E+03  1.7150E-05
5.900000E+03  1.8118E-05
5.910000E+03  1.9184E-05
5.930000E+03  1.9284E-05
5.950000E+03  1.9295E-05
5.970000E+03  1.9653E-05
5.990000E+03  1.9363E-05
6.000000E+03  1.9248E-05
6.010000E+03  1.9139E-05
6.030000E+03  1.9781E-05
6.050000E+03  2.0211E-05
6.070000E+03  2.0227E-05
6.090000E+03  1.9456E-05
6.100000E+03  1.9564E-05
6.110000E+03  1.9676E-05
6.130000E+03  1.8367E-05
6.150000E+03  1.8716E-05
6.170000E+03  1.7566E-05
6.190000E+03  1.8715E-05
6.200000E+03  1.8620E-05
6.210000E+03  1.8526E-05
6.230000E+03  1.7853E-05
6.250000E+03  1.7272E-05
6.270000E+03  1.8222E-05
6.290000E+03  1.8667E-05
6.300000E+03  1.8428E-05
6.310000E+03  1.8199E-05
6.330000E+03  1.8581E-05
6.350000E+03  1.8708E-05
6.370000E+03  1.8674E-05
6.390000E+03  1.9100E-05
6.400000E+03  1.8925E-05
6.410000E+03  1.8754E-05
6.430000E+03  1.8902E-05
6.450000E+03  1.8856E-05
6.470000E+03  1.8764E-05
6.490000E+03  1.8424E-05
6.500000E+03  1.8818E-05
6.510000E+03  1.9228E-05
6.530000E+03  1.9250E-05
6.550000E+03  1.8810E-05
6.570000E+03  1.7868E-05
6.590000E+03  1.8783E-05
6.600000E+03  1.8890E-05
6.610000E+03  1.8999E-05
6.630000E+03  1.8623E-05
6.650000E+03  1.8502E-05
6.670000E+03  1.8023E-05
6.690000E+03  1.8395E-05
6.700000E+03  1.7976E-05
6.710000E+03  1.7571E-05
6.730000E+03  1.8119E-05
6.750000E+03  1.7780E-05
6.770000E+03  1.7926E-05
6.790000E+03  1.7729E-05
6.800000E+03  1.7779E-05
6.810000E+03  1.7831E-05
6.830000E+03  1.8076E-05
6.850000E+03  1.7581E-05
6.870000E+03  1.7920E-05
6.890000E+03  1.8210E-05
6.900000E+03  1.8208E-05
6.910000E+03  1.8213E-05
6.930000E+03  1.8070E-05
6.950000E+03  1.8088E-05
6.970000E+03  1.8376E-05
6.990000E+03  1.8351E-05
7.000000E+03  1.8215E-05
7.010000E+03  1.8092E-05
7.030000E+03  1.8458E-05
7.050000E+03  1.8019E-05
7.070000E+03  1.7339E-05
7.090000E+03  1.6884E-05
7.100000E+03  1.6712E-05
7.110000E+03  1.6553E-05
7.130000E+03  1.6147E-05
7.150000E+03  1.6119E-05
7.170000E+03  1.6349E-05
7.190000E+03  1.5931E-05
7.200000E+03  1.6205E-05
7.210000E+03  1.6488E-05
7.230000E+03  1.6848E-05
7.250000E+03  1.7032E-05
7.270000E+03  1.7150E-05
7.290000E+03  1.6916E-05
7.300000E+03  1.7257E-05
7.310000E+03  1.7631E-05
7.330000E+03  1.7650E-05
7.350000E+03  1.7954E-05
7.370000E+03  1.8621E-05
7.390000E+03  1.8164E-05
7.400000E+03  1.8214E-05
7.410000E+03  1.8282E-05
7.430000E+03  1.8881E-05
7.450000E+03  1.8804E-05
7.470000E+03  1.9281E-05
7.490000E+03  1.9249E-05
7.500000E+03  1.9335E-05
7.510000E+03  1.9423E-05
7.530000E+03  1.9887E-05
7.550000E+03  2.0058E-05
7.570000E+03  1.9889E-05
7.590000E+03  1.8996E-05
7.600000E+03  1.8742E-05
7.610000E+03  1.8514E-05
7.630000E+03  1.8045E-05
7.650000E+03  1.7446E-05
7.670000E+03  1.6492E-05
7.690000E+03  1.6994E-05
7.700000E+03  1.6831E-05
7.710000E+03  1.6670E-05
7.730000E+03  1.6721E-05
7.750000E+03  1.6565E-05
7.770000E+03  1.6916E-05
7.790000E+03  1.6904E-05
7.800000E+03  1.6914E-05
7.810000E+03  1.6927E-05
7.830000E+03  1.6923E-05
7.850000E+03  1.6749E-05
7.870000E+03  1.6961E-05
7.890000E+03  1.6872E-05
7.900000E+03  1.6636E-05
7.910000E+03  1.6407E-05
7.930000E+03  1.6470E-05
7.950000E+03  1.6443E-05
7.970000E+03  1.6966E-05
7.990000E+03  1.6937E-05
8.000000E+03  1.7076E-05
8.010000E+03  1.7237E-05
8.030000E+03  1.7356E-05
8.050000E+03  1.7311E-05
8.070000E+03  1.7763E-05
8.090000E+03  1.7669E-05
8.100000E+03  1.7765E-05
8.110000E+03  1.7863E-05
8.130000E+03  1.8567E-05
8.150000E+03  1.8988E-05
8.170000E+03  1.9191E-05
8.190000E+03  1.8222E-05
8.200000E+03  1.8058E-05
8.210000E+03  1.8002E-05
8.230000E+03  1.7972E-05
8.250000E+03  1.7993E-05
8.270000E+03  1.8035E-05
8.290000E+03  1.7799E-05
8.300000E+03  1.7502E-05
8.310000E+03  1.7211E-05
8.330000E+03  1.6980E-05
8.350000E+03  1.7020E-05
8.370000E+03  1.7111E-05
8.390000E+03  1.6466E-05
8.400000E+03  1.6811E-05
8.410000E+03  1.7170E-05
8.430000E+03  1.6439E-05
8.450000E+03  1.6139E-05
8.470000E+03  1.6038E-05
8.490000E+03  1.6224E-05
8.500000E+03  1.5890E-05
8.510000E+03  1.5566E-05
8.530000E+03  1.6170E-05
8.550000E+03  1.5272E-05
8.570000E+03  1.6706E-05
8.590000E+03  1.6440E-05
8.600000E+03  1.6555E-05
8.610000E+03  1.6678E-05
8.630000E+03  1.7031E-05
8.650000E+03  1.7071E-05
8.670000E+03  1.5675E-05
8.690000E+03  1.6660E-05
8.700000E+03  1.7009E-05
8.710000E+03  1.7376E-05
8.730000E+03  1.7522E-05
8.750000E+03  1.7421E-05
8.770000E+03  1.7751E-05
8.790000E+03  1.8100E-05
8.800000E+03  1.7910E-05
8.810000E+03  1.7725E-05
8.830000E+03  1.7860E-05
8.850000E+03  1.7660E-05
8.870000E+03  1.6816E-05
8.890000E+03  1.6901E-05
8.900000E+03  1.7012E-05
8.910000E+03  1.7124E-05
8.930000E+03  1.6875E-05
8.950000E+03  1.6953E-05
8.970000E+03  1.7036E-05
8.990000E+03  1.7023E-05
9.000000E+03  1.6828E-05
9.010000E+03  1.6643E-05
9.030000E+03  1.7407E-05
9.050000E+03  1.8022E-05
9.070000E+03  1.8080E-05
9.090000E+03  1.7874E-05
9.100000E+03  1.8040E-05
9.110000E+03  1.8209E-05
9.130000E+03  1.8493E-05
9.150000E+03  1.8388E-05
9.170000E+03  1.8365E-05
9.190000E+03  1.8551E-05
9.200000E+03  1.8203E-05
9.210000E+03  1.7864E-05
9.230000E+03  1.7305E-05
9.250000E+03  1.7194E-05
9.270000E+03  1.7433E-05
9.290000E+03  1.7088E-05
9.300000E+03  1.7112E-05
9.310000E+03  1.7137E-05
9.330000E+03  1.7267E-05
9.350000E+03  1.7192E-05
9.370000E+03  1.6858E-05
9.390000E+03  1.7204E-05
9.400000E+03  1.7074E-05
9.410000E+03  1.6947E-05
9.430000E+03  1.7400E-05
9.450000E+03  1.7151E-05
9.470000E+03  1.7600E-05
9.490000E+03  1.7610E-05
9.500000E+03  1.7388E-05
9.510000E+03  1.7171E-05
9.530000E+03  1.7380E-05
9.550000E+03  1.7161E-05
9.570000E+03  1.7325E-05
9.590000E+03  1.7619E-05
9.600000E+03  1.7496E-05
9.610000E+03  1.7371E-05
9.630000E+03  1.7521E-05
9.650000E+03  1.7159E-05
9.670000E+03  1.7197E-05
9.690000E+03  1.7445E-05
9.700000E+03  1.7253E-05
9.710000E+03  1.7067E-05
9.730000E+03  1.6843E-05
9.750000E+03  1.6834E-05
9.770000E+03  1.6926E-05
9.790000E+03  1.6642E-05
9.800000E+03  1.6885E-05
9.810000E+03  1.7142E-05
9.830000E+03  1.6974E-05
9.850000E+03  1.7063E-05
9.870000E+03  1.6938E-05
9.890000E+03  1.6926E-05
9.900000E+03  1.6770E-05
9.910000E+03  1.6631E-05
9.930000E+03  1.6834E-05
9.950000E+03  1.6923E-05
9.970000E+03  1.6931E-05
9.990000E+03  1.6873E-05
1.000000E+04  1.6899E-05
1.002500E+04  1.6972E-05
1.007500E+04  1.6786E-05
1.010000E+04  1.6886E-05
1.012500E+04  1.6988E-05
1.017500E+04  1.6810E-05
1.020000E+04  1.6844E-05
1.022500E+04  1.6881E-05
1.027500E+04  1.6933E-05
1.030000E+04  1.6848E-05
1.032500E+04  1.6763E-05
1.037500E+04  1.6637E-05
1.040000E+04  1.6657E-05
1.042500E+04  1.6681E-05
1.047500E+04  1.6411E-05
1.050000E+04  1.6328E-05
1.052500E+04  1.6246E-05
1.057500E+04  1.5905E-05
1.060000E+04  1.5825E-05
1.062500E+04  1.5739E-05
1.067500E+04  1.5611E-05
1.070000E+04  1.5653E-05
1.072500E+04  1.5690E-05
1.077500E+04  1.5582E-05
1.080000E+04  1.5443E-05
1.082500E+04  1.5312E-05
1.087500E+04  1.5213E-05
1.090000E+04  1.5180E-05
1.092500E+04  1.5144E-05
1.097500E+04  1.4869E-05
1.100000E+04  1.4770E-05
1.102500E+04  1.4682E-05
1.107500E+04  1.4420E-05
1.110000E+04  1.4407E-05
1.112500E+04  1.4391E-05
1.117500E+04  1.4305E-05
1.120000E+04  1.4301E-05
1.122500E+04  1.4298E-05
1.127500E+04  1.4148E-05
1.130000E+04  1.4140E-05
1.132500E+04  1.4134E-05
1.137500E+04  1.3972E-05
1.140000E+04  1.3897E-05
1.142500E+04  1.3815E-05
1.147500E+04  1.4021E-05
1.150000E+04  1.4006E-05
1.152500E+04  1.3987E-05
1.157500E+04  1.3808E-05
1.160000E+04  1.3697E-05
1.162500E+04  1.3583E-05
1.167500E+04  1.3575E-05
1.170000E+04  1.3603E-05
1.172500E+04  1.3634E-05
1.177500E+04  1.3315E-05
1.180000E+04  1.3254E-05
1.182500E+04  1.3196E-05
1.187500E+04  1.2975E-05
1.190000E+04  1.3067E-05
1.192500E+04  1.3155E-05
1.197500E+04  1.2712E-05
1.200000E+04  1.2828E-05
1.202500E+04  1.2942E-05
1.207500E+04  1.2839E-05
1.210000E+04  1.2836E-05
1.212500E+04  1.2842E-05
1.217500E+04  1.2859E-05
1.220000E+04  1.2818E-05
1.222500E+04  1.2773E-05
1.227500E+04  1.2673E-05
1.230000E+04  1.2633E-05
1.232500E+04  1.2586E-05
1.237500E+04  1.2537E-05
1.240000E+04  1.2434E-05
1.242500E+04  1.2328E-05
1.247500E+04  1.2305E-05
1.250000E+04  1.2246E-05
1.252500E+04  1.2185E-05
1.257500E+04  1.2153E-05
1.260000E+04  1.2120E-05
1.262500E+04  1.2080E-05
1.267500E+04  1.1965E-05
1.270000E+04  1.1971E-05
1.272500E+04  1.1972E-05
1.277500E+04  1.1955E-05
1.280000E+04  1.1772E-05
1.282500E+04  1.1590E-05
1.287500E+04  1.1743E-05
1.290000E+04  1.1682E-05
1.292500E+04  1.1618E-05
1.297500E+04  1.1708E-05
1.300000E+04  1.1646E-05
1.302500E+04  1.1586E-05
1.307500E+04  1.1587E-05
1.310000E+04  1.1448E-05
1.312500E+04  1.1316E-05
1.317500E+04  1.1304E-05
1.320000E+04  1.1301E-05
1.322500E+04  1.1294E-05
1.327500E+04  1.1099E-05
1.330000E+04  1.1088E-05
1.332500E+04  1.1077E-05
1.337500E+04  1.0979E-05
1.340000E+04  1.0979E-05
1.342500E+04  1.0974E-05
1.347500E+04  1.0867E-05
1.350000E+04  1.0829E-05
1.352500E+04  1.0793E-05
1.357500E+04  1.0613E-05
1.360000E+04  1.0589E-05
1.362500E+04  1.0557E-05
1.367500E+04  1.0620E-05
1.370000E+04  1.0638E-05
1.372500E+04  1.0654E-05
1.377500E+04  1.0631E-05
1.380000E+04  1.0628E-05
1.382500E+04  1.0623E-05
1.387500E+04  1.0509E-05
1.390000E+04  1.0171E-05
1.392500E+04  9.8756E-06
1.397500E+04  9.7870E-06
1.400000E+04  9.7413E-06
1.402500E+04  9.6948E-06
1.407500E+04  9.7485E-06
1.410000E+04  9.6940E-06
1.412500E+04  9.6415E-06
1.417500E+04  9.7082E-06
1.420000E+04  9.6549E-06
1.422500E+04  9.6072E-06
1.427500E+04  9.4966E-06
1.430000E+04  9.5806E-06
1.432500E+04  9.6731E-06
1.437500E+04  9.7262E-06
1.440000E+04  9.6327E-06
1.442500E+04  9.5340E-06
1.447500E+04  9.6995E-06
1.450000E+04  9.6527E-06
1.452500E+04  9.6051E-06
1.457000E+04  9.6649E-06
1.460000E+04  9.4897E-06
1.462000E+04  9.3758E-06
1.467500E+04  9.3122E-06
1.470000E+04  9.2754E-06
1.472500E+04  9.2483E-06
1.477500E+04  9.3150E-06
1.480000E+04  9.3391E-06
1.482500E+04  9.3688E-06
1.487500E+04  9.3078E-06
1.490000E+04  9.4154E-06
1.492500E+04  9.5324E-06
1.497500E+04  9.4811E-06
1.500000E+04  9.4013E-06
1.502500E+04  9.3213E-06
1.507500E+04  9.4156E-06
1.510000E+04  9.4981E-06
1.512500E+04  9.5776E-06
1.517500E+04  9.6242E-06
1.520000E+04  9.6243E-06
1.522500E+04  9.6137E-06
1.527500E+04  9.6920E-06
1.530000E+04  9.6753E-06
1.532500E+04  9.6613E-06
1.537500E+04  9.6230E-06
1.540000E+04  9.6012E-06
1.542500E+04  9.5755E-06
1.547500E+04  9.5864E-06
1.550000E+04  9.5602E-06
1.552500E+04  9.5332E-06
1.557500E+04  9.3159E-06
1.560000E+04  9.3213E-06
1.562500E+04  9.3241E-06
1.567500E+04  9.3341E-06
1.570000E+04  9.4185E-06
1.572500E+04  9.5048E-06
1.577500E+04  9.0043E-06
1.580000E+04  8.9688E-06
1.582500E+04  8.9453E-06
1.587500E+04  8.9915E-06
1.590000E+04  9.1402E-06
1.592500E+04  9.2848E-06
1.597500E+04  9.0957E-06
1.600000E+04  9.0843E-06
1.605000E+04  9.0652E-06
1.610000E+04  9.1666E-06
1.615000E+04  9.2786E-06
1.620000E+04  9.1135E-06
1.625000E+04  8.9522E-06
1.630000E+04  9.1004E-06
1.635000E+04  9.2513E-06
1.640000E+04  9.0815E-06
1.645000E+04  8.9153E-06
1.650000E+04  9.0125E-06
1.655000E+04  9.1144E-06
1.660000E+04  9.0350E-06
1.665000E+04  8.9450E-06
1.670000E+04  8.9185E-06
1.675000E+04  8.8879E-06
1.680000E+04  8.8339E-06
1.685000E+04  8.7940E-06
1.690000E+04  8.7858E-06
1.695000E+04  8.7739E-06
1.700000E+04  8.7121E-06
1.705000E+04  8.6478E-06
1.710000E+04  8.5644E-06
1.715000E+04  8.4781E-06
1.720000E+04  8.4079E-06
1.725000E+04  8.3404E-06
1.730000E+04  8.2287E-06
1.735000E+04  8.1195E-06
1.740000E+04  8.0523E-06
1.745000E+04  7.9856E-06
1.750000E+04  7.9127E-06
1.755000E+04  7.8537E-06
1.760000E+04  7.7599E-06
1.765000E+04  7.6626E-06
1.770000E+04  7.5578E-06
1.775000E+04  7.4651E-06
1.780000E+04  7.3999E-06
1.785000E+04  7.3406E-06
1.790000E+04  7.2233E-06
1.795000E+04  7.1239E-06
1.800000E+04  7.0485E-06
1.805000E+04  6.9514E-06
1.810000E+04  6.8925E-06
1.815000E+04  6.8250E-06
1.820000E+04  6.7758E-06
1.825000E+04  6.7169E-06
1.830000E+04  6.6661E-06
1.835000E+04  6.6136E-06
1.840000E+04  6.5342E-06
1.845000E+04  6.4724E-06
1.850000E+04  6.4415E-06
1.855000E+04  6.3935E-06
1.860000E+04  6.3048E-06
1.865000E+04  6.2164E-06
1.870000E+04  6.1613E-06
1.875000E+04  6.0822E-06
1.880000E+04  6.0635E-06
1.885000E+04  6.0442E-06
1.890000E+04  5.9500E-06
1.895000E+04  5.8684E-06
1.900000E+04  5.8879E-06
1.905000E+04  5.9053E-06
1.910000E+04  5.8459E-06
1.915000E+04  5.7897E-06
1.920000E+04  5.7529E-06
1.925000E+04  5.7202E-06
1.930000E+04  5.6551E-06
1.935000E+04  5.5861E-06
1.940000E+04  5.5123E-06
1.945000E+04  5.4472E-06
1.950000E+04  5.4284E-06
1.955000E+04  5.4093E-06
1.960000E+04  5.3593E-06
1.965000E+04  5.3026E-06
1.970000E+04  5.2347E-06
1.975000E+04  5.1586E-06
1.980000E+04  5.1134E-06
1.985000E+04  5.0747E-06
1.990000E+04  5.0508E-06
1.995000E+04  5.0220E-06
2.000000E+04  5.0002E-06
2.005000E+04  4.9900E-06
2.010000E+04  4.9631E-06
2.015000E+04  4.9332E-06
2.020000E+04  4.8782E-06
2.025000E+04  4.8220E-06
2.030000E+04  4.7894E-06
2.035000E+04  4.7610E-06
2.040000E+04  4.7482E-06
2.045000E+04  4.7426E-06
2.050000E+04  4.7112E-06
2.055000E+04  4.6783E-06
2.060000E+04  4.6423E-06
2.065000E+04  4.6099E-06
2.070000E+04  4.5912E-06
2.075000E+04  4.5705E-06
2.080000E+04  4.5481E-06
2.085000E+04  4.5315E-06
2.090000E+04  4.4961E-06
2.095000E+04  4.4547E-06
2.100000E+04  4.4447E-06
2.105000E+04  4.4380E-06
2.110000E+04  4.4078E-06
2.115000E+04  4.3731E-06
2.120000E+04  4.3475E-06
2.125000E+04  4.3292E-06
2.130000E+04  4.3114E-06
2.135000E+04  4.2954E-06
2.140000E+04  4.2693E-06
2.145000E+04  4.2398E-06
2.150000E+04  4.2161E-06
2.155000E+04  4.1902E-06
2.160000E+04  4.1511E-06
2.165000E+04  4.1141E-06
2.170000E+04  4.0862E-06
2.175000E+04  4.0593E-06
2.180000E+04  4.0398E-06
2.185000E+04  4.0175E-06
2.190000E+04  3.9932E-06
2.195000E+04  3.9701E-06
2.200000E+04  3.9200E-06
2.205000E+04  3.8721E-06
2.210000E+04  3.8702E-06
2.215000E+04  3.8701E-06
2.220000E+04  3.8310E-06
2.225000E+04  3.7927E-06
2.230000E+04  3.7734E-06
2.235000E+04  3.7500E-06
2.240000E+04  3.7263E-06
2.245000E+04  3.7055E-06
2.250000E+04  3.6807E-06
2.255000E+04  3.6548E-06
2.260000E+04  3.6176E-06
2.265000E+04  3.5861E-06
2.270000E+04  3.5768E-06
2.275000E+04  3.5632E-06
2.280000E+04  3.5263E-06
2.285000E+04  3.4926E-06
2.290000E+04  3.2034E-06
2.295000E+04  2.9429E-06
2.300000E+04  3.0306E-06
2.305000E+04  3.1197E-06
2.310000E+04  3.1271E-06
2.315000E+04  3.1250E-06
2.320000E+04  2.8816E-06
2.325000E+04  2.6737E-06
2.330000E+04  2.7794E-06
2.335000E+04  2.8736E-06
2.340000E+04  2.8016E-06
2.345000E+04  2.7407E-06
2.350000E+04  2.6041E-06
2.355000E+04  2.4810E-06
2.360000E+04  2.5656E-06
2.365000E+04  2.6594E-06
2.370000E+04  2.6032E-06
2.375000E+04  2.5441E-06
2.380000E+04  2.4419E-06
2.385000E+04  2.3443E-06
2.390000E+04  2.4149E-06
2.395000E+04  2.4793E-06
2.400000E+04  2.4447E-06
2.405000E+04  2.4117E-06
2.410000E+04  2.3170E-06
2.415000E+04  2.2276E-06
2.420000E+04  2.2549E-06
2.425000E+04  2.2867E-06
2.430000E+04  2.2501E-06
2.435000E+04  2.2142E-06
2.440000E+04  2.1665E-06
2.445000E+04  2.1150E-06
2.450000E+04  2.0932E-06
2.455000E+04  2.0735E-06
2.460000E+04  2.0660E-06
2.465000E+04  2.0591E-06
2.470000E+04  2.0214E-06
2.475000E+04  1.9841E-06
2.480000E+04  1.8543E-06
2.485000E+04  1.7396E-06
2.490000E+04  1.7004E-06
2.495000E+04  1.6659E-06
2.500000E+04  1.6765E-06
2.505000E+04  1.6880E-06
2.510000E+04  1.6517E-06
2.515000E+04  1.6182E-06
2.520000E+04  1.6361E-06
2.525000E+04  1.6552E-06
2.530000E+04  1.6568E-06
2.535000E+04  1.6579E-06
2.540000E+04  1.6498E-06
2.545000E+04  1.6436E-06
2.550000E+04  1.6462E-06
2.555000E+04  1.6479E-06
2.560000E+04  1.6556E-06
2.565000E+04  1.6637E-06
2.570000E+04  1.6723E-06
2.575000E+04  1.6818E-06
2.580000E+04  1.6645E-06
2.585000E+04  1.6472E-06
2.590000E+04  1.6516E-06
2.595000E+04  1.6587E-06
2.600000E+04  1.6612E-06
2.605000E+04  1.6626E-06
2.610000E+04  1.6525E-06
2.615000E+04  1.6387E-06
2.620000E+04  1.6262E-06
2.625000E+04  1.6156E-06
2.630000E+04  1.6197E-06
2.635000E+04  1.6196E-06
2.640000E+04  1.6111E-06
2.645000E+04  1.6014E-06
2.650000E+04  1.5946E-06
2.655000E+04  1.5895E-06
2.660000E+04  1.5845E-06
2.665000E+04  1.5729E-06
2.670000E+04  1.5758E-06
2.675000E+04  1.5762E-06
2.680000E+04  1.5649E-06
2.685000E+04  1.5537E-06
2.690000E+04  1.5410E-06
2.695000E+04  1.5323E-06
2.700000E+04  1.5322E-06
2.705000E+04  1.5261E-06
2.710000E+04  1.5138E-06
2.715000E+04  1.5081E-06
2.720000E+04  1.5107E-06
2.725000E+04  1.5076E-06
2.730000E+04  1.4970E-06
2.735000E+04  1.4837E-06
2.740000E+04  1.4866E-06
2.745000E+04  1.4864E-06
2.750000E+04  1.4774E-06
2.755000E+04  1.4667E-06
2.760000E+04  1.4541E-06
2.765000E+04  1.4459E-06
2.770000E+04  1.4384E-06
2.775000E+04  1.4316E-06
2.780000E+04  1.4298E-06
2.785000E+04  1.4281E-06
2.790000E+04  1.4218E-06
2.795000E+04  1.4217E-06
2.800000E+04  1.4089E-06
2.805000E+04  1.4017E-06
2.810000E+04  1.3880E-06
2.815000E+04  1.3829E-06
2.820000E+04  1.3783E-06
2.825000E+04  1.3742E-06
2.830000E+04  1.3689E-06
2.835000E+04  1.3558E-06
2.840000E+04  1.3396E-06
2.845000E+04  1.3251E-06
2.850000E+04  1.3241E-06
2.855000E+04  1.3265E-06
2.860000E+04  1.3243E-06
2.865000E+04  1.3183E-06
2.870000E+04  1.3058E-06
2.875000E+04  1.3007E-06
2.880000E+04  1.2959E-06
2.885000E+04  1.2853E-06
2.890000E+04  1.2761E-06
2.895000E+04  1.2664E-06
2.900000E+04  1.2671E-06
2.905000E+04  1.2621E-06
2.910000E+04  1.2539E-06
2.915000E+04  1.2438E-06
2.920000E+04  1.2307E-06
2.925000E+04  1.2190E-06
2.930000E+04  1.2186E-06
2.935000E+04  1.2120E-06
2.940000E+04  1.2042E-06
2.945000E+04  1.1950E-06
2.950000E+04  1.1875E-06
2.955000E+04  1.1816E-06
2.960000E+04  1.1762E-06
2.965000E+04  1.1707E-06
2.970000E+04  1.1649E-06
2.975000E+04  1.1586E-06
2.980000E+04  1.1520E-06
2.985000E+04  1.1446E-06
2.990000E+04  1.1383E-06
2.995000E+04  1.1329E-06
3.000000E+04  1.1284E-06
3.005000E+04  1.1238E-06
3.010000E+04  1.1208E-06
3.015000E+04  1.1173E-06
3.020000E+04  1.1124E-06
3.025000E+04  1.1075E-06
3.030000E+04  1.1024E-06
3.035000E+04  1.0974E-06
3.040000E+04  1.0953E-06
3.045000E+04  1.0933E-06
3.050000E+04  1.0891E-06
3.055000E+04  1.0850E-06
3.060000E+04  1.0815E-06
3.065000E+04  1.0776E-06
3.070000E+04  1.0750E-06
3.075000E+04  1.0725E-06
3.080000E+04  1.0676E-06
3.085000E+04  1.0630E-06
3.090000E+04  1.0602E-06
3.095000E+04  1.0574E-06
3.100000E+04  1.0553E-06
3.105000E+04  1.0531E-06
3.110000E+04  1.0468E-06
3.115000E+04  1.0402E-06
3.120000E+04  1.0383E-06
3.125000E+04  1.0365E-06
3.130000E+04  1.0327E-06
3.135000E+04  1.0291E-06
3.140000E+04  1.0254E-06
3.145000E+04  1.0217E-06
3.150000E+04  1.0172E-06
3.155000E+04  1.0126E-06
3.160000E+04  1.0085E-06
3.165000E+04  1.0042E-06
3.170000E+04  1.0016E-06
3.175000E+04  9.9898E-07
3.180000E+04  9.9584E-07
3.185000E+04  9.9288E-07
3.190000E+04  9.9052E-07
3.195000E+04  9.8808E-07
3.200000E+04  9.8447E-07
3.210000E+04  9.7696E-07
3.220000E+04  9.6988E-07
3.230000E+04  9.6323E-07
3.240000E+04  9.5712E-07
3.250000E+04  9.5131E-07
3.260000E+04  9.4417E-07
3.270000E+04  9.3707E-07
3.280000E+04  9.2942E-07
3.290000E+04  9.2213E-07
3.300000E+04  9.1600E-07
3.310000E+04  9.0961E-07
3.320000E+04  9.0310E-07
3.330000E+04  8.9687E-07
3.340000E+04  8.9214E-07
3.350000E+04  8.8841E-07
3.360000E+04  8.8086E-07
3.370000E+04  8.7177E-07
3.380000E+04  8.6622E-07
3.390000E+04  8.5959E-07
3.400000E+04  8.5248E-07
3.410000E+04  8.4778E-07
3.420000E+04  8.4190E-07
3.430000E+04  8.3991E-07
3.440000E+04  8.3491E-07
3.450000E+04  8.2529E-07
3.460000E+04  8.1538E-07
3.470000E+04  8.1029E-07
3.480000E+04  8.0212E-07
3.490000E+04  7.9236E-07
3.500000E+04  7.8544E-07
3.510000E+04  7.8186E-07
3.520000E+04  7.7187E-07
3.530000E+04  7.6585E-07
3.540000E+04  7.5554E-07
3.550000E+04  7.4752E-07
3.560000E+04  7.4227E-07
3.570000E+04  7.3696E-07
3.580000E+04  7.2919E-07
3.590000E+04  7.2128E-07
3.600000E+04  7.1721E-07
3.610000E+04  7.1082E-07
3.620000E+04  7.0310E-07
3.630000E+04  6.9341E-07
3.640000E+04  6.8668E-07
3.650000E+04  6.7872E-07
3.660000E+04  6.7141E-07
3.670000E+04  6.6539E-07
3.680000E+04  6.5721E-07
3.690000E+04  6.4927E-07
3.700000E+04  6.4124E-07
3.710000E+04  6.3447E-07
3.720000E+04  6.2926E-07
3.730000E+04  6.2373E-07
3.740000E+04  6.1562E-07
3.750000E+04  6.0812E-07
3.760000E+04  6.0307E-07
3.770000E+04  5.9825E-07
3.780000E+04  5.9216E-07
3.790000E+04  5.8649E-07
3.800000E+04  5.8121E-07
3.810000E+04  5.7575E-07
3.820000E+04  5.7054E-07
3.830000E+04  5.6561E-07
3.840000E+04  5.6058E-07
3.850000E+04  5.5541E-07
3.860000E+04  5.4956E-07
3.870000E+04  5.4384E-07
3.880000E+04  5.3898E-07
3.890000E+04  5.3407E-07
3.900000E+04  5.2940E-07
3.910000E+04  5.2483E-07
3.920000E+04  5.2021E-07
3.930000E+04  5.1566E-07
3.940000E+04  5.1025E-07
3.950000E+04  5.0499E-07
3.960000E+04  5.0052E-07
3.970000E+04  4.9632E-07
3.980000E+04  4.9067E-07
3.990000E+04  4.8528E-07
4.000000E+04  4.8169E-07
4.010000E+04  4.7831E-07
4.020000E+04  4.7434E-07
4.030000E+04  4.7083E-07
4.040000E+04  4.6668E-07
4.050000E+04  4.6226E-07
4.060000E+04  4.5857E-07
4.070000E+04  4.5476E-07
4.080000E+04  4.5156E-07
4.090000E+04  4.4816E-07
4.100000E+04  4.4529E-07
4.110000E+04  4.4188E-07
4.120000E+04  4.3848E-07
4.130000E+04  4.3478E-07
4.140000E+04  4.2999E-07
4.150000E+04  4.2601E-07
4.160000E+04  4.2242E-07
4.170000E+04  4.2032E-07
4.180000E+04  4.1698E-07
4.190000E+04  4.1397E-07
4.200000E+04  4.0947E-07
4.210000E+04  4.0593E-07
4.220000E+04  4.0403E-07
4.230000E+04  4.0211E-07
4.240000E+04  3.9912E-07
4.250000E+04  3.9515E-07
4.260000E+04  3.9224E-07
4.270000E+04  3.8973E-07
4.280000E+04  3.8119E-07
4.290000E+04  3.7320E-07
4.300000E+04  3.6403E-07
4.310000E+04  3.5581E-07
4.320000E+04  3.5597E-07
4.330000E+04  3.5459E-07
4.340000E+04  3.4619E-07
4.350000E+04  3.3862E-07
4.360000E+04  3.3389E-07
4.370000E+04  3.3070E-07
4.380000E+04  3.2684E-07
4.390000E+04  3.2395E-07
4.400000E+04  3.1863E-07
4.410000E+04  3.1470E-07
4.420000E+04  3.1196E-07
4.430000E+04  3.0845E-07
4.440000E+04  3.0667E-07
4.450000E+04  3.0296E-07
4.460000E+04  2.9954E-07
4.470000E+04  2.9602E-07
4.480000E+04  2.9416E-07
4.490000E+04  2.9326E-07
4.500000E+04  2.9071E-07
4.510000E+04  2.8818E-07
4.520000E+04  2.8480E-07
4.530000E+04  2.8185E-07
4.540000E+04  2.7948E-07
4.550000E+04  2.7725E-07
4.560000E+04  2.7450E-07
4.570000E+04  2.7230E-07
4.580000E+04  2.6862E-07
4.590000E+04  2.6470E-07
4.600000E+04  2.6441E-07
4.610000E+04  2.6420E-07
4.620000E+04  2.6186E-07
4.630000E+04  2.5993E-07
4.640000E+04  2.5842E-07
4.650000E+04  2.5680E-07
4.660000E+04  2.5605E-07
4.670000E+04  2.5513E-07
4.680000E+04  2.5206E-07
4.690000E+04  2.4940E-07
4.700000E+04  2.4758E-07
4.710000E+04  2.4566E-07
4.720000E+04  2.4557E-07
4.730000E+04  2.4567E-07
4.740000E+04  2.4265E-07
4.750000E+04  2.3976E-07
4.760000E+04  2.3875E-07
4.770000E+04  2.3752E-07
4.780000E+04  2.3606E-07
4.790000E+04  2.3467E-07
4.800000E+04  2.3162E-07
4.810000E+04  2.2887E-07
4.820000E+04  2.2913E-07
4.830000E+04  2.2943E-07
4.840000E+04  2.2691E-07
4.850000E+04  2.2426E-07
4.860000E+04  2.2236E-07
4.870000E+04  2.2048E-07
4.880000E+04  2.1880E-07
4.890000E+04  2.1735E-07
4.900000E+04  2.1562E-07
4.910000E+04  2.1376E-07
4.920000E+04  2.1297E-07
4.930000E+04  2.1214E-07
4.940000E+04  2.0981E-07
4.950000E+04  2.0775E-07
4.960000E+04  2.0711E-07
4.970000E+04  2.0636E-07
4.980000E+04  2.0410E-07
4.990000E+04  2.0249E-07
5.000000E+04  2.0126E-07
5.010000E+04  2.0003E-07
5.020000E+04  1.9870E-07
5.030000E+04  1.9717E-07
5.040000E+04  1.9525E-07
5.050000E+04  1.9341E-07
5.060000E+04  1.9235E-07
5.070000E+04  1.9129E-07
5.080000E+04  1.9013E-07
5.090000E+04  1.8898E-07
5.100000E+04  1.8762E-07
5.110000E+04  1.8612E-07
5.120000E+04  1.8531E-07
5.130000E+04  1.8433E-07
5.140000E+04  1.8281E-07
5.150000E+04  1.8138E-07
5.160000E+04  1.8071E-07
5.170000E+04  1.7996E-07
5.180000E+04  1.7842E-07
5.190000E+04  1.7704E-07
5.200000E+04  1.7603E-07
5.210000E+04  1.7483E-07
5.220000E+04  1.7347E-07
5.230000E+04  1.7222E-07
5.240000E+04  1.7158E-07
5.250000E+04  1.7070E-07
5.260000E+04  1.7009E-07
5.270000E+04  1.6955E-07
5.280000E+04  1.6805E-07
5.290000E+04  1.6650E-07
5.300000E+04  1.6544E-07
5.310000E+04  1.6440E-07
5.320000E+04  1.6362E-07
5.330000E+04  1.6278E-07
5.340000E+04  1.6177E-07
5.350000E+04  1.6074E-07
5.360000E+04  1.5986E-07
5.370000E+04  1.5901E-07
5.380000E+04  1.5811E-07
5.390000E+04  1.5721E-07
5.400000E+04  1.5630E-07
5.410000E+04  1.5540E-07
5.420000E+04  1.5423E-07
5.430000E+04  1.5301E-07
5.440000E+04  1.5236E-07
5.450000E+04  1.5171E-07
5.460000E+04  1.5055E-07
5.470000E+04  1.4941E-07
5.480000E+04  1.4857E-07
5.490000E+04  1.4770E-07
5.500000E+04  1.4670E-07
5.510000E+04  1.4570E-07
5.520000E+04  1.4538E-07
5.530000E+04  1.4515E-07
5.540000E+04  1.4344E-07
5.550000E+04  1.4201E-07
5.560000E+04  1.4171E-07
5.570000E+04  1.4135E-07
5.580000E+04  1.4020E-07
5.590000E+04  1.3901E-07
5.600000E+04  1.3840E-07
5.610000E+04  1.3774E-07
5.620000E+04  1.3654E-07
5.630000E+04  1.3546E-07
5.640000E+04  1.3496E-07
5.650000E+04  1.3444E-07
5.660000E+04  1.3360E-07
5.670000E+04  1.3272E-07
5.680000E+04  1.3166E-07
5.690000E+04  1.3061E-07
5.700000E+04  1.3008E-07
5.710000E+04  1.2955E-07
5.720000E+04  1.2873E-07
5.730000E+04  1.2796E-07
5.740000E+04  1.2718E-07
5.750000E+04  1.2636E-07
5.760000E+04  1.2544E-07
5.770000E+04  1.2465E-07
5.780000E+04  1.2418E-07
5.790000E+04  1.2372E-07
5.800000E+04  1.2284E-07
5.810000E+04  1.2200E-07
5.820000E+04  1.2135E-07
5.830000E+04  1.2072E-07
5.840000E+04  1.2008E-07
5.850000E+04  1.1934E-07
5.860000E+04  1.1850E-07
5.870000E+04  1.1773E-07
5.880000E+04  1.1702E-07
5.890000E+04  1.1635E-07
5.900000E+04  1.1569E-07
5.910000E+04  1.1503E-07
5.920000E+04  1.1432E-07
5.930000E+04  1.1362E-07
5.940000E+04  1.1281E-07
5.950000E+04  1.1211E-07
5.960000E+04  1.1160E-07
5.970000E+04  1.1108E-07
5.980000E+04  1.1040E-07
5.990000E+04  1.0971E-07
6.000000E+04  1.0902E-07
6.010000E+04  1.0834E-07
6.020000E+04  1.0771E-07
6.030000E+04  1.0711E-07
6.040000E+04  1.0645E-07
6.050000E+04  1.0581E-07
6.060000E+04  1.0527E-07
6.070000E+04  1.0471E-07
6.080000E+04  1.0408E-07
6.090000E+04  1.0345E-07
6.100000E+04  1.0279E-07
6.110000E+04  1.0210E-07
6.120000E+04  1.0155E-07
6.130000E+04  1.0100E-07
6.140000E+04  1.0044E-07
6.150000E+04  9.9878E-08
6.160000E+04  9.9332E-08
6.170000E+04  9.8749E-08
6.180000E+04  9.8115E-08
6.190000E+04  9.7490E-08
6.200000E+04  9.6922E-08
6.210000E+04  9.6395E-08
6.220000E+04  9.5792E-08
6.230000E+04  9.5195E-08
6.240000E+04  9.4629E-08
6.250000E+04  9.4073E-08
6.260000E+04  9.3501E-08
6.270000E+04  9.2927E-08
6.280000E+04  9.2370E-08
6.290000E+04  9.1827E-08
6.300000E+04  9.1246E-08
6.310000E+04  9.0701E-08
6.320000E+04  9.0277E-08
6.330000E+04  8.9861E-08
6.340000E+04  8.9354E-08
6.350000E+04  8.8846E-08
6.360000E+04  8.8442E-08
6.370000E+04  8.8020E-08
6.380000E+04  8.7458E-08
6.390000E+04  8.6868E-08
6.400000E+04  8.6332E-08
6.410000E+04  8.5787E-08
6.420000E+04  8.5278E-08
6.430000E+04  8.4763E-08
6.440000E+04  8.4278E-08
6.450000E+04  8.3787E-08
6.460000E+04  8.3294E-08
6.470000E+04  8.2798E-08
6.480000E+04  8.2333E-08
6.490000E+04  8.1923E-08
6.500000E+04  8.1496E-08
6.510000E+04  8.1059E-08
6.520000E+04  8.0603E-08
6.530000E+04  8.0147E-08
6.540000E+04  7.9690E-08
6.550000E+04  7.9246E-08
6.560000E+04  7.8805E-08
6.570000E+04  7.8325E-08
6.580000E+04  7.7844E-08
6.590000E+04  7.7374E-08
6.600000E+04  7.6916E-08
6.610000E+04  7.6471E-08
6.620000E+04  7.6046E-08
6.630000E+04  7.5646E-08
6.640000E+04  7.5254E-08
6.650000E+04  7.4866E-08
6.660000E+04  7.4486E-08
6.670000E+04  7.4110E-08
6.680000E+04  7.3741E-08
6.690000E+04  7.3343E-08
6.700000E+04  7.2922E-08
6.710000E+04  7.2498E-08
6.720000E+04  7.2080E-08
6.730000E+04  7.1696E-08
6.740000E+04  7.1312E-08
6.750000E+04  7.0920E-08
6.760000E+04  7.0521E-08
6.770000E+04  7.0104E-08
6.780000E+04  6.9722E-08
6.790000E+04  6.9367E-08
6.800000E+04  6.9009E-08
6.810000E+04  6.8649E-08
6.820000E+04  6.8263E-08
6.830000E+04  6.7882E-08
6.840000E+04  6.7528E-08
6.850000E+04  6.7178E-08
6.860000E+04  6.6835E-08
6.870000E+04  6.6476E-08
6.880000E+04  6.6080E-08
6.890000E+04  6.5683E-08
6.900000E+04  6.5280E-08
6.910000E+04  6.4905E-08
6.920000E+04  6.4563E-08
6.930000E+04  6.4224E-08
6.940000E+04  6.3888E-08
6.950000E+04  6.3544E-08
6.960000E+04  6.3193E-08
6.970000E+04  6.2865E-08
6.980000E+04  6.2550E-08
6.990000E+04  6.2228E-08
7.000000E+04  6.1907E-08
7.010000E+04  6.1578E-08
7.020000E+04  6.1246E-08
7.030000E+04  6.0919E-08
7.040000E+04  6.0592E-08
7.050000E+04  6.0280E-08
7.060000E+04  5.9973E-08
7.070000E+04  5.9664E-08
7.080000E+04  5.9358E-08
7.090000E+04  5.9049E-08
7.100000E+04  5.8740E-08
7.110000E+04  5.8434E-08
7.120000E+04  5.8129E-08
7.130000E+04  5.7829E-08
7.140000E+04  5.7532E-08
7.150000E+04  5.7241E-08
7.160000E+04  5.6953E-08
7.170000E+04  5.6667E-08
7.180000E+04  5.6381E-08
7.190000E+04  5.6102E-08
7.200000E+04  5.5825E-08
7.210000E+04  5.5553E-08
7.220000E+04  5.5286E-08
7.230000E+04  5.5016E-08
7.240000E+04  5.4746E-08
7.250000E+04  5.4473E-08
7.260000E+04  5.4194E-08
7.270000E+04  5.3916E-08
7.280000E+04  5.3627E-08
7.290000E+04  5.3344E-08
7.300000E+04  5.3091E-08
7.310000E+04  5.2834E-08
7.320000E+04  5.2557E-08
7.330000E+04  5.2281E-08
7.340000E+04  5.1992E-08
7.350000E+04  5.1708E-08
7.360000E+04  5.1445E-08
7.370000E+04  5.1190E-08
7.380000E+04  5.0941E-08
7.390000E+04  5.0685E-08
7.400000E+04  5.0426E-08
7.410000E+04  5.0162E-08
7.420000E+04  4.9900E-08
7.430000E+04  4.9649E-08
7.440000E+04  4.9401E-08
7.450000E+04  4.9188E-08
7.460000E+04  4.8978E-08
7.470000E+04  4.8739E-08
7.480000E+04  4.8489E-08
7.490000E+04  4.8250E-08
7.500000E+04  4.8025E-08
7.510000E+04  4.7793E-08
7.520000E+04  4.7557E-08
7.530000E+04  4.7322E-08
7.540000E+04  4.7088E-08
7.550000E+04  4.6864E-08
7.560000E+04  4.6608E-08
7.570000E+04  4.6341E-08
7.580000E+04  4.6097E-08
7.590000E+04  4.5875E-08
7.600000E+04  4.5653E-08
7.610000E+04  4.5427E-08
7.620000E+04  4.5202E-08
7.630000E+04  4.4972E-08
7.640000E+04  4.4742E-08
7.650000E+04  4.4507E-08
7.660000E+04  4.4267E-08
7.670000E+04  4.4032E-08
7.680000E+04  4.3844E-08
7.690000E+04  4.3658E-08
7.700000E+04  4.3463E-08
7.710000E+04  4.3270E-08
7.720000E+04  4.3072E-08
7.730000E+04  4.2866E-08
7.740000E+04  4.2662E-08
7.750000E+04  4.2450E-08
7.760000E+04  4.2240E-08
7.770000E+04  4.2048E-08
7.780000E+04  4.1867E-08
7.790000E+04  4.1680E-08
7.800000E+04  4.1468E-08
7.810000E+04  4.1258E-08
7.820000E+04  4.1044E-08
7.830000E+04  4.0831E-08
7.840000E+04  4.0623E-08
7.850000E+04  4.0427E-08
7.860000E+04  4.0232E-08
7.870000E+04  4.0041E-08
7.880000E+04  3.9851E-08
7.890000E+04  3.9666E-08
7.900000E+04  3.9488E-08
7.910000E+04  3.9311E-08
7.920000E+04  3.9138E-08
7.930000E+04  3.8967E-08
7.940000E+04  3.8793E-08
7.950000E+04  3.8615E-08
7.960000E+04  3.8437E-08
7.970000E+04  3.8255E-08
7.980000E+04  3.8073E-08
7.990000E+04  3.7892E-08
8.000000E+04  3.7722E-08
8.010000E+04  3.7554E-08
8.020000E+04  3.7368E-08
8.030000E+04  3.7178E-08
8.040000E+04  3.6992E-08
8.050000E+04  3.6820E-08
8.060000E+04  3.6649E-08
8.070000E+04  3.6483E-08
8.080000E+04  3.6319E-08
8.090000E+04  3.6156E-08
8.100000E+04  3.5989E-08
8.110000E+04  3.5818E-08
8.120000E+04  3.5648E-08
8.130000E+04  3.5479E-08
8.140000E+04  3.5311E-08
8.150000E+04  3.5152E-08
8.160000E+04  3.4996E-08
8.170000E+04  3.4841E-08
8.180000E+04  3.4678E-08
8.190000E+04  3.4513E-08
8.200000E+04  3.4347E-08
8.210000E+04  3.4178E-08
8.220000E+04  3.4010E-08
8.230000E+04  3.3851E-08
8.240000E+04  3.3699E-08
8.250000E+04  3.3548E-08
8.260000E+04  3.3396E-08
8.270000E+04  3.3246E-08
8.280000E+04  3.3097E-08
8.290000E+04  3.2951E-08
8.300000E+04  3.2805E-08
8.310000E+04  3.2656E-08
8.320000E+04  3.2506E-08
8.330000E+04  3.2356E-08
8.340000E+04  3.2218E-08
8.350000E+04  3.2086E-08
8.360000E+04  3.1956E-08
8.370000E+04  3.1813E-08
8.380000E+04  3.1669E-08
8.390000E+04  3.1527E-08
8.400000E+04  3.1388E-08
8.410000E+04  3.1250E-08
8.420000E+04  3.1112E-08
8.430000E+04  3.0971E-08
8.440000E+04  3.0831E-08
8.450000E+04  3.0693E-08
8.460000E+04  3.0558E-08
8.470000E+04  3.0425E-08
8.480000E+04  3.0290E-08
8.490000E+04  3.0154E-08
8.500000E+04  3.0019E-08
8.510000E+04  2.9891E-08
8.520000E+04  2.9766E-08
8.530000E+04  2.9642E-08
8.540000E+04  2.9517E-08
8.550000E+04  2.9392E-08
8.560000E+04  2.9268E-08
8.570000E+04  2.9142E-08
8.580000E+04  2.9016E-08
8.590000E+04  2.8892E-08
8.600000E+04  2.8768E-08
8.610000E+04  2.8644E-08
8.620000E+04  2.8522E-08
8.630000E+04  2.8400E-08
8.640000E+04  2.8279E-08
8.650000E+04  2.8159E-08
8.660000E+04  2.8037E-08
8.670000E+04  2.7914E-08
8.680000E+04  2.7792E-08
8.690000E+04  2.7674E-08
8.700000E+04  2.7556E-08
8.710000E+04  2.7441E-08
8.720000E+04  2.7329E-08
8.730000E+04  2.7218E-08
8.740000E+04  2.7107E-08
8.750000E+04  2.6998E-08
8.760000E+04  2.6889E-08
8.770000E+04  2.6781E-08
8.780000E+04  2.6677E-08
8.790000E+04  2.6572E-08
8.800000E+04  2.6468E-08
8.810000E+04  2.6365E-08
8.820000E+04  2.6263E-08
8.830000E+04  2.6163E-08
8.840000E+04  2.6056E-08
8.850000E+04  2.5943E-08
8.860000E+04  2.5832E-08
8.870000E+04  2.5724E-08
8.880000E+04  2.5623E-08
8.890000E+04  2.5521E-08
8.900000E+04  2.5417E-08
8.910000E+04  2.5308E-08
8.920000E+04  2.5199E-08
8.930000E+04  2.5091E-08
8.940000E+04  2.4986E-08
8.950000E+04  2.4877E-08
8.960000E+04  2.4769E-08
8.970000E+04  2.4663E-08
8.980000E+04  2.4558E-08
8.990000E+04  2.4456E-08
9.000000E+04  2.4360E-08
9.010000E+04  2.4267E-08
9.020000E+04  2.4174E-08
9.030000E+04  2.4072E-08
9.040000E+04  2.3964E-08
9.050000E+04  2.3856E-08
9.060000E+04  2.3750E-08
9.070000E+04  2.3648E-08
9.080000E+04  2.3547E-08
9.090000E+04  2.3446E-08
9.100000E+04  2.3341E-08
9.110000E+04  2.3241E-08
9.120000E+04  2.3142E-08
9.130000E+04  2.3045E-08
9.140000E+04  2.2950E-08
9.150000E+04  2.2853E-08
9.160000E+04  2.2758E-08
9.170000E+04  2.2666E-08
9.180000E+04  2.2575E-08
9.190000E+04  2.2485E-08
9.200000E+04  2.2401E-08
9.210000E+04  2.2318E-08
9.220000E+04  2.2236E-08
9.230000E+04  2.2155E-08
9.240000E+04  2.2078E-08
9.250000E+04  2.2002E-08
9.260000E+04  2.1926E-08
9.270000E+04  2.1845E-08
9.280000E+04  2.1763E-08
9.290000E+04  2.1683E-08
9.300000E+04  2.1593E-08
9.310000E+04  2.1498E-08
9.320000E+04  2.1404E-08
9.330000E+04  2.1311E-08
9.340000E+04  2.1221E-08
9.350000E+04  2.1131E-08
9.360000E+04  2.1043E-08
9.370000E+04  2.0956E-08
9.380000E+04  2.0871E-08
9.390000E+04  2.0785E-08
9.400000E+04  2.0700E-08
9.410000E+04  2.0613E-08
9.420000E+04  2.0527E-08
9.430000E+04  2.0440E-08
9.440000E+04  2.0359E-08
9.450000E+04  2.0282E-08
9.460000E+04  2.0206E-08
9.470000E+04  2.0131E-08
9.480000E+04  2.0063E-08
9.490000E+04  1.9996E-08
9.500000E+04  1.9930E-08
9.510000E+04  1.9858E-08
9.520000E+04  1.9781E-08
9.530000E+04  1.9704E-08
9.540000E+04  1.9627E-08
9.550000E+04  1.9547E-08
9.560000E+04  1.9467E-08
9.570000E+04  1.9388E-08
9.580000E+04  1.9310E-08
9.590000E+04  1.9238E-08
9.600000E+04  1.9166E-08
9.610000E+04  1.9095E-08
9.620000E+04  1.9020E-08
9.630000E+04  1.8942E-08
9.640000E+04  1.8865E-08
9.650000E+04  1.8788E-08
9.660000E+04  1.8706E-08
9.670000E+04  1.8623E-08
9.680000E+04  1.8540E-08
9.690000E+04  1.8458E-08
9.700000E+04  1.8396E-08
9.710000E+04  1.8332E-08
9.720000E+04  1.8269E-08
9.730000E+04  1.8205E-08
9.740000E+04  1.8142E-08
9.750000E+04  1.8082E-08
9.760000E+04  1.8023E-08
9.770000E+04  1.7959E-08
9.780000E+04  1.7890E-08
9.790000E+04  1.7821E-08
9.800000E+04  1.7752E-08
9.810000E+04  1.7685E-08
9.820000E+04  1.7620E-08
9.830000E+04  1.7556E-08
9.840000E+04  1.7491E-08
9.850000E+04  1.7432E-08
9.860000E+04  1.7375E-08
9.870000E+04  1.7318E-08
9.880000E+04  1.7262E-08
9.890000E+04  1.7195E-08
9.900000E+04  1.7127E-08
9.910000E+04  1.7059E-08
9.920000E+04  1.6990E-08
9.930000E+04  1.6918E-08
9.940000E+04  1.6846E-08
9.950000E+04  1.6775E-08
9.960000E+04  1.6704E-08
9.970000E+04  1.6634E-08
9.980000E+04  1.6565E-08
9.990000E+04  1.6496E-08
1.000000E+05  1.6428E-08
1.002000E+05  1.6299E-08
1.050000E+05  1.3633E-08
1.100000E+05  1.1335E-08
1.130000E+05  1.0226E-08
1.160000E+05  9.1820E-09
1.200000E+05  8.0414E-09
1.250000E+05  6.9823E-09
1.300000E+05  5.9866E-09
1.350000E+05  5.1631E-09
1.400000E+05  4.4771E-09
1.450000E+05  3.9019E-09
1.500000E+05  3.4167E-09
1.600000E+05  2.6537E-09
1.700000E+05  2.0933E-09
1.800000E+05  1.6739E-09
1.900000E+05  1.3550E-09
2.000000E+05  1.1089E-09
2.200000E+05  7.6142E-10
2.300000E+05  6.3898E-10
2.400000E+05  5.4024E-10
2.500000E+05  4.5990E-10
2.600000E+05  3.9399E-10
2.700000E+05  3.3951E-10
2.800000E+05  2.9414E-10
3.000000E+05  2.2408E-10
3.500000E+05  1.2201E-10
4.000000E+05  7.2062E-11
4.500000E+05  4.5131E-11
5.000000E+05  2.9695E-11
5.500000E+05  2.0334E-11
6.000000E+05  1.4391E-11
6.500000E+05  1.0461E-11
7.000000E+05  7.7865E-12
7.500000E+05  5.9149E-12
8.000000E+05  4.5737E-12
8.500000E+05  3.5907E-12
9.000000E+05  2.8583E-12
9.500000E+05  2.3035E-12
1.000000E+06  1.8771E-12
1.050000E+06  1.5446E-12
1.100000E+06  1.2826E-12
1.200000E+06  9.0596E-13
1.300000E+06  6.5786E-13
1.400000E+06  4.8917E-13
1.500000E+06  3.7118E-13
1.600000E+06  2.8671E-13
2.000000E+06  1.1745E-13
2.500000E+06  4.8108E-14
3.000000E+06  2.3200E-14
4.000000E+06  7.3407E-15
5.000000E+06  3.0067E-15
7.000000E+06  7.8268E-16
1.000000E+07  1.8792E-16
1.500000E+07  3.7120E-17
2.250000E+07  7.3324E-18
3.350000E+07  1.4921E-18
5.000000E+07  3.0067E-19
7.400000E+07  6.2668E-20
1.100000E+08  1.2835E-20
1.300000E+08  6.5797E-21
1.600000E+08  2.8675E-21
2.400000E+08  5.6641E-22
3.600000E+08  1.1188E-22
