# Input file name  = bc2003_lr_BaSeL_m72_salp_ssp.ised
# Output file name = spec_BC16_basel_salp_Zm72_age6.0Gyr.dat
# Record         165
# Column           2
# SED(Lo/A)       at    
# Lambda(A)    6.000E+09
9.100000E+01  5.5095E-10
9.400000E+01  8.4927E-10
9.600000E+01  1.1101E-09
9.800000E+01  1.4892E-09
1.000000E+02  1.9820E-09
1.020000E+02  2.5252E-09
1.040000E+02  2.9461E-09
1.060000E+02  3.5232E-09
1.080000E+02  4.2867E-09
1.100000E+02  5.8401E-09
1.140000E+02  7.9279E-09
1.180000E+02  9.7755E-09
1.210000E+02  3.6745E-08
1.250000E+02  4.2512E-08
1.270000E+02  4.5193E-08
1.280000E+02  4.6640E-08
1.310000E+02  4.9757E-08
1.320000E+02  5.8075E-08
1.340000E+02  6.0473E-08
1.370000E+02  7.3766E-08
1.400000E+02  7.7856E-08
1.430000E+02  2.0750E-07
1.470000E+02  4.9474E-07
1.500000E+02  5.0641E-07
1.510000E+02  5.1138E-07
1.550000E+02  5.3205E-07
1.590000E+02  5.5866E-07
1.620000E+02  5.7889E-07
1.660000E+02  6.0287E-07
1.700000E+02  6.2516E-07
1.730000E+02  6.4379E-07
1.770000E+02  6.6440E-07
1.800000E+02  6.7753E-07
1.820000E+02  6.8879E-07
1.860000E+02  7.1003E-07
1.910000E+02  7.3374E-07
1.940000E+02  7.5541E-07
1.980000E+02  7.7367E-07
2.000000E+02  7.8185E-07
2.020000E+02  7.9327E-07
2.050000E+02  8.0679E-07
2.100000E+02  8.0703E-07
2.160000E+02  8.5851E-07
2.200000E+02  8.7947E-07
2.230000E+02  8.8164E-07
2.270000E+02  9.0740E-07
2.300000E+02  1.3699E-06
2.340000E+02  2.0862E-06
2.400000E+02  2.7108E-06
2.460000E+02  2.4027E-06
2.520000E+02  2.5890E-06
2.570000E+02  2.1365E-06
2.600000E+02  2.4500E-06
2.640000E+02  2.5113E-06
2.690000E+02  2.4609E-06
2.740000E+02  2.3977E-06
2.790000E+02  2.3497E-06
2.840000E+02  2.2965E-06
2.900000E+02  2.1996E-06
2.960000E+02  2.1416E-06
3.000000E+02  2.0913E-06
3.010000E+02  2.0505E-06
3.080000E+02  2.0288E-06
3.180000E+02  1.9913E-06
3.280000E+02  1.9141E-06
3.380000E+02  1.8287E-06
3.480000E+02  1.7415E-06
3.570000E+02  1.6805E-06
3.660000E+02  1.6369E-06
3.750000E+02  1.5657E-06
3.850000E+02  1.4630E-06
3.950000E+02  1.4478E-06
4.000000E+02  1.4257E-06
4.050000E+02  1.4134E-06
4.140000E+02  1.3578E-06
4.220000E+02  1.2934E-06
4.300000E+02  1.2452E-06
4.410000E+02  1.2045E-06
4.510000E+02  1.1537E-06
4.600000E+02  1.0919E-06
4.700000E+02  1.0497E-06
4.800000E+02  1.0241E-06
4.900000E+02  9.5531E-07
5.000000E+02  9.4901E-07
5.060000E+02  8.9775E-07
5.120000E+02  9.4861E-07
5.200000E+02  9.1603E-07
5.300000E+02  8.6694E-07
5.400000E+02  8.0336E-07
5.500000E+02  7.6908E-07
5.600000E+02  7.7651E-07
5.700000E+02  7.7899E-07
5.800000E+02  7.4475E-07
5.900000E+02  7.2329E-07
6.000000E+02  6.5928E-07
6.100000E+02  5.7351E-07
6.200000E+02  6.5343E-07
6.300000E+02  6.1862E-07
6.400000E+02  6.1805E-07
6.500000E+02  5.8933E-07
6.580000E+02  5.5610E-07
6.650000E+02  5.6762E-07
6.750000E+02  5.6137E-07
6.850000E+02  5.0844E-07
6.950000E+02  5.2480E-07
7.000000E+02  4.9409E-07
7.050000E+02  4.6733E-07
7.160000E+02  4.9825E-07
7.260000E+02  4.8517E-07
7.350000E+02  4.7308E-07
7.450000E+02  4.5169E-07
7.550000E+02  4.3762E-07
7.650000E+02  3.7390E-07
7.750000E+02  4.1297E-07
7.850000E+02  3.8376E-07
7.950000E+02  3.8679E-07
8.000000E+02  3.8336E-07
8.050000E+02  3.8143E-07
8.150000E+02  3.7125E-07
8.250000E+02  3.6400E-07
8.350000E+02  3.1440E-07
8.450000E+02  3.4090E-07
8.550000E+02  3.2891E-07
8.650000E+02  3.2584E-07
8.750000E+02  3.1918E-07
8.850000E+02  3.1147E-07
8.950000E+02  3.0383E-07
9.000000E+02  2.9805E-07
9.050000E+02  2.9245E-07
9.150000E+02  3.2349E-07
9.250000E+02  5.1133E-07
9.350000E+02  6.9006E-07
9.450000E+02  8.1521E-07
9.550000E+02  8.9319E-07
9.650000E+02  9.0003E-07
9.750000E+02  5.0464E-07
9.850000E+02  7.0499E-07
9.950000E+02  6.9061E-07
1.000000E+03  7.4703E-07
1.005000E+03  8.1680E-07
1.015000E+03  8.4765E-07
1.025000E+03  6.1473E-07
1.035000E+03  7.6340E-07
1.045000E+03  9.6653E-07
1.055000E+03  9.2414E-07
1.065000E+03  7.7663E-07
1.075000E+03  8.3802E-07
1.085000E+03  6.7849E-07
1.095000E+03  8.5020E-07
1.100000E+03  8.2729E-07
1.105000E+03  8.0650E-07
1.115000E+03  7.7745E-07
1.125000E+03  6.7365E-07
1.135000E+03  7.9636E-07
1.145000E+03  7.6461E-07
1.155000E+03  7.5736E-07
1.165000E+03  7.2647E-07
1.175000E+03  5.0431E-07
1.185000E+03  6.8325E-07
1.195000E+03  5.9926E-07
1.200000E+03  5.5087E-07
1.205000E+03  5.1558E-07
1.215000E+03  4.2595E-07
1.225000E+03  6.0316E-07
1.235000E+03  6.9335E-07
1.245000E+03  6.9823E-07
1.255000E+03  6.7152E-07
1.265000E+03  6.5370E-07
1.275000E+03  7.1825E-07
1.285000E+03  7.2683E-07
1.295000E+03  6.0561E-07
1.300000E+03  6.0748E-07
1.305000E+03  6.1070E-07
1.315000E+03  7.0179E-07
1.325000E+03  6.6575E-07
1.335000E+03  6.0799E-07
1.345000E+03  6.7234E-07
1.355000E+03  6.5241E-07
1.365000E+03  5.9601E-07
1.375000E+03  5.9104E-07
1.385000E+03  5.7591E-07
1.395000E+03  4.3008E-07
1.400000E+03  4.2464E-07
1.405000E+03  4.2080E-07
1.415000E+03  5.2949E-07
1.425000E+03  5.1969E-07
1.435000E+03  5.3764E-07
1.442000E+03  5.4211E-07
1.447000E+03  5.4212E-07
1.455000E+03  5.1904E-07
1.465000E+03  4.8452E-07
1.475000E+03  4.9315E-07
1.485000E+03  4.9721E-07
1.495000E+03  4.8842E-07
1.500000E+03  4.7292E-07
1.505000E+03  4.5759E-07
1.512000E+03  4.1840E-07
1.517000E+03  4.3438E-07
1.525000E+03  4.2672E-07
1.535000E+03  3.6336E-07
1.545000E+03  3.3159E-07
1.555000E+03  3.3047E-07
1.565000E+03  3.6363E-07
1.575000E+03  3.8311E-07
1.585000E+03  3.9508E-07
1.595000E+03  3.9271E-07
1.600000E+03  3.8924E-07
1.605000E+03  3.8624E-07
1.615000E+03  3.8028E-07
1.625000E+03  3.7004E-07
1.635000E+03  3.8884E-07
1.645000E+03  3.8855E-07
1.655000E+03  3.7431E-07
1.665000E+03  3.8749E-07
1.672000E+03  3.5001E-07
1.677000E+03  3.9984E-07
1.685000E+03  4.0049E-07
1.695000E+03  3.7925E-07
1.700000E+03  3.7396E-07
1.705000E+03  3.6871E-07
1.715000E+03  3.4324E-07
1.725000E+03  3.3735E-07
1.735000E+03  3.5547E-07
1.745000E+03  3.4819E-07
1.755000E+03  3.5796E-07
1.765000E+03  3.4032E-07
1.775000E+03  3.2920E-07
1.785000E+03  3.3745E-07
1.795000E+03  3.4829E-07
1.800000E+03  3.4855E-07
1.805000E+03  3.4863E-07
1.815000E+03  3.1551E-07
1.825000E+03  3.2217E-07
1.835000E+03  3.1183E-07
1.845000E+03  2.8767E-07
1.855000E+03  2.8177E-07
1.865000E+03  2.8738E-07
1.875000E+03  3.0722E-07
1.885000E+03  2.7895E-07
1.895000E+03  2.6573E-07
1.900000E+03  2.7500E-07
1.905000E+03  2.8473E-07
1.915000E+03  2.6527E-07
1.925000E+03  2.5528E-07
1.935000E+03  2.7049E-07
1.945000E+03  2.7455E-07
1.955000E+03  2.4952E-07
1.967000E+03  2.7300E-07
1.976000E+03  2.7900E-07
1.984000E+03  2.6391E-07
1.995000E+03  2.5551E-07
2.000000E+03  2.6043E-07
2.005000E+03  2.6734E-07
2.015000E+03  2.5816E-07
2.025000E+03  2.6603E-07
2.035000E+03  2.4678E-07
2.045000E+03  2.5383E-07
2.055000E+03  2.2696E-07
2.065000E+03  2.3052E-07
2.074000E+03  2.5630E-07
2.078000E+03  2.4300E-07
2.085000E+03  2.5748E-07
2.095000E+03  2.4289E-07
2.100000E+03  2.4449E-07
2.105000E+03  2.4627E-07
2.115000E+03  2.5144E-07
2.125000E+03  2.4851E-07
2.135000E+03  2.3995E-07
2.145000E+03  2.4126E-07
2.155000E+03  2.4717E-07
2.165000E+03  2.4079E-07
2.175000E+03  2.3933E-07
2.185000E+03  2.3667E-07
2.195000E+03  2.4574E-07
2.200000E+03  2.4412E-07
2.205000E+03  2.4256E-07
2.215000E+03  2.2868E-07
2.225000E+03  2.2976E-07
2.235000E+03  2.4632E-07
2.245000E+03  2.4174E-07
2.255000E+03  2.2790E-07
2.265000E+03  2.2669E-07
2.275000E+03  2.3349E-07
2.285000E+03  2.4951E-07
2.295000E+03  2.2855E-07
2.300000E+03  2.3254E-07
2.305000E+03  2.3706E-07
2.315000E+03  2.2679E-07
2.325000E+03  1.9450E-07
2.335000E+03  2.1859E-07
2.345000E+03  2.0333E-07
2.355000E+03  2.2824E-07
2.365000E+03  2.0630E-07
2.375000E+03  2.1559E-07
2.385000E+03  1.9432E-07
2.395000E+03  2.0836E-07
2.400000E+03  2.0815E-07
2.405000E+03  2.0816E-07
2.415000E+03  2.0791E-07
2.425000E+03  2.3740E-07
2.435000E+03  2.3826E-07
2.445000E+03  2.5973E-07
2.455000E+03  2.6574E-07
2.465000E+03  2.4506E-07
2.475000E+03  2.3431E-07
2.485000E+03  1.9253E-07
2.495000E+03  1.8746E-07
2.500000E+03  2.1320E-07
2.505000E+03  2.4453E-07
2.513000E+03  1.9036E-07
2.518000E+03  1.8334E-07
2.525000E+03  1.8463E-07
2.535000E+03  2.2829E-07
2.545000E+03  2.3081E-07
2.555000E+03  3.5238E-07
2.565000E+03  2.8650E-07
2.575000E+03  3.4767E-07
2.585000E+03  3.2816E-07
2.595000E+03  3.1592E-07
2.600000E+03  3.0845E-07
2.605000E+03  3.0154E-07
2.615000E+03  2.8304E-07
2.625000E+03  3.4371E-07
2.635000E+03  5.4428E-07
2.645000E+03  6.6726E-07
2.655000E+03  1.0661E-06
2.665000E+03  5.9829E-07
2.675000E+03  6.6494E-07
2.685000E+03  8.1427E-07
2.695000E+03  5.7291E-07
2.700000E+03  6.5936E-07
2.705000E+03  7.6354E-07
2.715000E+03  5.4722E-07
2.725000E+03  3.8780E-07
2.735000E+03  4.9873E-07
2.745000E+03  3.5989E-07
2.755000E+03  4.5185E-07
2.765000E+03  5.6976E-07
2.775000E+03  6.0896E-07
2.785000E+03  4.2417E-07
2.795000E+03  2.4488E-07
2.800000E+03  2.6194E-07
2.805000E+03  2.8120E-07
2.815000E+03  5.6875E-07
2.825000E+03  7.4567E-07
2.835000E+03  6.8054E-07
2.845000E+03  4.5139E-07
2.855000E+03  2.7595E-07
2.865000E+03  6.3654E-07
2.875000E+03  1.0408E-06
2.885000E+03  9.6858E-07
2.895000E+03  1.3011E-06
2.900000E+03  1.4754E-06
2.910000E+03  1.9065E-06
2.930000E+03  1.6375E-06
2.950000E+03  1.4687E-06
2.970000E+03  1.5301E-06
2.990000E+03  1.5520E-06
3.000000E+03  1.5017E-06
3.010000E+03  1.4542E-06
3.030000E+03  1.6987E-06
3.050000E+03  1.7306E-06
3.070000E+03  2.1219E-06
3.090000E+03  2.0705E-06
3.100000E+03  2.3344E-06
3.110000E+03  2.6443E-06
3.130000E+03  2.3676E-06
3.150000E+03  2.4721E-06
3.170000E+03  2.7850E-06
3.190000E+03  2.2847E-06
3.200000E+03  2.4019E-06
3.210000E+03  2.5261E-06
3.230000E+03  2.0651E-06
3.250000E+03  3.1967E-06
3.270000E+03  3.8741E-06
3.290000E+03  3.8108E-06
3.300000E+03  3.6397E-06
3.310000E+03  3.4799E-06
3.330000E+03  3.6737E-06
3.350000E+03  3.5524E-06
3.370000E+03  2.5317E-06
3.390000E+03  2.8927E-06
3.400000E+03  2.9219E-06
3.410000E+03  2.9527E-06
3.430000E+03  3.0268E-06
3.450000E+03  3.2957E-06
3.470000E+03  3.4477E-06
3.490000E+03  4.0407E-06
3.500000E+03  4.1911E-06
3.510000E+03  4.3523E-06
3.530000E+03  3.7100E-06
3.550000E+03  4.2729E-06
3.570000E+03  2.5172E-06
3.590000E+03  2.7783E-06
3.600000E+03  3.2737E-06
3.610000E+03  3.8716E-06
3.630000E+03  4.3047E-06
3.640000E+03  4.4533E-06
3.650000E+03  5.3292E-06
3.670000E+03  5.8784E-06
3.690000E+03  5.0095E-06
3.700000E+03  5.1430E-06
3.710000E+03  5.3064E-06
3.730000E+03  3.0680E-06
3.750000E+03  3.5408E-06
3.770000E+03  4.8684E-06
3.790000E+03  4.9241E-06
3.800000E+03  4.5900E-06
3.810000E+03  4.2858E-06
3.830000E+03  2.1922E-06
3.850000E+03  2.8651E-06
3.870000E+03  2.9631E-06
3.890000E+03  4.6119E-06
3.900000E+03  5.1875E-06
3.910000E+03  5.8478E-06
3.930000E+03  2.7588E-06
3.950000E+03  4.8059E-06
3.970000E+03  3.3460E-06
3.990000E+03  8.1334E-06
4.000000E+03  8.7113E-06
4.010000E+03  9.3546E-06
4.030000E+03  9.2133E-06
4.050000E+03  8.7217E-06
4.070000E+03  7.8943E-06
4.090000E+03  1.0624E-05
4.100000E+03  1.0234E-05
4.110000E+03  9.9073E-06
4.130000E+03  9.1081E-06
4.150000E+03  8.7903E-06
4.170000E+03  9.0476E-06
4.190000E+03  8.9330E-06
4.200000E+03  9.1123E-06
4.210000E+03  9.3195E-06
4.230000E+03  8.6518E-06
4.250000E+03  9.9306E-06
4.270000E+03  9.1878E-06
4.290000E+03  8.5393E-06
4.300000E+03  8.0248E-06
4.310000E+03  7.5736E-06
4.330000E+03  1.1376E-05
4.350000E+03  1.1584E-05
4.370000E+03  1.2691E-05
4.390000E+03  1.0690E-05
4.400000E+03  1.1021E-05
4.410000E+03  1.1371E-05
4.430000E+03  1.2333E-05
4.450000E+03  1.2569E-05
4.470000E+03  1.3761E-05
4.490000E+03  1.4152E-05
4.500000E+03  1.5488E-05
4.510000E+03  1.6962E-05
4.530000E+03  1.4044E-05
4.550000E+03  1.4945E-05
4.570000E+03  1.6533E-05
4.590000E+03  1.5476E-05
4.600000E+03  1.5597E-05
4.610000E+03  1.5721E-05
4.630000E+03  1.5144E-05
4.650000E+03  1.5390E-05
4.670000E+03  1.6460E-05
4.690000E+03  1.6063E-05
4.700000E+03  1.5744E-05
4.710000E+03  1.5439E-05
4.730000E+03  1.6239E-05
4.750000E+03  1.6880E-05
4.770000E+03  1.6570E-05
4.790000E+03  1.6582E-05
4.800000E+03  1.6583E-05
4.810000E+03  1.6590E-05
4.830000E+03  1.7448E-05
4.850000E+03  1.6299E-05
4.870000E+03  1.4737E-05
4.890000E+03  1.6637E-05
4.900000E+03  1.6656E-05
4.910000E+03  1.6682E-05
4.930000E+03  1.6273E-05
4.950000E+03  1.7150E-05
4.970000E+03  1.6296E-05
4.990000E+03  1.4808E-05
5.000000E+03  1.4246E-05
5.010000E+03  1.3710E-05
5.030000E+03  1.4949E-05
5.050000E+03  1.4988E-05
5.070000E+03  1.5943E-05
5.090000E+03  1.4770E-05
5.100000E+03  1.5091E-05
5.110000E+03  1.5429E-05
5.130000E+03  1.4756E-05
5.150000E+03  1.3956E-05
5.170000E+03  1.1853E-05
5.190000E+03  1.2550E-05
5.200000E+03  1.3394E-05
5.210000E+03  1.4301E-05
5.230000E+03  1.5978E-05
5.250000E+03  1.7148E-05
5.270000E+03  1.4497E-05
5.290000E+03  1.7653E-05
5.300000E+03  1.8479E-05
5.310000E+03  1.9348E-05
5.330000E+03  1.6057E-05
5.350000E+03  1.8291E-05
5.370000E+03  1.8232E-05
5.390000E+03  1.7621E-05
5.400000E+03  1.7488E-05
5.410000E+03  1.7359E-05
5.430000E+03  1.7678E-05
5.450000E+03  1.8127E-05
5.470000E+03  1.7560E-05
5.490000E+03  1.7404E-05
5.500000E+03  1.7391E-05
5.510000E+03  1.7382E-05
5.530000E+03  1.8373E-05
5.550000E+03  1.8887E-05
5.570000E+03  1.8528E-05
5.590000E+03  1.7541E-05
5.600000E+03  1.8058E-05
5.610000E+03  1.8602E-05
5.630000E+03  1.8279E-05
5.650000E+03  1.8730E-05
5.670000E+03  1.8323E-05
5.690000E+03  1.9238E-05
5.700000E+03  1.8866E-05
5.710000E+03  1.8510E-05
5.730000E+03  2.0749E-05
5.750000E+03  1.9462E-05
5.770000E+03  1.9915E-05
5.790000E+03  1.8798E-05
5.800000E+03  1.9415E-05
5.810000E+03  2.0057E-05
5.830000E+03  2.0910E-05
5.850000E+03  1.9842E-05
5.870000E+03  1.9797E-05
5.890000E+03  1.5430E-05
5.900000E+03  1.7173E-05
5.910000E+03  1.9208E-05
5.930000E+03  1.9633E-05
5.950000E+03  1.9666E-05
5.970000E+03  2.0144E-05
5.990000E+03  1.9687E-05
6.000000E+03  1.9577E-05
6.010000E+03  1.9474E-05
6.030000E+03  2.0369E-05
6.050000E+03  2.0883E-05
6.070000E+03  2.0970E-05
6.090000E+03  1.9883E-05
6.100000E+03  1.9983E-05
6.110000E+03  2.0086E-05
6.130000E+03  1.8487E-05
6.150000E+03  1.9036E-05
6.170000E+03  1.7607E-05
6.190000E+03  1.9173E-05
6.200000E+03  1.9040E-05
6.210000E+03  1.8911E-05
6.230000E+03  1.8050E-05
6.250000E+03  1.7380E-05
6.270000E+03  1.8538E-05
6.290000E+03  1.9219E-05
6.300000E+03  1.8859E-05
6.310000E+03  1.8515E-05
6.330000E+03  1.8973E-05
6.350000E+03  1.8862E-05
6.370000E+03  1.8826E-05
6.390000E+03  1.9753E-05
6.400000E+03  1.9539E-05
6.410000E+03  1.9330E-05
6.430000E+03  1.9495E-05
6.450000E+03  1.9393E-05
6.470000E+03  1.9352E-05
6.490000E+03  1.8991E-05
6.500000E+03  1.9456E-05
6.510000E+03  1.9936E-05
6.530000E+03  1.9846E-05
6.550000E+03  1.9544E-05
6.570000E+03  1.8727E-05
6.590000E+03  1.9569E-05
6.600000E+03  1.9687E-05
6.610000E+03  1.9807E-05
6.630000E+03  1.9317E-05
6.650000E+03  1.9242E-05
6.670000E+03  1.8607E-05
6.690000E+03  1.8967E-05
6.700000E+03  1.8428E-05
6.710000E+03  1.7908E-05
6.730000E+03  1.8639E-05
6.750000E+03  1.8193E-05
6.770000E+03  1.8369E-05
6.790000E+03  1.8017E-05
6.800000E+03  1.8158E-05
6.810000E+03  1.8303E-05
6.830000E+03  1.8644E-05
6.850000E+03  1.8049E-05
6.870000E+03  1.8548E-05
6.890000E+03  1.8965E-05
6.900000E+03  1.8983E-05
6.910000E+03  1.9009E-05
6.930000E+03  1.8822E-05
6.950000E+03  1.8922E-05
6.970000E+03  1.9312E-05
6.990000E+03  1.9233E-05
7.000000E+03  1.9078E-05
7.010000E+03  1.8937E-05
7.030000E+03  1.9404E-05
7.050000E+03  1.8978E-05
7.070000E+03  1.8084E-05
7.090000E+03  1.7315E-05
7.100000E+03  1.7002E-05
7.110000E+03  1.6710E-05
7.130000E+03  1.6148E-05
7.150000E+03  1.6127E-05
7.170000E+03  1.6468E-05
7.190000E+03  1.6068E-05
7.200000E+03  1.6427E-05
7.210000E+03  1.6797E-05
7.230000E+03  1.7308E-05
7.250000E+03  1.7627E-05
7.270000E+03  1.7799E-05
7.290000E+03  1.7568E-05
7.300000E+03  1.8008E-05
7.310000E+03  1.8486E-05
7.330000E+03  1.8523E-05
7.350000E+03  1.8834E-05
7.370000E+03  1.9672E-05
7.390000E+03  1.9049E-05
7.400000E+03  1.9111E-05
7.410000E+03  1.9184E-05
7.430000E+03  1.9789E-05
7.450000E+03  1.9633E-05
7.470000E+03  2.0142E-05
7.490000E+03  2.0097E-05
7.500000E+03  2.0232E-05
7.510000E+03  2.0370E-05
7.530000E+03  2.1011E-05
7.550000E+03  2.1219E-05
7.570000E+03  2.1104E-05
7.590000E+03  1.9991E-05
7.600000E+03  1.9753E-05
7.610000E+03  1.9538E-05
7.630000E+03  1.9152E-05
7.650000E+03  1.8558E-05
7.670000E+03  1.7355E-05
7.690000E+03  1.7998E-05
7.700000E+03  1.7827E-05
7.710000E+03  1.7661E-05
7.730000E+03  1.7654E-05
7.750000E+03  1.7520E-05
7.770000E+03  1.7932E-05
7.790000E+03  1.8034E-05
7.800000E+03  1.8011E-05
7.810000E+03  1.7993E-05
7.830000E+03  1.8010E-05
7.850000E+03  1.7694E-05
7.870000E+03  1.8001E-05
7.890000E+03  1.7801E-05
7.900000E+03  1.7514E-05
7.910000E+03  1.7238E-05
7.930000E+03  1.7321E-05
7.950000E+03  1.7167E-05
7.970000E+03  1.7870E-05
7.990000E+03  1.7808E-05
8.000000E+03  1.7970E-05
8.010000E+03  1.8149E-05
8.030000E+03  1.8311E-05
8.050000E+03  1.8296E-05
8.070000E+03  1.8723E-05
8.090000E+03  1.8642E-05
8.100000E+03  1.8774E-05
8.110000E+03  1.8910E-05
8.130000E+03  1.9816E-05
8.150000E+03  2.0397E-05
8.170000E+03  2.0832E-05
8.190000E+03  1.9477E-05
8.200000E+03  1.9401E-05
8.210000E+03  1.9449E-05
8.230000E+03  1.9573E-05
8.250000E+03  1.9614E-05
8.270000E+03  1.9654E-05
8.290000E+03  1.9355E-05
8.300000E+03  1.8944E-05
8.310000E+03  1.8543E-05
8.330000E+03  1.8325E-05
8.350000E+03  1.8350E-05
8.370000E+03  1.8549E-05
8.390000E+03  1.7777E-05
8.400000E+03  1.8208E-05
8.410000E+03  1.8655E-05
8.430000E+03  1.7735E-05
8.450000E+03  1.7149E-05
8.470000E+03  1.7104E-05
8.490000E+03  1.7125E-05
8.500000E+03  1.6733E-05
8.510000E+03  1.6354E-05
8.530000E+03  1.6820E-05
8.550000E+03  1.4776E-05
8.570000E+03  1.7872E-05
8.590000E+03  1.7580E-05
8.600000E+03  1.7729E-05
8.610000E+03  1.7885E-05
8.630000E+03  1.8294E-05
8.650000E+03  1.8086E-05
8.670000E+03  1.5510E-05
8.690000E+03  1.7653E-05
8.700000E+03  1.8125E-05
8.710000E+03  1.8617E-05
8.730000E+03  1.8856E-05
8.750000E+03  1.8767E-05
8.770000E+03  1.9220E-05
8.790000E+03  1.9680E-05
8.800000E+03  1.9470E-05
8.810000E+03  1.9267E-05
8.830000E+03  1.9441E-05
8.850000E+03  1.9340E-05
8.870000E+03  1.8356E-05
8.890000E+03  1.8496E-05
8.900000E+03  1.8657E-05
8.910000E+03  1.8817E-05
8.930000E+03  1.8501E-05
8.950000E+03  1.8688E-05
8.970000E+03  1.8792E-05
8.990000E+03  1.8789E-05
9.000000E+03  1.8599E-05
9.010000E+03  1.8421E-05
9.030000E+03  1.9433E-05
9.050000E+03  2.0285E-05
9.070000E+03  2.0398E-05
9.090000E+03  2.0186E-05
9.100000E+03  2.0456E-05
9.110000E+03  2.0739E-05
9.130000E+03  2.1234E-05
9.150000E+03  2.1087E-05
9.170000E+03  2.1097E-05
9.190000E+03  2.1483E-05
9.200000E+03  2.0898E-05
9.210000E+03  2.0336E-05
9.230000E+03  1.9383E-05
9.250000E+03  1.9190E-05
9.270000E+03  1.9573E-05
9.290000E+03  1.9027E-05
9.300000E+03  1.9066E-05
9.310000E+03  1.9107E-05
9.330000E+03  1.9335E-05
9.350000E+03  1.9256E-05
9.370000E+03  1.8801E-05
9.390000E+03  1.9308E-05
9.400000E+03  1.9159E-05
9.410000E+03  1.9015E-05
9.430000E+03  1.9689E-05
9.450000E+03  1.9373E-05
9.470000E+03  2.0108E-05
9.490000E+03  2.0197E-05
9.500000E+03  1.9849E-05
9.510000E+03  1.9513E-05
9.530000E+03  1.9853E-05
9.550000E+03  1.9516E-05
9.570000E+03  1.9759E-05
9.590000E+03  2.0132E-05
9.600000E+03  1.9926E-05
9.610000E+03  1.9719E-05
9.630000E+03  1.9941E-05
9.650000E+03  1.9342E-05
9.670000E+03  1.9403E-05
9.690000E+03  1.9830E-05
9.700000E+03  1.9538E-05
9.710000E+03  1.9259E-05
9.730000E+03  1.8943E-05
9.750000E+03  1.8992E-05
9.770000E+03  1.9223E-05
9.790000E+03  1.8869E-05
9.800000E+03  1.9286E-05
9.810000E+03  1.9733E-05
9.830000E+03  1.9470E-05
9.850000E+03  1.9729E-05
9.870000E+03  1.9608E-05
9.890000E+03  1.9632E-05
9.900000E+03  1.9341E-05
9.910000E+03  1.9087E-05
9.930000E+03  1.9510E-05
9.950000E+03  1.9732E-05
9.970000E+03  1.9797E-05
9.990000E+03  1.9771E-05
1.000000E+04  1.9888E-05
1.002500E+04  2.0210E-05
1.007500E+04  1.9993E-05
1.010000E+04  2.0353E-05
1.012500E+04  2.0733E-05
1.017500E+04  2.0571E-05
1.020000E+04  2.0808E-05
1.022500E+04  2.1060E-05
1.027500E+04  2.1416E-05
1.030000E+04  2.1458E-05
1.032500E+04  2.1508E-05
1.037500E+04  2.1448E-05
1.040000E+04  2.1596E-05
1.042500E+04  2.1753E-05
1.047500E+04  2.0978E-05
1.050000E+04  2.0451E-05
1.052500E+04  1.9985E-05
1.057500E+04  1.8975E-05
1.060000E+04  1.8761E-05
1.062500E+04  1.8546E-05
1.067500E+04  1.8752E-05
1.070000E+04  1.9056E-05
1.072500E+04  1.9376E-05
1.077500E+04  1.9593E-05
1.080000E+04  1.9449E-05
1.082500E+04  1.9320E-05
1.087500E+04  1.9312E-05
1.090000E+04  1.9296E-05
1.092500E+04  1.9274E-05
1.097500E+04  1.8918E-05
1.100000E+04  1.8657E-05
1.102500E+04  1.8423E-05
1.107500E+04  1.7622E-05
1.110000E+04  1.7703E-05
1.112500E+04  1.7786E-05
1.117500E+04  1.7789E-05
1.120000E+04  1.7853E-05
1.122500E+04  1.7923E-05
1.127500E+04  1.7899E-05
1.130000E+04  1.7945E-05
1.132500E+04  1.7994E-05
1.137500E+04  1.7831E-05
1.140000E+04  1.7772E-05
1.142500E+04  1.7702E-05
1.147500E+04  1.8264E-05
1.150000E+04  1.8330E-05
1.152500E+04  1.8390E-05
1.157500E+04  1.8191E-05
1.160000E+04  1.8016E-05
1.162500E+04  1.7842E-05
1.167500E+04  1.7921E-05
1.170000E+04  1.7890E-05
1.172500E+04  1.7877E-05
1.177500E+04  1.6990E-05
1.180000E+04  1.6803E-05
1.182500E+04  1.6633E-05
1.187500E+04  1.6071E-05
1.190000E+04  1.6275E-05
1.192500E+04  1.6474E-05
1.197500E+04  1.5832E-05
1.200000E+04  1.6178E-05
1.202500E+04  1.6532E-05
1.207500E+04  1.6616E-05
1.210000E+04  1.6692E-05
1.212500E+04  1.6787E-05
1.217500E+04  1.6941E-05
1.220000E+04  1.6929E-05
1.222500E+04  1.6910E-05
1.227500E+04  1.6826E-05
1.230000E+04  1.6775E-05
1.232500E+04  1.6712E-05
1.237500E+04  1.6708E-05
1.240000E+04  1.6387E-05
1.242500E+04  1.6071E-05
1.247500E+04  1.5976E-05
1.250000E+04  1.5921E-05
1.252500E+04  1.5863E-05
1.257500E+04  1.5814E-05
1.260000E+04  1.5767E-05
1.262500E+04  1.5708E-05
1.267500E+04  1.5615E-05
1.270000E+04  1.5658E-05
1.272500E+04  1.5695E-05
1.277500E+04  1.5739E-05
1.280000E+04  1.5462E-05
1.282500E+04  1.5194E-05
1.287500E+04  1.5546E-05
1.290000E+04  1.5455E-05
1.292500E+04  1.5358E-05
1.297500E+04  1.5641E-05
1.300000E+04  1.5578E-05
1.302500E+04  1.5516E-05
1.307500E+04  1.5520E-05
1.310000E+04  1.5222E-05
1.312500E+04  1.4944E-05
1.317500E+04  1.4969E-05
1.320000E+04  1.4939E-05
1.322500E+04  1.4902E-05
1.327500E+04  1.4518E-05
1.330000E+04  1.4457E-05
1.332500E+04  1.4399E-05
1.337500E+04  1.4218E-05
1.340000E+04  1.4186E-05
1.342500E+04  1.4147E-05
1.347500E+04  1.3914E-05
1.350000E+04  1.3823E-05
1.352500E+04  1.3733E-05
1.357500E+04  1.3402E-05
1.360000E+04  1.3344E-05
1.362500E+04  1.3273E-05
1.367500E+04  1.3470E-05
1.370000E+04  1.3529E-05
1.372500E+04  1.3586E-05
1.377500E+04  1.3588E-05
1.380000E+04  1.3596E-05
1.382500E+04  1.3602E-05
1.387500E+04  1.3390E-05
1.390000E+04  1.2731E-05
1.392500E+04  1.2188E-05
1.397500E+04  1.1996E-05
1.400000E+04  1.1925E-05
1.402500E+04  1.1852E-05
1.407500E+04  1.1954E-05
1.410000E+04  1.1864E-05
1.412500E+04  1.1778E-05
1.417500E+04  1.1901E-05
1.420000E+04  1.1828E-05
1.422500E+04  1.1765E-05
1.427500E+04  1.1559E-05
1.430000E+04  1.1718E-05
1.432500E+04  1.1893E-05
1.437500E+04  1.2002E-05
1.440000E+04  1.1875E-05
1.442500E+04  1.1739E-05
1.447500E+04  1.2024E-05
1.450000E+04  1.1969E-05
1.452500E+04  1.1914E-05
1.457000E+04  1.2048E-05
1.460000E+04  1.1778E-05
1.462000E+04  1.1604E-05
1.467500E+04  1.1499E-05
1.470000E+04  1.1455E-05
1.472500E+04  1.1428E-05
1.477500E+04  1.1557E-05
1.480000E+04  1.1616E-05
1.482500E+04  1.1685E-05
1.487500E+04  1.1637E-05
1.490000E+04  1.1834E-05
1.492500E+04  1.2049E-05
1.497500E+04  1.1996E-05
1.500000E+04  1.1865E-05
1.502500E+04  1.1737E-05
1.507500E+04  1.1979E-05
1.510000E+04  1.2128E-05
1.512500E+04  1.2273E-05
1.517500E+04  1.2382E-05
1.520000E+04  1.2409E-05
1.522500E+04  1.2418E-05
1.527500E+04  1.2613E-05
1.530000E+04  1.2605E-05
1.532500E+04  1.2603E-05
1.537500E+04  1.2554E-05
1.540000E+04  1.2512E-05
1.542500E+04  1.2464E-05
1.547500E+04  1.2504E-05
1.550000E+04  1.2479E-05
1.552500E+04  1.2454E-05
1.557500E+04  1.2059E-05
1.560000E+04  1.2016E-05
1.562500E+04  1.1971E-05
1.567500E+04  1.2074E-05
1.570000E+04  1.2249E-05
1.572500E+04  1.2429E-05
1.577500E+04  1.1589E-05
1.580000E+04  1.1483E-05
1.582500E+04  1.1403E-05
1.587500E+04  1.1582E-05
1.590000E+04  1.1847E-05
1.592500E+04  1.2107E-05
1.597500E+04  1.1789E-05
1.600000E+04  1.1732E-05
1.605000E+04  1.1625E-05
1.610000E+04  1.1854E-05
1.615000E+04  1.2106E-05
1.620000E+04  1.1819E-05
1.625000E+04  1.1542E-05
1.630000E+04  1.1885E-05
1.635000E+04  1.2241E-05
1.640000E+04  1.1919E-05
1.645000E+04  1.1606E-05
1.650000E+04  1.1906E-05
1.655000E+04  1.2222E-05
1.660000E+04  1.2100E-05
1.665000E+04  1.1960E-05
1.670000E+04  1.2025E-05
1.675000E+04  1.2085E-05
1.680000E+04  1.2084E-05
1.685000E+04  1.2110E-05
1.690000E+04  1.2148E-05
1.695000E+04  1.2180E-05
1.700000E+04  1.2161E-05
1.705000E+04  1.2140E-05
1.710000E+04  1.1991E-05
1.715000E+04  1.1837E-05
1.720000E+04  1.1766E-05
1.725000E+04  1.1699E-05
1.730000E+04  1.1498E-05
1.735000E+04  1.1302E-05
1.740000E+04  1.1160E-05
1.745000E+04  1.1022E-05
1.750000E+04  1.0872E-05
1.755000E+04  1.0749E-05
1.760000E+04  1.0542E-05
1.765000E+04  1.0335E-05
1.770000E+04  1.0100E-05
1.775000E+04  9.8930E-06
1.780000E+04  9.7387E-06
1.785000E+04  9.6007E-06
1.790000E+04  9.3539E-06
1.795000E+04  9.1452E-06
1.800000E+04  8.9935E-06
1.805000E+04  8.8073E-06
1.810000E+04  8.7354E-06
1.815000E+04  8.6484E-06
1.820000E+04  8.5729E-06
1.825000E+04  8.4802E-06
1.830000E+04  8.4082E-06
1.835000E+04  8.3332E-06
1.840000E+04  8.2082E-06
1.845000E+04  8.1144E-06
1.850000E+04  8.0614E-06
1.855000E+04  7.9792E-06
1.860000E+04  7.8234E-06
1.865000E+04  7.6693E-06
1.870000E+04  7.6205E-06
1.875000E+04  7.5290E-06
1.880000E+04  7.5128E-06
1.885000E+04  7.4954E-06
1.890000E+04  7.3864E-06
1.895000E+04  7.2990E-06
1.900000E+04  7.3765E-06
1.905000E+04  7.4512E-06
1.910000E+04  7.3864E-06
1.915000E+04  7.3269E-06
1.920000E+04  7.3107E-06
1.925000E+04  7.3012E-06
1.930000E+04  7.2244E-06
1.935000E+04  7.1406E-06
1.940000E+04  7.0534E-06
1.945000E+04  6.9805E-06
1.950000E+04  6.9526E-06
1.955000E+04  6.9243E-06
1.960000E+04  6.8519E-06
1.965000E+04  6.7678E-06
1.970000E+04  6.6516E-06
1.975000E+04  6.5220E-06
1.980000E+04  6.4653E-06
1.985000E+04  6.4198E-06
1.990000E+04  6.4057E-06
1.995000E+04  6.3828E-06
2.000000E+04  6.3794E-06
2.005000E+04  6.3970E-06
2.010000E+04  6.3748E-06
2.015000E+04  6.3474E-06
2.020000E+04  6.2826E-06
2.025000E+04  6.2161E-06
2.030000E+04  6.2020E-06
2.035000E+04  6.1955E-06
2.040000E+04  6.2080E-06
2.045000E+04  6.2336E-06
2.050000E+04  6.2147E-06
2.055000E+04  6.1937E-06
2.060000E+04  6.1686E-06
2.065000E+04  6.1503E-06
2.070000E+04  6.1559E-06
2.075000E+04  6.1585E-06
2.080000E+04  6.1552E-06
2.085000E+04  6.1625E-06
2.090000E+04  6.1351E-06
2.095000E+04  6.0976E-06
2.100000E+04  6.1165E-06
2.105000E+04  6.1415E-06
2.110000E+04  6.1210E-06
2.115000E+04  6.0927E-06
2.120000E+04  6.0816E-06
2.125000E+04  6.0834E-06
2.130000E+04  6.0857E-06
2.135000E+04  6.0912E-06
2.140000E+04  6.0776E-06
2.145000E+04  6.0580E-06
2.150000E+04  6.0410E-06
2.155000E+04  6.0201E-06
2.160000E+04  5.9826E-06
2.165000E+04  5.9486E-06
2.170000E+04  5.9050E-06
2.175000E+04  5.8633E-06
2.180000E+04  5.8505E-06
2.185000E+04  5.8329E-06
2.190000E+04  5.8079E-06
2.195000E+04  5.7847E-06
2.200000E+04  5.6987E-06
2.205000E+04  5.6181E-06
2.210000E+04  5.6418E-06
2.215000E+04  5.6705E-06
2.220000E+04  5.6054E-06
2.225000E+04  5.5423E-06
2.230000E+04  5.5259E-06
2.235000E+04  5.5025E-06
2.240000E+04  5.4731E-06
2.245000E+04  5.4486E-06
2.250000E+04  5.4185E-06
2.255000E+04  5.3866E-06
2.260000E+04  5.3239E-06
2.265000E+04  5.2715E-06
2.270000E+04  5.2723E-06
2.275000E+04  5.2658E-06
2.280000E+04  5.2056E-06
2.285000E+04  5.1510E-06
2.290000E+04  4.6822E-06
2.295000E+04  4.2641E-06
2.300000E+04  4.3829E-06
2.305000E+04  4.5036E-06
2.310000E+04  4.5216E-06
2.315000E+04  4.5236E-06
2.320000E+04  4.1490E-06
2.325000E+04  3.8335E-06
2.330000E+04  3.9848E-06
2.335000E+04  4.1142E-06
2.340000E+04  3.9935E-06
2.345000E+04  3.8930E-06
2.350000E+04  3.6950E-06
2.355000E+04  3.5185E-06
2.360000E+04  3.6335E-06
2.365000E+04  3.7632E-06
2.370000E+04  3.6719E-06
2.375000E+04  3.5757E-06
2.380000E+04  3.4253E-06
2.385000E+04  3.2820E-06
2.390000E+04  3.3687E-06
2.395000E+04  3.4442E-06
2.400000E+04  3.3717E-06
2.405000E+04  3.3032E-06
2.410000E+04  3.1550E-06
2.415000E+04  3.0159E-06
2.420000E+04  3.0292E-06
2.425000E+04  3.0512E-06
2.430000E+04  2.9798E-06
2.435000E+04  2.9105E-06
2.440000E+04  2.8284E-06
2.445000E+04  2.7406E-06
2.450000E+04  2.6878E-06
2.455000E+04  2.6402E-06
2.460000E+04  2.6154E-06
2.465000E+04  2.5924E-06
2.470000E+04  2.5332E-06
2.475000E+04  2.4752E-06
2.480000E+04  2.3046E-06
2.485000E+04  2.1549E-06
2.490000E+04  2.0995E-06
2.495000E+04  2.0512E-06
2.500000E+04  2.0581E-06
2.505000E+04  2.0672E-06
2.510000E+04  2.0157E-06
2.515000E+04  1.9686E-06
2.520000E+04  1.9887E-06
2.525000E+04  2.0108E-06
2.530000E+04  2.0090E-06
2.535000E+04  2.0062E-06
2.540000E+04  1.9949E-06
2.545000E+04  1.9868E-06
2.550000E+04  1.9912E-06
2.555000E+04  1.9939E-06
2.560000E+04  2.0059E-06
2.565000E+04  2.0185E-06
2.570000E+04  2.0316E-06
2.575000E+04  2.0461E-06
2.580000E+04  2.0265E-06
2.585000E+04  2.0067E-06
2.590000E+04  2.0133E-06
2.595000E+04  2.0247E-06
2.600000E+04  2.0322E-06
2.605000E+04  2.0380E-06
2.610000E+04  2.0276E-06
2.615000E+04  2.0107E-06
2.620000E+04  1.9940E-06
2.625000E+04  1.9804E-06
2.630000E+04  1.9885E-06
2.635000E+04  1.9889E-06
2.640000E+04  1.9776E-06
2.645000E+04  1.9643E-06
2.650000E+04  1.9582E-06
2.655000E+04  1.9549E-06
2.660000E+04  1.9523E-06
2.665000E+04  1.9382E-06
2.670000E+04  1.9426E-06
2.675000E+04  1.9430E-06
2.680000E+04  1.9271E-06
2.685000E+04  1.9116E-06
2.690000E+04  1.8929E-06
2.695000E+04  1.8813E-06
2.700000E+04  1.8836E-06
2.705000E+04  1.8754E-06
2.710000E+04  1.8573E-06
2.715000E+04  1.8506E-06
2.720000E+04  1.8580E-06
2.725000E+04  1.8553E-06
2.730000E+04  1.8420E-06
2.735000E+04  1.8235E-06
2.740000E+04  1.8313E-06
2.745000E+04  1.8334E-06
2.750000E+04  1.8216E-06
2.755000E+04  1.8068E-06
2.760000E+04  1.7886E-06
2.765000E+04  1.7782E-06
2.770000E+04  1.7678E-06
2.775000E+04  1.7586E-06
2.780000E+04  1.7591E-06
2.785000E+04  1.7598E-06
2.790000E+04  1.7516E-06
2.795000E+04  1.7541E-06
2.800000E+04  1.7357E-06
2.805000E+04  1.7269E-06
2.810000E+04  1.7064E-06
2.815000E+04  1.7009E-06
2.820000E+04  1.6970E-06
2.825000E+04  1.6938E-06
2.830000E+04  1.6886E-06
2.835000E+04  1.6696E-06
2.840000E+04  1.6454E-06
2.845000E+04  1.6241E-06
2.850000E+04  1.6263E-06
2.855000E+04  1.6344E-06
2.860000E+04  1.6347E-06
2.865000E+04  1.6284E-06
2.870000E+04  1.6113E-06
2.875000E+04  1.6071E-06
2.880000E+04  1.6016E-06
2.885000E+04  1.5859E-06
2.890000E+04  1.5737E-06
2.895000E+04  1.5603E-06
2.900000E+04  1.5657E-06
2.905000E+04  1.5610E-06
2.910000E+04  1.5502E-06
2.915000E+04  1.5362E-06
2.920000E+04  1.5169E-06
2.925000E+04  1.4999E-06
2.930000E+04  1.5028E-06
2.935000E+04  1.4950E-06
2.940000E+04  1.4859E-06
2.945000E+04  1.4742E-06
2.950000E+04  1.4644E-06
2.955000E+04  1.4575E-06
2.960000E+04  1.4519E-06
2.965000E+04  1.4460E-06
2.970000E+04  1.4396E-06
2.975000E+04  1.4325E-06
2.980000E+04  1.4243E-06
2.985000E+04  1.4145E-06
2.990000E+04  1.4072E-06
2.995000E+04  1.4014E-06
3.000000E+04  1.3973E-06
3.005000E+04  1.3929E-06
3.010000E+04  1.3914E-06
3.015000E+04  1.3890E-06
3.020000E+04  1.3841E-06
3.025000E+04  1.3793E-06
3.030000E+04  1.3751E-06
3.035000E+04  1.3710E-06
3.040000E+04  1.3701E-06
3.045000E+04  1.3693E-06
3.050000E+04  1.3655E-06
3.055000E+04  1.3620E-06
3.060000E+04  1.3600E-06
3.065000E+04  1.3574E-06
3.070000E+04  1.3564E-06
3.075000E+04  1.3556E-06
3.080000E+04  1.3513E-06
3.085000E+04  1.3473E-06
3.090000E+04  1.3468E-06
3.095000E+04  1.3462E-06
3.100000E+04  1.3461E-06
3.105000E+04  1.3460E-06
3.110000E+04  1.3392E-06
3.115000E+04  1.3319E-06
3.120000E+04  1.3322E-06
3.125000E+04  1.3326E-06
3.130000E+04  1.3297E-06
3.135000E+04  1.3271E-06
3.140000E+04  1.3240E-06
3.145000E+04  1.3211E-06
3.150000E+04  1.3174E-06
3.155000E+04  1.3136E-06
3.160000E+04  1.3094E-06
3.165000E+04  1.3050E-06
3.170000E+04  1.3043E-06
3.175000E+04  1.3037E-06
3.180000E+04  1.3020E-06
3.185000E+04  1.3007E-06
3.190000E+04  1.3007E-06
3.195000E+04  1.3005E-06
3.200000E+04  1.2985E-06
3.210000E+04  1.2938E-06
3.220000E+04  1.2892E-06
3.230000E+04  1.2853E-06
3.240000E+04  1.2832E-06
3.250000E+04  1.2815E-06
3.260000E+04  1.2763E-06
3.270000E+04  1.2711E-06
3.280000E+04  1.2651E-06
3.290000E+04  1.2596E-06
3.300000E+04  1.2567E-06
3.310000E+04  1.2533E-06
3.320000E+04  1.2493E-06
3.330000E+04  1.2458E-06
3.340000E+04  1.2443E-06
3.350000E+04  1.2444E-06
3.360000E+04  1.2381E-06
3.370000E+04  1.2290E-06
3.380000E+04  1.2256E-06
3.390000E+04  1.2202E-06
3.400000E+04  1.2133E-06
3.410000E+04  1.2105E-06
3.420000E+04  1.2062E-06
3.430000E+04  1.2087E-06
3.440000E+04  1.2047E-06
3.450000E+04  1.1926E-06
3.460000E+04  1.1805E-06
3.470000E+04  1.1768E-06
3.480000E+04  1.1676E-06
3.490000E+04  1.1556E-06
3.500000E+04  1.1484E-06
3.510000E+04  1.1470E-06
3.520000E+04  1.1345E-06
3.530000E+04  1.1289E-06
3.540000E+04  1.1150E-06
3.550000E+04  1.1051E-06
3.560000E+04  1.1000E-06
3.570000E+04  1.0948E-06
3.580000E+04  1.0855E-06
3.590000E+04  1.0759E-06
3.600000E+04  1.0725E-06
3.610000E+04  1.0650E-06
3.620000E+04  1.0549E-06
3.630000E+04  1.0413E-06
3.640000E+04  1.0330E-06
3.650000E+04  1.0225E-06
3.660000E+04  1.0135E-06
3.670000E+04  1.0067E-06
3.680000E+04  9.9571E-07
3.690000E+04  9.8507E-07
3.700000E+04  9.7399E-07
3.710000E+04  9.6508E-07
3.720000E+04  9.5838E-07
3.730000E+04  9.5109E-07
3.740000E+04  9.4014E-07
3.750000E+04  9.3023E-07
3.760000E+04  9.2375E-07
3.770000E+04  9.1762E-07
3.780000E+04  9.0869E-07
3.790000E+04  9.0048E-07
3.800000E+04  8.9273E-07
3.810000E+04  8.8467E-07
3.820000E+04  8.7759E-07
3.830000E+04  8.7099E-07
3.840000E+04  8.6403E-07
3.850000E+04  8.5679E-07
3.860000E+04  8.4796E-07
3.870000E+04  8.3936E-07
3.880000E+04  8.3210E-07
3.890000E+04  8.2474E-07
3.900000E+04  8.1791E-07
3.910000E+04  8.1125E-07
3.920000E+04  8.0424E-07
3.930000E+04  7.9736E-07
3.940000E+04  7.8894E-07
3.950000E+04  7.8077E-07
3.960000E+04  7.7396E-07
3.970000E+04  7.6761E-07
3.980000E+04  7.5798E-07
3.990000E+04  7.4885E-07
4.000000E+04  7.4395E-07
4.010000E+04  7.3942E-07
4.020000E+04  7.3323E-07
4.030000E+04  7.2785E-07
4.040000E+04  7.2151E-07
4.050000E+04  7.1468E-07
4.060000E+04  7.0852E-07
4.070000E+04  7.0214E-07
4.080000E+04  6.9755E-07
4.090000E+04  6.9261E-07
4.100000E+04  6.8833E-07
4.110000E+04  6.8308E-07
4.120000E+04  6.7818E-07
4.130000E+04  6.7271E-07
4.140000E+04  6.6525E-07
4.150000E+04  6.5917E-07
4.160000E+04  6.5375E-07
4.170000E+04  6.5094E-07
4.180000E+04  6.4570E-07
4.190000E+04  6.4102E-07
4.200000E+04  6.3405E-07
4.210000E+04  6.2874E-07
4.220000E+04  6.2631E-07
4.230000E+04  6.2383E-07
4.240000E+04  6.1944E-07
4.250000E+04  6.1330E-07
4.260000E+04  6.0885E-07
4.270000E+04  6.0510E-07
4.280000E+04  5.9169E-07
4.290000E+04  5.7925E-07
4.300000E+04  5.6315E-07
4.310000E+04  5.4908E-07
4.320000E+04  5.4931E-07
4.330000E+04  5.4687E-07
4.340000E+04  5.3408E-07
4.350000E+04  5.2272E-07
4.360000E+04  5.1540E-07
4.370000E+04  5.1077E-07
4.380000E+04  5.0448E-07
4.390000E+04  4.9992E-07
4.400000E+04  4.9312E-07
4.410000E+04  4.8866E-07
4.420000E+04  4.8330E-07
4.430000E+04  4.7670E-07
4.440000E+04  4.7425E-07
4.450000E+04  4.6839E-07
4.460000E+04  4.6481E-07
4.470000E+04  4.6109E-07
4.480000E+04  4.5689E-07
4.490000E+04  4.5444E-07
4.500000E+04  4.5128E-07
4.510000E+04  4.4817E-07
4.520000E+04  4.4393E-07
4.530000E+04  4.4046E-07
4.540000E+04  4.3583E-07
4.550000E+04  4.3146E-07
4.560000E+04  4.2678E-07
4.570000E+04  4.2305E-07
4.580000E+04  4.1799E-07
4.590000E+04  4.1247E-07
4.600000E+04  4.1169E-07
4.610000E+04  4.1104E-07
4.620000E+04  4.0761E-07
4.630000E+04  4.0489E-07
4.640000E+04  4.0245E-07
4.650000E+04  3.9982E-07
4.660000E+04  3.9904E-07
4.670000E+04  3.9798E-07
4.680000E+04  3.9290E-07
4.690000E+04  3.8855E-07
4.700000E+04  3.8597E-07
4.710000E+04  3.8319E-07
4.720000E+04  3.8295E-07
4.730000E+04  3.8306E-07
4.740000E+04  3.7801E-07
4.750000E+04  3.7320E-07
4.760000E+04  3.7226E-07
4.770000E+04  3.7096E-07
4.780000E+04  3.6872E-07
4.790000E+04  3.6659E-07
4.800000E+04  3.6154E-07
4.810000E+04  3.5704E-07
4.820000E+04  3.5765E-07
4.830000E+04  3.5840E-07
4.840000E+04  3.5402E-07
4.850000E+04  3.4946E-07
4.860000E+04  3.4670E-07
4.870000E+04  3.4398E-07
4.880000E+04  3.4121E-07
4.890000E+04  3.3884E-07
4.900000E+04  3.3599E-07
4.910000E+04  3.3291E-07
4.920000E+04  3.3229E-07
4.930000E+04  3.3164E-07
4.940000E+04  3.2774E-07
4.950000E+04  3.2431E-07
4.960000E+04  3.2359E-07
4.970000E+04  3.2271E-07
4.980000E+04  3.1890E-07
4.990000E+04  3.1626E-07
5.000000E+04  3.1419E-07
5.010000E+04  3.1211E-07
5.020000E+04  3.1007E-07
5.030000E+04  3.0766E-07
5.040000E+04  3.0484E-07
5.050000E+04  3.0214E-07
5.060000E+04  3.0046E-07
5.070000E+04  2.9875E-07
5.080000E+04  2.9690E-07
5.090000E+04  2.9504E-07
5.100000E+04  2.9311E-07
5.110000E+04  2.9091E-07
5.120000E+04  2.8960E-07
5.130000E+04  2.8798E-07
5.140000E+04  2.8566E-07
5.150000E+04  2.8351E-07
5.160000E+04  2.8231E-07
5.170000E+04  2.8096E-07
5.180000E+04  2.7872E-07
5.190000E+04  2.7673E-07
5.200000E+04  2.7519E-07
5.210000E+04  2.7331E-07
5.220000E+04  2.7128E-07
5.230000E+04  2.6944E-07
5.240000E+04  2.6843E-07
5.250000E+04  2.6702E-07
5.260000E+04  2.6603E-07
5.270000E+04  2.6516E-07
5.280000E+04  2.6311E-07
5.290000E+04  2.6098E-07
5.300000E+04  2.5933E-07
5.310000E+04  2.5770E-07
5.320000E+04  2.5652E-07
5.330000E+04  2.5521E-07
5.340000E+04  2.5366E-07
5.350000E+04  2.5208E-07
5.360000E+04  2.5075E-07
5.370000E+04  2.4948E-07
5.380000E+04  2.4811E-07
5.390000E+04  2.4673E-07
5.400000E+04  2.4534E-07
5.410000E+04  2.4399E-07
5.420000E+04  2.4225E-07
5.430000E+04  2.4041E-07
5.440000E+04  2.3929E-07
5.450000E+04  2.3817E-07
5.460000E+04  2.3635E-07
5.470000E+04  2.3456E-07
5.480000E+04  2.3328E-07
5.490000E+04  2.3194E-07
5.500000E+04  2.3033E-07
5.510000E+04  2.2875E-07
5.520000E+04  2.2813E-07
5.530000E+04  2.2766E-07
5.540000E+04  2.2513E-07
5.550000E+04  2.2308E-07
5.560000E+04  2.2250E-07
5.570000E+04  2.2182E-07
5.580000E+04  2.2010E-07
5.590000E+04  2.1831E-07
5.600000E+04  2.1736E-07
5.610000E+04  2.1631E-07
5.620000E+04  2.1448E-07
5.630000E+04  2.1285E-07
5.640000E+04  2.1199E-07
5.650000E+04  2.1111E-07
5.660000E+04  2.0982E-07
5.670000E+04  2.0844E-07
5.680000E+04  2.0686E-07
5.690000E+04  2.0528E-07
5.700000E+04  2.0438E-07
5.710000E+04  2.0348E-07
5.720000E+04  2.0221E-07
5.730000E+04  2.0103E-07
5.740000E+04  1.9981E-07
5.750000E+04  1.9851E-07
5.760000E+04  1.9710E-07
5.770000E+04  1.9590E-07
5.780000E+04  1.9515E-07
5.790000E+04  1.9440E-07
5.800000E+04  1.9307E-07
5.810000E+04  1.9181E-07
5.820000E+04  1.9081E-07
5.830000E+04  1.8983E-07
5.840000E+04  1.8882E-07
5.850000E+04  1.8765E-07
5.860000E+04  1.8637E-07
5.870000E+04  1.8521E-07
5.880000E+04  1.8410E-07
5.890000E+04  1.8304E-07
5.900000E+04  1.8200E-07
5.910000E+04  1.8096E-07
5.920000E+04  1.7983E-07
5.930000E+04  1.7872E-07
5.940000E+04  1.7747E-07
5.950000E+04  1.7640E-07
5.960000E+04  1.7560E-07
5.970000E+04  1.7477E-07
5.980000E+04  1.7371E-07
5.990000E+04  1.7263E-07
6.000000E+04  1.7155E-07
6.010000E+04  1.7048E-07
6.020000E+04  1.6950E-07
6.030000E+04  1.6858E-07
6.040000E+04  1.6759E-07
6.050000E+04  1.6663E-07
6.060000E+04  1.6579E-07
6.070000E+04  1.6493E-07
6.080000E+04  1.6394E-07
6.090000E+04  1.6296E-07
6.100000E+04  1.6195E-07
6.110000E+04  1.6088E-07
6.120000E+04  1.6000E-07
6.130000E+04  1.5915E-07
6.140000E+04  1.5825E-07
6.150000E+04  1.5737E-07
6.160000E+04  1.5650E-07
6.170000E+04  1.5557E-07
6.180000E+04  1.5457E-07
6.190000E+04  1.5358E-07
6.200000E+04  1.5270E-07
6.210000E+04  1.5189E-07
6.220000E+04  1.5096E-07
6.230000E+04  1.5005E-07
6.240000E+04  1.4918E-07
6.250000E+04  1.4833E-07
6.260000E+04  1.4743E-07
6.270000E+04  1.4651E-07
6.280000E+04  1.4564E-07
6.290000E+04  1.4479E-07
6.300000E+04  1.4388E-07
6.310000E+04  1.4303E-07
6.320000E+04  1.4236E-07
6.330000E+04  1.4171E-07
6.340000E+04  1.4094E-07
6.350000E+04  1.4016E-07
6.360000E+04  1.3953E-07
6.370000E+04  1.3886E-07
6.380000E+04  1.3797E-07
6.390000E+04  1.3702E-07
6.400000E+04  1.3620E-07
6.410000E+04  1.3536E-07
6.420000E+04  1.3458E-07
6.430000E+04  1.3377E-07
6.440000E+04  1.3302E-07
6.450000E+04  1.3225E-07
6.460000E+04  1.3148E-07
6.470000E+04  1.3070E-07
6.480000E+04  1.2998E-07
6.490000E+04  1.2935E-07
6.500000E+04  1.2869E-07
6.510000E+04  1.2801E-07
6.520000E+04  1.2730E-07
6.530000E+04  1.2659E-07
6.540000E+04  1.2588E-07
6.550000E+04  1.2518E-07
6.560000E+04  1.2449E-07
6.570000E+04  1.2373E-07
6.580000E+04  1.2297E-07
6.590000E+04  1.2223E-07
6.600000E+04  1.2151E-07
6.610000E+04  1.2082E-07
6.620000E+04  1.2016E-07
6.630000E+04  1.1954E-07
6.640000E+04  1.1893E-07
6.650000E+04  1.1833E-07
6.660000E+04  1.1775E-07
6.670000E+04  1.1717E-07
6.680000E+04  1.1660E-07
6.690000E+04  1.1597E-07
6.700000E+04  1.1531E-07
6.710000E+04  1.1465E-07
6.720000E+04  1.1399E-07
6.730000E+04  1.1339E-07
6.740000E+04  1.1280E-07
6.750000E+04  1.1219E-07
6.760000E+04  1.1156E-07
6.770000E+04  1.1091E-07
6.780000E+04  1.1031E-07
6.790000E+04  1.0976E-07
6.800000E+04  1.0920E-07
6.810000E+04  1.0864E-07
6.820000E+04  1.0804E-07
6.830000E+04  1.0744E-07
6.840000E+04  1.0689E-07
6.850000E+04  1.0635E-07
6.860000E+04  1.0582E-07
6.870000E+04  1.0526E-07
6.880000E+04  1.0464E-07
6.890000E+04  1.0401E-07
6.900000E+04  1.0337E-07
6.910000E+04  1.0278E-07
6.920000E+04  1.0225E-07
6.930000E+04  1.0172E-07
6.940000E+04  1.0120E-07
6.950000E+04  1.0066E-07
6.960000E+04  1.0011E-07
6.970000E+04  9.9595E-08
6.980000E+04  9.9106E-08
6.990000E+04  9.8606E-08
7.000000E+04  9.8110E-08
7.010000E+04  9.7597E-08
7.020000E+04  9.7079E-08
7.030000E+04  9.6565E-08
7.040000E+04  9.6049E-08
7.050000E+04  9.5558E-08
7.060000E+04  9.5078E-08
7.070000E+04  9.4595E-08
7.080000E+04  9.4118E-08
7.090000E+04  9.3635E-08
7.100000E+04  9.3153E-08
7.110000E+04  9.2676E-08
7.120000E+04  9.2202E-08
7.130000E+04  9.1736E-08
7.140000E+04  9.1275E-08
7.150000E+04  9.0820E-08
7.160000E+04  9.0373E-08
7.170000E+04  8.9926E-08
7.180000E+04  8.9481E-08
7.190000E+04  8.9046E-08
7.200000E+04  8.8616E-08
7.210000E+04  8.8194E-08
7.220000E+04  8.7780E-08
7.230000E+04  8.7359E-08
7.240000E+04  8.6938E-08
7.250000E+04  8.6511E-08
7.260000E+04  8.6074E-08
7.270000E+04  8.5637E-08
7.280000E+04  8.5181E-08
7.290000E+04  8.4736E-08
7.300000E+04  8.4343E-08
7.310000E+04  8.3944E-08
7.320000E+04  8.3509E-08
7.330000E+04  8.3077E-08
7.340000E+04  8.2621E-08
7.350000E+04  8.2170E-08
7.360000E+04  8.1754E-08
7.370000E+04  8.1354E-08
7.380000E+04  8.0963E-08
7.390000E+04  8.0561E-08
7.400000E+04  8.0154E-08
7.410000E+04  7.9736E-08
7.420000E+04  7.9322E-08
7.430000E+04  7.8933E-08
7.440000E+04  7.8547E-08
7.450000E+04  7.8222E-08
7.460000E+04  7.7904E-08
7.470000E+04  7.7529E-08
7.480000E+04  7.7133E-08
7.490000E+04  7.6758E-08
7.500000E+04  7.6406E-08
7.510000E+04  7.6044E-08
7.520000E+04  7.5674E-08
7.530000E+04  7.5306E-08
7.540000E+04  7.4941E-08
7.550000E+04  7.4591E-08
7.560000E+04  7.4185E-08
7.570000E+04  7.3760E-08
7.580000E+04  7.3374E-08
7.590000E+04  7.3025E-08
7.600000E+04  7.2678E-08
7.610000E+04  7.2322E-08
7.620000E+04  7.1968E-08
7.630000E+04  7.1605E-08
7.640000E+04  7.1242E-08
7.650000E+04  7.0869E-08
7.660000E+04  7.0487E-08
7.670000E+04  7.0115E-08
7.680000E+04  6.9825E-08
7.690000E+04  6.9538E-08
7.700000E+04  6.9235E-08
7.710000E+04  6.8936E-08
7.720000E+04  6.8628E-08
7.730000E+04  6.8306E-08
7.740000E+04  6.7986E-08
7.750000E+04  6.7651E-08
7.760000E+04  6.7319E-08
7.770000E+04  6.7017E-08
7.780000E+04  6.6735E-08
7.790000E+04  6.6444E-08
7.800000E+04  6.6108E-08
7.810000E+04  6.5774E-08
7.820000E+04  6.5434E-08
7.830000E+04  6.5096E-08
7.840000E+04  6.4768E-08
7.850000E+04  6.4459E-08
7.860000E+04  6.4152E-08
7.870000E+04  6.3851E-08
7.880000E+04  6.3553E-08
7.890000E+04  6.3262E-08
7.900000E+04  6.2984E-08
7.910000E+04  6.2707E-08
7.920000E+04  6.2438E-08
7.930000E+04  6.2170E-08
7.940000E+04  6.1899E-08
7.950000E+04  6.1618E-08
7.960000E+04  6.1339E-08
7.970000E+04  6.1052E-08
7.980000E+04  6.0764E-08
7.990000E+04  6.0477E-08
8.000000E+04  6.0211E-08
8.010000E+04  5.9945E-08
8.020000E+04  5.9649E-08
8.030000E+04  5.9349E-08
8.040000E+04  5.9054E-08
8.050000E+04  5.8784E-08
8.060000E+04  5.8515E-08
8.070000E+04  5.8255E-08
8.080000E+04  5.7997E-08
8.090000E+04  5.7741E-08
8.100000E+04  5.7478E-08
8.110000E+04  5.7209E-08
8.120000E+04  5.6941E-08
8.130000E+04  5.6675E-08
8.140000E+04  5.6411E-08
8.150000E+04  5.6160E-08
8.160000E+04  5.5914E-08
8.170000E+04  5.5669E-08
8.180000E+04  5.5410E-08
8.190000E+04  5.5149E-08
8.200000E+04  5.4886E-08
8.210000E+04  5.4618E-08
8.220000E+04  5.4351E-08
8.230000E+04  5.4100E-08
8.240000E+04  5.3860E-08
8.250000E+04  5.3622E-08
8.260000E+04  5.3382E-08
8.270000E+04  5.3145E-08
8.280000E+04  5.2909E-08
8.290000E+04  5.2677E-08
8.300000E+04  5.2446E-08
8.310000E+04  5.2211E-08
8.320000E+04  5.1974E-08
8.330000E+04  5.1739E-08
8.340000E+04  5.1521E-08
8.350000E+04  5.1315E-08
8.360000E+04  5.1110E-08
8.370000E+04  5.0882E-08
8.380000E+04  5.0653E-08
8.390000E+04  5.0430E-08
8.400000E+04  5.0212E-08
8.410000E+04  4.9995E-08
8.420000E+04  4.9779E-08
8.430000E+04  4.9556E-08
8.440000E+04  4.9334E-08
8.450000E+04  4.9116E-08
8.460000E+04  4.8902E-08
8.470000E+04  4.8692E-08
8.480000E+04  4.8479E-08
8.490000E+04  4.8264E-08
8.500000E+04  4.8051E-08
8.510000E+04  4.7850E-08
8.520000E+04  4.7654E-08
8.530000E+04  4.7459E-08
8.540000E+04  4.7263E-08
8.550000E+04  4.7066E-08
8.560000E+04  4.6871E-08
8.570000E+04  4.6671E-08
8.580000E+04  4.6473E-08
8.590000E+04  4.6275E-08
8.600000E+04  4.6079E-08
8.610000E+04  4.5884E-08
8.620000E+04  4.5690E-08
8.630000E+04  4.5498E-08
8.640000E+04  4.5307E-08
8.650000E+04  4.5117E-08
8.660000E+04  4.4923E-08
8.670000E+04  4.4729E-08
8.680000E+04  4.4537E-08
8.690000E+04  4.4351E-08
8.700000E+04  4.4167E-08
8.710000E+04  4.3984E-08
8.720000E+04  4.3807E-08
8.730000E+04  4.3632E-08
8.740000E+04  4.3458E-08
8.750000E+04  4.3285E-08
8.760000E+04  4.3113E-08
8.770000E+04  4.2941E-08
8.780000E+04  4.2777E-08
8.790000E+04  4.2613E-08
8.800000E+04  4.2450E-08
8.810000E+04  4.2289E-08
8.820000E+04  4.2129E-08
8.830000E+04  4.1973E-08
8.840000E+04  4.1804E-08
8.850000E+04  4.1625E-08
8.860000E+04  4.1448E-08
8.870000E+04  4.1277E-08
8.880000E+04  4.1117E-08
8.890000E+04  4.0957E-08
8.900000E+04  4.0793E-08
8.910000E+04  4.0619E-08
8.920000E+04  4.0446E-08
8.930000E+04  4.0275E-08
8.940000E+04  4.0107E-08
8.950000E+04  3.9934E-08
8.960000E+04  3.9762E-08
8.970000E+04  3.9593E-08
8.980000E+04  3.9425E-08
8.990000E+04  3.9266E-08
9.000000E+04  3.9116E-08
9.010000E+04  3.8970E-08
9.020000E+04  3.8825E-08
9.030000E+04  3.8663E-08
9.040000E+04  3.8487E-08
9.050000E+04  3.8313E-08
9.060000E+04  3.8143E-08
9.070000E+04  3.7981E-08
9.080000E+04  3.7820E-08
9.090000E+04  3.7660E-08
9.100000E+04  3.7494E-08
9.110000E+04  3.7335E-08
9.120000E+04  3.7177E-08
9.130000E+04  3.7023E-08
9.140000E+04  3.6872E-08
9.150000E+04  3.6718E-08
9.160000E+04  3.6566E-08
9.170000E+04  3.6420E-08
9.180000E+04  3.6275E-08
9.190000E+04  3.6132E-08
9.200000E+04  3.6000E-08
9.210000E+04  3.5871E-08
9.220000E+04  3.5742E-08
9.230000E+04  3.5615E-08
9.240000E+04  3.5496E-08
9.250000E+04  3.5376E-08
9.260000E+04  3.5257E-08
9.270000E+04  3.5129E-08
9.280000E+04  3.5002E-08
9.290000E+04  3.4875E-08
9.300000E+04  3.4733E-08
9.310000E+04  3.4580E-08
9.320000E+04  3.4428E-08
9.330000E+04  3.4278E-08
9.340000E+04  3.4133E-08
9.350000E+04  3.3991E-08
9.360000E+04  3.3849E-08
9.370000E+04  3.3710E-08
9.380000E+04  3.3574E-08
9.390000E+04  3.3439E-08
9.400000E+04  3.3304E-08
9.410000E+04  3.3165E-08
9.420000E+04  3.3027E-08
9.430000E+04  3.2889E-08
9.440000E+04  3.2760E-08
9.450000E+04  3.2639E-08
9.460000E+04  3.2517E-08
9.470000E+04  3.2399E-08
9.480000E+04  3.2293E-08
9.490000E+04  3.2188E-08
9.500000E+04  3.2084E-08
9.510000E+04  3.1972E-08
9.520000E+04  3.1849E-08
9.530000E+04  3.1726E-08
9.540000E+04  3.1604E-08
9.550000E+04  3.1477E-08
9.560000E+04  3.1349E-08
9.570000E+04  3.1222E-08
9.580000E+04  3.1097E-08
9.590000E+04  3.0984E-08
9.600000E+04  3.0871E-08
9.610000E+04  3.0758E-08
9.620000E+04  3.0640E-08
9.630000E+04  3.0515E-08
9.640000E+04  3.0390E-08
9.650000E+04  3.0265E-08
9.660000E+04  3.0133E-08
9.670000E+04  2.9999E-08
9.680000E+04  2.9865E-08
9.690000E+04  2.9733E-08
9.700000E+04  2.9636E-08
9.710000E+04  2.9536E-08
9.720000E+04  2.9436E-08
9.730000E+04  2.9336E-08
9.740000E+04  2.9236E-08
9.750000E+04  2.9143E-08
9.760000E+04  2.9050E-08
9.770000E+04  2.8950E-08
9.780000E+04  2.8840E-08
9.790000E+04  2.8730E-08
9.800000E+04  2.8620E-08
9.810000E+04  2.8515E-08
9.820000E+04  2.8414E-08
9.830000E+04  2.8310E-08
9.840000E+04  2.8206E-08
9.850000E+04  2.8112E-08
9.860000E+04  2.8022E-08
9.870000E+04  2.7932E-08
9.880000E+04  2.7844E-08
9.890000E+04  2.7737E-08
9.900000E+04  2.7628E-08
9.910000E+04  2.7518E-08
9.920000E+04  2.7409E-08
9.930000E+04  2.7293E-08
9.940000E+04  2.7176E-08
9.950000E+04  2.7062E-08
9.960000E+04  2.6949E-08
9.970000E+04  2.6837E-08
9.980000E+04  2.6726E-08
9.990000E+04  2.6614E-08
1.000000E+05  2.6503E-08
1.002000E+05  2.6296E-08
1.050000E+05  2.2025E-08
1.100000E+05  1.8329E-08
1.130000E+05  1.6549E-08
1.160000E+05  1.4861E-08
1.200000E+05  1.3025E-08
1.250000E+05  1.1337E-08
1.300000E+05  9.7284E-09
1.350000E+05  8.3970E-09
1.400000E+05  7.2872E-09
1.450000E+05  6.3560E-09
1.500000E+05  5.5698E-09
1.600000E+05  4.3324E-09
1.700000E+05  3.4221E-09
1.800000E+05  2.7402E-09
1.900000E+05  2.2209E-09
2.000000E+05  1.8197E-09
2.200000E+05  1.2511E-09
2.300000E+05  1.0506E-09
2.400000E+05  8.8874E-10
2.500000E+05  7.5699E-10
2.600000E+05  6.4885E-10
2.700000E+05  5.5940E-10
2.800000E+05  4.8490E-10
3.000000E+05  3.6973E-10
3.500000E+05  2.0174E-10
4.000000E+05  1.1937E-10
4.500000E+05  7.4840E-11
5.000000E+05  4.9291E-11
5.500000E+05  3.3783E-11
6.000000E+05  2.3929E-11
6.500000E+05  1.7405E-11
7.000000E+05  1.2963E-11
7.500000E+05  9.8523E-12
8.000000E+05  7.6222E-12
8.500000E+05  5.9866E-12
9.000000E+05  4.7674E-12
9.500000E+05  3.8435E-12
1.000000E+06  3.1331E-12
1.050000E+06  2.5791E-12
1.100000E+06  2.1423E-12
1.200000E+06  1.5141E-12
1.300000E+06  1.1000E-12
1.400000E+06  8.1833E-13
1.500000E+06  6.2121E-13
1.600000E+06  4.8004E-13
2.000000E+06  1.9648E-13
2.500000E+06  8.0479E-14
3.000000E+06  3.8811E-14
4.000000E+06  1.2280E-14
5.000000E+06  5.0300E-15
7.000000E+06  1.3093E-15
1.000000E+07  3.1437E-16
1.500000E+07  6.2098E-17
2.250000E+07  1.2266E-17
3.350000E+07  2.4961E-18
5.000000E+07  5.0300E-19
7.400000E+07  1.0484E-19
1.100000E+08  2.1472E-20
1.300000E+08  1.1007E-20
1.600000E+08  4.7969E-21
2.400000E+08  9.4754E-22
3.600000E+08  1.8717E-22
