# Input file name  = bc2003_lr_BaSeL_m72_chab_ssp.ised
# Output file name = spec_BC16_basel_chab_Zm72_age10.75Gyr.dat
# Record         184
# Column           2
# SED(Lo/A)       at    
# Lambda(A)    1.075E+10
9.100000E+01  4.5292E-10
9.400000E+01  7.2391E-10
9.600000E+01  9.6705E-10
9.800000E+01  1.3297E-09
1.000000E+02  1.8163E-09
1.020000E+02  2.3608E-09
1.040000E+02  2.7901E-09
1.060000E+02  3.3822E-09
1.080000E+02  4.1695E-09
1.100000E+02  5.7372E-09
1.140000E+02  7.9470E-09
1.180000E+02  9.9101E-09
1.210000E+02  3.8564E-08
1.250000E+02  4.5383E-08
1.270000E+02  4.8390E-08
1.280000E+02  5.0039E-08
1.310000E+02  5.3883E-08
1.320000E+02  6.3275E-08
1.340000E+02  6.6064E-08
1.370000E+02  8.1193E-08
1.400000E+02  8.6172E-08
1.430000E+02  2.2483E-07
1.470000E+02  5.3610E-07
1.500000E+02  5.5494E-07
1.510000E+02  5.6184E-07
1.550000E+02  5.9116E-07
1.590000E+02  6.3215E-07
1.620000E+02  6.6144E-07
1.660000E+02  6.9466E-07
1.700000E+02  7.2751E-07
1.730000E+02  7.5528E-07
1.770000E+02  7.8571E-07
1.800000E+02  8.0417E-07
1.820000E+02  8.1979E-07
1.860000E+02  8.5081E-07
1.910000E+02  8.8512E-07
1.940000E+02  9.1535E-07
1.980000E+02  9.4202E-07
2.000000E+02  9.5383E-07
2.020000E+02  9.6979E-07
2.050000E+02  9.8962E-07
2.100000E+02  9.9506E-07
2.160000E+02  1.0651E-06
2.200000E+02  1.0947E-06
2.230000E+02  1.1006E-06
2.270000E+02  1.1355E-06
2.300000E+02  1.7760E-06
2.340000E+02  2.6940E-06
2.400000E+02  3.7854E-06
2.460000E+02  3.3257E-06
2.520000E+02  3.6712E-06
2.570000E+02  2.9157E-06
2.600000E+02  3.5182E-06
2.640000E+02  3.6484E-06
2.690000E+02  3.5936E-06
2.740000E+02  3.5140E-06
2.790000E+02  3.4639E-06
2.840000E+02  3.4002E-06
2.900000E+02  3.2716E-06
2.960000E+02  3.1884E-06
3.000000E+02  3.1076E-06
3.010000E+02  3.0236E-06
3.080000E+02  3.0439E-06
3.180000E+02  3.0474E-06
3.280000E+02  2.9551E-06
3.380000E+02  2.8434E-06
3.480000E+02  2.7239E-06
3.570000E+02  2.6537E-06
3.660000E+02  2.6288E-06
3.750000E+02  2.5242E-06
3.850000E+02  2.3610E-06
3.950000E+02  2.3841E-06
4.000000E+02  2.3698E-06
4.050000E+02  2.3727E-06
4.140000E+02  2.2897E-06
4.220000E+02  2.1751E-06
4.300000E+02  2.1003E-06
4.410000E+02  2.0623E-06
4.510000E+02  1.9881E-06
4.600000E+02  1.8700E-06
4.700000E+02  1.8110E-06
4.800000E+02  1.7924E-06
4.900000E+02  1.6561E-06
5.000000E+02  1.6823E-06
5.060000E+02  1.5695E-06
5.120000E+02  1.7329E-06
5.200000E+02  1.6733E-06
5.300000E+02  1.5792E-06
5.400000E+02  1.4449E-06
5.500000E+02  1.3860E-06
5.600000E+02  1.4388E-06
5.700000E+02  1.4728E-06
5.800000E+02  1.4112E-06
5.900000E+02  1.3779E-06
6.000000E+02  1.2312E-06
6.100000E+02  1.0545E-06
6.200000E+02  1.2617E-06
6.300000E+02  1.1917E-06
6.400000E+02  1.2084E-06
6.500000E+02  1.1502E-06
6.580000E+02  1.0756E-06
6.650000E+02  1.1188E-06
6.750000E+02  1.1189E-06
6.850000E+02  9.9464E-07
6.950000E+02  1.0516E-06
7.000000E+02  9.7630E-07
7.050000E+02  9.1170E-07
7.160000E+02  1.0099E-06
7.260000E+02  9.8803E-07
7.350000E+02  9.6644E-07
7.450000E+02  9.2035E-07
7.550000E+02  8.9390E-07
7.650000E+02  7.4930E-07
7.750000E+02  8.4862E-07
7.850000E+02  7.8033E-07
7.950000E+02  7.9769E-07
8.000000E+02  7.9359E-07
8.050000E+02  7.9156E-07
8.150000E+02  7.7284E-07
8.250000E+02  7.6151E-07
8.350000E+02  6.3774E-07
8.450000E+02  7.1460E-07
8.550000E+02  6.8939E-07
8.650000E+02  6.8859E-07
8.750000E+02  6.7606E-07
8.850000E+02  6.6166E-07
8.950000E+02  6.4705E-07
9.000000E+02  6.3451E-07
9.050000E+02  6.2226E-07
9.150000E+02  5.9588E-07
9.250000E+02  9.6444E-07
9.350000E+02  1.3274E-06
9.450000E+02  1.5779E-06
9.550000E+02  1.7262E-06
9.650000E+02  1.7170E-06
9.750000E+02  9.1066E-07
9.850000E+02  1.2877E-06
9.950000E+02  1.2644E-06
1.000000E+03  1.3748E-06
1.005000E+03  1.5129E-06
1.015000E+03  1.5760E-06
1.025000E+03  1.1611E-06
1.035000E+03  1.3950E-06
1.045000E+03  1.7771E-06
1.055000E+03  1.6837E-06
1.065000E+03  1.3943E-06
1.075000E+03  1.5021E-06
1.085000E+03  1.2165E-06
1.095000E+03  1.5135E-06
1.100000E+03  1.4664E-06
1.105000E+03  1.4234E-06
1.115000E+03  1.3635E-06
1.125000E+03  1.1652E-06
1.135000E+03  1.3904E-06
1.145000E+03  1.3310E-06
1.155000E+03  1.3116E-06
1.165000E+03  1.2497E-06
1.175000E+03  8.4062E-07
1.185000E+03  1.1654E-06
1.195000E+03  1.0148E-06
1.200000E+03  9.2429E-07
1.205000E+03  8.5887E-07
1.215000E+03  7.3098E-07
1.225000E+03  1.0230E-06
1.235000E+03  1.1738E-06
1.245000E+03  1.1769E-06
1.255000E+03  1.1267E-06
1.265000E+03  1.0978E-06
1.275000E+03  1.2016E-06
1.285000E+03  1.2123E-06
1.295000E+03  9.9782E-07
1.300000E+03  1.0018E-06
1.305000E+03  1.0078E-06
1.315000E+03  1.1619E-06
1.325000E+03  1.0972E-06
1.335000E+03  9.9507E-07
1.345000E+03  1.1047E-06
1.355000E+03  1.0686E-06
1.365000E+03  9.7029E-07
1.375000E+03  9.5864E-07
1.385000E+03  9.3214E-07
1.395000E+03  6.8391E-07
1.400000E+03  6.7463E-07
1.405000E+03  6.6824E-07
1.415000E+03  8.5063E-07
1.425000E+03  8.3314E-07
1.435000E+03  8.6412E-07
1.442000E+03  8.7016E-07
1.447000E+03  8.6924E-07
1.455000E+03  8.3050E-07
1.465000E+03  7.7299E-07
1.475000E+03  7.8808E-07
1.485000E+03  7.9446E-07
1.495000E+03  7.7880E-07
1.500000E+03  7.5289E-07
1.505000E+03  7.2760E-07
1.512000E+03  6.6352E-07
1.517000E+03  6.8963E-07
1.525000E+03  6.7984E-07
1.535000E+03  5.7591E-07
1.545000E+03  5.2075E-07
1.555000E+03  5.2069E-07
1.565000E+03  5.7675E-07
1.575000E+03  6.0851E-07
1.585000E+03  6.2857E-07
1.595000E+03  6.2407E-07
1.600000E+03  6.1911E-07
1.605000E+03  6.1464E-07
1.615000E+03  6.0499E-07
1.625000E+03  5.8808E-07
1.635000E+03  6.1949E-07
1.645000E+03  6.1835E-07
1.655000E+03  5.9558E-07
1.665000E+03  6.1661E-07
1.672000E+03  5.5603E-07
1.677000E+03  6.3625E-07
1.685000E+03  6.3689E-07
1.695000E+03  6.0188E-07
1.700000E+03  5.9341E-07
1.705000E+03  5.8513E-07
1.715000E+03  5.4322E-07
1.725000E+03  5.3374E-07
1.735000E+03  5.6318E-07
1.745000E+03  5.5113E-07
1.755000E+03  5.6630E-07
1.765000E+03  5.3868E-07
1.775000E+03  5.1916E-07
1.785000E+03  5.3311E-07
1.795000E+03  5.5025E-07
1.800000E+03  5.5101E-07
1.805000E+03  5.5181E-07
1.815000E+03  4.9736E-07
1.825000E+03  5.0939E-07
1.835000E+03  4.9334E-07
1.845000E+03  4.5491E-07
1.855000E+03  4.4399E-07
1.865000E+03  4.5373E-07
1.875000E+03  4.8792E-07
1.885000E+03  4.4133E-07
1.895000E+03  4.1895E-07
1.900000E+03  4.3513E-07
1.905000E+03  4.5244E-07
1.915000E+03  4.2005E-07
1.925000E+03  4.0460E-07
1.935000E+03  4.3303E-07
1.945000E+03  4.3840E-07
1.955000E+03  3.9727E-07
1.967000E+03  4.3670E-07
1.976000E+03  4.4784E-07
1.984000E+03  4.2276E-07
1.995000E+03  4.0983E-07
2.000000E+03  4.1908E-07
2.005000E+03  4.3119E-07
2.015000E+03  4.1636E-07
2.025000E+03  4.3228E-07
2.035000E+03  3.9803E-07
2.045000E+03  4.1004E-07
2.055000E+03  3.6485E-07
2.065000E+03  3.7159E-07
2.074000E+03  4.1657E-07
2.078000E+03  3.8271E-07
2.085000E+03  4.0340E-07
2.095000E+03  3.8060E-07
2.100000E+03  3.8346E-07
2.105000E+03  3.8647E-07
2.115000E+03  3.9253E-07
2.125000E+03  3.9075E-07
2.135000E+03  3.7556E-07
2.145000E+03  3.7060E-07
2.155000E+03  3.8337E-07
2.165000E+03  3.7411E-07
2.175000E+03  3.7229E-07
2.185000E+03  3.5895E-07
2.195000E+03  3.7310E-07
2.200000E+03  3.6975E-07
2.205000E+03  3.6649E-07
2.215000E+03  3.4977E-07
2.225000E+03  3.4254E-07
2.235000E+03  3.5414E-07
2.245000E+03  3.4688E-07
2.255000E+03  3.3072E-07
2.265000E+03  3.3510E-07
2.275000E+03  3.3869E-07
2.285000E+03  3.4481E-07
2.295000E+03  3.1964E-07
2.300000E+03  3.2221E-07
2.305000E+03  3.2520E-07
2.315000E+03  3.1171E-07
2.325000E+03  2.5737E-07
2.335000E+03  2.9694E-07
2.345000E+03  2.9002E-07
2.355000E+03  3.0226E-07
2.365000E+03  2.8556E-07
2.375000E+03  2.8757E-07
2.385000E+03  2.7160E-07
2.395000E+03  2.8335E-07
2.400000E+03  2.8036E-07
2.405000E+03  2.7764E-07
2.415000E+03  2.7815E-07
2.425000E+03  2.9392E-07
2.435000E+03  2.8777E-07
2.445000E+03  3.0299E-07
2.455000E+03  3.0308E-07
2.465000E+03  2.9034E-07
2.475000E+03  2.8178E-07
2.485000E+03  2.6131E-07
2.495000E+03  2.3265E-07
2.500000E+03  2.5578E-07
2.505000E+03  2.8291E-07
2.513000E+03  2.4709E-07
2.518000E+03  2.5212E-07
2.525000E+03  2.4769E-07
2.535000E+03  2.7089E-07
2.545000E+03  2.6615E-07
2.555000E+03  3.2594E-07
2.565000E+03  2.9262E-07
2.575000E+03  3.2721E-07
2.585000E+03  3.1608E-07
2.595000E+03  3.1061E-07
2.600000E+03  3.0742E-07
2.605000E+03  3.0452E-07
2.615000E+03  2.9208E-07
2.625000E+03  3.2567E-07
2.635000E+03  4.2850E-07
2.645000E+03  4.8079E-07
2.655000E+03  6.9691E-07
2.665000E+03  4.4792E-07
2.675000E+03  4.7488E-07
2.685000E+03  5.5690E-07
2.695000E+03  4.1730E-07
2.700000E+03  4.6485E-07
2.705000E+03  5.2371E-07
2.715000E+03  4.1230E-07
2.725000E+03  3.2917E-07
2.735000E+03  3.8587E-07
2.745000E+03  3.2073E-07
2.755000E+03  3.6753E-07
2.765000E+03  4.3328E-07
2.775000E+03  4.6316E-07
2.785000E+03  3.5957E-07
2.795000E+03  2.5311E-07
2.800000E+03  2.6471E-07
2.805000E+03  2.7770E-07
2.815000E+03  4.3683E-07
2.825000E+03  5.1800E-07
2.835000E+03  4.6089E-07
2.845000E+03  3.4268E-07
2.855000E+03  2.5312E-07
2.865000E+03  4.2918E-07
2.875000E+03  6.2696E-07
2.885000E+03  6.2827E-07
2.895000E+03  8.2696E-07
2.900000E+03  9.3498E-07
2.910000E+03  1.2091E-06
2.930000E+03  1.0407E-06
2.950000E+03  9.2365E-07
2.970000E+03  9.4539E-07
2.990000E+03  9.4795E-07
3.000000E+03  9.0962E-07
3.010000E+03  8.7369E-07
3.030000E+03  1.0371E-06
3.050000E+03  1.0548E-06
3.070000E+03  1.3443E-06
3.090000E+03  1.3028E-06
3.100000E+03  1.4981E-06
3.110000E+03  1.7344E-06
3.130000E+03  1.5314E-06
3.150000E+03  1.6563E-06
3.170000E+03  1.8854E-06
3.190000E+03  1.5254E-06
3.200000E+03  1.5916E-06
3.210000E+03  1.6619E-06
3.230000E+03  1.3867E-06
3.250000E+03  2.1715E-06
3.270000E+03  2.6539E-06
3.290000E+03  2.6598E-06
3.300000E+03  2.5142E-06
3.310000E+03  2.3793E-06
3.330000E+03  2.5234E-06
3.350000E+03  2.4347E-06
3.370000E+03  1.6856E-06
3.390000E+03  1.9356E-06
3.400000E+03  1.9571E-06
3.410000E+03  1.9799E-06
3.430000E+03  2.0535E-06
3.450000E+03  2.1954E-06
3.470000E+03  2.3064E-06
3.490000E+03  2.7691E-06
3.500000E+03  2.8961E-06
3.510000E+03  3.0331E-06
3.530000E+03  2.5448E-06
3.550000E+03  2.9537E-06
3.570000E+03  1.6647E-06
3.590000E+03  1.8678E-06
3.600000E+03  2.2245E-06
3.610000E+03  2.6623E-06
3.630000E+03  3.0333E-06
3.640000E+03  3.1650E-06
3.650000E+03  3.8120E-06
3.670000E+03  4.2924E-06
3.690000E+03  3.5649E-06
3.700000E+03  3.6287E-06
3.710000E+03  3.7167E-06
3.730000E+03  2.0051E-06
3.750000E+03  2.3462E-06
3.770000E+03  3.4087E-06
3.790000E+03  3.4659E-06
3.800000E+03  3.1958E-06
3.810000E+03  2.9522E-06
3.830000E+03  1.4770E-06
3.850000E+03  1.9627E-06
3.870000E+03  2.0329E-06
3.890000E+03  3.1903E-06
3.900000E+03  3.6452E-06
3.910000E+03  4.1740E-06
3.930000E+03  1.9837E-06
3.950000E+03  3.4829E-06
3.970000E+03  2.4253E-06
3.990000E+03  6.0260E-06
4.000000E+03  6.4828E-06
4.010000E+03  6.9944E-06
4.030000E+03  6.8079E-06
4.050000E+03  6.4236E-06
4.070000E+03  5.7313E-06
4.090000E+03  7.9941E-06
4.100000E+03  7.6482E-06
4.110000E+03  7.3595E-06
4.130000E+03  6.6884E-06
4.150000E+03  6.3747E-06
4.170000E+03  6.6354E-06
4.190000E+03  6.5616E-06
4.200000E+03  6.6928E-06
4.210000E+03  6.8482E-06
4.230000E+03  6.2592E-06
4.250000E+03  7.3840E-06
4.270000E+03  6.8312E-06
4.290000E+03  6.3741E-06
4.300000E+03  6.0356E-06
4.310000E+03  5.7422E-06
4.330000E+03  8.6818E-06
4.350000E+03  8.9513E-06
4.370000E+03  9.7609E-06
4.390000E+03  8.1161E-06
4.400000E+03  8.3561E-06
4.410000E+03  8.6101E-06
4.430000E+03  9.4246E-06
4.450000E+03  9.6360E-06
4.470000E+03  1.0614E-05
4.490000E+03  1.0971E-05
4.500000E+03  1.2064E-05
4.510000E+03  1.3276E-05
4.530000E+03  1.0865E-05
4.550000E+03  1.1647E-05
4.570000E+03  1.2931E-05
4.590000E+03  1.2116E-05
4.600000E+03  1.2211E-05
4.610000E+03  1.2308E-05
4.630000E+03  1.1861E-05
4.650000E+03  1.2039E-05
4.670000E+03  1.2955E-05
4.690000E+03  1.2648E-05
4.700000E+03  1.2389E-05
4.710000E+03  1.2142E-05
4.730000E+03  1.2742E-05
4.750000E+03  1.3241E-05
4.770000E+03  1.2951E-05
4.790000E+03  1.2995E-05
4.800000E+03  1.3034E-05
4.810000E+03  1.3078E-05
4.830000E+03  1.3763E-05
4.850000E+03  1.2926E-05
4.870000E+03  1.1702E-05
4.890000E+03  1.3147E-05
4.900000E+03  1.3170E-05
4.910000E+03  1.3198E-05
4.930000E+03  1.2837E-05
4.950000E+03  1.3517E-05
4.970000E+03  1.2803E-05
4.990000E+03  1.1615E-05
5.000000E+03  1.1146E-05
5.010000E+03  1.0700E-05
5.030000E+03  1.1716E-05
5.050000E+03  1.1702E-05
5.070000E+03  1.2454E-05
5.090000E+03  1.1511E-05
5.100000E+03  1.1771E-05
5.110000E+03  1.2045E-05
5.130000E+03  1.1508E-05
5.150000E+03  1.0848E-05
5.170000E+03  9.0809E-06
5.190000E+03  9.6780E-06
5.200000E+03  1.0384E-05
5.210000E+03  1.1147E-05
5.230000E+03  1.2667E-05
5.250000E+03  1.3695E-05
5.270000E+03  1.1481E-05
5.290000E+03  1.4132E-05
5.300000E+03  1.4837E-05
5.310000E+03  1.5581E-05
5.330000E+03  1.2820E-05
5.350000E+03  1.4684E-05
5.370000E+03  1.4607E-05
5.390000E+03  1.4102E-05
5.400000E+03  1.4010E-05
5.410000E+03  1.3921E-05
5.430000E+03  1.4149E-05
5.450000E+03  1.4498E-05
5.470000E+03  1.4090E-05
5.490000E+03  1.3988E-05
5.500000E+03  1.3966E-05
5.510000E+03  1.3947E-05
5.530000E+03  1.4811E-05
5.550000E+03  1.5247E-05
5.570000E+03  1.4938E-05
5.590000E+03  1.4097E-05
5.600000E+03  1.4533E-05
5.610000E+03  1.4992E-05
5.630000E+03  1.4752E-05
5.650000E+03  1.5147E-05
5.670000E+03  1.4823E-05
5.690000E+03  1.5573E-05
5.700000E+03  1.5255E-05
5.710000E+03  1.4950E-05
5.730000E+03  1.6812E-05
5.750000E+03  1.5772E-05
5.770000E+03  1.6142E-05
5.790000E+03  1.5205E-05
5.800000E+03  1.5727E-05
5.810000E+03  1.6271E-05
5.830000E+03  1.6992E-05
5.850000E+03  1.6090E-05
5.870000E+03  1.6042E-05
5.890000E+03  1.2206E-05
5.900000E+03  1.3738E-05
5.910000E+03  1.5537E-05
5.930000E+03  1.5934E-05
5.950000E+03  1.5964E-05
5.970000E+03  1.6372E-05
5.990000E+03  1.5998E-05
6.000000E+03  1.5912E-05
6.010000E+03  1.5832E-05
6.030000E+03  1.6587E-05
6.050000E+03  1.7010E-05
6.070000E+03  1.7077E-05
6.090000E+03  1.6183E-05
6.100000E+03  1.6271E-05
6.110000E+03  1.6361E-05
6.130000E+03  1.5006E-05
6.150000E+03  1.5505E-05
6.170000E+03  1.4245E-05
6.190000E+03  1.5601E-05
6.200000E+03  1.5484E-05
6.210000E+03  1.5368E-05
6.230000E+03  1.4658E-05
6.250000E+03  1.4119E-05
6.270000E+03  1.5057E-05
6.290000E+03  1.5641E-05
6.300000E+03  1.5342E-05
6.310000E+03  1.5057E-05
6.330000E+03  1.5444E-05
6.350000E+03  1.5352E-05
6.370000E+03  1.5330E-05
6.390000E+03  1.6113E-05
6.400000E+03  1.5939E-05
6.410000E+03  1.5768E-05
6.430000E+03  1.5892E-05
6.450000E+03  1.5802E-05
6.470000E+03  1.5764E-05
6.490000E+03  1.5467E-05
6.500000E+03  1.5865E-05
6.510000E+03  1.6275E-05
6.530000E+03  1.6218E-05
6.550000E+03  1.5998E-05
6.570000E+03  1.5433E-05
6.590000E+03  1.6004E-05
6.600000E+03  1.6097E-05
6.610000E+03  1.6192E-05
6.630000E+03  1.5791E-05
6.650000E+03  1.5729E-05
6.670000E+03  1.5195E-05
6.690000E+03  1.5485E-05
6.700000E+03  1.5035E-05
6.710000E+03  1.4600E-05
6.730000E+03  1.5221E-05
6.750000E+03  1.4851E-05
6.770000E+03  1.4998E-05
6.790000E+03  1.4700E-05
6.800000E+03  1.4823E-05
6.810000E+03  1.4948E-05
6.830000E+03  1.5240E-05
6.850000E+03  1.4748E-05
6.870000E+03  1.5160E-05
6.890000E+03  1.5518E-05
6.900000E+03  1.5538E-05
6.910000E+03  1.5564E-05
6.930000E+03  1.5406E-05
6.950000E+03  1.5491E-05
6.970000E+03  1.5827E-05
6.990000E+03  1.5751E-05
7.000000E+03  1.5638E-05
7.010000E+03  1.5537E-05
7.030000E+03  1.5913E-05
7.050000E+03  1.5574E-05
7.070000E+03  1.4823E-05
7.090000E+03  1.4166E-05
7.100000E+03  1.3899E-05
7.110000E+03  1.3650E-05
7.130000E+03  1.3174E-05
7.150000E+03  1.3145E-05
7.170000E+03  1.3459E-05
7.190000E+03  1.3132E-05
7.200000E+03  1.3423E-05
7.210000E+03  1.3724E-05
7.230000E+03  1.4184E-05
7.250000E+03  1.4438E-05
7.270000E+03  1.4588E-05
7.290000E+03  1.4418E-05
7.300000E+03  1.4779E-05
7.310000E+03  1.5170E-05
7.330000E+03  1.5193E-05
7.350000E+03  1.5461E-05
7.370000E+03  1.6171E-05
7.390000E+03  1.5672E-05
7.400000E+03  1.5729E-05
7.410000E+03  1.5794E-05
7.430000E+03  1.6302E-05
7.450000E+03  1.6169E-05
7.470000E+03  1.6593E-05
7.490000E+03  1.6558E-05
7.500000E+03  1.6673E-05
7.510000E+03  1.6790E-05
7.530000E+03  1.7333E-05
7.550000E+03  1.7504E-05
7.570000E+03  1.7405E-05
7.590000E+03  1.6471E-05
7.600000E+03  1.6277E-05
7.610000E+03  1.6100E-05
7.630000E+03  1.5778E-05
7.650000E+03  1.5291E-05
7.670000E+03  1.4281E-05
7.690000E+03  1.4828E-05
7.700000E+03  1.4680E-05
7.710000E+03  1.4536E-05
7.730000E+03  1.4537E-05
7.750000E+03  1.4427E-05
7.770000E+03  1.4781E-05
7.790000E+03  1.4859E-05
7.800000E+03  1.4844E-05
7.810000E+03  1.4832E-05
7.830000E+03  1.4838E-05
7.850000E+03  1.4580E-05
7.870000E+03  1.4846E-05
7.890000E+03  1.4667E-05
7.900000E+03  1.4430E-05
7.910000E+03  1.4203E-05
7.930000E+03  1.4282E-05
7.950000E+03  1.4146E-05
7.970000E+03  1.4744E-05
7.990000E+03  1.4694E-05
8.000000E+03  1.4832E-05
8.010000E+03  1.4985E-05
8.030000E+03  1.5122E-05
8.050000E+03  1.5108E-05
8.070000E+03  1.5457E-05
8.090000E+03  1.5386E-05
8.100000E+03  1.5493E-05
8.110000E+03  1.5602E-05
8.130000E+03  1.6357E-05
8.150000E+03  1.6841E-05
8.170000E+03  1.7199E-05
8.190000E+03  1.6072E-05
8.200000E+03  1.6017E-05
8.210000E+03  1.6061E-05
8.230000E+03  1.6166E-05
8.250000E+03  1.6205E-05
8.270000E+03  1.6247E-05
8.290000E+03  1.5998E-05
8.300000E+03  1.5654E-05
8.310000E+03  1.5319E-05
8.330000E+03  1.5127E-05
8.350000E+03  1.5162E-05
8.370000E+03  1.5327E-05
8.390000E+03  1.4657E-05
8.400000E+03  1.5032E-05
8.410000E+03  1.5421E-05
8.430000E+03  1.4641E-05
8.450000E+03  1.4170E-05
8.470000E+03  1.4136E-05
8.490000E+03  1.4160E-05
8.500000E+03  1.3837E-05
8.510000E+03  1.3525E-05
8.530000E+03  1.3918E-05
8.550000E+03  1.2241E-05
8.570000E+03  1.4788E-05
8.590000E+03  1.4558E-05
8.600000E+03  1.4684E-05
8.610000E+03  1.4814E-05
8.630000E+03  1.5146E-05
8.650000E+03  1.4990E-05
8.670000E+03  1.2856E-05
8.690000E+03  1.4603E-05
8.700000E+03  1.5006E-05
8.710000E+03  1.5428E-05
8.730000E+03  1.5629E-05
8.750000E+03  1.5577E-05
8.770000E+03  1.5929E-05
8.790000E+03  1.6312E-05
8.800000E+03  1.6127E-05
8.810000E+03  1.5948E-05
8.830000E+03  1.6094E-05
8.850000E+03  1.6038E-05
8.870000E+03  1.5240E-05
8.890000E+03  1.5344E-05
8.900000E+03  1.5476E-05
8.910000E+03  1.5607E-05
8.930000E+03  1.5340E-05
8.950000E+03  1.5485E-05
8.970000E+03  1.5577E-05
8.990000E+03  1.5578E-05
9.000000E+03  1.5420E-05
9.010000E+03  1.5271E-05
9.030000E+03  1.6114E-05
9.050000E+03  1.6825E-05
9.070000E+03  1.6938E-05
9.090000E+03  1.6740E-05
9.100000E+03  1.6965E-05
9.110000E+03  1.7201E-05
9.130000E+03  1.7613E-05
9.150000E+03  1.7491E-05
9.170000E+03  1.7501E-05
9.190000E+03  1.7829E-05
9.200000E+03  1.7341E-05
9.210000E+03  1.6872E-05
9.230000E+03  1.6112E-05
9.250000E+03  1.5919E-05
9.270000E+03  1.6233E-05
9.290000E+03  1.5768E-05
9.300000E+03  1.5808E-05
9.310000E+03  1.5849E-05
9.330000E+03  1.6037E-05
9.350000E+03  1.5968E-05
9.370000E+03  1.5583E-05
9.390000E+03  1.6016E-05
9.400000E+03  1.5895E-05
9.410000E+03  1.5778E-05
9.430000E+03  1.6337E-05
9.450000E+03  1.6065E-05
9.470000E+03  1.6685E-05
9.490000E+03  1.6759E-05
9.500000E+03  1.6469E-05
9.510000E+03  1.6189E-05
9.530000E+03  1.6477E-05
9.550000E+03  1.6210E-05
9.570000E+03  1.6394E-05
9.590000E+03  1.6715E-05
9.600000E+03  1.6539E-05
9.610000E+03  1.6363E-05
9.630000E+03  1.6561E-05
9.650000E+03  1.6034E-05
9.670000E+03  1.6095E-05
9.690000E+03  1.6464E-05
9.700000E+03  1.6215E-05
9.710000E+03  1.5976E-05
9.730000E+03  1.5702E-05
9.750000E+03  1.5756E-05
9.770000E+03  1.5952E-05
9.790000E+03  1.5639E-05
9.800000E+03  1.6001E-05
9.810000E+03  1.6390E-05
9.830000E+03  1.6161E-05
9.850000E+03  1.6391E-05
9.870000E+03  1.6287E-05
9.890000E+03  1.6310E-05
9.900000E+03  1.6088E-05
9.910000E+03  1.5893E-05
9.930000E+03  1.6236E-05
9.950000E+03  1.6417E-05
9.970000E+03  1.6472E-05
9.990000E+03  1.6450E-05
1.000000E+04  1.6552E-05
1.002500E+04  1.6831E-05
1.007500E+04  1.6655E-05
1.010000E+04  1.6960E-05
1.012500E+04  1.7284E-05
1.017500E+04  1.7152E-05
1.020000E+04  1.7357E-05
1.022500E+04  1.7574E-05
1.027500E+04  1.7883E-05
1.030000E+04  1.7921E-05
1.032500E+04  1.7966E-05
1.037500E+04  1.7920E-05
1.040000E+04  1.8051E-05
1.042500E+04  1.8189E-05
1.047500E+04  1.7527E-05
1.050000E+04  1.7076E-05
1.052500E+04  1.6680E-05
1.057500E+04  1.5813E-05
1.060000E+04  1.5633E-05
1.062500E+04  1.5454E-05
1.067500E+04  1.5642E-05
1.070000E+04  1.5903E-05
1.072500E+04  1.6182E-05
1.077500E+04  1.6367E-05
1.080000E+04  1.6247E-05
1.082500E+04  1.6139E-05
1.087500E+04  1.6138E-05
1.090000E+04  1.6129E-05
1.092500E+04  1.6118E-05
1.097500E+04  1.5809E-05
1.100000E+04  1.5586E-05
1.102500E+04  1.5384E-05
1.107500E+04  1.4698E-05
1.110000E+04  1.4769E-05
1.112500E+04  1.4843E-05
1.117500E+04  1.4849E-05
1.120000E+04  1.4908E-05
1.122500E+04  1.4971E-05
1.127500E+04  1.4958E-05
1.130000E+04  1.5001E-05
1.132500E+04  1.5046E-05
1.137500E+04  1.4919E-05
1.140000E+04  1.4870E-05
1.142500E+04  1.4814E-05
1.147500E+04  1.5290E-05
1.150000E+04  1.5349E-05
1.152500E+04  1.5405E-05
1.157500E+04  1.5240E-05
1.160000E+04  1.5092E-05
1.162500E+04  1.4945E-05
1.167500E+04  1.5027E-05
1.170000E+04  1.4997E-05
1.172500E+04  1.4982E-05
1.177500E+04  1.4231E-05
1.180000E+04  1.4063E-05
1.182500E+04  1.3909E-05
1.187500E+04  1.3432E-05
1.190000E+04  1.3609E-05
1.192500E+04  1.3784E-05
1.197500E+04  1.3239E-05
1.200000E+04  1.3540E-05
1.202500E+04  1.3850E-05
1.207500E+04  1.3924E-05
1.210000E+04  1.3996E-05
1.212500E+04  1.4081E-05
1.217500E+04  1.4212E-05
1.220000E+04  1.4202E-05
1.222500E+04  1.4187E-05
1.227500E+04  1.4118E-05
1.230000E+04  1.4075E-05
1.232500E+04  1.4024E-05
1.237500E+04  1.4023E-05
1.240000E+04  1.3752E-05
1.242500E+04  1.3486E-05
1.247500E+04  1.3400E-05
1.250000E+04  1.3354E-05
1.252500E+04  1.3308E-05
1.257500E+04  1.3262E-05
1.260000E+04  1.3219E-05
1.262500E+04  1.3168E-05
1.267500E+04  1.3096E-05
1.270000E+04  1.3132E-05
1.272500E+04  1.3163E-05
1.277500E+04  1.3207E-05
1.280000E+04  1.2972E-05
1.282500E+04  1.2748E-05
1.287500E+04  1.3045E-05
1.290000E+04  1.2965E-05
1.292500E+04  1.2882E-05
1.297500E+04  1.3131E-05
1.300000E+04  1.3078E-05
1.302500E+04  1.3026E-05
1.307500E+04  1.3030E-05
1.310000E+04  1.2774E-05
1.312500E+04  1.2533E-05
1.317500E+04  1.2561E-05
1.320000E+04  1.2536E-05
1.322500E+04  1.2507E-05
1.327500E+04  1.2182E-05
1.330000E+04  1.2133E-05
1.332500E+04  1.2088E-05
1.337500E+04  1.1943E-05
1.340000E+04  1.1916E-05
1.342500E+04  1.1885E-05
1.347500E+04  1.1690E-05
1.350000E+04  1.1612E-05
1.352500E+04  1.1536E-05
1.357500E+04  1.1255E-05
1.360000E+04  1.1202E-05
1.362500E+04  1.1142E-05
1.367500E+04  1.1315E-05
1.370000E+04  1.1368E-05
1.372500E+04  1.1419E-05
1.377500E+04  1.1417E-05
1.380000E+04  1.1424E-05
1.382500E+04  1.1430E-05
1.387500E+04  1.1246E-05
1.390000E+04  1.0682E-05
1.392500E+04  1.0220E-05
1.397500E+04  1.0057E-05
1.400000E+04  9.9950E-06
1.402500E+04  9.9326E-06
1.407500E+04  1.0028E-05
1.410000E+04  9.9533E-06
1.412500E+04  9.8810E-06
1.417500E+04  9.9911E-06
1.420000E+04  9.9284E-06
1.422500E+04  9.8727E-06
1.427500E+04  9.6899E-06
1.430000E+04  9.8325E-06
1.432500E+04  9.9874E-06
1.437500E+04  1.0081E-05
1.440000E+04  9.9725E-06
1.442500E+04  9.8594E-06
1.447500E+04  1.0106E-05
1.450000E+04  1.0060E-05
1.452500E+04  1.0014E-05
1.457000E+04  1.0126E-05
1.460000E+04  9.8968E-06
1.462000E+04  9.7511E-06
1.467500E+04  9.6597E-06
1.470000E+04  9.6234E-06
1.472500E+04  9.5988E-06
1.477500E+04  9.7112E-06
1.480000E+04  9.7625E-06
1.482500E+04  9.8205E-06
1.487500E+04  9.7749E-06
1.490000E+04  9.9486E-06
1.492500E+04  1.0135E-05
1.497500E+04  1.0089E-05
1.500000E+04  9.9660E-06
1.502500E+04  9.8479E-06
1.507500E+04  1.0070E-05
1.510000E+04  1.0203E-05
1.512500E+04  1.0334E-05
1.517500E+04  1.0425E-05
1.520000E+04  1.0447E-05
1.522500E+04  1.0458E-05
1.527500E+04  1.0625E-05
1.530000E+04  1.0620E-05
1.532500E+04  1.0619E-05
1.537500E+04  1.0580E-05
1.540000E+04  1.0542E-05
1.542500E+04  1.0501E-05
1.547500E+04  1.0536E-05
1.550000E+04  1.0514E-05
1.552500E+04  1.0492E-05
1.557500E+04  1.0162E-05
1.560000E+04  1.0124E-05
1.562500E+04  1.0086E-05
1.567500E+04  1.0171E-05
1.570000E+04  1.0319E-05
1.572500E+04  1.0471E-05
1.577500E+04  9.7557E-06
1.580000E+04  9.6716E-06
1.582500E+04  9.6075E-06
1.587500E+04  9.7579E-06
1.590000E+04  9.9837E-06
1.592500E+04  1.0209E-05
1.597500E+04  9.9383E-06
1.600000E+04  9.8917E-06
1.605000E+04  9.8040E-06
1.610000E+04  9.9996E-06
1.615000E+04  1.0214E-05
1.620000E+04  9.9702E-06
1.625000E+04  9.7372E-06
1.630000E+04  1.0026E-05
1.635000E+04  1.0329E-05
1.640000E+04  1.0056E-05
1.645000E+04  9.7914E-06
1.650000E+04  1.0050E-05
1.655000E+04  1.0320E-05
1.660000E+04  1.0216E-05
1.665000E+04  1.0100E-05
1.670000E+04  1.0149E-05
1.675000E+04  1.0197E-05
1.680000E+04  1.0206E-05
1.685000E+04  1.0233E-05
1.690000E+04  1.0265E-05
1.695000E+04  1.0293E-05
1.700000E+04  1.0275E-05
1.705000E+04  1.0257E-05
1.710000E+04  1.0128E-05
1.715000E+04  9.9965E-06
1.720000E+04  9.9389E-06
1.725000E+04  9.8842E-06
1.730000E+04  9.7149E-06
1.735000E+04  9.5505E-06
1.740000E+04  9.4264E-06
1.745000E+04  9.3057E-06
1.750000E+04  9.1795E-06
1.755000E+04  9.0713E-06
1.760000E+04  8.8942E-06
1.765000E+04  8.7189E-06
1.770000E+04  8.5196E-06
1.775000E+04  8.3398E-06
1.780000E+04  8.2065E-06
1.785000E+04  8.0854E-06
1.790000E+04  7.8786E-06
1.795000E+04  7.6988E-06
1.800000E+04  7.5624E-06
1.805000E+04  7.4051E-06
1.810000E+04  7.3433E-06
1.815000E+04  7.2721E-06
1.820000E+04  7.2062E-06
1.825000E+04  7.1293E-06
1.830000E+04  7.0678E-06
1.835000E+04  7.0045E-06
1.840000E+04  6.8974E-06
1.845000E+04  6.8110E-06
1.850000E+04  6.7634E-06
1.855000E+04  6.6976E-06
1.860000E+04  6.5637E-06
1.865000E+04  6.4318E-06
1.870000E+04  6.3885E-06
1.875000E+04  6.3177E-06
1.880000E+04  6.3029E-06
1.885000E+04  6.2876E-06
1.890000E+04  6.1966E-06
1.895000E+04  6.1202E-06
1.900000E+04  6.1866E-06
1.905000E+04  6.2515E-06
1.910000E+04  6.1992E-06
1.915000E+04  6.1507E-06
1.920000E+04  6.1382E-06
1.925000E+04  6.1303E-06
1.930000E+04  6.0634E-06
1.935000E+04  5.9926E-06
1.940000E+04  5.9239E-06
1.945000E+04  5.8646E-06
1.950000E+04  5.8395E-06
1.955000E+04  5.8143E-06
1.960000E+04  5.7519E-06
1.965000E+04  5.6822E-06
1.970000E+04  5.5798E-06
1.975000E+04  5.4695E-06
1.980000E+04  5.4242E-06
1.985000E+04  5.3860E-06
1.990000E+04  5.3727E-06
1.995000E+04  5.3538E-06
2.000000E+04  5.3556E-06
2.005000E+04  5.3712E-06
2.010000E+04  5.3509E-06
2.015000E+04  5.3274E-06
2.020000E+04  5.2731E-06
2.025000E+04  5.2182E-06
2.030000E+04  5.2091E-06
2.035000E+04  5.2051E-06
2.040000E+04  5.2191E-06
2.045000E+04  5.2417E-06
2.050000E+04  5.2263E-06
2.055000E+04  5.2098E-06
2.060000E+04  5.1899E-06
2.065000E+04  5.1745E-06
2.070000E+04  5.1805E-06
2.075000E+04  5.1848E-06
2.080000E+04  5.1818E-06
2.085000E+04  5.1859E-06
2.090000E+04  5.1628E-06
2.095000E+04  5.1335E-06
2.100000E+04  5.1513E-06
2.105000E+04  5.1733E-06
2.110000E+04  5.1560E-06
2.115000E+04  5.1337E-06
2.120000E+04  5.1261E-06
2.125000E+04  5.1269E-06
2.130000E+04  5.1303E-06
2.135000E+04  5.1358E-06
2.140000E+04  5.1250E-06
2.145000E+04  5.1104E-06
2.150000E+04  5.0956E-06
2.155000E+04  5.0784E-06
2.160000E+04  5.0484E-06
2.165000E+04  5.0207E-06
2.170000E+04  4.9829E-06
2.175000E+04  4.9466E-06
2.180000E+04  4.9358E-06
2.185000E+04  4.9220E-06
2.190000E+04  4.9016E-06
2.195000E+04  4.8826E-06
2.200000E+04  4.8094E-06
2.205000E+04  4.7407E-06
2.210000E+04  4.7622E-06
2.215000E+04  4.7876E-06
2.220000E+04  4.7301E-06
2.225000E+04  4.6743E-06
2.230000E+04  4.6603E-06
2.235000E+04  4.6417E-06
2.240000E+04  4.6167E-06
2.245000E+04  4.5949E-06
2.250000E+04  4.5708E-06
2.255000E+04  4.5456E-06
2.260000E+04  4.4924E-06
2.265000E+04  4.4460E-06
2.270000E+04  4.4464E-06
2.275000E+04  4.4420E-06
2.280000E+04  4.3910E-06
2.285000E+04  4.3439E-06
2.290000E+04  3.9441E-06
2.295000E+04  3.5875E-06
2.300000E+04  3.6868E-06
2.305000E+04  3.7881E-06
2.310000E+04  3.8010E-06
2.315000E+04  3.8037E-06
2.320000E+04  3.4888E-06
2.325000E+04  3.2186E-06
2.330000E+04  3.3422E-06
2.335000E+04  3.4527E-06
2.340000E+04  3.3541E-06
2.345000E+04  3.2703E-06
2.350000E+04  3.1017E-06
2.355000E+04  2.9498E-06
2.360000E+04  3.0488E-06
2.365000E+04  3.1582E-06
2.370000E+04  3.0798E-06
2.375000E+04  2.9992E-06
2.380000E+04  2.8720E-06
2.385000E+04  2.7509E-06
2.390000E+04  2.8210E-06
2.395000E+04  2.8844E-06
2.400000E+04  2.8250E-06
2.405000E+04  2.7687E-06
2.410000E+04  2.6439E-06
2.415000E+04  2.5264E-06
2.420000E+04  2.5385E-06
2.425000E+04  2.5565E-06
2.430000E+04  2.4967E-06
2.435000E+04  2.4392E-06
2.440000E+04  2.3671E-06
2.445000E+04  2.2923E-06
2.450000E+04  2.2474E-06
2.455000E+04  2.2064E-06
2.460000E+04  2.1863E-06
2.465000E+04  2.1679E-06
2.470000E+04  2.1177E-06
2.475000E+04  2.0687E-06
2.480000E+04  1.9275E-06
2.485000E+04  1.8026E-06
2.490000E+04  1.7580E-06
2.495000E+04  1.7193E-06
2.500000E+04  1.7253E-06
2.505000E+04  1.7329E-06
2.510000E+04  1.6886E-06
2.515000E+04  1.6478E-06
2.520000E+04  1.6651E-06
2.525000E+04  1.6839E-06
2.530000E+04  1.6823E-06
2.535000E+04  1.6801E-06
2.540000E+04  1.6702E-06
2.545000E+04  1.6624E-06
2.550000E+04  1.6655E-06
2.555000E+04  1.6675E-06
2.560000E+04  1.6776E-06
2.565000E+04  1.6881E-06
2.570000E+04  1.6987E-06
2.575000E+04  1.7103E-06
2.580000E+04  1.6927E-06
2.585000E+04  1.6753E-06
2.590000E+04  1.6815E-06
2.595000E+04  1.6907E-06
2.600000E+04  1.6962E-06
2.605000E+04  1.7004E-06
2.610000E+04  1.6911E-06
2.615000E+04  1.6777E-06
2.620000E+04  1.6626E-06
2.625000E+04  1.6496E-06
2.630000E+04  1.6547E-06
2.635000E+04  1.6549E-06
2.640000E+04  1.6460E-06
2.645000E+04  1.6359E-06
2.650000E+04  1.6298E-06
2.655000E+04  1.6257E-06
2.660000E+04  1.6210E-06
2.665000E+04  1.6090E-06
2.670000E+04  1.6138E-06
2.675000E+04  1.6161E-06
2.680000E+04  1.6041E-06
2.685000E+04  1.5923E-06
2.690000E+04  1.5760E-06
2.695000E+04  1.5643E-06
2.700000E+04  1.5654E-06
2.705000E+04  1.5596E-06
2.710000E+04  1.5456E-06
2.715000E+04  1.5390E-06
2.720000E+04  1.5420E-06
2.725000E+04  1.5386E-06
2.730000E+04  1.5271E-06
2.735000E+04  1.5124E-06
2.740000E+04  1.5168E-06
2.745000E+04  1.5175E-06
2.750000E+04  1.5085E-06
2.755000E+04  1.4977E-06
2.760000E+04  1.4835E-06
2.765000E+04  1.4744E-06
2.770000E+04  1.4648E-06
2.775000E+04  1.4559E-06
2.780000E+04  1.4557E-06
2.785000E+04  1.4555E-06
2.790000E+04  1.4492E-06
2.795000E+04  1.4499E-06
2.800000E+04  1.4360E-06
2.805000E+04  1.4284E-06
2.810000E+04  1.4130E-06
2.815000E+04  1.4074E-06
2.820000E+04  1.4039E-06
2.825000E+04  1.4008E-06
2.830000E+04  1.3966E-06
2.835000E+04  1.3836E-06
2.840000E+04  1.3660E-06
2.845000E+04  1.3504E-06
2.850000E+04  1.3504E-06
2.855000E+04  1.3541E-06
2.860000E+04  1.3531E-06
2.865000E+04  1.3479E-06
2.870000E+04  1.3359E-06
2.875000E+04  1.3322E-06
2.880000E+04  1.3270E-06
2.885000E+04  1.3153E-06
2.890000E+04  1.3061E-06
2.895000E+04  1.2962E-06
2.900000E+04  1.2983E-06
2.905000E+04  1.2939E-06
2.910000E+04  1.2858E-06
2.915000E+04  1.2756E-06
2.920000E+04  1.2605E-06
2.925000E+04  1.2471E-06
2.930000E+04  1.2489E-06
2.935000E+04  1.2438E-06
2.940000E+04  1.2364E-06
2.945000E+04  1.2274E-06
2.950000E+04  1.2199E-06
2.955000E+04  1.2142E-06
2.960000E+04  1.2098E-06
2.965000E+04  1.2052E-06
2.970000E+04  1.2000E-06
2.975000E+04  1.1943E-06
2.980000E+04  1.1875E-06
2.985000E+04  1.1797E-06
2.990000E+04  1.1737E-06
2.995000E+04  1.1687E-06
3.000000E+04  1.1652E-06
3.005000E+04  1.1615E-06
3.010000E+04  1.1603E-06
3.015000E+04  1.1585E-06
3.020000E+04  1.1544E-06
3.025000E+04  1.1504E-06
3.030000E+04  1.1470E-06
3.035000E+04  1.1437E-06
3.040000E+04  1.1430E-06
3.045000E+04  1.1423E-06
3.050000E+04  1.1390E-06
3.055000E+04  1.1360E-06
3.060000E+04  1.1343E-06
3.065000E+04  1.1322E-06
3.070000E+04  1.1314E-06
3.075000E+04  1.1307E-06
3.080000E+04  1.1272E-06
3.085000E+04  1.1239E-06
3.090000E+04  1.1236E-06
3.095000E+04  1.1232E-06
3.100000E+04  1.1231E-06
3.105000E+04  1.1230E-06
3.110000E+04  1.1171E-06
3.115000E+04  1.1109E-06
3.120000E+04  1.1115E-06
3.125000E+04  1.1121E-06
3.130000E+04  1.1098E-06
3.135000E+04  1.1077E-06
3.140000E+04  1.1051E-06
3.145000E+04  1.1027E-06
3.150000E+04  1.0996E-06
3.155000E+04  1.0965E-06
3.160000E+04  1.0930E-06
3.165000E+04  1.0894E-06
3.170000E+04  1.0890E-06
3.175000E+04  1.0886E-06
3.180000E+04  1.0872E-06
3.185000E+04  1.0861E-06
3.190000E+04  1.0861E-06
3.195000E+04  1.0860E-06
3.200000E+04  1.0843E-06
3.210000E+04  1.0807E-06
3.220000E+04  1.0771E-06
3.230000E+04  1.0739E-06
3.240000E+04  1.0722E-06
3.250000E+04  1.0708E-06
3.260000E+04  1.0666E-06
3.270000E+04  1.0624E-06
3.280000E+04  1.0575E-06
3.290000E+04  1.0529E-06
3.300000E+04  1.0505E-06
3.310000E+04  1.0478E-06
3.320000E+04  1.0444E-06
3.330000E+04  1.0412E-06
3.340000E+04  1.0396E-06
3.350000E+04  1.0391E-06
3.360000E+04  1.0340E-06
3.370000E+04  1.0271E-06
3.380000E+04  1.0236E-06
3.390000E+04  1.0188E-06
3.400000E+04  1.0127E-06
3.410000E+04  1.0094E-06
3.420000E+04  1.0058E-06
3.430000E+04  1.0066E-06
3.440000E+04  1.0026E-06
3.450000E+04  9.9334E-07
3.460000E+04  9.8410E-07
3.470000E+04  9.8029E-07
3.480000E+04  9.7312E-07
3.490000E+04  9.6413E-07
3.500000E+04  9.5819E-07
3.510000E+04  9.5602E-07
3.520000E+04  9.4639E-07
3.530000E+04  9.4123E-07
3.540000E+04  9.3092E-07
3.550000E+04  9.2318E-07
3.560000E+04  9.1840E-07
3.570000E+04  9.1353E-07
3.580000E+04  9.0622E-07
3.590000E+04  8.9872E-07
3.600000E+04  8.9528E-07
3.610000E+04  8.8918E-07
3.620000E+04  8.8111E-07
3.630000E+04  8.7081E-07
3.640000E+04  8.6383E-07
3.650000E+04  8.5545E-07
3.660000E+04  8.4827E-07
3.670000E+04  8.4253E-07
3.680000E+04  8.3371E-07
3.690000E+04  8.2518E-07
3.700000E+04  8.1642E-07
3.710000E+04  8.0908E-07
3.720000E+04  8.0362E-07
3.730000E+04  7.9779E-07
3.740000E+04  7.8899E-07
3.750000E+04  7.8088E-07
3.760000E+04  7.7561E-07
3.770000E+04  7.7060E-07
3.780000E+04  7.6316E-07
3.790000E+04  7.5621E-07
3.800000E+04  7.4969E-07
3.810000E+04  7.4299E-07
3.820000E+04  7.3715E-07
3.830000E+04  7.3163E-07
3.840000E+04  7.2571E-07
3.850000E+04  7.1964E-07
3.860000E+04  7.1220E-07
3.870000E+04  7.0492E-07
3.880000E+04  6.9880E-07
3.890000E+04  6.9262E-07
3.900000E+04  6.8688E-07
3.910000E+04  6.8127E-07
3.920000E+04  6.7528E-07
3.930000E+04  6.6940E-07
3.940000E+04  6.6221E-07
3.950000E+04  6.5521E-07
3.960000E+04  6.4946E-07
3.970000E+04  6.4402E-07
3.980000E+04  6.3583E-07
3.990000E+04  6.2800E-07
4.000000E+04  6.2391E-07
4.010000E+04  6.2006E-07
4.020000E+04  6.1483E-07
4.030000E+04  6.1014E-07
4.040000E+04  6.0461E-07
4.050000E+04  5.9879E-07
4.060000E+04  5.9342E-07
4.070000E+04  5.8793E-07
4.080000E+04  5.8389E-07
4.090000E+04  5.7963E-07
4.100000E+04  5.7572E-07
4.110000E+04  5.7120E-07
4.120000E+04  5.6705E-07
4.130000E+04  5.6254E-07
4.140000E+04  5.5658E-07
4.150000E+04  5.5152E-07
4.160000E+04  5.4698E-07
4.170000E+04  5.4414E-07
4.180000E+04  5.3954E-07
4.190000E+04  5.3532E-07
4.200000E+04  5.2969E-07
4.210000E+04  5.2516E-07
4.220000E+04  5.2298E-07
4.230000E+04  5.2077E-07
4.240000E+04  5.1684E-07
4.250000E+04  5.1179E-07
4.260000E+04  5.0805E-07
4.270000E+04  5.0477E-07
4.280000E+04  4.9350E-07
4.290000E+04  4.8297E-07
4.300000E+04  4.6953E-07
4.310000E+04  4.5764E-07
4.320000E+04  4.5767E-07
4.330000E+04  4.5600E-07
4.340000E+04  4.4569E-07
4.350000E+04  4.3640E-07
4.360000E+04  4.3058E-07
4.370000E+04  4.2651E-07
4.380000E+04  4.2153E-07
4.390000E+04  4.1767E-07
4.400000E+04  4.1198E-07
4.410000E+04  4.0783E-07
4.420000E+04  4.0348E-07
4.430000E+04  3.9836E-07
4.440000E+04  3.9607E-07
4.450000E+04  3.9159E-07
4.460000E+04  3.8824E-07
4.470000E+04  3.8482E-07
4.480000E+04  3.8164E-07
4.490000E+04  3.7959E-07
4.500000E+04  3.7679E-07
4.510000E+04  3.7402E-07
4.520000E+04  3.7062E-07
4.530000E+04  3.6773E-07
4.540000E+04  3.6422E-07
4.550000E+04  3.6090E-07
4.560000E+04  3.5727E-07
4.570000E+04  3.5426E-07
4.580000E+04  3.4998E-07
4.590000E+04  3.4542E-07
4.600000E+04  3.4469E-07
4.610000E+04  3.4406E-07
4.620000E+04  3.4122E-07
4.630000E+04  3.3884E-07
4.640000E+04  3.3677E-07
4.650000E+04  3.3457E-07
4.660000E+04  3.3388E-07
4.670000E+04  3.3302E-07
4.680000E+04  3.2894E-07
4.690000E+04  3.2535E-07
4.700000E+04  3.2312E-07
4.710000E+04  3.2076E-07
4.720000E+04  3.2045E-07
4.730000E+04  3.2037E-07
4.740000E+04  3.1632E-07
4.750000E+04  3.1244E-07
4.760000E+04  3.1144E-07
4.770000E+04  3.1022E-07
4.780000E+04  3.0844E-07
4.790000E+04  3.0673E-07
4.800000E+04  3.0261E-07
4.810000E+04  2.9888E-07
4.820000E+04  2.9932E-07
4.830000E+04  2.9987E-07
4.840000E+04  2.9630E-07
4.850000E+04  2.9263E-07
4.860000E+04  2.9030E-07
4.870000E+04  2.8801E-07
4.880000E+04  2.8570E-07
4.890000E+04  2.8366E-07
4.900000E+04  2.8135E-07
4.910000E+04  2.7889E-07
4.920000E+04  2.7824E-07
4.930000E+04  2.7760E-07
4.940000E+04  2.7451E-07
4.950000E+04  2.7173E-07
4.960000E+04  2.7111E-07
4.970000E+04  2.7038E-07
4.980000E+04  2.6728E-07
4.990000E+04  2.6495E-07
5.000000E+04  2.6316E-07
5.010000E+04  2.6136E-07
5.020000E+04  2.5964E-07
5.030000E+04  2.5769E-07
5.040000E+04  2.5537E-07
5.050000E+04  2.5314E-07
5.060000E+04  2.5173E-07
5.070000E+04  2.5032E-07
5.080000E+04  2.4872E-07
5.090000E+04  2.4713E-07
5.100000E+04  2.4544E-07
5.110000E+04  2.4359E-07
5.120000E+04  2.4248E-07
5.130000E+04  2.4116E-07
5.140000E+04  2.3923E-07
5.150000E+04  2.3741E-07
5.160000E+04  2.3638E-07
5.170000E+04  2.3525E-07
5.180000E+04  2.3340E-07
5.190000E+04  2.3171E-07
5.200000E+04  2.3042E-07
5.210000E+04  2.2891E-07
5.220000E+04  2.2722E-07
5.230000E+04  2.2566E-07
5.240000E+04  2.2478E-07
5.250000E+04  2.2364E-07
5.260000E+04  2.2281E-07
5.270000E+04  2.2206E-07
5.280000E+04  2.2031E-07
5.290000E+04  2.1852E-07
5.300000E+04  2.1715E-07
5.310000E+04  2.1580E-07
5.320000E+04  2.1482E-07
5.330000E+04  2.1377E-07
5.340000E+04  2.1249E-07
5.350000E+04  2.1119E-07
5.360000E+04  2.1008E-07
5.370000E+04  2.0900E-07
5.380000E+04  2.0786E-07
5.390000E+04  2.0672E-07
5.400000E+04  2.0554E-07
5.410000E+04  2.0438E-07
5.420000E+04  2.0288E-07
5.430000E+04  2.0131E-07
5.440000E+04  2.0037E-07
5.450000E+04  1.9944E-07
5.460000E+04  1.9790E-07
5.470000E+04  1.9639E-07
5.480000E+04  1.9530E-07
5.490000E+04  1.9417E-07
5.500000E+04  1.9282E-07
5.510000E+04  1.9148E-07
5.520000E+04  1.9097E-07
5.530000E+04  1.9057E-07
5.540000E+04  1.8850E-07
5.550000E+04  1.8675E-07
5.560000E+04  1.8622E-07
5.570000E+04  1.8563E-07
5.580000E+04  1.8421E-07
5.590000E+04  1.8275E-07
5.600000E+04  1.8193E-07
5.610000E+04  1.8105E-07
5.620000E+04  1.7955E-07
5.630000E+04  1.7818E-07
5.640000E+04  1.7745E-07
5.650000E+04  1.7671E-07
5.660000E+04  1.7563E-07
5.670000E+04  1.7450E-07
5.680000E+04  1.7317E-07
5.690000E+04  1.7185E-07
5.700000E+04  1.7112E-07
5.710000E+04  1.7039E-07
5.720000E+04  1.6932E-07
5.730000E+04  1.6832E-07
5.740000E+04  1.6730E-07
5.750000E+04  1.6624E-07
5.760000E+04  1.6509E-07
5.770000E+04  1.6407E-07
5.780000E+04  1.6341E-07
5.790000E+04  1.6275E-07
5.800000E+04  1.6163E-07
5.810000E+04  1.6056E-07
5.820000E+04  1.5971E-07
5.830000E+04  1.5887E-07
5.840000E+04  1.5801E-07
5.850000E+04  1.5705E-07
5.860000E+04  1.5598E-07
5.870000E+04  1.5497E-07
5.880000E+04  1.5406E-07
5.890000E+04  1.5319E-07
5.900000E+04  1.5233E-07
5.910000E+04  1.5147E-07
5.920000E+04  1.5055E-07
5.930000E+04  1.4964E-07
5.940000E+04  1.4860E-07
5.950000E+04  1.4769E-07
5.960000E+04  1.4701E-07
5.970000E+04  1.4631E-07
5.980000E+04  1.4543E-07
5.990000E+04  1.4454E-07
6.000000E+04  1.4365E-07
6.010000E+04  1.4277E-07
6.020000E+04  1.4195E-07
6.030000E+04  1.4116E-07
6.040000E+04  1.4031E-07
6.050000E+04  1.3948E-07
6.060000E+04  1.3876E-07
6.070000E+04  1.3802E-07
6.080000E+04  1.3720E-07
6.090000E+04  1.3638E-07
6.100000E+04  1.3554E-07
6.110000E+04  1.3466E-07
6.120000E+04  1.3394E-07
6.130000E+04  1.3323E-07
6.140000E+04  1.3248E-07
6.150000E+04  1.3175E-07
6.160000E+04  1.3103E-07
6.170000E+04  1.3027E-07
6.180000E+04  1.2945E-07
6.190000E+04  1.2864E-07
6.200000E+04  1.2792E-07
6.210000E+04  1.2724E-07
6.220000E+04  1.2646E-07
6.230000E+04  1.2568E-07
6.240000E+04  1.2494E-07
6.250000E+04  1.2422E-07
6.260000E+04  1.2347E-07
6.270000E+04  1.2272E-07
6.280000E+04  1.2201E-07
6.290000E+04  1.2132E-07
6.300000E+04  1.2056E-07
6.310000E+04  1.1985E-07
6.320000E+04  1.1929E-07
6.330000E+04  1.1874E-07
6.340000E+04  1.1808E-07
6.350000E+04  1.1741E-07
6.360000E+04  1.1687E-07
6.370000E+04  1.1631E-07
6.380000E+04  1.1556E-07
6.390000E+04  1.1478E-07
6.400000E+04  1.1411E-07
6.410000E+04  1.1343E-07
6.420000E+04  1.1279E-07
6.430000E+04  1.1212E-07
6.440000E+04  1.1149E-07
6.450000E+04  1.1085E-07
6.460000E+04  1.1020E-07
6.470000E+04  1.0956E-07
6.480000E+04  1.0895E-07
6.490000E+04  1.0841E-07
6.500000E+04  1.0785E-07
6.510000E+04  1.0728E-07
6.520000E+04  1.0668E-07
6.530000E+04  1.0609E-07
6.540000E+04  1.0550E-07
6.550000E+04  1.0492E-07
6.560000E+04  1.0434E-07
6.570000E+04  1.0372E-07
6.580000E+04  1.0310E-07
6.590000E+04  1.0250E-07
6.600000E+04  1.0190E-07
6.610000E+04  1.0133E-07
6.620000E+04  1.0077E-07
6.630000E+04  1.0025E-07
6.640000E+04  9.9731E-08
6.650000E+04  9.9220E-08
6.660000E+04  9.8720E-08
6.670000E+04  9.8221E-08
6.680000E+04  9.7731E-08
6.690000E+04  9.7209E-08
6.700000E+04  9.6660E-08
6.710000E+04  9.6109E-08
6.720000E+04  9.5564E-08
6.730000E+04  9.5058E-08
6.740000E+04  9.4553E-08
6.750000E+04  9.4043E-08
6.760000E+04  9.3524E-08
6.770000E+04  9.2987E-08
6.780000E+04  9.2488E-08
6.790000E+04  9.2019E-08
6.800000E+04  9.1546E-08
6.810000E+04  9.1072E-08
6.820000E+04  9.0569E-08
6.830000E+04  9.0076E-08
6.840000E+04  8.9613E-08
6.850000E+04  8.9156E-08
6.860000E+04  8.8708E-08
6.870000E+04  8.8237E-08
6.880000E+04  8.7726E-08
6.890000E+04  8.7214E-08
6.900000E+04  8.6695E-08
6.910000E+04  8.6210E-08
6.920000E+04  8.5763E-08
6.930000E+04  8.5319E-08
6.940000E+04  8.4878E-08
6.950000E+04  8.4428E-08
6.960000E+04  8.3970E-08
6.970000E+04  8.3538E-08
6.980000E+04  8.3122E-08
6.990000E+04  8.2697E-08
7.000000E+04  8.2275E-08
7.010000E+04  8.1843E-08
7.020000E+04  8.1409E-08
7.030000E+04  8.0982E-08
7.040000E+04  8.0553E-08
7.050000E+04  8.0142E-08
7.060000E+04  7.9738E-08
7.070000E+04  7.9331E-08
7.080000E+04  7.8928E-08
7.090000E+04  7.8522E-08
7.100000E+04  7.8117E-08
7.110000E+04  7.7718E-08
7.120000E+04  7.7321E-08
7.130000E+04  7.6930E-08
7.140000E+04  7.6542E-08
7.150000E+04  7.6158E-08
7.160000E+04  7.5778E-08
7.170000E+04  7.5400E-08
7.180000E+04  7.5023E-08
7.190000E+04  7.4655E-08
7.200000E+04  7.4291E-08
7.210000E+04  7.3932E-08
7.220000E+04  7.3579E-08
7.230000E+04  7.3221E-08
7.240000E+04  7.2863E-08
7.250000E+04  7.2502E-08
7.260000E+04  7.2135E-08
7.270000E+04  7.1770E-08
7.280000E+04  7.1392E-08
7.290000E+04  7.1023E-08
7.300000E+04  7.0687E-08
7.310000E+04  7.0347E-08
7.320000E+04  6.9984E-08
7.330000E+04  6.9624E-08
7.340000E+04  6.9248E-08
7.350000E+04  6.8878E-08
7.360000E+04  6.8531E-08
7.370000E+04  6.8194E-08
7.380000E+04  6.7864E-08
7.390000E+04  6.7524E-08
7.400000E+04  6.7181E-08
7.410000E+04  6.6831E-08
7.420000E+04  6.6484E-08
7.430000E+04  6.6158E-08
7.440000E+04  6.5834E-08
7.450000E+04  6.5551E-08
7.460000E+04  6.5272E-08
7.470000E+04  6.4956E-08
7.480000E+04  6.4628E-08
7.490000E+04  6.4313E-08
7.500000E+04  6.4014E-08
7.510000E+04  6.3707E-08
7.520000E+04  6.3395E-08
7.530000E+04  6.3086E-08
7.540000E+04  6.2778E-08
7.550000E+04  6.2484E-08
7.560000E+04  6.2154E-08
7.570000E+04  6.1813E-08
7.580000E+04  6.1497E-08
7.590000E+04  6.1203E-08
7.600000E+04  6.0910E-08
7.610000E+04  6.0612E-08
7.620000E+04  6.0316E-08
7.630000E+04  6.0015E-08
7.640000E+04  5.9713E-08
7.650000E+04  5.9406E-08
7.660000E+04  5.9093E-08
7.670000E+04  5.8787E-08
7.680000E+04  5.8534E-08
7.690000E+04  5.8284E-08
7.700000E+04  5.8024E-08
7.710000E+04  5.7767E-08
7.720000E+04  5.7505E-08
7.730000E+04  5.7234E-08
7.740000E+04  5.6965E-08
7.750000E+04  5.6687E-08
7.760000E+04  5.6411E-08
7.770000E+04  5.6154E-08
7.780000E+04  5.5911E-08
7.790000E+04  5.5661E-08
7.800000E+04  5.5383E-08
7.810000E+04  5.5107E-08
7.820000E+04  5.4828E-08
7.830000E+04  5.4550E-08
7.840000E+04  5.4279E-08
7.850000E+04  5.4021E-08
7.860000E+04  5.3765E-08
7.870000E+04  5.3512E-08
7.880000E+04  5.3262E-08
7.890000E+04  5.3016E-08
7.900000E+04  5.2779E-08
7.910000E+04  5.2543E-08
7.920000E+04  5.2313E-08
7.930000E+04  5.2084E-08
7.940000E+04  5.1853E-08
7.950000E+04  5.1616E-08
7.960000E+04  5.1381E-08
7.970000E+04  5.1141E-08
7.980000E+04  5.0901E-08
7.990000E+04  5.0660E-08
8.000000E+04  5.0433E-08
8.010000E+04  5.0207E-08
8.020000E+04  4.9961E-08
8.030000E+04  4.9714E-08
8.040000E+04  4.9471E-08
8.050000E+04  4.9244E-08
8.060000E+04  4.9019E-08
8.070000E+04  4.8799E-08
8.080000E+04  4.8583E-08
8.090000E+04  4.8367E-08
8.100000E+04  4.8147E-08
8.110000E+04  4.7922E-08
8.120000E+04  4.7698E-08
8.130000E+04  4.7476E-08
8.140000E+04  4.7255E-08
8.150000E+04  4.7044E-08
8.160000E+04  4.6837E-08
8.170000E+04  4.6630E-08
8.180000E+04  4.6415E-08
8.190000E+04  4.6198E-08
8.200000E+04  4.5981E-08
8.210000E+04  4.5759E-08
8.220000E+04  4.5540E-08
8.230000E+04  4.5330E-08
8.240000E+04  4.5128E-08
8.250000E+04  4.4927E-08
8.260000E+04  4.4726E-08
8.270000E+04  4.4526E-08
8.280000E+04  4.4328E-08
8.290000E+04  4.4132E-08
8.300000E+04  4.3937E-08
8.310000E+04  4.3740E-08
8.320000E+04  4.3542E-08
8.330000E+04  4.3344E-08
8.340000E+04  4.3159E-08
8.350000E+04  4.2981E-08
8.360000E+04  4.2804E-08
8.370000E+04  4.2614E-08
8.380000E+04  4.2422E-08
8.390000E+04  4.2236E-08
8.400000E+04  4.2053E-08
8.410000E+04  4.1871E-08
8.420000E+04  4.1690E-08
8.430000E+04  4.1503E-08
8.440000E+04  4.1317E-08
8.450000E+04  4.1134E-08
8.460000E+04  4.0955E-08
8.470000E+04  4.0777E-08
8.480000E+04  4.0599E-08
8.490000E+04  4.0420E-08
8.500000E+04  4.0241E-08
8.510000E+04  4.0071E-08
8.520000E+04  3.9905E-08
8.530000E+04  3.9739E-08
8.540000E+04  3.9573E-08
8.550000E+04  3.9406E-08
8.560000E+04  3.9240E-08
8.570000E+04  3.9073E-08
8.580000E+04  3.8905E-08
8.590000E+04  3.8739E-08
8.600000E+04  3.8575E-08
8.610000E+04  3.8410E-08
8.620000E+04  3.8247E-08
8.630000E+04  3.8085E-08
8.640000E+04  3.7924E-08
8.650000E+04  3.7764E-08
8.660000E+04  3.7602E-08
8.670000E+04  3.7440E-08
8.680000E+04  3.7278E-08
8.690000E+04  3.7122E-08
8.700000E+04  3.6966E-08
8.710000E+04  3.6811E-08
8.720000E+04  3.6661E-08
8.730000E+04  3.6513E-08
8.740000E+04  3.6364E-08
8.750000E+04  3.6217E-08
8.760000E+04  3.6071E-08
8.770000E+04  3.5925E-08
8.780000E+04  3.5783E-08
8.790000E+04  3.5642E-08
8.800000E+04  3.5502E-08
8.810000E+04  3.5363E-08
8.820000E+04  3.5226E-08
8.830000E+04  3.5091E-08
8.840000E+04  3.4948E-08
8.850000E+04  3.4799E-08
8.860000E+04  3.4651E-08
8.870000E+04  3.4508E-08
8.880000E+04  3.4371E-08
8.890000E+04  3.4234E-08
8.900000E+04  3.4095E-08
8.910000E+04  3.3951E-08
8.920000E+04  3.3807E-08
8.930000E+04  3.3665E-08
8.940000E+04  3.3525E-08
8.950000E+04  3.3380E-08
8.960000E+04  3.3237E-08
8.970000E+04  3.3095E-08
8.980000E+04  3.2954E-08
8.990000E+04  3.2821E-08
9.000000E+04  3.2694E-08
9.010000E+04  3.2570E-08
9.020000E+04  3.2446E-08
9.030000E+04  3.2311E-08
9.040000E+04  3.2167E-08
9.050000E+04  3.2024E-08
9.060000E+04  3.1884E-08
9.070000E+04  3.1749E-08
9.080000E+04  3.1614E-08
9.090000E+04  3.1480E-08
9.100000E+04  3.1342E-08
9.110000E+04  3.1211E-08
9.120000E+04  3.1081E-08
9.130000E+04  3.0953E-08
9.140000E+04  3.0827E-08
9.150000E+04  3.0699E-08
9.160000E+04  3.0572E-08
9.170000E+04  3.0449E-08
9.180000E+04  3.0327E-08
9.190000E+04  3.0207E-08
9.200000E+04  3.0094E-08
9.210000E+04  2.9983E-08
9.220000E+04  2.9872E-08
9.230000E+04  2.9763E-08
9.240000E+04  2.9658E-08
9.250000E+04  2.9553E-08
9.260000E+04  2.9449E-08
9.270000E+04  2.9340E-08
9.280000E+04  2.9231E-08
9.290000E+04  2.9122E-08
9.300000E+04  2.9003E-08
9.310000E+04  2.8878E-08
9.320000E+04  2.8753E-08
9.330000E+04  2.8630E-08
9.340000E+04  2.8510E-08
9.350000E+04  2.8392E-08
9.360000E+04  2.8275E-08
9.370000E+04  2.8160E-08
9.380000E+04  2.8046E-08
9.390000E+04  2.7933E-08
9.400000E+04  2.7821E-08
9.410000E+04  2.7706E-08
9.420000E+04  2.7592E-08
9.430000E+04  2.7477E-08
9.440000E+04  2.7369E-08
9.450000E+04  2.7266E-08
9.460000E+04  2.7163E-08
9.470000E+04  2.7062E-08
9.480000E+04  2.6969E-08
9.490000E+04  2.6877E-08
9.500000E+04  2.6786E-08
9.510000E+04  2.6690E-08
9.520000E+04  2.6587E-08
9.530000E+04  2.6484E-08
9.540000E+04  2.6381E-08
9.550000E+04  2.6276E-08
9.560000E+04  2.6170E-08
9.570000E+04  2.6064E-08
9.580000E+04  2.5960E-08
9.590000E+04  2.5864E-08
9.600000E+04  2.5768E-08
9.610000E+04  2.5673E-08
9.620000E+04  2.5574E-08
9.630000E+04  2.5470E-08
9.640000E+04  2.5367E-08
9.650000E+04  2.5264E-08
9.660000E+04  2.5156E-08
9.670000E+04  2.5047E-08
9.680000E+04  2.4939E-08
9.690000E+04  2.4831E-08
9.700000E+04  2.4747E-08
9.710000E+04  2.4660E-08
9.720000E+04  2.4573E-08
9.730000E+04  2.4486E-08
9.740000E+04  2.4399E-08
9.750000E+04  2.4318E-08
9.760000E+04  2.4237E-08
9.770000E+04  2.4152E-08
9.780000E+04  2.4060E-08
9.790000E+04  2.3969E-08
9.800000E+04  2.3878E-08
9.810000E+04  2.3790E-08
9.820000E+04  2.3704E-08
9.830000E+04  2.3616E-08
9.840000E+04  2.3529E-08
9.850000E+04  2.3448E-08
9.860000E+04  2.3369E-08
9.870000E+04  2.3291E-08
9.880000E+04  2.3213E-08
9.890000E+04  2.3125E-08
9.900000E+04  2.3034E-08
9.910000E+04  2.2944E-08
9.920000E+04  2.2853E-08
9.930000E+04  2.2759E-08
9.940000E+04  2.2664E-08
9.950000E+04  2.2571E-08
9.960000E+04  2.2478E-08
9.970000E+04  2.2387E-08
9.980000E+04  2.2296E-08
9.990000E+04  2.2205E-08
1.000000E+05  2.2114E-08
1.002000E+05  2.1943E-08
1.050000E+05  1.8368E-08
1.100000E+05  1.5301E-08
1.130000E+05  1.3811E-08
1.160000E+05  1.2422E-08
1.200000E+05  1.0891E-08
1.250000E+05  9.4405E-09
1.300000E+05  8.1050E-09
1.350000E+05  6.9991E-09
1.400000E+05  6.0766E-09
1.450000E+05  5.3022E-09
1.500000E+05  4.6482E-09
1.600000E+05  3.6181E-09
1.700000E+05  2.8597E-09
1.800000E+05  2.2912E-09
1.900000E+05  1.8579E-09
2.000000E+05  1.5231E-09
2.200000E+05  1.0472E-09
2.300000E+05  8.7940E-10
2.400000E+05  7.4396E-10
2.500000E+05  6.3370E-10
2.600000E+05  5.4319E-10
2.700000E+05  4.6832E-10
2.800000E+05  4.0596E-10
3.000000E+05  3.0956E-10
3.500000E+05  1.6893E-10
4.000000E+05  9.9967E-11
4.500000E+05  6.2679E-11
5.000000E+05  4.1284E-11
5.500000E+05  2.8297E-11
6.000000E+05  2.0044E-11
6.500000E+05  1.4580E-11
7.000000E+05  1.0858E-11
7.500000E+05  8.2531E-12
8.000000E+05  6.3851E-12
8.500000E+05  5.0150E-12
9.000000E+05  3.9937E-12
9.500000E+05  3.2198E-12
1.000000E+06  2.6248E-12
1.050000E+06  2.1606E-12
1.100000E+06  1.7947E-12
1.200000E+06  1.2684E-12
1.300000E+06  9.2154E-13
1.400000E+06  6.8556E-13
1.500000E+06  5.2043E-13
1.600000E+06  4.0216E-13
2.000000E+06  1.6460E-13
2.500000E+06  6.7422E-14
3.000000E+06  3.2514E-14
4.000000E+06  1.0288E-14
5.000000E+06  4.2139E-15
7.000000E+06  1.0969E-15
1.000000E+07  2.6337E-16
1.500000E+07  5.2023E-17
2.250000E+07  1.0276E-17
3.350000E+07  2.0911E-18
5.000000E+07  4.2139E-19
7.400000E+07  8.7828E-20
1.100000E+08  1.7988E-20
1.300000E+08  9.2212E-21
1.600000E+08  4.0187E-21
2.400000E+08  7.9381E-22
3.600000E+08  1.5680E-22
