# Input file name  = bc2003_lr_BaSeL_m72_salp_ssp.ised
# Output file name = spec_BC16_basel_salp_Zm72_age1.75Gyr.dat
# Record         143
# Column           2
# SED(Lo/A)       at    
# Lambda(A)    1.800E+09
9.100000E+01  6.4440E-10
9.400000E+01  1.0020E-09
9.600000E+01  1.3178E-09
9.800000E+01  1.7764E-09
1.000000E+02  2.3729E-09
1.020000E+02  3.0427E-09
1.040000E+02  3.5886E-09
1.060000E+02  4.3235E-09
1.080000E+02  5.2871E-09
1.100000E+02  7.1687E-09
1.140000E+02  9.8588E-09
1.180000E+02  1.2351E-08
1.210000E+02  4.4603E-08
1.250000E+02  5.2224E-08
1.270000E+02  5.5846E-08
1.280000E+02  5.7834E-08
1.310000E+02  6.2350E-08
1.320000E+02  7.2817E-08
1.340000E+02  7.6348E-08
1.370000E+02  9.3345E-08
1.400000E+02  9.9253E-08
1.430000E+02  2.6991E-07
1.470000E+02  6.9142E-07
1.500000E+02  7.0616E-07
1.510000E+02  7.1332E-07
1.550000E+02  7.4333E-07
1.590000E+02  7.8067E-07
1.620000E+02  8.1053E-07
1.660000E+02  8.4568E-07
1.700000E+02  8.7770E-07
1.730000E+02  9.0407E-07
1.770000E+02  9.3349E-07
1.800000E+02  9.5275E-07
1.820000E+02  9.7005E-07
1.860000E+02  1.0007E-06
1.910000E+02  1.0353E-06
1.940000E+02  1.0666E-06
1.980000E+02  1.0932E-06
2.000000E+02  1.1055E-06
2.020000E+02  1.1222E-06
2.050000E+02  1.1423E-06
2.100000E+02  1.1430E-06
2.160000E+02  1.2179E-06
2.200000E+02  1.2490E-06
2.230000E+02  1.2525E-06
2.270000E+02  1.2900E-06
2.300000E+02  1.9687E-06
2.340000E+02  3.0471E-06
2.400000E+02  3.8523E-06
2.460000E+02  3.4253E-06
2.520000E+02  3.6562E-06
2.570000E+02  3.0640E-06
2.600000E+02  3.4405E-06
2.640000E+02  3.5139E-06
2.690000E+02  3.4357E-06
2.740000E+02  3.3420E-06
2.790000E+02  3.2670E-06
2.840000E+02  3.1866E-06
2.900000E+02  3.0452E-06
2.960000E+02  2.9640E-06
3.000000E+02  2.8969E-06
3.010000E+02  2.8508E-06
3.080000E+02  2.7977E-06
3.180000E+02  2.7292E-06
3.280000E+02  2.6134E-06
3.380000E+02  2.4885E-06
3.480000E+02  2.3632E-06
3.570000E+02  2.2670E-06
3.660000E+02  2.1815E-06
3.750000E+02  2.0830E-06
3.850000E+02  1.9476E-06
3.950000E+02  1.8963E-06
4.000000E+02  1.8533E-06
4.050000E+02  1.8223E-06
4.140000E+02  1.7454E-06
4.220000E+02  1.6686E-06
4.300000E+02  1.6046E-06
4.410000E+02  1.5320E-06
4.510000E+02  1.4603E-06
4.600000E+02  1.3921E-06
4.700000E+02  1.3307E-06
4.800000E+02  1.2812E-06
4.900000E+02  1.2085E-06
5.000000E+02  1.1751E-06
5.060000E+02  1.1281E-06
5.120000E+02  1.1327E-06
5.200000E+02  1.0953E-06
5.300000E+02  1.0416E-06
5.400000E+02  9.8025E-07
5.500000E+02  9.3698E-07
5.600000E+02  9.1539E-07
5.700000E+02  8.9657E-07
5.800000E+02  8.5564E-07
5.900000E+02  8.2617E-07
6.000000E+02  7.7434E-07
6.100000E+02  6.7485E-07
6.200000E+02  7.3419E-07
6.300000E+02  6.9765E-07
6.400000E+02  6.8390E-07
6.500000E+02  6.5439E-07
6.580000E+02  6.2633E-07
6.650000E+02  6.2237E-07
6.750000E+02  6.0534E-07
6.850000E+02  5.6482E-07
6.950000E+02  5.6243E-07
7.000000E+02  5.4170E-07
7.050000E+02  5.2271E-07
7.160000E+02  5.2477E-07
7.260000E+02  5.0778E-07
7.350000E+02  4.9286E-07
7.450000E+02  4.7323E-07
7.550000E+02  4.5683E-07
7.650000E+02  3.9672E-07
7.750000E+02  4.2742E-07
7.850000E+02  4.0366E-07
7.950000E+02  3.9791E-07
8.000000E+02  3.9247E-07
8.050000E+02  3.8920E-07
8.150000E+02  3.7703E-07
8.250000E+02  3.6665E-07
8.350000E+02  3.3379E-07
8.450000E+02  3.4280E-07
8.550000E+02  3.3087E-07
8.650000E+02  3.2307E-07
8.750000E+02  3.1539E-07
8.850000E+02  3.0627E-07
8.950000E+02  2.9752E-07
9.000000E+02  2.9215E-07
9.050000E+02  2.8707E-07
9.150000E+02  3.3065E-07
9.250000E+02  4.7290E-07
9.350000E+02  6.0773E-07
9.450000E+02  7.1567E-07
9.550000E+02  7.8897E-07
9.650000E+02  8.2469E-07
9.750000E+02  5.0126E-07
9.850000E+02  7.0336E-07
9.950000E+02  6.7288E-07
1.000000E+03  7.1724E-07
1.005000E+03  7.6950E-07
1.015000E+03  7.7455E-07
1.025000E+03  5.0405E-07
1.035000E+03  7.0227E-07
1.045000E+03  8.8268E-07
1.055000E+03  8.5090E-07
1.065000E+03  7.2619E-07
1.075000E+03  7.8388E-07
1.085000E+03  6.2379E-07
1.095000E+03  7.8665E-07
1.100000E+03  7.6765E-07
1.105000E+03  7.5113E-07
1.115000E+03  7.2665E-07
1.125000E+03  6.4622E-07
1.135000E+03  7.4186E-07
1.145000E+03  7.0426E-07
1.155000E+03  7.0422E-07
1.165000E+03  6.8423E-07
1.175000E+03  5.0771E-07
1.185000E+03  6.4553E-07
1.195000E+03  5.6546E-07
1.200000E+03  5.2764E-07
1.205000E+03  4.9854E-07
1.215000E+03  3.6294E-07
1.225000E+03  5.4322E-07
1.235000E+03  6.3287E-07
1.245000E+03  6.4430E-07
1.255000E+03  6.2154E-07
1.265000E+03  5.9423E-07
1.275000E+03  6.6812E-07
1.285000E+03  6.8422E-07
1.295000E+03  5.8243E-07
1.300000E+03  5.7797E-07
1.305000E+03  5.7560E-07
1.315000E+03  6.6162E-07
1.325000E+03  6.3102E-07
1.335000E+03  5.8522E-07
1.345000E+03  6.3610E-07
1.355000E+03  6.1682E-07
1.365000E+03  5.6700E-07
1.375000E+03  5.6983E-07
1.385000E+03  5.5748E-07
1.395000E+03  4.4481E-07
1.400000E+03  4.3918E-07
1.405000E+03  4.3477E-07
1.415000E+03  5.1309E-07
1.425000E+03  5.0674E-07
1.435000E+03  5.1477E-07
1.442000E+03  5.2371E-07
1.447000E+03  5.2581E-07
1.455000E+03  5.0504E-07
1.465000E+03  4.7073E-07
1.475000E+03  4.7413E-07
1.485000E+03  4.7700E-07
1.495000E+03  4.7355E-07
1.500000E+03  4.5929E-07
1.505000E+03  4.4500E-07
1.512000E+03  4.0799E-07
1.517000E+03  4.2433E-07
1.525000E+03  4.0813E-07
1.535000E+03  3.5153E-07
1.545000E+03  3.3866E-07
1.555000E+03  3.3249E-07
1.565000E+03  3.5493E-07
1.575000E+03  3.7275E-07
1.585000E+03  3.8284E-07
1.595000E+03  3.8203E-07
1.600000E+03  3.7828E-07
1.605000E+03  3.7504E-07
1.615000E+03  3.6922E-07
1.625000E+03  3.5786E-07
1.635000E+03  3.7326E-07
1.645000E+03  3.7367E-07
1.655000E+03  3.5665E-07
1.665000E+03  3.7149E-07
1.672000E+03  3.3636E-07
1.677000E+03  3.8238E-07
1.685000E+03  3.8534E-07
1.695000E+03  3.6658E-07
1.700000E+03  3.6103E-07
1.705000E+03  3.5551E-07
1.715000E+03  3.3442E-07
1.725000E+03  3.2907E-07
1.735000E+03  3.4671E-07
1.745000E+03  3.4356E-07
1.755000E+03  3.5832E-07
1.765000E+03  3.3668E-07
1.775000E+03  3.3358E-07
1.785000E+03  3.4464E-07
1.795000E+03  3.6319E-07
1.800000E+03  3.6077E-07
1.805000E+03  3.5830E-07
1.815000E+03  3.2945E-07
1.825000E+03  3.3994E-07
1.835000E+03  3.3146E-07
1.845000E+03  3.0188E-07
1.855000E+03  3.1323E-07
1.865000E+03  3.2493E-07
1.875000E+03  3.4231E-07
1.885000E+03  3.2261E-07
1.895000E+03  3.2913E-07
1.900000E+03  3.3360E-07
1.905000E+03  3.3828E-07
1.915000E+03  3.3093E-07
1.925000E+03  3.1705E-07
1.935000E+03  3.0241E-07
1.945000E+03  3.5818E-07
1.955000E+03  3.4137E-07
1.967000E+03  3.8844E-07
1.976000E+03  3.8220E-07
1.984000E+03  4.0231E-07
1.995000E+03  3.9900E-07
2.000000E+03  3.9904E-07
2.005000E+03  4.0142E-07
2.015000E+03  4.0027E-07
2.025000E+03  3.8106E-07
2.035000E+03  4.1475E-07
2.045000E+03  4.4636E-07
2.055000E+03  4.2234E-07
2.065000E+03  4.1882E-07
2.074000E+03  4.6289E-07
2.078000E+03  8.5452E-07
2.085000E+03  1.1298E-06
2.095000E+03  1.0384E-06
2.100000E+03  1.0278E-06
2.105000E+03  1.0178E-06
2.115000E+03  1.0900E-06
2.125000E+03  9.8921E-07
2.135000E+03  9.2448E-07
2.145000E+03  1.1848E-06
2.155000E+03  1.2091E-06
2.165000E+03  1.0481E-06
2.175000E+03  1.0651E-06
2.185000E+03  1.3494E-06
2.195000E+03  1.3019E-06
2.200000E+03  1.2850E-06
2.205000E+03  1.2685E-06
2.215000E+03  9.5238E-07
2.225000E+03  1.1070E-06
2.235000E+03  1.5121E-06
2.245000E+03  1.4305E-06
2.255000E+03  1.0989E-06
2.265000E+03  1.0105E-06
2.275000E+03  1.1854E-06
2.285000E+03  1.6063E-06
2.295000E+03  1.3362E-06
2.300000E+03  1.4761E-06
2.305000E+03  1.6327E-06
2.315000E+03  1.3187E-06
2.325000E+03  1.0248E-06
2.335000E+03  8.9844E-07
2.345000E+03  6.2340E-07
2.355000E+03  1.1739E-06
2.365000E+03  7.0066E-07
2.375000E+03  9.0134E-07
2.385000E+03  5.6276E-07
2.395000E+03  7.0207E-07
2.400000E+03  7.0348E-07
2.405000E+03  7.0511E-07
2.415000E+03  8.3678E-07
2.425000E+03  1.4483E-06
2.435000E+03  1.5189E-06
2.445000E+03  1.8022E-06
2.455000E+03  1.9673E-06
2.465000E+03  1.6216E-06
2.475000E+03  1.4740E-06
2.485000E+03  9.0081E-07
2.495000E+03  1.1243E-06
2.500000E+03  1.4307E-06
2.505000E+03  1.8264E-06
2.513000E+03  7.7605E-07
2.518000E+03  6.1567E-07
2.525000E+03  6.8672E-07
2.535000E+03  1.1372E-06
2.545000E+03  1.2615E-06
2.555000E+03  2.5804E-06
2.565000E+03  1.7512E-06
2.575000E+03  2.3039E-06
2.585000E+03  1.9807E-06
2.595000E+03  1.7282E-06
2.600000E+03  1.5915E-06
2.605000E+03  1.4672E-06
2.615000E+03  1.3278E-06
2.625000E+03  1.8942E-06
2.635000E+03  3.6348E-06
2.645000E+03  5.2440E-06
2.655000E+03  7.6318E-06
2.665000E+03  4.2488E-06
2.675000E+03  5.0615E-06
2.685000E+03  5.8534E-06
2.695000E+03  4.4338E-06
2.700000E+03  5.0013E-06
2.705000E+03  5.6447E-06
2.715000E+03  3.9060E-06
2.725000E+03  3.0507E-06
2.735000E+03  3.8882E-06
2.745000E+03  1.9222E-06
2.755000E+03  2.6491E-06
2.765000E+03  3.5642E-06
2.775000E+03  3.8387E-06
2.785000E+03  2.3240E-06
2.795000E+03  9.7493E-07
2.800000E+03  1.0856E-06
2.805000E+03  1.2103E-06
2.815000E+03  3.4617E-06
2.825000E+03  5.4038E-06
2.835000E+03  5.5884E-06
2.845000E+03  4.3231E-06
2.855000E+03  2.4678E-06
2.865000E+03  6.4059E-06
2.875000E+03  8.5076E-06
2.885000E+03  7.2315E-06
2.895000E+03  8.5122E-06
2.900000E+03  9.4508E-06
2.910000E+03  1.1655E-05
2.930000E+03  1.0127E-05
2.950000E+03  9.5466E-06
2.970000E+03  1.0600E-05
2.990000E+03  1.0729E-05
3.000000E+03  1.0967E-05
3.010000E+03  1.1215E-05
3.030000E+03  1.1711E-05
3.050000E+03  1.2054E-05
3.070000E+03  1.2830E-05
3.090000E+03  1.3152E-05
3.100000E+03  1.3739E-05
3.110000E+03  1.4396E-05
3.130000E+03  1.3718E-05
3.150000E+03  1.3478E-05
3.170000E+03  1.4476E-05
3.190000E+03  1.2412E-05
3.200000E+03  1.3281E-05
3.210000E+03  1.4211E-05
3.230000E+03  1.1436E-05
3.250000E+03  1.5937E-05
3.270000E+03  1.8507E-05
3.290000E+03  1.7780E-05
3.300000E+03  1.7581E-05
3.310000E+03  1.7400E-05
3.330000E+03  1.7849E-05
3.350000E+03  1.7499E-05
3.370000E+03  1.4128E-05
3.390000E+03  1.5636E-05
3.400000E+03  1.5750E-05
3.410000E+03  1.5868E-05
3.430000E+03  1.5806E-05
3.450000E+03  1.7407E-05
3.470000E+03  1.7726E-05
3.490000E+03  1.9339E-05
3.500000E+03  1.9795E-05
3.510000E+03  2.0272E-05
3.530000E+03  1.8462E-05
3.550000E+03  2.1151E-05
3.570000E+03  1.5263E-05
3.590000E+03  1.5383E-05
3.600000E+03  1.6877E-05
3.610000E+03  1.8586E-05
3.630000E+03  1.9632E-05
3.640000E+03  1.9879E-05
3.650000E+03  2.3147E-05
3.670000E+03  2.3997E-05
3.690000E+03  2.1740E-05
3.700000E+03  2.2588E-05
3.710000E+03  2.3512E-05
3.730000E+03  1.7684E-05
3.750000E+03  1.9763E-05
3.770000E+03  2.3759E-05
3.790000E+03  2.4701E-05
3.800000E+03  2.4427E-05
3.810000E+03  2.4210E-05
3.830000E+03  1.5099E-05
3.850000E+03  1.9855E-05
3.870000E+03  1.9892E-05
3.890000E+03  2.3415E-05
3.900000E+03  2.5311E-05
3.910000E+03  2.7400E-05
3.930000E+03  1.2765E-05
3.950000E+03  2.1483E-05
3.970000E+03  1.4781E-05
3.990000E+03  3.3717E-05
4.000000E+03  3.5761E-05
4.010000E+03  3.7982E-05
4.030000E+03  3.8449E-05
4.050000E+03  3.7066E-05
4.070000E+03  3.5053E-05
4.090000E+03  4.1685E-05
4.100000E+03  4.0348E-05
4.110000E+03  3.9121E-05
4.130000E+03  3.8939E-05
4.150000E+03  3.9311E-05
4.170000E+03  3.9166E-05
4.190000E+03  3.9101E-05
4.200000E+03  3.9521E-05
4.210000E+03  3.9997E-05
4.230000E+03  3.8026E-05
4.250000E+03  4.1347E-05
4.270000E+03  3.8698E-05
4.290000E+03  3.6208E-05
4.300000E+03  3.3790E-05
4.310000E+03  3.1583E-05
4.330000E+03  4.3423E-05
4.350000E+03  4.2569E-05
4.370000E+03  4.8337E-05
4.390000E+03  4.2650E-05
4.400000E+03  4.3698E-05
4.410000E+03  4.4785E-05
4.430000E+03  4.6707E-05
4.450000E+03  4.7330E-05
4.470000E+03  5.0765E-05
4.490000E+03  5.1384E-05
4.500000E+03  5.5308E-05
4.510000E+03  5.9577E-05
4.530000E+03  5.1083E-05
4.550000E+03  5.3244E-05
4.570000E+03  5.8207E-05
4.590000E+03  5.4514E-05
4.600000E+03  5.5049E-05
4.610000E+03  5.5593E-05
4.630000E+03  5.3535E-05
4.650000E+03  5.4651E-05
4.670000E+03  5.7371E-05
4.690000E+03  5.5778E-05
4.700000E+03  5.4633E-05
4.710000E+03  5.3523E-05
4.730000E+03  5.6674E-05
4.750000E+03  5.8475E-05
4.770000E+03  5.8034E-05
4.790000E+03  5.7814E-05
4.800000E+03  5.7472E-05
4.810000E+03  5.7143E-05
4.830000E+03  5.9572E-05
4.850000E+03  5.4522E-05
4.870000E+03  4.8633E-05
4.890000E+03  5.6394E-05
4.900000E+03  5.6384E-05
4.910000E+03  5.6383E-05
4.930000E+03  5.5265E-05
4.950000E+03  5.8424E-05
4.970000E+03  5.6518E-05
4.990000E+03  5.1568E-05
5.000000E+03  4.9949E-05
5.010000E+03  4.8396E-05
5.030000E+03  5.2008E-05
5.050000E+03  5.2367E-05
5.070000E+03  5.5400E-05
5.090000E+03  5.1771E-05
5.100000E+03  5.2678E-05
5.110000E+03  5.3625E-05
5.130000E+03  5.1264E-05
5.150000E+03  4.9165E-05
5.170000E+03  4.4301E-05
5.190000E+03  4.5662E-05
5.200000E+03  4.7733E-05
5.210000E+03  4.9917E-05
5.230000E+03  5.3427E-05
5.250000E+03  5.6005E-05
5.270000E+03  4.8464E-05
5.290000E+03  5.6878E-05
5.300000E+03  5.8823E-05
5.310000E+03  6.0861E-05
5.330000E+03  5.2187E-05
5.350000E+03  5.8254E-05
5.370000E+03  5.8257E-05
5.390000E+03  5.6381E-05
5.400000E+03  5.5813E-05
5.410000E+03  5.5259E-05
5.430000E+03  5.6581E-05
5.450000E+03  5.8396E-05
5.470000E+03  5.6189E-05
5.490000E+03  5.5457E-05
5.500000E+03  5.5491E-05
5.510000E+03  5.5530E-05
5.530000E+03  5.7698E-05
5.550000E+03  5.8850E-05
5.570000E+03  5.7779E-05
5.590000E+03  5.5515E-05
5.600000E+03  5.6885E-05
5.610000E+03  5.8319E-05
5.630000E+03  5.7182E-05
5.650000E+03  5.8055E-05
5.670000E+03  5.6629E-05
5.690000E+03  5.9015E-05
5.700000E+03  5.8018E-05
5.710000E+03  5.7063E-05
5.730000E+03  6.3034E-05
5.750000E+03  5.9264E-05
5.770000E+03  6.0523E-05
5.790000E+03  5.7455E-05
5.800000E+03  5.9040E-05
5.810000E+03  6.0689E-05
5.830000E+03  6.2912E-05
5.850000E+03  6.0162E-05
5.870000E+03  6.0174E-05
5.890000E+03  5.0439E-05
5.900000E+03  5.4283E-05
5.910000E+03  5.8686E-05
5.930000E+03  5.9421E-05
5.950000E+03  5.9431E-05
5.970000E+03  6.0562E-05
5.990000E+03  5.9126E-05
6.000000E+03  5.8681E-05
6.010000E+03  5.8265E-05
6.030000E+03  6.0379E-05
6.050000E+03  6.1667E-05
6.070000E+03  6.1761E-05
6.090000E+03  5.8692E-05
6.100000E+03  5.8809E-05
6.110000E+03  5.8937E-05
6.130000E+03  5.4907E-05
6.150000E+03  5.6270E-05
6.170000E+03  5.3226E-05
6.190000E+03  5.7260E-05
6.200000E+03  5.6962E-05
6.210000E+03  5.6657E-05
6.230000E+03  5.4316E-05
6.250000E+03  5.2067E-05
6.270000E+03  5.5426E-05
6.290000E+03  5.6934E-05
6.300000E+03  5.5837E-05
6.310000E+03  5.4779E-05
6.330000E+03  5.5856E-05
6.350000E+03  5.5347E-05
6.370000E+03  5.5096E-05
6.390000E+03  5.7349E-05
6.400000E+03  5.6703E-05
6.410000E+03  5.6025E-05
6.430000E+03  5.6545E-05
6.450000E+03  5.6207E-05
6.470000E+03  5.6118E-05
6.490000E+03  5.4934E-05
6.500000E+03  5.6008E-05
6.510000E+03  5.7097E-05
6.530000E+03  5.6593E-05
6.550000E+03  5.5187E-05
6.570000E+03  5.1464E-05
6.590000E+03  5.5808E-05
6.600000E+03  5.6218E-05
6.610000E+03  5.6648E-05
6.630000E+03  5.5568E-05
6.650000E+03  5.5366E-05
6.670000E+03  5.3782E-05
6.690000E+03  5.4907E-05
6.700000E+03  5.3565E-05
6.710000E+03  5.2266E-05
6.730000E+03  5.4106E-05
6.750000E+03  5.2835E-05
6.770000E+03  5.3297E-05
6.790000E+03  5.2310E-05
6.800000E+03  5.2569E-05
6.810000E+03  5.2843E-05
6.830000E+03  5.3562E-05
6.850000E+03  5.1884E-05
6.870000E+03  5.3127E-05
6.890000E+03  5.4053E-05
6.900000E+03  5.3966E-05
6.910000E+03  5.3864E-05
6.930000E+03  5.3314E-05
6.950000E+03  5.3271E-05
6.970000E+03  5.4017E-05
6.990000E+03  5.3736E-05
7.000000E+03  5.3020E-05
7.010000E+03  5.2432E-05
7.030000E+03  5.3670E-05
7.050000E+03  5.3230E-05
7.070000E+03  5.1242E-05
7.090000E+03  4.9460E-05
7.100000E+03  4.8719E-05
7.110000E+03  4.8075E-05
7.130000E+03  4.6789E-05
7.150000E+03  4.6745E-05
7.170000E+03  4.7301E-05
7.190000E+03  4.6123E-05
7.200000E+03  4.6993E-05
7.210000E+03  4.7912E-05
7.230000E+03  4.8910E-05
7.250000E+03  4.9490E-05
7.270000E+03  4.9692E-05
7.290000E+03  4.8727E-05
7.300000E+03  4.9638E-05
7.310000E+03  5.0718E-05
7.330000E+03  5.0793E-05
7.350000E+03  5.1345E-05
7.370000E+03  5.3075E-05
7.390000E+03  5.1317E-05
7.400000E+03  5.1406E-05
7.410000E+03  5.1483E-05
7.430000E+03  5.2747E-05
7.450000E+03  5.2558E-05
7.470000E+03  5.3523E-05
7.490000E+03  5.3213E-05
7.500000E+03  5.3550E-05
7.510000E+03  5.3945E-05
7.530000E+03  5.5107E-05
7.550000E+03  5.5521E-05
7.570000E+03  5.5157E-05
7.590000E+03  5.3213E-05
7.600000E+03  5.2693E-05
7.610000E+03  5.2188E-05
7.630000E+03  5.1521E-05
7.650000E+03  5.0308E-05
7.670000E+03  4.7551E-05
7.690000E+03  4.9116E-05
7.700000E+03  4.8584E-05
7.710000E+03  4.8175E-05
7.730000E+03  4.8112E-05
7.750000E+03  4.7722E-05
7.770000E+03  4.8581E-05
7.790000E+03  4.8995E-05
7.800000E+03  4.8851E-05
7.810000E+03  4.8727E-05
7.830000E+03  4.8610E-05
7.850000E+03  4.7727E-05
7.870000E+03  4.8448E-05
7.890000E+03  4.7633E-05
7.900000E+03  4.6935E-05
7.910000E+03  4.6267E-05
7.930000E+03  4.6448E-05
7.950000E+03  4.5970E-05
7.970000E+03  4.7651E-05
7.990000E+03  4.7631E-05
8.000000E+03  4.7934E-05
8.010000E+03  4.8215E-05
8.030000E+03  4.8365E-05
8.050000E+03  4.8227E-05
8.070000E+03  4.8853E-05
8.090000E+03  4.8267E-05
8.100000E+03  4.8549E-05
8.110000E+03  4.8754E-05
8.130000E+03  5.0512E-05
8.150000E+03  5.1387E-05
8.170000E+03  5.2189E-05
8.190000E+03  4.9856E-05
8.200000E+03  4.9455E-05
8.210000E+03  4.9273E-05
8.230000E+03  4.9587E-05
8.250000E+03  4.9632E-05
8.270000E+03  5.0025E-05
8.290000E+03  4.9413E-05
8.300000E+03  4.8336E-05
8.310000E+03  4.7288E-05
8.330000E+03  4.7105E-05
8.350000E+03  4.7092E-05
8.370000E+03  4.7603E-05
8.390000E+03  4.6044E-05
8.400000E+03  4.6915E-05
8.410000E+03  4.7803E-05
8.430000E+03  4.5767E-05
8.450000E+03  4.4586E-05
8.470000E+03  4.4537E-05
8.490000E+03  4.4349E-05
8.500000E+03  4.3246E-05
8.510000E+03  4.2221E-05
8.530000E+03  4.3496E-05
8.550000E+03  3.7361E-05
8.570000E+03  4.6010E-05
8.590000E+03  4.5171E-05
8.600000E+03  4.5477E-05
8.610000E+03  4.5818E-05
8.630000E+03  4.6871E-05
8.650000E+03  4.6132E-05
8.670000E+03  3.9063E-05
8.690000E+03  4.5186E-05
8.700000E+03  4.6235E-05
8.710000E+03  4.7295E-05
8.730000E+03  4.7608E-05
8.750000E+03  4.6818E-05
8.770000E+03  4.8293E-05
8.790000E+03  4.9117E-05
8.800000E+03  4.8523E-05
8.810000E+03  4.7873E-05
8.830000E+03  4.8515E-05
8.850000E+03  4.8177E-05
8.870000E+03  4.5809E-05
8.890000E+03  4.6493E-05
8.900000E+03  4.6952E-05
8.910000E+03  4.7299E-05
8.930000E+03  4.6292E-05
8.950000E+03  4.6762E-05
8.970000E+03  4.6893E-05
8.990000E+03  4.6866E-05
9.000000E+03  4.6124E-05
9.010000E+03  4.5410E-05
9.030000E+03  4.7689E-05
9.050000E+03  4.9644E-05
9.070000E+03  4.9728E-05
9.090000E+03  4.8825E-05
9.100000E+03  4.9353E-05
9.110000E+03  4.9831E-05
9.130000E+03  5.1092E-05
9.150000E+03  5.0707E-05
9.170000E+03  5.0634E-05
9.190000E+03  5.1420E-05
9.200000E+03  5.0015E-05
9.210000E+03  4.8665E-05
9.230000E+03  4.6531E-05
9.250000E+03  4.6525E-05
9.270000E+03  4.7445E-05
9.290000E+03  4.6668E-05
9.300000E+03  4.6717E-05
9.310000E+03  4.6779E-05
9.330000E+03  4.7096E-05
9.350000E+03  4.6952E-05
9.370000E+03  4.6088E-05
9.390000E+03  4.7019E-05
9.400000E+03  4.6527E-05
9.410000E+03  4.5911E-05
9.430000E+03  4.7613E-05
9.450000E+03  4.6598E-05
9.470000E+03  4.8293E-05
9.490000E+03  4.8459E-05
9.500000E+03  4.7789E-05
9.510000E+03  4.6959E-05
9.530000E+03  4.7566E-05
9.550000E+03  4.6260E-05
9.570000E+03  4.7233E-05
9.590000E+03  4.8104E-05
9.600000E+03  4.7725E-05
9.610000E+03  4.7220E-05
9.630000E+03  4.7551E-05
9.650000E+03  4.6448E-05
9.670000E+03  4.6498E-05
9.690000E+03  4.7352E-05
9.700000E+03  4.6754E-05
9.710000E+03  4.6257E-05
9.730000E+03  4.5613E-05
9.750000E+03  4.5388E-05
9.770000E+03  4.5945E-05
9.790000E+03  4.5205E-05
9.800000E+03  4.5999E-05
9.810000E+03  4.6909E-05
9.830000E+03  4.6357E-05
9.850000E+03  4.6752E-05
9.870000E+03  4.6356E-05
9.890000E+03  4.6348E-05
9.900000E+03  4.6074E-05
9.910000E+03  4.5693E-05
9.930000E+03  4.6494E-05
9.950000E+03  4.6826E-05
9.970000E+03  4.6924E-05
9.990000E+03  4.6857E-05
1.000000E+04  4.6966E-05
1.002500E+04  4.7485E-05
1.007500E+04  4.6765E-05
1.010000E+04  4.7580E-05
1.012500E+04  4.8425E-05
1.017500E+04  4.7916E-05
1.020000E+04  4.8417E-05
1.022500E+04  4.9000E-05
1.027500E+04  4.9800E-05
1.030000E+04  4.9945E-05
1.032500E+04  5.0045E-05
1.037500E+04  4.9805E-05
1.040000E+04  4.9971E-05
1.042500E+04  5.0292E-05
1.047500E+04  4.8640E-05
1.050000E+04  4.7553E-05
1.052500E+04  4.6464E-05
1.057500E+04  4.4395E-05
1.060000E+04  4.4058E-05
1.062500E+04  4.3442E-05
1.067500E+04  4.3764E-05
1.070000E+04  4.4596E-05
1.072500E+04  4.5187E-05
1.077500E+04  4.5633E-05
1.080000E+04  4.5182E-05
1.082500E+04  4.4964E-05
1.087500E+04  4.4626E-05
1.090000E+04  4.4537E-05
1.092500E+04  4.4289E-05
1.097500E+04  4.3557E-05
1.100000E+04  4.2891E-05
1.102500E+04  4.2578E-05
1.107500E+04  4.0638E-05
1.110000E+04  4.0973E-05
1.112500E+04  4.1188E-05
1.117500E+04  4.1268E-05
1.120000E+04  4.1373E-05
1.122500E+04  4.1571E-05
1.127500E+04  4.1469E-05
1.130000E+04  4.1496E-05
1.132500E+04  4.1562E-05
1.137500E+04  4.1321E-05
1.140000E+04  4.1363E-05
1.142500E+04  4.1042E-05
1.147500E+04  4.2080E-05
1.150000E+04  4.2347E-05
1.152500E+04  4.2437E-05
1.157500E+04  4.2060E-05
1.160000E+04  4.1842E-05
1.162500E+04  4.1441E-05
1.167500E+04  4.1408E-05
1.170000E+04  4.1212E-05
1.172500E+04  4.1102E-05
1.177500E+04  3.9514E-05
1.180000E+04  3.8993E-05
1.182500E+04  3.8541E-05
1.187500E+04  3.7349E-05
1.190000E+04  3.7807E-05
1.192500E+04  3.7993E-05
1.197500E+04  3.6747E-05
1.200000E+04  3.7605E-05
1.202500E+04  3.8332E-05
1.207500E+04  3.8205E-05
1.210000E+04  3.8242E-05
1.212500E+04  3.8672E-05
1.217500E+04  3.8963E-05
1.220000E+04  3.9035E-05
1.222500E+04  3.8924E-05
1.227500E+04  3.8679E-05
1.230000E+04  3.8621E-05
1.232500E+04  3.8289E-05
1.237500E+04  3.8365E-05
1.240000E+04  3.7781E-05
1.242500E+04  3.7048E-05
1.247500E+04  3.6615E-05
1.250000E+04  3.6612E-05
1.252500E+04  3.6485E-05
1.257500E+04  3.6226E-05
1.260000E+04  3.6367E-05
1.262500E+04  3.6204E-05
1.267500E+04  3.5785E-05
1.270000E+04  3.6018E-05
1.272500E+04  3.6091E-05
1.277500E+04  3.6060E-05
1.280000E+04  3.5494E-05
1.282500E+04  3.4781E-05
1.287500E+04  3.5534E-05
1.290000E+04  3.5556E-05
1.292500E+04  3.5414E-05
1.297500E+04  3.5805E-05
1.300000E+04  3.5718E-05
1.302500E+04  3.5629E-05
1.307500E+04  3.5584E-05
1.310000E+04  3.4972E-05
1.312500E+04  3.4548E-05
1.317500E+04  3.4428E-05
1.320000E+04  3.4454E-05
1.322500E+04  3.4273E-05
1.327500E+04  3.3462E-05
1.330000E+04  3.3377E-05
1.332500E+04  3.3313E-05
1.337500E+04  3.2797E-05
1.340000E+04  3.2953E-05
1.342500E+04  3.2905E-05
1.347500E+04  3.2473E-05
1.350000E+04  3.2311E-05
1.352500E+04  3.2165E-05
1.357500E+04  3.1278E-05
1.360000E+04  3.1307E-05
1.362500E+04  3.0987E-05
1.367500E+04  3.1451E-05
1.370000E+04  3.1497E-05
1.372500E+04  3.1448E-05
1.377500E+04  3.1593E-05
1.380000E+04  3.1642E-05
1.382500E+04  3.1610E-05
1.387500E+04  3.1178E-05
1.390000E+04  2.9744E-05
1.392500E+04  2.8571E-05
1.397500E+04  2.7982E-05
1.400000E+04  2.7950E-05
1.402500E+04  2.7845E-05
1.407500E+04  2.7840E-05
1.410000E+04  2.7551E-05
1.412500E+04  2.7315E-05
1.417500E+04  2.7614E-05
1.420000E+04  2.7436E-05
1.422500E+04  2.7460E-05
1.427500E+04  2.7222E-05
1.430000E+04  2.7314E-05
1.432500E+04  2.7715E-05
1.437500E+04  2.8027E-05
1.440000E+04  2.7824E-05
1.442500E+04  2.7303E-05
1.447500E+04  2.7833E-05
1.450000E+04  2.7675E-05
1.452500E+04  2.7459E-05
1.457000E+04  2.7965E-05
1.460000E+04  2.7401E-05
1.462000E+04  2.6910E-05
1.467500E+04  2.6627E-05
1.470000E+04  2.6339E-05
1.472500E+04  2.6423E-05
1.477500E+04  2.6693E-05
1.480000E+04  2.6784E-05
1.482500E+04  2.7102E-05
1.487500E+04  2.7073E-05
1.490000E+04  2.7326E-05
1.492500E+04  2.7922E-05
1.497500E+04  2.7722E-05
1.500000E+04  2.7535E-05
1.502500E+04  2.7167E-05
1.507500E+04  2.7642E-05
1.510000E+04  2.7869E-05
1.512500E+04  2.7935E-05
1.517500E+04  2.8425E-05
1.520000E+04  2.8617E-05
1.522500E+04  2.8335E-05
1.527500E+04  2.8916E-05
1.530000E+04  2.8778E-05
1.532500E+04  2.8745E-05
1.537500E+04  2.8419E-05
1.540000E+04  2.8482E-05
1.542500E+04  2.8367E-05
1.547500E+04  2.8402E-05
1.550000E+04  2.8336E-05
1.552500E+04  2.8202E-05
1.557500E+04  2.7178E-05
1.560000E+04  2.7209E-05
1.562500E+04  2.7071E-05
1.567500E+04  2.7363E-05
1.570000E+04  2.7768E-05
1.572500E+04  2.8198E-05
1.577500E+04  2.6012E-05
1.580000E+04  2.5648E-05
1.582500E+04  2.5631E-05
1.587500E+04  2.6040E-05
1.590000E+04  2.6726E-05
1.592500E+04  2.7121E-05
1.597500E+04  2.6528E-05
1.600000E+04  2.6341E-05
1.605000E+04  2.6073E-05
1.610000E+04  2.6473E-05
1.615000E+04  2.7075E-05
1.620000E+04  2.6411E-05
1.625000E+04  2.5613E-05
1.630000E+04  2.6640E-05
1.635000E+04  2.7416E-05
1.640000E+04  2.6771E-05
1.645000E+04  2.6107E-05
1.650000E+04  2.6580E-05
1.655000E+04  2.7132E-05
1.660000E+04  2.7049E-05
1.665000E+04  2.6460E-05
1.670000E+04  2.7069E-05
1.675000E+04  2.7409E-05
1.680000E+04  2.6890E-05
1.685000E+04  2.6928E-05
1.690000E+04  2.7164E-05
1.695000E+04  2.7223E-05
1.700000E+04  2.7290E-05
1.705000E+04  2.7166E-05
1.710000E+04  2.7064E-05
1.715000E+04  2.6771E-05
1.720000E+04  2.6514E-05
1.725000E+04  2.6318E-05
1.730000E+04  2.5963E-05
1.735000E+04  2.5634E-05
1.740000E+04  2.5414E-05
1.745000E+04  2.5172E-05
1.750000E+04  2.4728E-05
1.755000E+04  2.4849E-05
1.760000E+04  2.4442E-05
1.765000E+04  2.3823E-05
1.770000E+04  2.3102E-05
1.775000E+04  2.2831E-05
1.780000E+04  2.2619E-05
1.785000E+04  2.2608E-05
1.790000E+04  2.1431E-05
1.795000E+04  2.0943E-05
1.800000E+04  2.1205E-05
1.805000E+04  2.0474E-05
1.810000E+04  2.0559E-05
1.815000E+04  2.0233E-05
1.820000E+04  2.0089E-05
1.825000E+04  1.9500E-05
1.830000E+04  1.9331E-05
1.835000E+04  1.9066E-05
1.840000E+04  1.8725E-05
1.845000E+04  1.9085E-05
1.850000E+04  1.9295E-05
1.855000E+04  1.8737E-05
1.860000E+04  1.8322E-05
1.865000E+04  1.7851E-05
1.870000E+04  1.8162E-05
1.875000E+04  1.7398E-05
1.880000E+04  1.7422E-05
1.885000E+04  1.7402E-05
1.890000E+04  1.6962E-05
1.895000E+04  1.6985E-05
1.900000E+04  1.7434E-05
1.905000E+04  1.7766E-05
1.910000E+04  1.7399E-05
1.915000E+04  1.7134E-05
1.920000E+04  1.7140E-05
1.925000E+04  1.7301E-05
1.930000E+04  1.7331E-05
1.935000E+04  1.7134E-05
1.940000E+04  1.6545E-05
1.945000E+04  1.6285E-05
1.950000E+04  1.6356E-05
1.955000E+04  1.6391E-05
1.960000E+04  1.6380E-05
1.965000E+04  1.6054E-05
1.970000E+04  1.5989E-05
1.975000E+04  1.5517E-05
1.980000E+04  1.5149E-05
1.985000E+04  1.5040E-05
1.990000E+04  1.5283E-05
1.995000E+04  1.5302E-05
2.000000E+04  1.5023E-05
2.005000E+04  1.5234E-05
2.010000E+04  1.5385E-05
2.015000E+04  1.5403E-05
2.020000E+04  1.5176E-05
2.025000E+04  1.4866E-05
2.030000E+04  1.4690E-05
2.035000E+04  1.4677E-05
2.040000E+04  1.4488E-05
2.045000E+04  1.4602E-05
2.050000E+04  1.4585E-05
2.055000E+04  1.4493E-05
2.060000E+04  1.4345E-05
2.065000E+04  1.4337E-05
2.070000E+04  1.4350E-05
2.075000E+04  1.4274E-05
2.080000E+04  1.4382E-05
2.085000E+04  1.4729E-05
2.090000E+04  1.4627E-05
2.095000E+04  1.4250E-05
2.100000E+04  1.4256E-05
2.105000E+04  1.4399E-05
2.110000E+04  1.4381E-05
2.115000E+04  1.4155E-05
2.120000E+04  1.4039E-05
2.125000E+04  1.4226E-05
2.130000E+04  1.4160E-05
2.135000E+04  1.4164E-05
2.140000E+04  1.4118E-05
2.145000E+04  1.3913E-05
2.150000E+04  1.3957E-05
2.155000E+04  1.3898E-05
2.160000E+04  1.3748E-05
2.165000E+04  1.3670E-05
2.170000E+04  1.3500E-05
2.175000E+04  1.3360E-05
2.180000E+04  1.3379E-05
2.185000E+04  1.3276E-05
2.190000E+04  1.3142E-05
2.195000E+04  1.3047E-05
2.200000E+04  1.2806E-05
2.205000E+04  1.2621E-05
2.210000E+04  1.2629E-05
2.215000E+04  1.2691E-05
2.220000E+04  1.2644E-05
2.225000E+04  1.2599E-05
2.230000E+04  1.2631E-05
2.235000E+04  1.2499E-05
2.240000E+04  1.2453E-05
2.245000E+04  1.2508E-05
2.250000E+04  1.2350E-05
2.255000E+04  1.2150E-05
2.260000E+04  1.1950E-05
2.265000E+04  1.1937E-05
2.270000E+04  1.2031E-05
2.275000E+04  1.1968E-05
2.280000E+04  1.1782E-05
2.285000E+04  1.1688E-05
2.290000E+04  1.0744E-05
2.295000E+04  9.9255E-06
2.300000E+04  1.0331E-05
2.305000E+04  1.0699E-05
2.310000E+04  1.0943E-05
2.315000E+04  1.0882E-05
2.320000E+04  9.7668E-06
2.325000E+04  9.2228E-06
2.330000E+04  9.9332E-06
2.335000E+04  1.0179E-05
2.340000E+04  9.6896E-06
2.345000E+04  9.4367E-06
2.350000E+04  8.9334E-06
2.355000E+04  8.6164E-06
2.360000E+04  8.8072E-06
2.365000E+04  9.1710E-06
2.370000E+04  9.1144E-06
2.375000E+04  8.9009E-06
2.380000E+04  8.4396E-06
2.385000E+04  7.9905E-06
2.390000E+04  8.4272E-06
2.395000E+04  8.6467E-06
2.400000E+04  8.4024E-06
2.405000E+04  8.1798E-06
2.410000E+04  7.6960E-06
2.415000E+04  7.2640E-06
2.420000E+04  7.2284E-06
2.425000E+04  7.2969E-06
2.430000E+04  7.1357E-06
2.435000E+04  6.9566E-06
2.440000E+04  6.8313E-06
2.445000E+04  6.5734E-06
2.450000E+04  6.4042E-06
2.455000E+04  6.2798E-06
2.460000E+04  6.2122E-06
2.465000E+04  6.1396E-06
2.470000E+04  5.9884E-06
2.475000E+04  5.8292E-06
2.480000E+04  5.4236E-06
2.485000E+04  5.1101E-06
2.490000E+04  5.0016E-06
2.495000E+04  4.9018E-06
2.500000E+04  4.9102E-06
2.505000E+04  4.9420E-06
2.510000E+04  4.8053E-06
2.515000E+04  4.6966E-06
2.520000E+04  4.7392E-06
2.525000E+04  4.8001E-06
2.530000E+04  4.7951E-06
2.535000E+04  4.7760E-06
2.540000E+04  4.7382E-06
2.545000E+04  4.7373E-06
2.550000E+04  4.7672E-06
2.555000E+04  4.7722E-06
2.560000E+04  4.7961E-06
2.565000E+04  4.8254E-06
2.570000E+04  4.8637E-06
2.575000E+04  4.9201E-06
2.580000E+04  4.8892E-06
2.585000E+04  4.8417E-06
2.590000E+04  4.8284E-06
2.595000E+04  4.8742E-06
2.600000E+04  4.9403E-06
2.605000E+04  4.9827E-06
2.610000E+04  4.9800E-06
2.615000E+04  4.8953E-06
2.620000E+04  4.8876E-06
2.625000E+04  4.9142E-06
2.630000E+04  5.0051E-06
2.635000E+04  5.0013E-06
2.640000E+04  4.9388E-06
2.645000E+04  4.8524E-06
2.650000E+04  4.8780E-06
2.655000E+04  4.9374E-06
2.660000E+04  5.0426E-06
2.665000E+04  5.0058E-06
2.670000E+04  4.9809E-06
2.675000E+04  4.9057E-06
2.680000E+04  4.8120E-06
2.685000E+04  4.7213E-06
2.690000E+04  4.7077E-06
2.695000E+04  4.7735E-06
2.700000E+04  4.8361E-06
2.705000E+04  4.7725E-06
2.710000E+04  4.6638E-06
2.715000E+04  4.6868E-06
2.720000E+04  4.8473E-06
2.725000E+04  4.8899E-06
2.730000E+04  4.8666E-06
2.735000E+04  4.7826E-06
2.740000E+04  4.8967E-06
2.745000E+04  4.9443E-06
2.750000E+04  4.8658E-06
2.755000E+04  4.7529E-06
2.760000E+04  4.6486E-06
2.765000E+04  4.6336E-06
2.770000E+04  4.6379E-06
2.775000E+04  4.6542E-06
2.780000E+04  4.6870E-06
2.785000E+04  4.7211E-06
2.790000E+04  4.6700E-06
2.795000E+04  4.7392E-06
2.800000E+04  4.6180E-06
2.805000E+04  4.6038E-06
2.810000E+04  4.4714E-06
2.815000E+04  4.5051E-06
2.820000E+04  4.5110E-06
2.825000E+04  4.5254E-06
2.830000E+04  4.5029E-06
2.835000E+04  4.3303E-06
2.840000E+04  4.1535E-06
2.845000E+04  4.0080E-06
2.850000E+04  4.0957E-06
2.855000E+04  4.2460E-06
2.860000E+04  4.3047E-06
2.865000E+04  4.2921E-06
2.870000E+04  4.1589E-06
2.875000E+04  4.1636E-06
2.880000E+04  4.1675E-06
2.885000E+04  4.0632E-06
2.890000E+04  3.9877E-06
2.895000E+04  3.8999E-06
2.900000E+04  4.0161E-06
2.905000E+04  4.0244E-06
2.910000E+04  3.9598E-06
2.915000E+04  3.8609E-06
2.920000E+04  3.7584E-06
2.925000E+04  3.6796E-06
2.930000E+04  3.7214E-06
2.935000E+04  3.6507E-06
2.940000E+04  3.6197E-06
2.945000E+04  3.5611E-06
2.950000E+04  3.5073E-06
2.955000E+04  3.4833E-06
2.960000E+04  3.4603E-06
2.965000E+04  3.4341E-06
2.970000E+04  3.4169E-06
2.975000E+04  3.3914E-06
2.980000E+04  3.3678E-06
2.985000E+04  3.3275E-06
2.990000E+04  3.3059E-06
2.995000E+04  3.2993E-06
3.000000E+04  3.2921E-06
3.005000E+04  3.2819E-06
3.010000E+04  3.2776E-06
3.015000E+04  3.2637E-06
3.020000E+04  3.2500E-06
3.025000E+04  3.2368E-06
3.030000E+04  3.2241E-06
3.035000E+04  3.2127E-06
3.040000E+04  3.2114E-06
3.045000E+04  3.2114E-06
3.050000E+04  3.2027E-06
3.055000E+04  3.1966E-06
3.060000E+04  3.1955E-06
3.065000E+04  3.1877E-06
3.070000E+04  3.1858E-06
3.075000E+04  3.1851E-06
3.080000E+04  3.1722E-06
3.085000E+04  3.1618E-06
3.090000E+04  3.1584E-06
3.095000E+04  3.1535E-06
3.100000E+04  3.1567E-06
3.105000E+04  3.1593E-06
3.110000E+04  3.1480E-06
3.115000E+04  3.1306E-06
3.120000E+04  3.1264E-06
3.125000E+04  3.1230E-06
3.130000E+04  3.1125E-06
3.135000E+04  3.1056E-06
3.140000E+04  3.0986E-06
3.145000E+04  3.0927E-06
3.150000E+04  3.0846E-06
3.155000E+04  3.0749E-06
3.160000E+04  3.0647E-06
3.165000E+04  3.0517E-06
3.170000E+04  3.0499E-06
3.175000E+04  3.0486E-06
3.180000E+04  3.0468E-06
3.185000E+04  3.0475E-06
3.190000E+04  3.0521E-06
3.195000E+04  3.0550E-06
3.200000E+04  3.0516E-06
3.210000E+04  3.0385E-06
3.220000E+04  3.0264E-06
3.230000E+04  3.0196E-06
3.240000E+04  3.0197E-06
3.250000E+04  3.0230E-06
3.260000E+04  3.0143E-06
3.270000E+04  3.0047E-06
3.280000E+04  2.9940E-06
3.290000E+04  2.9875E-06
3.300000E+04  2.9845E-06
3.310000E+04  2.9760E-06
3.320000E+04  2.9782E-06
3.330000E+04  2.9833E-06
3.340000E+04  2.9987E-06
3.350000E+04  3.0289E-06
3.360000E+04  3.0129E-06
3.370000E+04  2.9706E-06
3.380000E+04  2.9888E-06
3.390000E+04  2.9883E-06
3.400000E+04  2.9807E-06
3.410000E+04  3.0098E-06
3.420000E+04  3.0054E-06
3.430000E+04  3.0611E-06
3.440000E+04  3.0757E-06
3.450000E+04  3.0170E-06
3.460000E+04  2.9601E-06
3.470000E+04  2.9776E-06
3.480000E+04  2.9414E-06
3.490000E+04  2.8789E-06
3.500000E+04  2.8608E-06
3.510000E+04  2.8943E-06
3.520000E+04  2.8362E-06
3.530000E+04  2.8393E-06
3.540000E+04  2.7622E-06
3.550000E+04  2.7202E-06
3.560000E+04  2.7281E-06
3.570000E+04  2.7339E-06
3.580000E+04  2.6961E-06
3.590000E+04  2.6549E-06
3.600000E+04  2.6686E-06
3.610000E+04  2.6447E-06
3.620000E+04  2.6075E-06
3.630000E+04  2.5383E-06
3.640000E+04  2.5191E-06
3.650000E+04  2.4794E-06
3.660000E+04  2.4466E-06
3.670000E+04  2.4330E-06
3.680000E+04  2.3919E-06
3.690000E+04  2.3534E-06
3.700000E+04  2.3086E-06
3.710000E+04  2.2826E-06
3.720000E+04  2.2631E-06
3.730000E+04  2.2379E-06
3.740000E+04  2.1985E-06
3.750000E+04  2.1675E-06
3.760000E+04  2.1468E-06
3.770000E+04  2.1289E-06
3.780000E+04  2.1058E-06
3.790000E+04  2.0884E-06
3.800000E+04  2.0705E-06
3.810000E+04  2.0491E-06
3.820000E+04  2.0296E-06
3.830000E+04  2.0140E-06
3.840000E+04  1.9998E-06
3.850000E+04  1.9827E-06
3.860000E+04  1.9624E-06
3.870000E+04  1.9433E-06
3.880000E+04  1.9280E-06
3.890000E+04  1.9113E-06
3.900000E+04  1.8956E-06
3.910000E+04  1.8810E-06
3.920000E+04  1.8679E-06
3.930000E+04  1.8554E-06
3.940000E+04  1.8387E-06
3.950000E+04  1.8235E-06
3.960000E+04  1.8091E-06
3.970000E+04  1.7984E-06
3.980000E+04  1.7788E-06
3.990000E+04  1.7623E-06
4.000000E+04  1.7507E-06
4.010000E+04  1.7418E-06
4.020000E+04  1.7284E-06
4.030000E+04  1.7218E-06
4.040000E+04  1.7140E-06
4.050000E+04  1.7013E-06
4.060000E+04  1.6928E-06
4.070000E+04  1.6818E-06
4.080000E+04  1.6781E-06
4.090000E+04  1.6709E-06
4.100000E+04  1.6717E-06
4.110000E+04  1.6635E-06
4.120000E+04  1.6539E-06
4.130000E+04  1.6390E-06
4.140000E+04  1.6112E-06
4.150000E+04  1.5955E-06
4.160000E+04  1.5827E-06
4.170000E+04  1.5930E-06
4.180000E+04  1.5866E-06
4.190000E+04  1.5849E-06
4.200000E+04  1.5605E-06
4.210000E+04  1.5507E-06
4.220000E+04  1.5518E-06
4.230000E+04  1.5521E-06
4.240000E+04  1.5501E-06
4.250000E+04  1.5318E-06
4.260000E+04  1.5221E-06
4.270000E+04  1.5184E-06
4.280000E+04  1.4847E-06
4.290000E+04  1.4559E-06
4.300000E+04  1.4148E-06
4.310000E+04  1.3839E-06
4.320000E+04  1.3903E-06
4.330000E+04  1.3722E-06
4.340000E+04  1.3337E-06
4.350000E+04  1.3044E-06
4.360000E+04  1.2766E-06
4.370000E+04  1.2723E-06
4.380000E+04  1.2498E-06
4.390000E+04  1.2422E-06
4.400000E+04  1.2213E-06
4.410000E+04  1.2203E-06
4.420000E+04  1.2183E-06
4.430000E+04  1.2020E-06
4.440000E+04  1.2038E-06
4.450000E+04  1.1748E-06
4.460000E+04  1.1656E-06
4.470000E+04  1.1531E-06
4.480000E+04  1.1439E-06
4.490000E+04  1.1487E-06
4.500000E+04  1.1383E-06
4.510000E+04  1.1277E-06
4.520000E+04  1.1063E-06
4.530000E+04  1.0906E-06
4.540000E+04  1.0722E-06
4.550000E+04  1.0554E-06
4.560000E+04  1.0367E-06
4.570000E+04  1.0263E-06
4.580000E+04  1.0173E-06
4.590000E+04  1.0034E-06
4.600000E+04  1.0025E-06
4.610000E+04  1.0028E-06
4.620000E+04  9.9256E-07
4.630000E+04  9.8854E-07
4.640000E+04  9.8415E-07
4.650000E+04  9.7790E-07
4.660000E+04  9.7377E-07
4.670000E+04  9.6646E-07
4.680000E+04  9.4917E-07
4.690000E+04  9.3776E-07
4.700000E+04  9.3275E-07
4.710000E+04  9.2575E-07
4.720000E+04  9.2899E-07
4.730000E+04  9.3508E-07
4.740000E+04  9.2374E-07
4.750000E+04  9.1324E-07
4.760000E+04  9.0951E-07
4.770000E+04  9.0160E-07
4.780000E+04  8.9509E-07
4.790000E+04  8.8940E-07
4.800000E+04  8.7703E-07
4.810000E+04  8.6850E-07
4.820000E+04  8.6810E-07
4.830000E+04  8.6785E-07
4.840000E+04  8.6010E-07
4.850000E+04  8.4945E-07
4.860000E+04  8.4296E-07
4.870000E+04  8.3663E-07
4.880000E+04  8.3006E-07
4.890000E+04  8.2682E-07
4.900000E+04  8.2078E-07
4.910000E+04  8.1234E-07
4.920000E+04  8.0990E-07
4.930000E+04  8.0617E-07
4.940000E+04  7.9300E-07
4.950000E+04  7.8363E-07
4.960000E+04  7.7999E-07
4.970000E+04  7.7448E-07
4.980000E+04  7.6607E-07
4.990000E+04  7.6713E-07
5.000000E+04  7.6299E-07
5.010000E+04  7.5854E-07
5.020000E+04  7.5432E-07
5.030000E+04  7.4668E-07
5.040000E+04  7.3810E-07
5.050000E+04  7.3051E-07
5.060000E+04  7.2665E-07
5.070000E+04  7.2258E-07
5.080000E+04  7.1973E-07
5.090000E+04  7.1680E-07
5.100000E+04  7.1424E-07
5.110000E+04  7.0919E-07
5.120000E+04  7.0743E-07
5.130000E+04  7.0274E-07
5.140000E+04  6.9677E-07
5.150000E+04  6.9211E-07
5.160000E+04  6.9063E-07
5.170000E+04  6.8777E-07
5.180000E+04  6.8153E-07
5.190000E+04  6.7740E-07
5.200000E+04  6.7403E-07
5.210000E+04  6.6751E-07
5.220000E+04  6.6175E-07
5.230000E+04  6.5749E-07
5.240000E+04  6.5651E-07
5.250000E+04  6.5177E-07
5.260000E+04  6.4945E-07
5.270000E+04  6.4820E-07
5.280000E+04  6.4377E-07
5.290000E+04  6.3837E-07
5.300000E+04  6.3362E-07
5.310000E+04  6.2902E-07
5.320000E+04  6.2590E-07
5.330000E+04  6.2164E-07
5.340000E+04  6.1723E-07
5.350000E+04  6.1245E-07
5.360000E+04  6.0905E-07
5.370000E+04  6.0605E-07
5.380000E+04  6.0256E-07
5.390000E+04  5.9882E-07
5.400000E+04  5.9599E-07
5.410000E+04  5.9330E-07
5.420000E+04  5.9046E-07
5.430000E+04  5.8664E-07
5.440000E+04  5.8424E-07
5.450000E+04  5.8181E-07
5.460000E+04  5.7749E-07
5.470000E+04  5.7338E-07
5.480000E+04  5.7105E-07
5.490000E+04  5.6810E-07
5.500000E+04  5.6422E-07
5.510000E+04  5.6043E-07
5.520000E+04  5.5921E-07
5.530000E+04  5.5928E-07
5.540000E+04  5.5076E-07
5.550000E+04  5.4637E-07
5.560000E+04  5.4679E-07
5.570000E+04  5.4616E-07
5.580000E+04  5.4131E-07
5.590000E+04  5.3566E-07
5.600000E+04  5.3414E-07
5.610000E+04  5.3177E-07
5.620000E+04  5.2608E-07
5.630000E+04  5.2214E-07
5.640000E+04  5.2063E-07
5.650000E+04  5.1888E-07
5.660000E+04  5.1557E-07
5.670000E+04  5.1149E-07
5.680000E+04  5.0751E-07
5.690000E+04  5.0347E-07
5.700000E+04  5.0086E-07
5.710000E+04  4.9818E-07
5.720000E+04  4.9500E-07
5.730000E+04  4.9256E-07
5.740000E+04  4.8939E-07
5.750000E+04  4.8553E-07
5.760000E+04  4.8113E-07
5.770000E+04  4.7859E-07
5.780000E+04  4.7800E-07
5.790000E+04  4.7742E-07
5.800000E+04  4.7421E-07
5.810000E+04  4.7160E-07
5.820000E+04  4.6964E-07
5.830000E+04  4.6776E-07
5.840000E+04  4.6590E-07
5.850000E+04  4.6244E-07
5.860000E+04  4.5951E-07
5.870000E+04  4.5742E-07
5.880000E+04  4.5414E-07
5.890000E+04  4.5129E-07
5.900000E+04  4.4847E-07
5.910000E+04  4.4553E-07
5.920000E+04  4.4200E-07
5.930000E+04  4.3860E-07
5.940000E+04  4.3503E-07
5.950000E+04  4.3299E-07
5.960000E+04  4.3155E-07
5.970000E+04  4.2974E-07
5.980000E+04  4.2689E-07
5.990000E+04  4.2376E-07
6.000000E+04  4.2062E-07
6.010000E+04  4.1752E-07
6.020000E+04  4.1531E-07
6.030000E+04  4.1348E-07
6.040000E+04  4.1172E-07
6.050000E+04  4.1011E-07
6.060000E+04  4.0871E-07
6.070000E+04  4.0709E-07
6.080000E+04  4.0456E-07
6.090000E+04  4.0207E-07
6.100000E+04  3.9938E-07
6.110000E+04  3.9617E-07
6.120000E+04  3.9370E-07
6.130000E+04  3.9139E-07
6.140000E+04  3.8906E-07
6.150000E+04  3.8683E-07
6.160000E+04  3.8451E-07
6.170000E+04  3.8157E-07
6.180000E+04  3.7846E-07
6.190000E+04  3.7545E-07
6.200000E+04  3.7291E-07
6.210000E+04  3.7095E-07
6.220000E+04  3.6891E-07
6.230000E+04  3.6691E-07
6.240000E+04  3.6512E-07
6.250000E+04  3.6343E-07
6.260000E+04  3.6077E-07
6.270000E+04  3.5802E-07
6.280000E+04  3.5525E-07
6.290000E+04  3.5266E-07
6.300000E+04  3.5008E-07
6.310000E+04  3.4802E-07
6.320000E+04  3.4651E-07
6.330000E+04  3.4510E-07
6.340000E+04  3.4376E-07
6.350000E+04  3.4233E-07
6.360000E+04  3.4117E-07
6.370000E+04  3.3967E-07
6.380000E+04  3.3746E-07
6.390000E+04  3.3476E-07
6.400000E+04  3.3208E-07
6.410000E+04  3.2923E-07
6.420000E+04  3.2692E-07
6.430000E+04  3.2470E-07
6.440000E+04  3.2291E-07
6.450000E+04  3.2098E-07
6.460000E+04  3.1900E-07
6.470000E+04  3.1675E-07
6.480000E+04  3.1493E-07
6.490000E+04  3.1396E-07
6.500000E+04  3.1268E-07
6.510000E+04  3.1125E-07
6.520000E+04  3.0947E-07
6.530000E+04  3.0766E-07
6.540000E+04  3.0579E-07
6.550000E+04  3.0395E-07
6.560000E+04  3.0213E-07
6.570000E+04  2.9965E-07
6.580000E+04  2.9712E-07
6.590000E+04  2.9501E-07
6.600000E+04  2.9302E-07
6.610000E+04  2.9123E-07
6.620000E+04  2.8970E-07
6.630000E+04  2.8839E-07
6.640000E+04  2.8715E-07
6.650000E+04  2.8595E-07
6.660000E+04  2.8486E-07
6.670000E+04  2.8379E-07
6.680000E+04  2.8282E-07
6.690000E+04  2.8134E-07
6.700000E+04  2.7947E-07
6.710000E+04  2.7767E-07
6.720000E+04  2.7592E-07
6.730000E+04  2.7468E-07
6.740000E+04  2.7341E-07
6.750000E+04  2.7185E-07
6.760000E+04  2.7014E-07
6.770000E+04  2.6812E-07
6.780000E+04  2.6662E-07
6.790000E+04  2.6558E-07
6.800000E+04  2.6445E-07
6.810000E+04  2.6328E-07
6.820000E+04  2.6166E-07
6.830000E+04  2.5999E-07
6.840000E+04  2.5872E-07
6.850000E+04  2.5748E-07
6.860000E+04  2.5634E-07
6.870000E+04  2.5502E-07
6.880000E+04  2.5312E-07
6.890000E+04  2.5117E-07
6.900000E+04  2.4908E-07
6.910000E+04  2.4734E-07
6.920000E+04  2.4610E-07
6.930000E+04  2.4488E-07
6.940000E+04  2.4367E-07
6.950000E+04  2.4229E-07
6.960000E+04  2.4078E-07
6.970000E+04  2.3960E-07
6.980000E+04  2.3861E-07
6.990000E+04  2.3759E-07
7.000000E+04  2.3657E-07
7.010000E+04  2.3538E-07
7.020000E+04  2.3413E-07
7.030000E+04  2.3278E-07
7.040000E+04  2.3139E-07
7.050000E+04  2.3021E-07
7.060000E+04  2.2910E-07
7.070000E+04  2.2801E-07
7.080000E+04  2.2694E-07
7.090000E+04  2.2580E-07
7.100000E+04  2.2465E-07
7.110000E+04  2.2349E-07
7.120000E+04  2.2232E-07
7.130000E+04  2.2122E-07
7.140000E+04  2.2013E-07
7.150000E+04  2.1914E-07
7.160000E+04  2.1821E-07
7.170000E+04  2.1725E-07
7.180000E+04  2.1628E-07
7.190000E+04  2.1536E-07
7.200000E+04  2.1445E-07
7.210000E+04  2.1361E-07
7.220000E+04  2.1281E-07
7.230000E+04  2.1197E-07
7.240000E+04  2.1111E-07
7.250000E+04  2.1019E-07
7.260000E+04  2.0915E-07
7.270000E+04  2.0806E-07
7.280000E+04  2.0677E-07
7.290000E+04  2.0557E-07
7.300000E+04  2.0481E-07
7.310000E+04  2.0405E-07
7.320000E+04  2.0293E-07
7.330000E+04  2.0183E-07
7.340000E+04  2.0048E-07
7.350000E+04  1.9913E-07
7.360000E+04  1.9807E-07
7.370000E+04  1.9714E-07
7.380000E+04  1.9626E-07
7.390000E+04  1.9539E-07
7.400000E+04  1.9446E-07
7.410000E+04  1.9340E-07
7.420000E+04  1.9237E-07
7.430000E+04  1.9144E-07
7.440000E+04  1.9052E-07
7.450000E+04  1.9014E-07
7.460000E+04  1.8980E-07
7.470000E+04  1.8892E-07
7.480000E+04  1.8784E-07
7.490000E+04  1.8693E-07
7.500000E+04  1.8621E-07
7.510000E+04  1.8545E-07
7.520000E+04  1.8459E-07
7.530000E+04  1.8374E-07
7.540000E+04  1.8290E-07
7.550000E+04  1.8208E-07
7.560000E+04  1.8074E-07
7.570000E+04  1.7922E-07
7.580000E+04  1.7803E-07
7.590000E+04  1.7725E-07
7.600000E+04  1.7646E-07
7.610000E+04  1.7558E-07
7.620000E+04  1.7471E-07
7.630000E+04  1.7373E-07
7.640000E+04  1.7273E-07
7.650000E+04  1.7164E-07
7.660000E+04  1.7045E-07
7.670000E+04  1.6936E-07
7.680000E+04  1.6899E-07
7.690000E+04  1.6863E-07
7.700000E+04  1.6813E-07
7.710000E+04  1.6759E-07
7.720000E+04  1.6697E-07
7.730000E+04  1.6621E-07
7.740000E+04  1.6545E-07
7.750000E+04  1.6457E-07
7.760000E+04  1.6370E-07
7.770000E+04  1.6309E-07
7.780000E+04  1.6265E-07
7.790000E+04  1.6211E-07
7.800000E+04  1.6116E-07
7.810000E+04  1.6022E-07
7.820000E+04  1.5921E-07
7.830000E+04  1.5820E-07
7.840000E+04  1.5726E-07
7.850000E+04  1.5649E-07
7.860000E+04  1.5572E-07
7.870000E+04  1.5500E-07
7.880000E+04  1.5430E-07
7.890000E+04  1.5365E-07
7.900000E+04  1.5310E-07
7.910000E+04  1.5255E-07
7.920000E+04  1.5206E-07
7.930000E+04  1.5157E-07
7.940000E+04  1.5104E-07
7.950000E+04  1.5040E-07
7.960000E+04  1.4977E-07
7.970000E+04  1.4905E-07
7.980000E+04  1.4831E-07
7.990000E+04  1.4763E-07
8.000000E+04  1.4711E-07
8.010000E+04  1.4660E-07
8.020000E+04  1.4580E-07
8.030000E+04  1.4490E-07
8.040000E+04  1.4404E-07
8.050000E+04  1.4340E-07
8.060000E+04  1.4276E-07
8.070000E+04  1.4215E-07
8.080000E+04  1.4156E-07
8.090000E+04  1.4098E-07
8.100000E+04  1.4032E-07
8.110000E+04  1.3963E-07
8.120000E+04  1.3896E-07
8.130000E+04  1.3829E-07
8.140000E+04  1.3762E-07
8.150000E+04  1.3704E-07
8.160000E+04  1.3648E-07
8.170000E+04  1.3593E-07
8.180000E+04  1.3524E-07
8.190000E+04  1.3455E-07
8.200000E+04  1.3382E-07
8.210000E+04  1.3303E-07
8.220000E+04  1.3225E-07
8.230000E+04  1.3162E-07
8.240000E+04  1.3107E-07
8.250000E+04  1.3053E-07
8.260000E+04  1.2997E-07
8.270000E+04  1.2941E-07
8.280000E+04  1.2886E-07
8.290000E+04  1.2834E-07
8.300000E+04  1.2781E-07
8.310000E+04  1.2726E-07
8.320000E+04  1.2668E-07
8.330000E+04  1.2611E-07
8.340000E+04  1.2569E-07
8.350000E+04  1.2534E-07
8.360000E+04  1.2501E-07
8.370000E+04  1.2446E-07
8.380000E+04  1.2389E-07
8.390000E+04  1.2333E-07
8.400000E+04  1.2281E-07
8.410000E+04  1.2229E-07
8.420000E+04  1.2176E-07
8.430000E+04  1.2121E-07
8.440000E+04  1.2065E-07
8.450000E+04  1.2012E-07
8.460000E+04  1.1963E-07
8.470000E+04  1.1915E-07
8.480000E+04  1.1863E-07
8.490000E+04  1.1810E-07
8.500000E+04  1.1756E-07
8.510000E+04  1.1712E-07
8.520000E+04  1.1673E-07
8.530000E+04  1.1634E-07
8.540000E+04  1.1592E-07
8.550000E+04  1.1550E-07
8.560000E+04  1.1509E-07
8.570000E+04  1.1463E-07
8.580000E+04  1.1418E-07
8.590000E+04  1.1372E-07
8.600000E+04  1.1327E-07
8.610000E+04  1.1281E-07
8.620000E+04  1.1236E-07
8.630000E+04  1.1192E-07
8.640000E+04  1.1149E-07
8.650000E+04  1.1105E-07
8.660000E+04  1.1058E-07
8.670000E+04  1.1010E-07
8.680000E+04  1.0963E-07
8.690000E+04  1.0921E-07
8.700000E+04  1.0880E-07
8.710000E+04  1.0839E-07
8.720000E+04  1.0803E-07
8.730000E+04  1.0768E-07
8.740000E+04  1.0733E-07
8.750000E+04  1.0699E-07
8.760000E+04  1.0665E-07
8.770000E+04  1.0632E-07
8.780000E+04  1.0603E-07
8.790000E+04  1.0576E-07
8.800000E+04  1.0549E-07
8.810000E+04  1.0523E-07
8.820000E+04  1.0497E-07
8.830000E+04  1.0473E-07
8.840000E+04  1.0435E-07
8.850000E+04  1.0389E-07
8.860000E+04  1.0343E-07
8.870000E+04  1.0304E-07
8.880000E+04  1.0274E-07
8.890000E+04  1.0243E-07
8.900000E+04  1.0208E-07
8.910000E+04  1.0162E-07
8.920000E+04  1.0116E-07
8.930000E+04  1.0071E-07
8.940000E+04  1.0028E-07
8.950000E+04  9.9844E-08
8.960000E+04  9.9408E-08
8.970000E+04  9.8989E-08
8.980000E+04  9.8573E-08
8.990000E+04  9.8177E-08
9.000000E+04  9.7857E-08
9.010000E+04  9.7568E-08
9.020000E+04  9.7281E-08
9.030000E+04  9.6872E-08
9.040000E+04  9.6339E-08
9.050000E+04  9.5811E-08
9.060000E+04  9.5313E-08
9.070000E+04  9.4911E-08
9.080000E+04  9.4510E-08
9.090000E+04  9.4112E-08
9.100000E+04  9.3648E-08
9.110000E+04  9.3200E-08
9.120000E+04  9.2755E-08
9.130000E+04  9.2340E-08
9.140000E+04  9.1946E-08
9.150000E+04  9.1545E-08
9.160000E+04  9.1161E-08
9.170000E+04  9.0822E-08
9.180000E+04  9.0485E-08
9.190000E+04  9.0154E-08
9.200000E+04  8.9911E-08
9.210000E+04  8.9682E-08
9.220000E+04  8.9455E-08
9.230000E+04  8.9270E-08
9.240000E+04  8.9135E-08
9.250000E+04  8.9003E-08
9.260000E+04  8.8866E-08
9.270000E+04  8.8634E-08
9.280000E+04  8.8405E-08
9.290000E+04  8.8177E-08
9.300000E+04  8.7801E-08
9.310000E+04  8.7337E-08
9.320000E+04  8.6877E-08
9.330000E+04  8.6430E-08
9.340000E+04  8.6030E-08
9.350000E+04  8.5634E-08
9.360000E+04  8.5241E-08
9.370000E+04  8.4875E-08
9.380000E+04  8.4522E-08
9.390000E+04  8.4171E-08
9.400000E+04  8.3815E-08
9.410000E+04  8.3428E-08
9.420000E+04  8.3042E-08
9.430000E+04  8.2657E-08
9.440000E+04  8.2358E-08
9.450000E+04  8.2116E-08
9.460000E+04  8.1876E-08
9.470000E+04  8.1643E-08
9.480000E+04  8.1524E-08
9.490000E+04  8.1407E-08
9.500000E+04  8.1292E-08
9.510000E+04  8.1102E-08
9.520000E+04  8.0809E-08
9.530000E+04  8.0517E-08
9.540000E+04  8.0227E-08
9.550000E+04  7.9885E-08
9.560000E+04  7.9530E-08
9.570000E+04  7.9178E-08
9.580000E+04  7.8845E-08
9.590000E+04  7.8611E-08
9.600000E+04  7.8378E-08
9.610000E+04  7.8146E-08
9.620000E+04  7.7857E-08
9.630000E+04  7.7503E-08
9.640000E+04  7.7151E-08
9.650000E+04  7.6801E-08
9.660000E+04  7.6373E-08
9.670000E+04  7.5923E-08
9.680000E+04  7.5477E-08
9.690000E+04  7.5037E-08
9.700000E+04  7.4912E-08
9.710000E+04  7.4778E-08
9.720000E+04  7.4645E-08
9.730000E+04  7.4511E-08
9.740000E+04  7.4365E-08
9.750000E+04  7.4237E-08
9.760000E+04  7.4111E-08
9.770000E+04  7.3916E-08
9.780000E+04  7.3629E-08
9.790000E+04  7.3343E-08
9.800000E+04  7.3058E-08
9.810000E+04  7.2809E-08
9.820000E+04  7.2584E-08
9.830000E+04  7.2356E-08
9.840000E+04  7.2128E-08
9.850000E+04  7.1982E-08
9.860000E+04  7.1864E-08
9.870000E+04  7.1748E-08
9.880000E+04  7.1633E-08
9.890000E+04  7.1353E-08
9.900000E+04  7.1047E-08
9.910000E+04  7.0742E-08
9.920000E+04  7.0438E-08
9.930000E+04  7.0064E-08
9.940000E+04  6.9689E-08
9.950000E+04  6.9320E-08
9.960000E+04  6.8954E-08
9.970000E+04  6.8601E-08
9.980000E+04  6.8251E-08
9.990000E+04  6.7903E-08
1.000000E+05  6.7557E-08
1.002000E+05  6.6987E-08
1.050000E+05  5.6484E-08
1.100000E+05  4.6429E-08
1.130000E+05  4.2060E-08
1.160000E+05  3.7114E-08
1.200000E+05  3.2397E-08
1.250000E+05  2.9521E-08
1.300000E+05  2.5192E-08
1.350000E+05  2.1632E-08
1.400000E+05  1.8680E-08
1.450000E+05  1.6217E-08
1.500000E+05  1.4149E-08
1.600000E+05  1.0916E-08
1.700000E+05  8.5586E-09
1.800000E+05  6.8068E-09
1.900000E+05  5.4828E-09
2.000000E+05  4.4668E-09
2.200000E+05  3.0674E-09
2.300000E+05  2.5742E-09
2.400000E+05  2.1765E-09
2.500000E+05  1.8529E-09
2.600000E+05  1.5874E-09
2.700000E+05  1.3679E-09
2.800000E+05  1.1851E-09
3.000000E+05  9.0288E-10
3.500000E+05  4.9168E-10
4.000000E+05  2.9044E-10
4.500000E+05  1.8194E-10
5.000000E+05  1.1974E-10
5.500000E+05  8.2012E-11
6.000000E+05  5.8054E-11
6.500000E+05  4.2209E-11
7.000000E+05  3.1423E-11
7.500000E+05  2.3874E-11
8.000000E+05  1.8464E-11
8.500000E+05  1.4498E-11
9.000000E+05  1.1543E-11
9.500000E+05  9.3040E-12
1.000000E+06  7.5828E-12
1.050000E+06  6.2408E-12
1.100000E+06  5.1830E-12
1.200000E+06  3.6620E-12
1.300000E+06  2.6600E-12
1.400000E+06  1.9785E-12
1.500000E+06  1.5016E-12
1.600000E+06  1.1601E-12
2.000000E+06  4.7504E-13
2.500000E+06  1.9458E-13
3.000000E+06  9.3835E-14
4.000000E+06  2.9690E-14
5.000000E+06  1.2161E-14
7.000000E+06  3.1656E-15
1.000000E+07  7.6006E-16
1.500000E+07  1.5014E-16
2.250000E+07  2.9656E-17
3.350000E+07  6.0349E-18
5.000000E+07  1.2161E-18
7.400000E+07  2.5347E-19
1.100000E+08  5.1913E-20
1.300000E+08  2.6612E-20
1.600000E+08  1.1598E-20
2.400000E+08  2.2909E-21
3.600000E+08  4.5252E-22
