# Input file name  = bc2003_lr_BaSeL_m52_chab_ssp.ised
# Output file name = spec_BC16_basel_chab_Zm52_age12.5Gyr.dat
# Record         191
# Column           2
# SED(Lo/A)       at    
# Lambda(A)    1.250E+10
9.100000E+01  1.4861E-08
9.400000E+01  2.0385E-08
9.600000E+01  2.3471E-08
9.800000E+01  2.8180E-08
1.000000E+02  3.2697E-08
1.020000E+02  3.6116E-08
1.040000E+02  3.6864E-08
1.060000E+02  3.9426E-08
1.080000E+02  4.2229E-08
1.100000E+02  5.6799E-08
1.140000E+02  6.3555E-08
1.180000E+02  6.6297E-08
1.210000E+02  1.5168E-07
1.250000E+02  1.6486E-07
1.270000E+02  1.7111E-07
1.280000E+02  1.7463E-07
1.310000E+02  1.8404E-07
1.320000E+02  1.9895E-07
1.340000E+02  2.0478E-07
1.370000E+02  2.2668E-07
1.400000E+02  2.3675E-07
1.430000E+02  3.5207E-07
1.470000E+02  5.1706E-07
1.500000E+02  5.3627E-07
1.510000E+02  5.4417E-07
1.550000E+02  5.7361E-07
1.590000E+02  6.0758E-07
1.620000E+02  6.3452E-07
1.660000E+02  6.6645E-07
1.700000E+02  6.9854E-07
1.730000E+02  7.2252E-07
1.770000E+02  7.5462E-07
1.800000E+02  7.7541E-07
1.820000E+02  7.9297E-07
1.860000E+02  8.2322E-07
1.910000E+02  8.5990E-07
1.940000E+02  8.8798E-07
1.980000E+02  9.1740E-07
2.000000E+02  9.3205E-07
2.020000E+02  9.4773E-07
2.050000E+02  9.7020E-07
2.100000E+02  9.8765E-07
2.160000E+02  1.0491E-06
2.200000E+02  1.0784E-06
2.230000E+02  1.0936E-06
2.270000E+02  1.1281E-06
2.300000E+02  1.6986E-06
2.340000E+02  2.5491E-06
2.400000E+02  3.5810E-06
2.460000E+02  3.2677E-06
2.520000E+02  3.5093E-06
2.570000E+02  2.7615E-06
2.600000E+02  3.3679E-06
2.640000E+02  3.5200E-06
2.690000E+02  3.4795E-06
2.740000E+02  3.4270E-06
2.790000E+02  3.3400E-06
2.840000E+02  3.3278E-06
2.900000E+02  3.2244E-06
2.960000E+02  3.1299E-06
3.000000E+02  2.9825E-06
3.010000E+02  2.8834E-06
3.080000E+02  2.9208E-06
3.180000E+02  2.9260E-06
3.280000E+02  2.8350E-06
3.380000E+02  2.7132E-06
3.480000E+02  2.5972E-06
3.570000E+02  2.5502E-06
3.660000E+02  2.5388E-06
3.750000E+02  2.4457E-06
3.850000E+02  2.2770E-06
3.950000E+02  2.2861E-06
4.000000E+02  2.2628E-06
4.050000E+02  2.2504E-06
4.140000E+02  2.1738E-06
4.220000E+02  2.0821E-06
4.300000E+02  2.0062E-06
4.410000E+02  1.9642E-06
4.510000E+02  1.8939E-06
4.600000E+02  1.8023E-06
4.700000E+02  1.7387E-06
4.800000E+02  1.7003E-06
4.900000E+02  1.6045E-06
5.000000E+02  1.5925E-06
5.060000E+02  1.5334E-06
5.120000E+02  1.6303E-06
5.200000E+02  1.5710E-06
5.300000E+02  1.4931E-06
5.400000E+02  1.3850E-06
5.500000E+02  1.3266E-06
5.600000E+02  1.3565E-06
5.700000E+02  1.3411E-06
5.800000E+02  1.2886E-06
5.900000E+02  1.2554E-06
6.000000E+02  1.1744E-06
6.100000E+02  1.0396E-06
6.200000E+02  1.1493E-06
6.300000E+02  1.0926E-06
6.400000E+02  1.0900E-06
6.500000E+02  1.0462E-06
6.580000E+02  9.9996E-07
6.650000E+02  1.0091E-06
6.750000E+02  9.9147E-07
6.850000E+02  9.2339E-07
6.950000E+02  9.3411E-07
7.000000E+02  8.9624E-07
7.050000E+02  8.6138E-07
7.160000E+02  8.8660E-07
7.260000E+02  8.6603E-07
7.350000E+02  8.4623E-07
7.450000E+02  8.1555E-07
7.550000E+02  7.9110E-07
7.650000E+02  7.0269E-07
7.750000E+02  7.5041E-07
7.850000E+02  7.1170E-07
7.950000E+02  7.0861E-07
8.000000E+02  7.0282E-07
8.050000E+02  6.9795E-07
8.150000E+02  6.8242E-07
8.250000E+02  6.6828E-07
8.350000E+02  6.0547E-07
8.450000E+02  6.3356E-07
8.550000E+02  6.1464E-07
8.650000E+02  6.0675E-07
8.750000E+02  5.9404E-07
8.850000E+02  5.7974E-07
8.950000E+02  5.6720E-07
9.000000E+02  5.5877E-07
9.050000E+02  5.5050E-07
9.150000E+02  5.3127E-07
9.250000E+02  8.7660E-07
9.350000E+02  1.1933E-06
9.450000E+02  1.4726E-06
9.550000E+02  1.6005E-06
9.650000E+02  1.6973E-06
9.750000E+02  9.6613E-07
9.850000E+02  1.4655E-06
9.950000E+02  1.3840E-06
1.000000E+03  1.4598E-06
1.005000E+03  1.5439E-06
1.015000E+03  1.5411E-06
1.025000E+03  1.0442E-06
1.035000E+03  1.3670E-06
1.045000E+03  1.6448E-06
1.055000E+03  1.5801E-06
1.065000E+03  1.4097E-06
1.075000E+03  1.4764E-06
1.085000E+03  1.2260E-06
1.095000E+03  1.4601E-06
1.100000E+03  1.4224E-06
1.105000E+03  1.3865E-06
1.115000E+03  1.3517E-06
1.125000E+03  1.2287E-06
1.135000E+03  1.3493E-06
1.145000E+03  1.2841E-06
1.155000E+03  1.2727E-06
1.165000E+03  1.2525E-06
1.175000E+03  9.7932E-07
1.185000E+03  1.1867E-06
1.195000E+03  1.0593E-06
1.200000E+03  9.8897E-07
1.205000E+03  9.2969E-07
1.215000E+03  6.7979E-07
1.225000E+03  1.0092E-06
1.235000E+03  1.1134E-06
1.245000E+03  1.1219E-06
1.255000E+03  1.0899E-06
1.265000E+03  1.0506E-06
1.275000E+03  1.1022E-06
1.285000E+03  1.0953E-06
1.295000E+03  9.7775E-07
1.300000E+03  9.7619E-07
1.305000E+03  9.7535E-07
1.315000E+03  1.0470E-06
1.325000E+03  1.0029E-06
1.335000E+03  9.3731E-07
1.345000E+03  9.9014E-07
1.355000E+03  9.6516E-07
1.365000E+03  9.0637E-07
1.375000E+03  8.9777E-07
1.385000E+03  8.8988E-07
1.395000E+03  7.4390E-07
1.400000E+03  7.3571E-07
1.405000E+03  7.2921E-07
1.415000E+03  8.2944E-07
1.425000E+03  8.0464E-07
1.435000E+03  8.1515E-07
1.442000E+03  8.1886E-07
1.447000E+03  8.1233E-07
1.455000E+03  7.9015E-07
1.465000E+03  7.5628E-07
1.475000E+03  7.5014E-07
1.485000E+03  7.4669E-07
1.495000E+03  7.3313E-07
1.500000E+03  7.1858E-07
1.505000E+03  7.0403E-07
1.512000E+03  6.5962E-07
1.517000E+03  6.7221E-07
1.525000E+03  6.6767E-07
1.535000E+03  6.0292E-07
1.545000E+03  5.7075E-07
1.555000E+03  5.5965E-07
1.565000E+03  5.9059E-07
1.575000E+03  6.0862E-07
1.585000E+03  6.1104E-07
1.595000E+03  6.0962E-07
1.600000E+03  5.9993E-07
1.605000E+03  5.9056E-07
1.615000E+03  5.8108E-07
1.625000E+03  5.6778E-07
1.635000E+03  5.8010E-07
1.645000E+03  5.7180E-07
1.655000E+03  5.6029E-07
1.665000E+03  5.7135E-07
1.672000E+03  5.3758E-07
1.677000E+03  5.7489E-07
1.685000E+03  5.7121E-07
1.695000E+03  5.4895E-07
1.700000E+03  5.4071E-07
1.705000E+03  5.3263E-07
1.715000E+03  5.0971E-07
1.725000E+03  5.0248E-07
1.735000E+03  5.1813E-07
1.745000E+03  5.0664E-07
1.755000E+03  5.1506E-07
1.765000E+03  4.9379E-07
1.775000E+03  4.8710E-07
1.785000E+03  4.9159E-07
1.795000E+03  5.0150E-07
1.800000E+03  5.0046E-07
1.805000E+03  4.9943E-07
1.815000E+03  4.6723E-07
1.825000E+03  4.7456E-07
1.835000E+03  4.6364E-07
1.845000E+03  4.2990E-07
1.855000E+03  4.3148E-07
1.865000E+03  4.4215E-07
1.875000E+03  4.5705E-07
1.885000E+03  4.2914E-07
1.895000E+03  4.2089E-07
1.900000E+03  4.2821E-07
1.905000E+03  4.3596E-07
1.915000E+03  4.2354E-07
1.925000E+03  4.0355E-07
1.935000E+03  3.9971E-07
1.945000E+03  4.3461E-07
1.955000E+03  4.1181E-07
1.967000E+03  4.4654E-07
1.976000E+03  4.4197E-07
1.984000E+03  4.3922E-07
1.995000E+03  4.3721E-07
2.000000E+03  4.3664E-07
2.005000E+03  4.3958E-07
2.015000E+03  4.4134E-07
2.025000E+03  4.2428E-07
2.035000E+03  4.4082E-07
2.045000E+03  4.6217E-07
2.055000E+03  4.2801E-07
2.065000E+03  4.3265E-07
2.074000E+03  4.7391E-07
2.078000E+03  6.1673E-07
2.085000E+03  7.0141E-07
2.095000E+03  6.5441E-07
2.100000E+03  6.4835E-07
2.105000E+03  6.4265E-07
2.115000E+03  7.1096E-07
2.125000E+03  6.4706E-07
2.135000E+03  6.3007E-07
2.145000E+03  7.3874E-07
2.155000E+03  7.3102E-07
2.165000E+03  6.5015E-07
2.175000E+03  6.5514E-07
2.185000E+03  7.8709E-07
2.195000E+03  7.8486E-07
2.200000E+03  7.7477E-07
2.205000E+03  7.6497E-07
2.215000E+03  6.2846E-07
2.225000E+03  7.2198E-07
2.235000E+03  9.0613E-07
2.245000E+03  8.6761E-07
2.255000E+03  6.8216E-07
2.265000E+03  6.3527E-07
2.275000E+03  6.6734E-07
2.285000E+03  8.7591E-07
2.295000E+03  7.3535E-07
2.300000E+03  8.0226E-07
2.305000E+03  8.7932E-07
2.315000E+03  7.6193E-07
2.325000E+03  6.4022E-07
2.335000E+03  5.8480E-07
2.345000E+03  4.4228E-07
2.355000E+03  7.2696E-07
2.365000E+03  4.7130E-07
2.375000E+03  5.7584E-07
2.385000E+03  3.9300E-07
2.395000E+03  4.5985E-07
2.400000E+03  4.5934E-07
2.405000E+03  4.5905E-07
2.415000E+03  5.2546E-07
2.425000E+03  8.4991E-07
2.435000E+03  8.4634E-07
2.445000E+03  1.0043E-06
2.455000E+03  1.0575E-06
2.465000E+03  9.0508E-07
2.475000E+03  7.8543E-07
2.485000E+03  4.6705E-07
2.495000E+03  5.8384E-07
2.500000E+03  7.1424E-07
2.505000E+03  8.8446E-07
2.513000E+03  4.2171E-07
2.518000E+03  3.4884E-07
2.525000E+03  3.8173E-07
2.535000E+03  6.3036E-07
2.545000E+03  6.5492E-07
2.555000E+03  1.2004E-06
2.565000E+03  8.8001E-07
2.575000E+03  1.1286E-06
2.585000E+03  9.8432E-07
2.595000E+03  8.7628E-07
2.600000E+03  8.0655E-07
2.605000E+03  7.4421E-07
2.615000E+03  6.7195E-07
2.625000E+03  9.0949E-07
2.635000E+03  1.6574E-06
2.645000E+03  2.2551E-06
2.655000E+03  3.2101E-06
2.665000E+03  2.0631E-06
2.675000E+03  2.3151E-06
2.685000E+03  2.7297E-06
2.695000E+03  1.9054E-06
2.700000E+03  2.1295E-06
2.705000E+03  2.3882E-06
2.715000E+03  1.6603E-06
2.725000E+03  1.2430E-06
2.735000E+03  1.6497E-06
2.745000E+03  9.2356E-07
2.755000E+03  1.3136E-06
2.765000E+03  1.7730E-06
2.775000E+03  1.8639E-06
2.785000E+03  1.0457E-06
2.795000E+03  4.8097E-07
2.800000E+03  5.2367E-07
2.805000E+03  5.7177E-07
2.815000E+03  1.5749E-06
2.825000E+03  2.3585E-06
2.835000E+03  2.1462E-06
2.845000E+03  1.3923E-06
2.855000E+03  7.3260E-07
2.865000E+03  2.0419E-06
2.875000E+03  3.0008E-06
2.885000E+03  2.7326E-06
2.895000E+03  3.4704E-06
2.900000E+03  3.8555E-06
2.910000E+03  4.7805E-06
2.930000E+03  4.1403E-06
2.950000E+03  3.7576E-06
2.970000E+03  3.8530E-06
2.990000E+03  3.9339E-06
3.000000E+03  3.9020E-06
3.010000E+03  3.8745E-06
3.030000E+03  4.2198E-06
3.050000E+03  4.4680E-06
3.070000E+03  4.8672E-06
3.090000E+03  4.6555E-06
3.100000E+03  5.0591E-06
3.110000E+03  5.5197E-06
3.130000E+03  5.0036E-06
3.150000E+03  4.9553E-06
3.170000E+03  5.5661E-06
3.190000E+03  4.8501E-06
3.200000E+03  5.1059E-06
3.210000E+03  5.3756E-06
3.230000E+03  4.5560E-06
3.250000E+03  6.5707E-06
3.270000E+03  7.7416E-06
3.290000E+03  7.5752E-06
3.300000E+03  7.2589E-06
3.310000E+03  6.9641E-06
3.330000E+03  7.1847E-06
3.350000E+03  6.8606E-06
3.370000E+03  4.9087E-06
3.390000E+03  5.7643E-06
3.400000E+03  5.8738E-06
3.410000E+03  5.9875E-06
3.430000E+03  6.5390E-06
3.450000E+03  6.7848E-06
3.470000E+03  7.0968E-06
3.490000E+03  8.0161E-06
3.500000E+03  8.3004E-06
3.510000E+03  8.5988E-06
3.530000E+03  7.6893E-06
3.550000E+03  8.9594E-06
3.570000E+03  6.1178E-06
3.590000E+03  6.1881E-06
3.600000E+03  6.9648E-06
3.610000E+03  7.8699E-06
3.630000E+03  8.2034E-06
3.640000E+03  8.6019E-06
3.650000E+03  9.5681E-06
3.670000E+03  1.0114E-05
3.690000E+03  9.3207E-06
3.700000E+03  9.6517E-06
3.710000E+03  1.0010E-05
3.730000E+03  6.6466E-06
3.750000E+03  7.5948E-06
3.770000E+03  9.6518E-06
3.790000E+03  9.8589E-06
3.800000E+03  9.5998E-06
3.810000E+03  9.3610E-06
3.830000E+03  5.3801E-06
3.850000E+03  7.3579E-06
3.870000E+03  7.2006E-06
3.890000E+03  8.9436E-06
3.900000E+03  9.7935E-06
3.910000E+03  1.0740E-05
3.930000E+03  5.3766E-06
3.950000E+03  9.5643E-06
3.970000E+03  6.6154E-06
3.990000E+03  1.3719E-05
4.000000E+03  1.4336E-05
4.010000E+03  1.5001E-05
4.030000E+03  1.4797E-05
4.050000E+03  1.4242E-05
4.070000E+03  1.3489E-05
4.090000E+03  1.6292E-05
4.100000E+03  1.5850E-05
4.110000E+03  1.5459E-05
4.130000E+03  1.5101E-05
4.150000E+03  1.4696E-05
4.170000E+03  1.5041E-05
4.190000E+03  1.4474E-05
4.200000E+03  1.4610E-05
4.210000E+03  1.4763E-05
4.230000E+03  1.4432E-05
4.250000E+03  1.4795E-05
4.270000E+03  1.3867E-05
4.290000E+03  1.2762E-05
4.300000E+03  1.1752E-05
4.310000E+03  1.0858E-05
4.330000E+03  1.6076E-05
4.350000E+03  1.5734E-05
4.370000E+03  1.6889E-05
4.390000E+03  1.5161E-05
4.400000E+03  1.5734E-05
4.410000E+03  1.6338E-05
4.430000E+03  1.8014E-05
4.450000E+03  1.7920E-05
4.470000E+03  1.9110E-05
4.490000E+03  1.9520E-05
4.500000E+03  2.0682E-05
4.510000E+03  2.1935E-05
4.530000E+03  1.9384E-05
4.550000E+03  2.0276E-05
4.570000E+03  2.1673E-05
4.590000E+03  2.0542E-05
4.600000E+03  2.0806E-05
4.610000E+03  2.1075E-05
4.630000E+03  2.0819E-05
4.650000E+03  2.0929E-05
4.670000E+03  2.1798E-05
4.690000E+03  2.1456E-05
4.700000E+03  2.1245E-05
4.710000E+03  2.1042E-05
4.730000E+03  2.1656E-05
4.750000E+03  2.2190E-05
4.770000E+03  2.1958E-05
4.790000E+03  2.1851E-05
4.800000E+03  2.1846E-05
4.810000E+03  2.1845E-05
4.830000E+03  2.2211E-05
4.850000E+03  2.1344E-05
4.870000E+03  1.9600E-05
4.890000E+03  2.1558E-05
4.900000E+03  2.1603E-05
4.910000E+03  2.1656E-05
4.930000E+03  2.1285E-05
4.950000E+03  2.2073E-05
4.970000E+03  2.1692E-05
4.990000E+03  2.0253E-05
5.000000E+03  1.9803E-05
5.010000E+03  1.9366E-05
5.030000E+03  2.0508E-05
5.050000E+03  2.0494E-05
5.070000E+03  2.1467E-05
5.090000E+03  2.0484E-05
5.100000E+03  2.0698E-05
5.110000E+03  2.0926E-05
5.130000E+03  2.0453E-05
5.150000E+03  1.9545E-05
5.170000E+03  1.7843E-05
5.190000E+03  1.8484E-05
5.200000E+03  1.9110E-05
5.210000E+03  1.9767E-05
5.230000E+03  2.0877E-05
5.250000E+03  2.1762E-05
5.270000E+03  1.9537E-05
5.290000E+03  2.2142E-05
5.300000E+03  2.2719E-05
5.310000E+03  2.3318E-05
5.330000E+03  2.0937E-05
5.350000E+03  2.2589E-05
5.370000E+03  2.2551E-05
5.390000E+03  2.2168E-05
5.400000E+03  2.1955E-05
5.410000E+03  2.1749E-05
5.430000E+03  2.1922E-05
5.450000E+03  2.2245E-05
5.470000E+03  2.1889E-05
5.490000E+03  2.1957E-05
5.500000E+03  2.1883E-05
5.510000E+03  2.1819E-05
5.530000E+03  2.2524E-05
5.550000E+03  2.2911E-05
5.570000E+03  2.2454E-05
5.590000E+03  2.1630E-05
5.600000E+03  2.1953E-05
5.610000E+03  2.2298E-05
5.630000E+03  2.2262E-05
5.650000E+03  2.2518E-05
5.670000E+03  2.2147E-05
5.690000E+03  2.2769E-05
5.700000E+03  2.2479E-05
5.710000E+03  2.2201E-05
5.730000E+03  2.3799E-05
5.750000E+03  2.3086E-05
5.770000E+03  2.3302E-05
5.790000E+03  2.2663E-05
5.800000E+03  2.2985E-05
5.810000E+03  2.3314E-05
5.830000E+03  2.3701E-05
5.850000E+03  2.2974E-05
5.870000E+03  2.2923E-05
5.890000E+03  2.0724E-05
5.900000E+03  2.1571E-05
5.910000E+03  2.2509E-05
5.930000E+03  2.2561E-05
5.950000E+03  2.2576E-05
5.970000E+03  2.2835E-05
5.990000E+03  2.2675E-05
6.000000E+03  2.2573E-05
6.010000E+03  2.2480E-05
6.030000E+03  2.2967E-05
6.050000E+03  2.3409E-05
6.070000E+03  2.3368E-05
6.090000E+03  2.2835E-05
6.100000E+03  2.2915E-05
6.110000E+03  2.2998E-05
6.130000E+03  2.1804E-05
6.150000E+03  2.2037E-05
6.170000E+03  2.0901E-05
6.190000E+03  2.1784E-05
6.200000E+03  2.1700E-05
6.210000E+03  2.1618E-05
6.230000E+03  2.0982E-05
6.250000E+03  2.0452E-05
6.270000E+03  2.1400E-05
6.290000E+03  2.1760E-05
6.300000E+03  2.1588E-05
6.310000E+03  2.1427E-05
6.330000E+03  2.1816E-05
6.350000E+03  2.2102E-05
6.370000E+03  2.2080E-05
6.390000E+03  2.2233E-05
6.400000E+03  2.2077E-05
6.410000E+03  2.1926E-05
6.430000E+03  2.2052E-05
6.450000E+03  2.2084E-05
6.470000E+03  2.1964E-05
6.490000E+03  2.1643E-05
6.500000E+03  2.2025E-05
6.510000E+03  2.2425E-05
6.530000E+03  2.2507E-05
6.550000E+03  2.1903E-05
6.570000E+03  2.0507E-05
6.590000E+03  2.1855E-05
6.600000E+03  2.1980E-05
6.610000E+03  2.2106E-05
6.630000E+03  2.1776E-05
6.650000E+03  2.1554E-05
6.670000E+03  2.1107E-05
6.690000E+03  2.1409E-05
6.700000E+03  2.1026E-05
6.710000E+03  2.0657E-05
6.730000E+03  2.1049E-05
6.750000E+03  2.0748E-05
6.770000E+03  2.0886E-05
6.790000E+03  2.0790E-05
6.800000E+03  2.0811E-05
6.810000E+03  2.0835E-05
6.830000E+03  2.1048E-05
6.850000E+03  2.0665E-05
6.870000E+03  2.0942E-05
6.890000E+03  2.1209E-05
6.900000E+03  2.1237E-05
6.910000E+03  2.1274E-05
6.930000E+03  2.1195E-05
6.950000E+03  2.1236E-05
6.970000E+03  2.1566E-05
6.990000E+03  2.1621E-05
7.000000E+03  2.1538E-05
7.010000E+03  2.1466E-05
7.030000E+03  2.1716E-05
7.050000E+03  2.1159E-05
7.070000E+03  2.0424E-05
7.090000E+03  1.9926E-05
7.100000E+03  1.9728E-05
7.110000E+03  1.9548E-05
7.130000E+03  1.9172E-05
7.150000E+03  1.9144E-05
7.170000E+03  1.9357E-05
7.190000E+03  1.9029E-05
7.200000E+03  1.9290E-05
7.210000E+03  1.9561E-05
7.230000E+03  1.9945E-05
7.250000E+03  2.0177E-05
7.270000E+03  2.0374E-05
7.290000E+03  2.0296E-05
7.300000E+03  2.0658E-05
7.310000E+03  2.1057E-05
7.330000E+03  2.1106E-05
7.350000E+03  2.1491E-05
7.370000E+03  2.2107E-05
7.390000E+03  2.1733E-05
7.400000E+03  2.1736E-05
7.410000E+03  2.1752E-05
7.430000E+03  2.2333E-05
7.450000E+03  2.2325E-05
7.470000E+03  2.2659E-05
7.490000E+03  2.2613E-05
7.500000E+03  2.2664E-05
7.510000E+03  2.2715E-05
7.530000E+03  2.2979E-05
7.550000E+03  2.3103E-05
7.570000E+03  2.2934E-05
7.590000E+03  2.2259E-05
7.600000E+03  2.1991E-05
7.610000E+03  2.1748E-05
7.630000E+03  2.1221E-05
7.650000E+03  2.0622E-05
7.670000E+03  1.9720E-05
7.690000E+03  2.0147E-05
7.700000E+03  1.9991E-05
7.710000E+03  1.9837E-05
7.730000E+03  1.9932E-05
7.750000E+03  1.9763E-05
7.770000E+03  2.0078E-05
7.790000E+03  2.0030E-05
7.800000E+03  2.0092E-05
7.810000E+03  2.0159E-05
7.830000E+03  2.0212E-05
7.850000E+03  2.0086E-05
7.870000E+03  2.0299E-05
7.890000E+03  2.0357E-05
7.900000E+03  2.0142E-05
7.910000E+03  1.9930E-05
7.930000E+03  2.0018E-05
7.950000E+03  2.0132E-05
7.970000E+03  2.0553E-05
7.990000E+03  2.0545E-05
8.000000E+03  2.0792E-05
8.010000E+03  2.1059E-05
8.030000E+03  2.1174E-05
8.050000E+03  2.1104E-05
8.070000E+03  2.1503E-05
8.090000E+03  2.1454E-05
8.100000E+03  2.1512E-05
8.110000E+03  2.1569E-05
8.130000E+03  2.1899E-05
8.150000E+03  2.2075E-05
8.170000E+03  2.2105E-05
8.190000E+03  2.1410E-05
8.200000E+03  2.1402E-05
8.210000E+03  2.1438E-05
8.230000E+03  2.1349E-05
8.250000E+03  2.1359E-05
8.270000E+03  2.1357E-05
8.290000E+03  2.1191E-05
8.300000E+03  2.1020E-05
8.310000E+03  2.0851E-05
8.330000E+03  2.0543E-05
8.350000E+03  2.0656E-05
8.370000E+03  2.0634E-05
8.390000E+03  2.0119E-05
8.400000E+03  2.0362E-05
8.410000E+03  2.0615E-05
8.430000E+03  2.0061E-05
8.450000E+03  1.9756E-05
8.470000E+03  1.9584E-05
8.490000E+03  1.9746E-05
8.500000E+03  1.9435E-05
8.510000E+03  1.9132E-05
8.530000E+03  1.9730E-05
8.550000E+03  1.8708E-05
8.570000E+03  2.0132E-05
8.590000E+03  1.9940E-05
8.600000E+03  2.0008E-05
8.610000E+03  2.0082E-05
8.630000E+03  2.0331E-05
8.650000E+03  2.0337E-05
8.670000E+03  1.8996E-05
8.690000E+03  1.9981E-05
8.700000E+03  2.0217E-05
8.710000E+03  2.0463E-05
8.730000E+03  2.0498E-05
8.750000E+03  2.0305E-05
8.770000E+03  2.0516E-05
8.790000E+03  2.0606E-05
8.800000E+03  2.0455E-05
8.810000E+03  2.0306E-05
8.830000E+03  2.0301E-05
8.850000E+03  2.0210E-05
8.870000E+03  1.9694E-05
8.890000E+03  1.9833E-05
8.900000E+03  1.9872E-05
8.910000E+03  1.9911E-05
8.930000E+03  1.9766E-05
8.950000E+03  1.9745E-05
8.970000E+03  1.9780E-05
8.990000E+03  1.9735E-05
9.000000E+03  1.9521E-05
9.010000E+03  1.9312E-05
9.030000E+03  1.9787E-05
9.050000E+03  2.0042E-05
9.070000E+03  1.9918E-05
9.090000E+03  1.9624E-05
9.100000E+03  1.9705E-05
9.110000E+03  1.9786E-05
9.130000E+03  1.9869E-05
9.150000E+03  1.9802E-05
9.170000E+03  1.9711E-05
9.190000E+03  1.9706E-05
9.200000E+03  1.9529E-05
9.210000E+03  1.9355E-05
9.230000E+03  1.9100E-05
9.250000E+03  1.9078E-05
9.270000E+03  1.9174E-05
9.290000E+03  1.9033E-05
9.300000E+03  1.9036E-05
9.310000E+03  1.9040E-05
9.330000E+03  1.9025E-05
9.350000E+03  1.8946E-05
9.370000E+03  1.8740E-05
9.390000E+03  1.8876E-05
9.400000E+03  1.8746E-05
9.410000E+03  1.8617E-05
9.430000E+03  1.8834E-05
9.450000E+03  1.8644E-05
9.470000E+03  1.8792E-05
9.490000E+03  1.8753E-05
9.500000E+03  1.8671E-05
9.510000E+03  1.8588E-05
9.530000E+03  1.8611E-05
9.550000E+03  1.8327E-05
9.570000E+03  1.8446E-05
9.590000E+03  1.8546E-05
9.600000E+03  1.8451E-05
9.610000E+03  1.8356E-05
9.630000E+03  1.8359E-05
9.650000E+03  1.8098E-05
9.670000E+03  1.8085E-05
9.690000E+03  1.8190E-05
9.700000E+03  1.8104E-05
9.710000E+03  1.8020E-05
9.730000E+03  1.7922E-05
9.750000E+03  1.7863E-05
9.770000E+03  1.7875E-05
9.790000E+03  1.7653E-05
9.800000E+03  1.7772E-05
9.810000E+03  1.7899E-05
9.830000E+03  1.7809E-05
9.850000E+03  1.7804E-05
9.870000E+03  1.7689E-05
9.890000E+03  1.7635E-05
9.900000E+03  1.7520E-05
9.910000E+03  1.7415E-05
9.930000E+03  1.7480E-05
9.950000E+03  1.7477E-05
9.970000E+03  1.7439E-05
9.990000E+03  1.7369E-05
1.000000E+04  1.7331E-05
1.002500E+04  1.7240E-05
1.007500E+04  1.7021E-05
1.010000E+04  1.7007E-05
1.012500E+04  1.6994E-05
1.017500E+04  1.6772E-05
1.020000E+04  1.6735E-05
1.022500E+04  1.6699E-05
1.027500E+04  1.6634E-05
1.030000E+04  1.6508E-05
1.032500E+04  1.6383E-05
1.037500E+04  1.6231E-05
1.040000E+04  1.6212E-05
1.042500E+04  1.6196E-05
1.047500E+04  1.5984E-05
1.050000E+04  1.5949E-05
1.052500E+04  1.5912E-05
1.057500E+04  1.5696E-05
1.060000E+04  1.5632E-05
1.062500E+04  1.5564E-05
1.067500E+04  1.5318E-05
1.070000E+04  1.5298E-05
1.072500E+04  1.5272E-05
1.077500E+04  1.5103E-05
1.080000E+04  1.4979E-05
1.082500E+04  1.4859E-05
1.087500E+04  1.4738E-05
1.090000E+04  1.4687E-05
1.092500E+04  1.4635E-05
1.097500E+04  1.4401E-05
1.100000E+04  1.4349E-05
1.102500E+04  1.4304E-05
1.107500E+04  1.4179E-05
1.110000E+04  1.4120E-05
1.112500E+04  1.4059E-05
1.117500E+04  1.3926E-05
1.120000E+04  1.3899E-05
1.122500E+04  1.3874E-05
1.127500E+04  1.3682E-05
1.130000E+04  1.3654E-05
1.132500E+04  1.3626E-05
1.137500E+04  1.3463E-05
1.140000E+04  1.3381E-05
1.142500E+04  1.3293E-05
1.147500E+04  1.3388E-05
1.150000E+04  1.3353E-05
1.152500E+04  1.3316E-05
1.157500E+04  1.3142E-05
1.160000E+04  1.3036E-05
1.162500E+04  1.2929E-05
1.167500E+04  1.2895E-05
1.170000E+04  1.2910E-05
1.172500E+04  1.2927E-05
1.177500E+04  1.2689E-05
1.180000E+04  1.2639E-05
1.182500E+04  1.2591E-05
1.187500E+04  1.2415E-05
1.190000E+04  1.2475E-05
1.192500E+04  1.2531E-05
1.197500E+04  1.2142E-05
1.200000E+04  1.2204E-05
1.202500E+04  1.2264E-05
1.207500E+04  1.2135E-05
1.210000E+04  1.2116E-05
1.212500E+04  1.2105E-05
1.217500E+04  1.2085E-05
1.220000E+04  1.2037E-05
1.222500E+04  1.1987E-05
1.227500E+04  1.1878E-05
1.230000E+04  1.1842E-05
1.232500E+04  1.1802E-05
1.237500E+04  1.1726E-05
1.240000E+04  1.1664E-05
1.242500E+04  1.1600E-05
1.247500E+04  1.1563E-05
1.250000E+04  1.1506E-05
1.252500E+04  1.1447E-05
1.257500E+04  1.1402E-05
1.260000E+04  1.1365E-05
1.262500E+04  1.1323E-05
1.267500E+04  1.1215E-05
1.270000E+04  1.1206E-05
1.272500E+04  1.1195E-05
1.277500E+04  1.1147E-05
1.280000E+04  1.0987E-05
1.282500E+04  1.0826E-05
1.287500E+04  1.0944E-05
1.290000E+04  1.0894E-05
1.292500E+04  1.0842E-05
1.297500E+04  1.0870E-05
1.300000E+04  1.0816E-05
1.302500E+04  1.0763E-05
1.307500E+04  1.0746E-05
1.310000E+04  1.0651E-05
1.312500E+04  1.0561E-05
1.317500E+04  1.0527E-05
1.320000E+04  1.0528E-05
1.322500E+04  1.0525E-05
1.327500E+04  1.0373E-05
1.330000E+04  1.0369E-05
1.332500E+04  1.0366E-05
1.337500E+04  1.0287E-05
1.340000E+04  1.0289E-05
1.342500E+04  1.0287E-05
1.347500E+04  1.0211E-05
1.350000E+04  1.0184E-05
1.352500E+04  1.0157E-05
1.357500E+04  1.0017E-05
1.360000E+04  9.9972E-06
1.362500E+04  9.9711E-06
1.367500E+04  9.9884E-06
1.370000E+04  9.9884E-06
1.372500E+04  9.9869E-06
1.377500E+04  9.9507E-06
1.380000E+04  9.9409E-06
1.382500E+04  9.9299E-06
1.387500E+04  9.8381E-06
1.390000E+04  9.7108E-06
1.392500E+04  9.5921E-06
1.397500E+04  9.5382E-06
1.400000E+04  9.4895E-06
1.402500E+04  9.4403E-06
1.407500E+04  9.4633E-06
1.410000E+04  9.4135E-06
1.412500E+04  9.3649E-06
1.417500E+04  9.3933E-06
1.420000E+04  9.3379E-06
1.422500E+04  9.2865E-06
1.427500E+04  9.1993E-06
1.430000E+04  9.2498E-06
1.432500E+04  9.3058E-06
1.437500E+04  9.3305E-06
1.440000E+04  9.2437E-06
1.442500E+04  9.1530E-06
1.447500E+04  9.2733E-06
1.450000E+04  9.2220E-06
1.452500E+04  9.1702E-06
1.457000E+04  9.2006E-06
1.460000E+04  9.1202E-06
1.462000E+04  9.0658E-06
1.467500E+04  9.0214E-06
1.470000E+04  8.9785E-06
1.472500E+04  8.9426E-06
1.477500E+04  8.9758E-06
1.480000E+04  8.9814E-06
1.482500E+04  8.9908E-06
1.487500E+04  8.9172E-06
1.490000E+04  8.9847E-06
1.492500E+04  9.0584E-06
1.497500E+04  8.9967E-06
1.500000E+04  8.9361E-06
1.502500E+04  8.8742E-06
1.507500E+04  8.8975E-06
1.510000E+04  8.9559E-06
1.512500E+04  9.0120E-06
1.517500E+04  9.0265E-06
1.520000E+04  9.0154E-06
1.522500E+04  8.9967E-06
1.527500E+04  9.0308E-06
1.530000E+04  9.0112E-06
1.532500E+04  8.9936E-06
1.537500E+04  8.9808E-06
1.540000E+04  8.9711E-06
1.542500E+04  8.9585E-06
1.547500E+04  8.9579E-06
1.550000E+04  8.9292E-06
1.552500E+04  8.8998E-06
1.557500E+04  8.7594E-06
1.560000E+04  8.7847E-06
1.562500E+04  8.8074E-06
1.567500E+04  8.7677E-06
1.570000E+04  8.8035E-06
1.572500E+04  8.8401E-06
1.577500E+04  8.5289E-06
1.580000E+04  8.5323E-06
1.582500E+04  8.5422E-06
1.587500E+04  8.4915E-06
1.590000E+04  8.5952E-06
1.592500E+04  8.6951E-06
1.597500E+04  8.5817E-06
1.600000E+04  8.5760E-06
1.605000E+04  8.5670E-06
1.610000E+04  8.5891E-06
1.615000E+04  8.6167E-06
1.620000E+04  8.5346E-06
1.625000E+04  8.4521E-06
1.630000E+04  8.5059E-06
1.635000E+04  8.5581E-06
1.640000E+04  8.4282E-06
1.645000E+04  8.3003E-06
1.650000E+04  8.3379E-06
1.655000E+04  8.3772E-06
1.660000E+04  8.2949E-06
1.665000E+04  8.2055E-06
1.670000E+04  8.1568E-06
1.675000E+04  8.1047E-06
1.680000E+04  8.0202E-06
1.685000E+04  7.9462E-06
1.690000E+04  7.9381E-06
1.695000E+04  7.9273E-06
1.700000E+04  7.8465E-06
1.705000E+04  7.7640E-06
1.710000E+04  7.7022E-06
1.715000E+04  7.6380E-06
1.720000E+04  7.5693E-06
1.725000E+04  7.5025E-06
1.730000E+04  7.4042E-06
1.735000E+04  7.3079E-06
1.740000E+04  7.2698E-06
1.745000E+04  7.2317E-06
1.750000E+04  7.1751E-06
1.755000E+04  7.1283E-06
1.760000E+04  7.0659E-06
1.765000E+04  7.0004E-06
1.770000E+04  6.9304E-06
1.775000E+04  6.8684E-06
1.780000E+04  6.8258E-06
1.785000E+04  6.7867E-06
1.790000E+04  6.7151E-06
1.795000E+04  6.6554E-06
1.800000E+04  6.6052E-06
1.805000E+04  6.5392E-06
1.810000E+04  6.4812E-06
1.815000E+04  6.4174E-06
1.820000E+04  6.3831E-06
1.825000E+04  6.3417E-06
1.830000E+04  6.3014E-06
1.835000E+04  6.2600E-06
1.840000E+04  6.2017E-06
1.845000E+04  6.1559E-06
1.850000E+04  6.1381E-06
1.855000E+04  6.1079E-06
1.860000E+04  6.0504E-06
1.865000E+04  5.9928E-06
1.870000E+04  5.9307E-06
1.875000E+04  5.8520E-06
1.880000E+04  5.8370E-06
1.885000E+04  5.8217E-06
1.890000E+04  5.7341E-06
1.895000E+04  5.6557E-06
1.900000E+04  5.6516E-06
1.905000E+04  5.6458E-06
1.910000E+04  5.5859E-06
1.915000E+04  5.5284E-06
1.920000E+04  5.4828E-06
1.925000E+04  5.4404E-06
1.930000E+04  5.3773E-06
1.935000E+04  5.3114E-06
1.940000E+04  5.2388E-06
1.945000E+04  5.1727E-06
1.950000E+04  5.1618E-06
1.955000E+04  5.1504E-06
1.960000E+04  5.1113E-06
1.965000E+04  5.0673E-06
1.970000E+04  5.0163E-06
1.975000E+04  4.9593E-06
1.980000E+04  4.9219E-06
1.985000E+04  4.8892E-06
1.990000E+04  4.8637E-06
1.995000E+04  4.8348E-06
2.000000E+04  4.8105E-06
2.005000E+04  4.7946E-06
2.010000E+04  4.7680E-06
2.015000E+04  4.7394E-06
2.020000E+04  4.6907E-06
2.025000E+04  4.6412E-06
2.030000E+04  4.6045E-06
2.035000E+04  4.5709E-06
2.040000E+04  4.5513E-06
2.045000E+04  4.5369E-06
2.050000E+04  4.5034E-06
2.055000E+04  4.4690E-06
2.060000E+04  4.4305E-06
2.065000E+04  4.3948E-06
2.070000E+04  4.3698E-06
2.075000E+04  4.3437E-06
2.080000E+04  4.3174E-06
2.085000E+04  4.2953E-06
2.090000E+04  4.2587E-06
2.095000E+04  4.2179E-06
2.100000E+04  4.2000E-06
2.105000E+04  4.1846E-06
2.110000E+04  4.1536E-06
2.115000E+04  4.1194E-06
2.120000E+04  4.0907E-06
2.125000E+04  4.0673E-06
2.130000E+04  4.0441E-06
2.135000E+04  4.0222E-06
2.140000E+04  3.9940E-06
2.145000E+04  3.9633E-06
2.150000E+04  3.9383E-06
2.155000E+04  3.9118E-06
2.160000E+04  3.8706E-06
2.165000E+04  3.8312E-06
2.170000E+04  3.8109E-06
2.175000E+04  3.7914E-06
2.180000E+04  3.7697E-06
2.185000E+04  3.7462E-06
2.190000E+04  3.7231E-06
2.195000E+04  3.7010E-06
2.200000E+04  3.6614E-06
2.205000E+04  3.6233E-06
2.210000E+04  3.6128E-06
2.215000E+04  3.6034E-06
2.220000E+04  3.5712E-06
2.225000E+04  3.5395E-06
2.230000E+04  3.5191E-06
2.235000E+04  3.4960E-06
2.240000E+04  3.4733E-06
2.245000E+04  3.4527E-06
2.250000E+04  3.4283E-06
2.255000E+04  3.4033E-06
2.260000E+04  3.3733E-06
2.265000E+04  3.3473E-06
2.270000E+04  3.3333E-06
2.275000E+04  3.3163E-06
2.280000E+04  3.2854E-06
2.285000E+04  3.2568E-06
2.290000E+04  3.0178E-06
2.295000E+04  2.8011E-06
2.300000E+04  2.8757E-06
2.305000E+04  2.9516E-06
2.310000E+04  2.9543E-06
2.315000E+04  2.9502E-06
2.320000E+04  2.7431E-06
2.325000E+04  2.5637E-06
2.330000E+04  2.6546E-06
2.335000E+04  2.7380E-06
2.340000E+04  2.6808E-06
2.345000E+04  2.6313E-06
2.350000E+04  2.5079E-06
2.355000E+04  2.3952E-06
2.360000E+04  2.4690E-06
2.365000E+04  2.5497E-06
2.370000E+04  2.5032E-06
2.375000E+04  2.4547E-06
2.380000E+04  2.3620E-06
2.385000E+04  2.2733E-06
2.390000E+04  2.3352E-06
2.395000E+04  2.3931E-06
2.400000E+04  2.3674E-06
2.405000E+04  2.3427E-06
2.410000E+04  2.2602E-06
2.415000E+04  2.1819E-06
2.420000E+04  2.2108E-06
2.425000E+04  2.2432E-06
2.430000E+04  2.2167E-06
2.435000E+04  2.1903E-06
2.440000E+04  2.1517E-06
2.445000E+04  2.1103E-06
2.450000E+04  2.1000E-06
2.455000E+04  2.0909E-06
2.460000E+04  2.0903E-06
2.465000E+04  2.0898E-06
2.470000E+04  2.0607E-06
2.475000E+04  2.0317E-06
2.480000E+04  1.9190E-06
2.485000E+04  1.8181E-06
2.490000E+04  1.7896E-06
2.495000E+04  1.7637E-06
2.500000E+04  1.7737E-06
2.505000E+04  1.7845E-06
2.510000E+04  1.7538E-06
2.515000E+04  1.7254E-06
2.520000E+04  1.7425E-06
2.525000E+04  1.7603E-06
2.530000E+04  1.7635E-06
2.535000E+04  1.7664E-06
2.540000E+04  1.7601E-06
2.545000E+04  1.7553E-06
2.550000E+04  1.7569E-06
2.555000E+04  1.7579E-06
2.560000E+04  1.7623E-06
2.565000E+04  1.7669E-06
2.570000E+04  1.7719E-06
2.575000E+04  1.7774E-06
2.580000E+04  1.7595E-06
2.585000E+04  1.7417E-06
2.590000E+04  1.7440E-06
2.595000E+04  1.7483E-06
2.600000E+04  1.7475E-06
2.605000E+04  1.7460E-06
2.610000E+04  1.7350E-06
2.615000E+04  1.7215E-06
2.620000E+04  1.7091E-06
2.625000E+04  1.6980E-06
2.630000E+04  1.7009E-06
2.635000E+04  1.7008E-06
2.640000E+04  1.6927E-06
2.645000E+04  1.6838E-06
2.650000E+04  1.6756E-06
2.655000E+04  1.6686E-06
2.660000E+04  1.6618E-06
2.665000E+04  1.6502E-06
2.670000E+04  1.6509E-06
2.675000E+04  1.6499E-06
2.680000E+04  1.6398E-06
2.685000E+04  1.6298E-06
2.690000E+04  1.6185E-06
2.695000E+04  1.6100E-06
2.700000E+04  1.6080E-06
2.705000E+04  1.6017E-06
2.710000E+04  1.5908E-06
2.715000E+04  1.5845E-06
2.720000E+04  1.5844E-06
2.725000E+04  1.5801E-06
2.730000E+04  1.5700E-06
2.735000E+04  1.5577E-06
2.740000E+04  1.5579E-06
2.745000E+04  1.5558E-06
2.750000E+04  1.5466E-06
2.755000E+04  1.5362E-06
2.760000E+04  1.5252E-06
2.765000E+04  1.5174E-06
2.770000E+04  1.5104E-06
2.775000E+04  1.5038E-06
2.780000E+04  1.5003E-06
2.785000E+04  1.4968E-06
2.790000E+04  1.4904E-06
2.795000E+04  1.4883E-06
2.800000E+04  1.4768E-06
2.805000E+04  1.4692E-06
2.810000E+04  1.4568E-06
2.815000E+04  1.4506E-06
2.820000E+04  1.4448E-06
2.825000E+04  1.4393E-06
2.830000E+04  1.4329E-06
2.835000E+04  1.4210E-06
2.840000E+04  1.4069E-06
2.845000E+04  1.3941E-06
2.850000E+04  1.3909E-06
2.855000E+04  1.3901E-06
2.860000E+04  1.3859E-06
2.865000E+04  1.3790E-06
2.870000E+04  1.3667E-06
2.875000E+04  1.3596E-06
2.880000E+04  1.3547E-06
2.885000E+04  1.3457E-06
2.890000E+04  1.3367E-06
2.895000E+04  1.3272E-06
2.900000E+04  1.3253E-06
2.905000E+04  1.3192E-06
2.910000E+04  1.3109E-06
2.915000E+04  1.3014E-06
2.920000E+04  1.2898E-06
2.925000E+04  1.2792E-06
2.930000E+04  1.2764E-06
2.935000E+04  1.2693E-06
2.940000E+04  1.2611E-06
2.945000E+04  1.2518E-06
2.950000E+04  1.2442E-06
2.955000E+04  1.2379E-06
2.960000E+04  1.2316E-06
2.965000E+04  1.2252E-06
2.970000E+04  1.2187E-06
2.975000E+04  1.2118E-06
2.980000E+04  1.2050E-06
2.985000E+04  1.1975E-06
2.990000E+04  1.1908E-06
2.995000E+04  1.1848E-06
3.000000E+04  1.1790E-06
3.005000E+04  1.1732E-06
3.010000E+04  1.1682E-06
3.015000E+04  1.1629E-06
3.020000E+04  1.1567E-06
3.025000E+04  1.1506E-06
3.030000E+04  1.1435E-06
3.035000E+04  1.1365E-06
3.040000E+04  1.1329E-06
3.045000E+04  1.1295E-06
3.050000E+04  1.1240E-06
3.055000E+04  1.1186E-06
3.060000E+04  1.1134E-06
3.065000E+04  1.1079E-06
3.070000E+04  1.1034E-06
3.075000E+04  1.0989E-06
3.080000E+04  1.0926E-06
3.085000E+04  1.0865E-06
3.090000E+04  1.0814E-06
3.095000E+04  1.0763E-06
3.100000E+04  1.0721E-06
3.105000E+04  1.0679E-06
3.110000E+04  1.0607E-06
3.115000E+04  1.0534E-06
3.120000E+04  1.0496E-06
3.125000E+04  1.0458E-06
3.130000E+04  1.0406E-06
3.135000E+04  1.0356E-06
3.140000E+04  1.0305E-06
3.145000E+04  1.0255E-06
3.150000E+04  1.0196E-06
3.155000E+04  1.0137E-06
3.160000E+04  1.0087E-06
3.165000E+04  1.0036E-06
3.170000E+04  9.9906E-07
3.175000E+04  9.9455E-07
3.180000E+04  9.8959E-07
3.185000E+04  9.8477E-07
3.190000E+04  9.7997E-07
3.195000E+04  9.7514E-07
3.200000E+04  9.6986E-07
3.210000E+04  9.5912E-07
3.220000E+04  9.4930E-07
3.230000E+04  9.3983E-07
3.240000E+04  9.3028E-07
3.250000E+04  9.2099E-07
3.260000E+04  9.1134E-07
3.270000E+04  9.0177E-07
3.280000E+04  8.9162E-07
3.290000E+04  8.8180E-07
3.300000E+04  8.7317E-07
3.310000E+04  8.6440E-07
3.320000E+04  8.5553E-07
3.330000E+04  8.4691E-07
3.340000E+04  8.3976E-07
3.350000E+04  8.3338E-07
3.360000E+04  8.2427E-07
3.370000E+04  8.1412E-07
3.380000E+04  8.0666E-07
3.390000E+04  7.9849E-07
3.400000E+04  7.9035E-07
3.410000E+04  7.8399E-07
3.420000E+04  7.7679E-07
3.430000E+04  7.7242E-07
3.440000E+04  7.6614E-07
3.450000E+04  7.5661E-07
3.460000E+04  7.4686E-07
3.470000E+04  7.4059E-07
3.480000E+04  7.3211E-07
3.490000E+04  7.2253E-07
3.500000E+04  7.1511E-07
3.510000E+04  7.1012E-07
3.520000E+04  7.0063E-07
3.530000E+04  6.9400E-07
3.540000E+04  6.8442E-07
3.550000E+04  6.7650E-07
3.560000E+04  6.7063E-07
3.570000E+04  6.6474E-07
3.580000E+04  6.5716E-07
3.590000E+04  6.4951E-07
3.600000E+04  6.4471E-07
3.610000E+04  6.3828E-07
3.620000E+04  6.3093E-07
3.630000E+04  6.2220E-07
3.640000E+04  6.1555E-07
3.650000E+04  6.0805E-07
3.660000E+04  6.0108E-07
3.670000E+04  5.9505E-07
3.680000E+04  5.8755E-07
3.690000E+04  5.8024E-07
3.700000E+04  5.7304E-07
3.710000E+04  5.6675E-07
3.720000E+04  5.6147E-07
3.730000E+04  5.5598E-07
3.740000E+04  5.4858E-07
3.750000E+04  5.4164E-07
3.760000E+04  5.3678E-07
3.770000E+04  5.3210E-07
3.780000E+04  5.2655E-07
3.790000E+04  5.2132E-07
3.800000E+04  5.1633E-07
3.810000E+04  5.1123E-07
3.820000E+04  5.0620E-07
3.830000E+04  5.0140E-07
3.840000E+04  4.9666E-07
3.850000E+04  4.9184E-07
3.860000E+04  4.8658E-07
3.870000E+04  4.8143E-07
3.880000E+04  4.7691E-07
3.890000E+04  4.7238E-07
3.900000E+04  4.6798E-07
3.910000E+04  4.6367E-07
3.920000E+04  4.5943E-07
3.930000E+04  4.5527E-07
3.940000E+04  4.5051E-07
3.950000E+04  4.4587E-07
3.960000E+04  4.4179E-07
3.970000E+04  4.3792E-07
3.980000E+04  4.3309E-07
3.990000E+04  4.2845E-07
4.000000E+04  4.2489E-07
4.010000E+04  4.2149E-07
4.020000E+04  4.1792E-07
4.030000E+04  4.1470E-07
4.040000E+04  4.1087E-07
4.050000E+04  4.0686E-07
4.060000E+04  4.0372E-07
4.070000E+04  4.0050E-07
4.080000E+04  3.9750E-07
4.090000E+04  3.9438E-07
4.100000E+04  3.9162E-07
4.110000E+04  3.8849E-07
4.120000E+04  3.8537E-07
4.130000E+04  3.8204E-07
4.140000E+04  3.7797E-07
4.150000E+04  3.7447E-07
4.160000E+04  3.7122E-07
4.170000E+04  3.6904E-07
4.180000E+04  3.6607E-07
4.190000E+04  3.6335E-07
4.200000E+04  3.5951E-07
4.210000E+04  3.5636E-07
4.220000E+04  3.5438E-07
4.230000E+04  3.5238E-07
4.240000E+04  3.4965E-07
4.250000E+04  3.4621E-07
4.260000E+04  3.4358E-07
4.270000E+04  3.4123E-07
4.280000E+04  3.3399E-07
4.290000E+04  3.2715E-07
4.300000E+04  3.1991E-07
4.310000E+04  3.1330E-07
4.320000E+04  3.1326E-07
4.330000E+04  3.1212E-07
4.340000E+04  3.0486E-07
4.350000E+04  2.9823E-07
4.360000E+04  2.9420E-07
4.370000E+04  2.9128E-07
4.380000E+04  2.8808E-07
4.390000E+04  2.8559E-07
4.400000E+04  2.8046E-07
4.410000E+04  2.7635E-07
4.420000E+04  2.7422E-07
4.430000E+04  2.7153E-07
4.440000E+04  2.6975E-07
4.450000E+04  2.6660E-07
4.460000E+04  2.6303E-07
4.470000E+04  2.5943E-07
4.480000E+04  2.5821E-07
4.490000E+04  2.5767E-07
4.500000E+04  2.5520E-07
4.510000E+04  2.5276E-07
4.520000E+04  2.4948E-07
4.530000E+04  2.4652E-07
4.540000E+04  2.4480E-07
4.550000E+04  2.4318E-07
4.560000E+04  2.4098E-07
4.570000E+04  2.3917E-07
4.580000E+04  2.3565E-07
4.590000E+04  2.3198E-07
4.600000E+04  2.3183E-07
4.610000E+04  2.3175E-07
4.620000E+04  2.2963E-07
4.630000E+04  2.2782E-07
4.640000E+04  2.2648E-07
4.650000E+04  2.2507E-07
4.660000E+04  2.2424E-07
4.670000E+04  2.2328E-07
4.680000E+04  2.2081E-07
4.690000E+04  2.1864E-07
4.700000E+04  2.1694E-07
4.710000E+04  2.1517E-07
4.720000E+04  2.1505E-07
4.730000E+04  2.1506E-07
4.740000E+04  2.1253E-07
4.750000E+04  2.1008E-07
4.760000E+04  2.0903E-07
4.770000E+04  2.0782E-07
4.780000E+04  2.0650E-07
4.790000E+04  2.0523E-07
4.800000E+04  2.0267E-07
4.810000E+04  2.0033E-07
4.820000E+04  2.0045E-07
4.830000E+04  2.0060E-07
4.840000E+04  1.9851E-07
4.850000E+04  1.9632E-07
4.860000E+04  1.9458E-07
4.870000E+04  1.9287E-07
4.880000E+04  1.9147E-07
4.890000E+04  1.9024E-07
4.900000E+04  1.8875E-07
4.910000E+04  1.8716E-07
4.920000E+04  1.8626E-07
4.930000E+04  1.8533E-07
4.940000E+04  1.8342E-07
4.950000E+04  1.8171E-07
4.960000E+04  1.8102E-07
4.970000E+04  1.8026E-07
4.980000E+04  1.7847E-07
4.990000E+04  1.7714E-07
5.000000E+04  1.7605E-07
5.010000E+04  1.7496E-07
5.020000E+04  1.7378E-07
5.030000E+04  1.7246E-07
5.040000E+04  1.7072E-07
5.050000E+04  1.6904E-07
5.060000E+04  1.6811E-07
5.070000E+04  1.6718E-07
5.080000E+04  1.6620E-07
5.090000E+04  1.6523E-07
5.100000E+04  1.6395E-07
5.110000E+04  1.6256E-07
5.120000E+04  1.6182E-07
5.130000E+04  1.6095E-07
5.140000E+04  1.5963E-07
5.150000E+04  1.5839E-07
5.160000E+04  1.5784E-07
5.170000E+04  1.5723E-07
5.180000E+04  1.5582E-07
5.190000E+04  1.5452E-07
5.200000E+04  1.5361E-07
5.210000E+04  1.5256E-07
5.220000E+04  1.5138E-07
5.230000E+04  1.5028E-07
5.240000E+04  1.4969E-07
5.250000E+04  1.4893E-07
5.260000E+04  1.4838E-07
5.270000E+04  1.4788E-07
5.280000E+04  1.4647E-07
5.290000E+04  1.4503E-07
5.300000E+04  1.4412E-07
5.310000E+04  1.4322E-07
5.320000E+04  1.4251E-07
5.330000E+04  1.4175E-07
5.340000E+04  1.4086E-07
5.350000E+04  1.3996E-07
5.360000E+04  1.3917E-07
5.370000E+04  1.3841E-07
5.380000E+04  1.3760E-07
5.390000E+04  1.3680E-07
5.400000E+04  1.3598E-07
5.410000E+04  1.3517E-07
5.420000E+04  1.3411E-07
5.430000E+04  1.3303E-07
5.440000E+04  1.3247E-07
5.450000E+04  1.3192E-07
5.460000E+04  1.3092E-07
5.470000E+04  1.2993E-07
5.480000E+04  1.2918E-07
5.490000E+04  1.2840E-07
5.500000E+04  1.2753E-07
5.510000E+04  1.2667E-07
5.520000E+04  1.2640E-07
5.530000E+04  1.2619E-07
5.540000E+04  1.2470E-07
5.550000E+04  1.2341E-07
5.560000E+04  1.2315E-07
5.570000E+04  1.2285E-07
5.580000E+04  1.2183E-07
5.590000E+04  1.2079E-07
5.600000E+04  1.2023E-07
5.610000E+04  1.1964E-07
5.620000E+04  1.1861E-07
5.630000E+04  1.1766E-07
5.640000E+04  1.1722E-07
5.650000E+04  1.1677E-07
5.660000E+04  1.1603E-07
5.670000E+04  1.1525E-07
5.680000E+04  1.1432E-07
5.690000E+04  1.1340E-07
5.700000E+04  1.1294E-07
5.710000E+04  1.1249E-07
5.720000E+04  1.1177E-07
5.730000E+04  1.1108E-07
5.740000E+04  1.1040E-07
5.750000E+04  1.0969E-07
5.760000E+04  1.0890E-07
5.770000E+04  1.0819E-07
5.780000E+04  1.0777E-07
5.790000E+04  1.0736E-07
5.800000E+04  1.0658E-07
5.810000E+04  1.0583E-07
5.820000E+04  1.0526E-07
5.830000E+04  1.0469E-07
5.840000E+04  1.0412E-07
5.850000E+04  1.0349E-07
5.860000E+04  1.0275E-07
5.870000E+04  1.0207E-07
5.880000E+04  1.0146E-07
5.890000E+04  1.0087E-07
5.900000E+04  1.0029E-07
5.910000E+04  9.9698E-08
5.920000E+04  9.9088E-08
5.930000E+04  9.8487E-08
5.940000E+04  9.7796E-08
5.950000E+04  9.7179E-08
5.960000E+04  9.6728E-08
5.970000E+04  9.6262E-08
5.980000E+04  9.5669E-08
5.990000E+04  9.5067E-08
6.000000E+04  9.4472E-08
6.010000E+04  9.3883E-08
6.020000E+04  9.3333E-08
6.030000E+04  9.2803E-08
6.040000E+04  9.2215E-08
6.050000E+04  9.1637E-08
6.060000E+04  9.1151E-08
6.070000E+04  9.0657E-08
6.080000E+04  9.0112E-08
6.090000E+04  8.9572E-08
6.100000E+04  8.8989E-08
6.110000E+04  8.8386E-08
6.120000E+04  8.7902E-08
6.130000E+04  8.7428E-08
6.140000E+04  8.6932E-08
6.150000E+04  8.6444E-08
6.160000E+04  8.5971E-08
6.170000E+04  8.5472E-08
6.180000E+04  8.4928E-08
6.190000E+04  8.4390E-08
6.200000E+04  8.3898E-08
6.210000E+04  8.3435E-08
6.220000E+04  8.2905E-08
6.230000E+04  8.2380E-08
6.240000E+04  8.1879E-08
6.250000E+04  8.1386E-08
6.260000E+04  8.0898E-08
6.270000E+04  8.0408E-08
6.280000E+04  7.9922E-08
6.290000E+04  7.9446E-08
6.300000E+04  7.8948E-08
6.310000E+04  7.8477E-08
6.320000E+04  7.8097E-08
6.330000E+04  7.7725E-08
6.340000E+04  7.7274E-08
6.350000E+04  7.6822E-08
6.360000E+04  7.6466E-08
6.370000E+04  7.6095E-08
6.380000E+04  7.5591E-08
6.390000E+04  7.5067E-08
6.400000E+04  7.4616E-08
6.410000E+04  7.4158E-08
6.420000E+04  7.3727E-08
6.430000E+04  7.3281E-08
6.440000E+04  7.2857E-08
6.450000E+04  7.2429E-08
6.460000E+04  7.2002E-08
6.470000E+04  7.1575E-08
6.480000E+04  7.1170E-08
6.490000E+04  7.0806E-08
6.500000E+04  7.0430E-08
6.510000E+04  7.0043E-08
6.520000E+04  6.9644E-08
6.530000E+04  6.9245E-08
6.540000E+04  6.8846E-08
6.550000E+04  6.8460E-08
6.560000E+04  6.8078E-08
6.570000E+04  6.7667E-08
6.580000E+04  6.7257E-08
6.590000E+04  6.6852E-08
6.600000E+04  6.6454E-08
6.610000E+04  6.6068E-08
6.620000E+04  6.5696E-08
6.630000E+04  6.5342E-08
6.640000E+04  6.4995E-08
6.650000E+04  6.4652E-08
6.660000E+04  6.4315E-08
6.670000E+04  6.3982E-08
6.680000E+04  6.3656E-08
6.690000E+04  6.3309E-08
6.700000E+04  6.2946E-08
6.710000E+04  6.2579E-08
6.720000E+04  6.2217E-08
6.730000E+04  6.1880E-08
6.740000E+04  6.1544E-08
6.750000E+04  6.1203E-08
6.760000E+04  6.0857E-08
6.770000E+04  6.0499E-08
6.780000E+04  6.0167E-08
6.790000E+04  5.9853E-08
6.800000E+04  5.9538E-08
6.810000E+04  5.9222E-08
6.820000E+04  5.8888E-08
6.830000E+04  5.8558E-08
6.840000E+04  5.8247E-08
6.850000E+04  5.7940E-08
6.860000E+04  5.7639E-08
6.870000E+04  5.7325E-08
6.880000E+04  5.6985E-08
6.890000E+04  5.6645E-08
6.900000E+04  5.6301E-08
6.910000E+04  5.5978E-08
6.920000E+04  5.5680E-08
6.930000E+04  5.5384E-08
6.940000E+04  5.5090E-08
6.950000E+04  5.4790E-08
6.960000E+04  5.4486E-08
6.970000E+04  5.4198E-08
6.980000E+04  5.3920E-08
6.990000E+04  5.3638E-08
7.000000E+04  5.3357E-08
7.010000E+04  5.3071E-08
7.020000E+04  5.2783E-08
7.030000E+04  5.2499E-08
7.040000E+04  5.2215E-08
7.050000E+04  5.1943E-08
7.060000E+04  5.1675E-08
7.070000E+04  5.1404E-08
7.080000E+04  5.1136E-08
7.090000E+04  5.0867E-08
7.100000E+04  5.0598E-08
7.110000E+04  5.0332E-08
7.120000E+04  5.0066E-08
7.130000E+04  4.9805E-08
7.140000E+04  4.9547E-08
7.150000E+04  4.9291E-08
7.160000E+04  4.9040E-08
7.170000E+04  4.8789E-08
7.180000E+04  4.8540E-08
7.190000E+04  4.8294E-08
7.200000E+04  4.8052E-08
7.210000E+04  4.7813E-08
7.220000E+04  4.7577E-08
7.230000E+04  4.7340E-08
7.240000E+04  4.7103E-08
7.250000E+04  4.6864E-08
7.260000E+04  4.6621E-08
7.270000E+04  4.6380E-08
7.280000E+04  4.6131E-08
7.290000E+04  4.5886E-08
7.300000E+04  4.5664E-08
7.310000E+04  4.5438E-08
7.320000E+04  4.5199E-08
7.330000E+04  4.4960E-08
7.340000E+04  4.4713E-08
7.350000E+04  4.4469E-08
7.360000E+04  4.4240E-08
7.370000E+04  4.4017E-08
7.380000E+04  4.3799E-08
7.390000E+04  4.3578E-08
7.400000E+04  4.3355E-08
7.410000E+04  4.3129E-08
7.420000E+04  4.2904E-08
7.430000E+04  4.2684E-08
7.440000E+04  4.2465E-08
7.450000E+04  4.2273E-08
7.460000E+04  4.2083E-08
7.470000E+04  4.1875E-08
7.480000E+04  4.1659E-08
7.490000E+04  4.1453E-08
7.500000E+04  4.1255E-08
7.510000E+04  4.1055E-08
7.520000E+04  4.0851E-08
7.530000E+04  4.0648E-08
7.540000E+04  4.0447E-08
7.550000E+04  4.0251E-08
7.560000E+04  4.0032E-08
7.570000E+04  3.9805E-08
7.580000E+04  3.9595E-08
7.590000E+04  3.9401E-08
7.600000E+04  3.9208E-08
7.610000E+04  3.9012E-08
7.620000E+04  3.8817E-08
7.630000E+04  3.8619E-08
7.640000E+04  3.8421E-08
7.650000E+04  3.8220E-08
7.660000E+04  3.8015E-08
7.670000E+04  3.7815E-08
7.680000E+04  3.7648E-08
7.690000E+04  3.7482E-08
7.700000E+04  3.7311E-08
7.710000E+04  3.7141E-08
7.720000E+04  3.6968E-08
7.730000E+04  3.6789E-08
7.740000E+04  3.6611E-08
7.750000E+04  3.6429E-08
7.760000E+04  3.6247E-08
7.770000E+04  3.6079E-08
7.780000E+04  3.5919E-08
7.790000E+04  3.5755E-08
7.800000E+04  3.5573E-08
7.810000E+04  3.5392E-08
7.820000E+04  3.5210E-08
7.830000E+04  3.5027E-08
7.840000E+04  3.4849E-08
7.850000E+04  3.4679E-08
7.860000E+04  3.4510E-08
7.870000E+04  3.4345E-08
7.880000E+04  3.4181E-08
7.890000E+04  3.4020E-08
7.900000E+04  3.3864E-08
7.910000E+04  3.3710E-08
7.920000E+04  3.3558E-08
7.930000E+04  3.3408E-08
7.940000E+04  3.3256E-08
7.950000E+04  3.3101E-08
7.960000E+04  3.2947E-08
7.970000E+04  3.2789E-08
7.980000E+04  3.2632E-08
7.990000E+04  3.2476E-08
8.000000E+04  3.2328E-08
8.010000E+04  3.2182E-08
8.020000E+04  3.2023E-08
8.030000E+04  3.1861E-08
8.040000E+04  3.1702E-08
8.050000E+04  3.1553E-08
8.060000E+04  3.1405E-08
8.070000E+04  3.1261E-08
8.080000E+04  3.1118E-08
8.090000E+04  3.0976E-08
8.100000E+04  3.0831E-08
8.110000E+04  3.0683E-08
8.120000E+04  3.0537E-08
8.130000E+04  3.0391E-08
8.140000E+04  3.0246E-08
8.150000E+04  3.0108E-08
8.160000E+04  2.9973E-08
8.170000E+04  2.9838E-08
8.180000E+04  2.9698E-08
8.190000E+04  2.9557E-08
8.200000E+04  2.9415E-08
8.210000E+04  2.9271E-08
8.220000E+04  2.9128E-08
8.230000E+04  2.8991E-08
8.240000E+04  2.8859E-08
8.250000E+04  2.8729E-08
8.260000E+04  2.8597E-08
8.270000E+04  2.8467E-08
8.280000E+04  2.8338E-08
8.290000E+04  2.8210E-08
8.300000E+04  2.8083E-08
8.310000E+04  2.7955E-08
8.320000E+04  2.7826E-08
8.330000E+04  2.7698E-08
8.340000E+04  2.7577E-08
8.350000E+04  2.7462E-08
8.360000E+04  2.7347E-08
8.370000E+04  2.7223E-08
8.380000E+04  2.7099E-08
8.390000E+04  2.6976E-08
8.400000E+04  2.6855E-08
8.410000E+04  2.6735E-08
8.420000E+04  2.6616E-08
8.430000E+04  2.6495E-08
8.440000E+04  2.6375E-08
8.450000E+04  2.6256E-08
8.460000E+04  2.6140E-08
8.470000E+04  2.6025E-08
8.480000E+04  2.5908E-08
8.490000E+04  2.5792E-08
8.500000E+04  2.5676E-08
8.510000E+04  2.5564E-08
8.520000E+04  2.5455E-08
8.530000E+04  2.5347E-08
8.540000E+04  2.5238E-08
8.550000E+04  2.5130E-08
8.560000E+04  2.5022E-08
8.570000E+04  2.4913E-08
8.580000E+04  2.4804E-08
8.590000E+04  2.4696E-08
8.600000E+04  2.4589E-08
8.610000E+04  2.4482E-08
8.620000E+04  2.4375E-08
8.630000E+04  2.4270E-08
8.640000E+04  2.4166E-08
8.650000E+04  2.4062E-08
8.660000E+04  2.3957E-08
8.670000E+04  2.3851E-08
8.680000E+04  2.3746E-08
8.690000E+04  2.3644E-08
8.700000E+04  2.3543E-08
8.710000E+04  2.3443E-08
8.720000E+04  2.3345E-08
8.730000E+04  2.3248E-08
8.740000E+04  2.3151E-08
8.750000E+04  2.3056E-08
8.760000E+04  2.2961E-08
8.770000E+04  2.2867E-08
8.780000E+04  2.2775E-08
8.790000E+04  2.2684E-08
8.800000E+04  2.2593E-08
8.810000E+04  2.2503E-08
8.820000E+04  2.2413E-08
8.830000E+04  2.2326E-08
8.840000E+04  2.2233E-08
8.850000E+04  2.2136E-08
8.860000E+04  2.2040E-08
8.870000E+04  2.1947E-08
8.880000E+04  2.1858E-08
8.890000E+04  2.1770E-08
8.900000E+04  2.1680E-08
8.910000E+04  2.1586E-08
8.920000E+04  2.1493E-08
8.930000E+04  2.1401E-08
8.940000E+04  2.1310E-08
8.950000E+04  2.1217E-08
8.960000E+04  2.1125E-08
8.970000E+04  2.1034E-08
8.980000E+04  2.0944E-08
8.990000E+04  2.0857E-08
9.000000E+04  2.0773E-08
9.010000E+04  2.0691E-08
9.020000E+04  2.0609E-08
9.030000E+04  2.0522E-08
9.040000E+04  2.0430E-08
9.050000E+04  2.0338E-08
9.060000E+04  2.0249E-08
9.070000E+04  2.0162E-08
9.080000E+04  2.0075E-08
9.090000E+04  1.9989E-08
9.100000E+04  1.9901E-08
9.110000E+04  1.9815E-08
9.120000E+04  1.9730E-08
9.130000E+04  1.9646E-08
9.140000E+04  1.9564E-08
9.150000E+04  1.9482E-08
9.160000E+04  1.9400E-08
9.170000E+04  1.9321E-08
9.180000E+04  1.9243E-08
9.190000E+04  1.9165E-08
9.200000E+04  1.9091E-08
9.210000E+04  1.9018E-08
9.220000E+04  1.8946E-08
9.230000E+04  1.8875E-08
9.240000E+04  1.8808E-08
9.250000E+04  1.8740E-08
9.260000E+04  1.8673E-08
9.270000E+04  1.8602E-08
9.280000E+04  1.8531E-08
9.290000E+04  1.8461E-08
9.300000E+04  1.8384E-08
9.310000E+04  1.8303E-08
9.320000E+04  1.8223E-08
9.330000E+04  1.8144E-08
9.340000E+04  1.8067E-08
9.350000E+04  1.7991E-08
9.360000E+04  1.7915E-08
9.370000E+04  1.7841E-08
9.380000E+04  1.7768E-08
9.390000E+04  1.7695E-08
9.400000E+04  1.7622E-08
9.410000E+04  1.7548E-08
9.420000E+04  1.7475E-08
9.430000E+04  1.7401E-08
9.440000E+04  1.7331E-08
9.450000E+04  1.7265E-08
9.460000E+04  1.7199E-08
9.470000E+04  1.7134E-08
9.480000E+04  1.7074E-08
9.490000E+04  1.7015E-08
9.500000E+04  1.6956E-08
9.510000E+04  1.6894E-08
9.520000E+04  1.6827E-08
9.530000E+04  1.6761E-08
9.540000E+04  1.6695E-08
9.550000E+04  1.6627E-08
9.560000E+04  1.6558E-08
9.570000E+04  1.6490E-08
9.580000E+04  1.6423E-08
9.590000E+04  1.6361E-08
9.600000E+04  1.6299E-08
9.610000E+04  1.6237E-08
9.620000E+04  1.6173E-08
9.630000E+04  1.6107E-08
9.640000E+04  1.6041E-08
9.650000E+04  1.5976E-08
9.660000E+04  1.5907E-08
9.670000E+04  1.5837E-08
9.680000E+04  1.5767E-08
9.690000E+04  1.5698E-08
9.700000E+04  1.5643E-08
9.710000E+04  1.5587E-08
9.720000E+04  1.5532E-08
9.730000E+04  1.5477E-08
9.740000E+04  1.5422E-08
9.750000E+04  1.5369E-08
9.760000E+04  1.5317E-08
9.770000E+04  1.5261E-08
9.780000E+04  1.5202E-08
9.790000E+04  1.5143E-08
9.800000E+04  1.5083E-08
9.810000E+04  1.5026E-08
9.820000E+04  1.4970E-08
9.830000E+04  1.4914E-08
9.840000E+04  1.4858E-08
9.850000E+04  1.4807E-08
9.860000E+04  1.4756E-08
9.870000E+04  1.4706E-08
9.880000E+04  1.4657E-08
9.890000E+04  1.4600E-08
9.900000E+04  1.4542E-08
9.910000E+04  1.4484E-08
9.920000E+04  1.4426E-08
9.930000E+04  1.4365E-08
9.940000E+04  1.4305E-08
9.950000E+04  1.4245E-08
9.960000E+04  1.4185E-08
9.970000E+04  1.4127E-08
9.980000E+04  1.4068E-08
9.990000E+04  1.4010E-08
1.000000E+05  1.3952E-08
1.002000E+05  1.3843E-08
1.050000E+05  1.1563E-08
1.100000E+05  9.6134E-09
1.130000E+05  8.6671E-09
1.160000E+05  7.7861E-09
1.200000E+05  6.8161E-09
1.250000E+05  5.8985E-09
1.300000E+05  5.0554E-09
1.350000E+05  4.3583E-09
1.400000E+05  3.7778E-09
1.450000E+05  3.2912E-09
1.500000E+05  2.8809E-09
1.600000E+05  2.2359E-09
1.700000E+05  1.7625E-09
1.800000E+05  1.4084E-09
1.900000E+05  1.1393E-09
2.000000E+05  9.3176E-10
2.200000E+05  6.3926E-10
2.300000E+05  5.3624E-10
2.400000E+05  4.5320E-10
2.500000E+05  3.8567E-10
2.600000E+05  3.3028E-10
2.700000E+05  2.8451E-10
2.800000E+05  2.4641E-10
3.000000E+05  1.8760E-10
3.500000E+05  1.0200E-10
4.000000E+05  6.0172E-11
4.500000E+05  3.7657E-11
5.000000E+05  2.4761E-11
5.500000E+05  1.6946E-11
6.000000E+05  1.1986E-11
6.500000E+05  8.7091E-12
7.000000E+05  6.4796E-12
7.500000E+05  4.9202E-12
8.000000E+05  3.8031E-12
8.500000E+05  2.9848E-12
9.000000E+05  2.3752E-12
9.500000E+05  1.9136E-12
1.000000E+06  1.5589E-12
1.050000E+06  1.2825E-12
1.100000E+06  1.0647E-12
1.200000E+06  7.5167E-13
1.300000E+06  5.4558E-13
1.400000E+06  4.0552E-13
1.500000E+06  3.0758E-13
1.600000E+06  2.3750E-13
2.000000E+06  9.7365E-14
2.500000E+06  3.9881E-14
3.000000E+06  1.9233E-14
4.000000E+06  6.0854E-15
5.000000E+06  2.4926E-15
7.000000E+06  6.4883E-16
1.000000E+07  1.5578E-16
1.500000E+07  3.0772E-17
2.250000E+07  6.0785E-18
3.350000E+07  1.2369E-18
5.000000E+07  2.4926E-19
7.400000E+07  5.1952E-20
1.100000E+08  1.0640E-20
1.300000E+08  5.4545E-21
1.600000E+08  2.3771E-21
2.400000E+08  4.6955E-22
3.600000E+08  9.2751E-23
