# Input file name  = bc2003_lr_BaSeL_m52_kroup_ssp.ised
# Output file name = spec_BC16_basel_kroup_Zm52_age10.5Gyr.dat
# Record         183
# Column           2
# SED(Lo/A)       at    
# Lambda(A)    1.050E+10
9.100000E+01  1.5702E-08
9.400000E+01  2.1539E-08
9.600000E+01  2.4800E-08
9.800000E+01  2.9775E-08
1.000000E+02  3.4548E-08
1.020000E+02  3.8161E-08
1.040000E+02  3.8951E-08
1.060000E+02  4.1658E-08
1.080000E+02  4.4620E-08
1.100000E+02  6.0014E-08
1.140000E+02  6.7154E-08
1.180000E+02  7.0051E-08
1.210000E+02  1.6028E-07
1.250000E+02  1.7421E-07
1.270000E+02  1.8082E-07
1.280000E+02  1.8453E-07
1.310000E+02  1.9448E-07
1.320000E+02  2.1023E-07
1.340000E+02  2.1639E-07
1.370000E+02  2.3954E-07
1.400000E+02  2.5018E-07
1.430000E+02  3.7208E-07
1.470000E+02  5.4651E-07
1.500000E+02  5.6681E-07
1.510000E+02  5.7516E-07
1.550000E+02  6.0629E-07
1.590000E+02  6.4220E-07
1.620000E+02  6.7069E-07
1.660000E+02  7.0444E-07
1.700000E+02  7.3837E-07
1.730000E+02  7.6372E-07
1.770000E+02  7.9765E-07
1.800000E+02  8.1964E-07
1.820000E+02  8.3821E-07
1.860000E+02  8.7019E-07
1.910000E+02  9.0897E-07
1.940000E+02  9.3865E-07
1.980000E+02  9.6976E-07
2.000000E+02  9.8525E-07
2.020000E+02  1.0018E-06
2.050000E+02  1.0256E-06
2.100000E+02  1.0441E-06
2.160000E+02  1.1090E-06
2.200000E+02  1.1400E-06
2.230000E+02  1.1561E-06
2.270000E+02  1.1925E-06
2.300000E+02  1.7961E-06
2.340000E+02  2.6960E-06
2.400000E+02  3.7878E-06
2.460000E+02  3.4564E-06
2.520000E+02  3.7120E-06
2.570000E+02  2.9209E-06
2.600000E+02  3.5625E-06
2.640000E+02  3.7234E-06
2.690000E+02  3.6806E-06
2.740000E+02  3.6251E-06
2.790000E+02  3.5330E-06
2.840000E+02  3.5202E-06
2.900000E+02  3.4107E-06
2.960000E+02  3.3108E-06
3.000000E+02  3.1549E-06
3.010000E+02  3.0500E-06
3.080000E+02  3.0896E-06
3.180000E+02  3.0952E-06
3.280000E+02  2.9989E-06
3.380000E+02  2.8701E-06
3.480000E+02  2.7473E-06
3.570000E+02  2.6977E-06
3.660000E+02  2.6857E-06
3.750000E+02  2.5872E-06
3.850000E+02  2.4087E-06
3.950000E+02  2.4183E-06
4.000000E+02  2.3937E-06
4.050000E+02  2.3805E-06
4.140000E+02  2.2996E-06
4.220000E+02  2.2025E-06
4.300000E+02  2.1223E-06
4.410000E+02  2.0779E-06
4.510000E+02  2.0035E-06
4.600000E+02  1.9065E-06
4.700000E+02  1.8393E-06
4.800000E+02  1.7986E-06
4.900000E+02  1.6973E-06
5.000000E+02  1.6847E-06
5.060000E+02  1.6221E-06
5.120000E+02  1.7246E-06
5.200000E+02  1.6619E-06
5.300000E+02  1.5795E-06
5.400000E+02  1.4651E-06
5.500000E+02  1.4034E-06
5.600000E+02  1.4350E-06
5.700000E+02  1.4188E-06
5.800000E+02  1.3632E-06
5.900000E+02  1.3280E-06
6.000000E+02  1.2424E-06
6.100000E+02  1.0997E-06
6.200000E+02  1.2159E-06
6.300000E+02  1.1558E-06
6.400000E+02  1.1531E-06
6.500000E+02  1.1067E-06
6.580000E+02  1.0578E-06
6.650000E+02  1.0676E-06
6.750000E+02  1.0489E-06
6.850000E+02  9.7685E-07
6.950000E+02  9.8819E-07
7.000000E+02  9.4813E-07
7.050000E+02  9.1125E-07
7.160000E+02  9.3794E-07
7.260000E+02  9.1618E-07
7.350000E+02  8.9523E-07
7.450000E+02  8.6278E-07
7.550000E+02  8.3691E-07
7.650000E+02  7.4338E-07
7.750000E+02  7.9387E-07
7.850000E+02  7.5292E-07
7.950000E+02  7.4965E-07
8.000000E+02  7.4353E-07
8.050000E+02  7.3838E-07
8.150000E+02  7.2194E-07
8.250000E+02  7.0699E-07
8.350000E+02  6.4054E-07
8.450000E+02  6.7026E-07
8.550000E+02  6.5025E-07
8.650000E+02  6.4191E-07
8.750000E+02  6.2845E-07
8.850000E+02  6.1333E-07
8.950000E+02  6.0006E-07
9.000000E+02  5.9115E-07
9.050000E+02  5.8239E-07
9.150000E+02  5.6207E-07
9.250000E+02  9.2766E-07
9.350000E+02  1.2631E-06
9.450000E+02  1.5590E-06
9.550000E+02  1.6945E-06
9.650000E+02  1.7969E-06
9.750000E+02  1.0223E-06
9.850000E+02  1.5513E-06
9.950000E+02  1.4651E-06
1.000000E+03  1.5455E-06
1.005000E+03  1.6346E-06
1.015000E+03  1.6317E-06
1.025000E+03  1.1056E-06
1.035000E+03  1.4472E-06
1.045000E+03  1.7416E-06
1.055000E+03  1.6730E-06
1.065000E+03  1.4925E-06
1.075000E+03  1.5633E-06
1.085000E+03  1.2981E-06
1.095000E+03  1.5461E-06
1.100000E+03  1.5061E-06
1.105000E+03  1.4681E-06
1.115000E+03  1.4313E-06
1.125000E+03  1.3010E-06
1.135000E+03  1.4288E-06
1.145000E+03  1.3598E-06
1.155000E+03  1.3477E-06
1.165000E+03  1.3264E-06
1.175000E+03  1.0369E-06
1.185000E+03  1.2567E-06
1.195000E+03  1.1217E-06
1.200000E+03  1.0471E-06
1.205000E+03  9.8428E-07
1.215000E+03  7.1987E-07
1.225000E+03  1.0687E-06
1.235000E+03  1.1792E-06
1.245000E+03  1.1882E-06
1.255000E+03  1.1543E-06
1.265000E+03  1.1126E-06
1.275000E+03  1.1674E-06
1.285000E+03  1.1601E-06
1.295000E+03  1.0355E-06
1.300000E+03  1.0339E-06
1.305000E+03  1.0330E-06
1.315000E+03  1.1089E-06
1.325000E+03  1.0623E-06
1.335000E+03  9.9273E-07
1.345000E+03  1.0488E-06
1.355000E+03  1.0223E-06
1.365000E+03  9.6000E-07
1.375000E+03  9.5091E-07
1.385000E+03  9.4257E-07
1.395000E+03  7.8789E-07
1.400000E+03  7.7926E-07
1.405000E+03  7.7240E-07
1.415000E+03  8.7853E-07
1.425000E+03  8.5229E-07
1.435000E+03  8.6341E-07
1.442000E+03  8.6738E-07
1.447000E+03  8.6047E-07
1.455000E+03  8.3699E-07
1.465000E+03  8.0108E-07
1.475000E+03  7.9458E-07
1.485000E+03  7.9093E-07
1.495000E+03  7.7660E-07
1.500000E+03  7.6117E-07
1.505000E+03  7.4574E-07
1.512000E+03  6.9867E-07
1.517000E+03  7.1204E-07
1.525000E+03  7.0726E-07
1.535000E+03  6.3866E-07
1.545000E+03  6.0464E-07
1.555000E+03  5.9289E-07
1.565000E+03  6.2566E-07
1.575000E+03  6.4482E-07
1.585000E+03  6.4742E-07
1.595000E+03  6.4595E-07
1.600000E+03  6.3569E-07
1.605000E+03  6.2578E-07
1.615000E+03  6.1577E-07
1.625000E+03  6.0168E-07
1.635000E+03  6.1481E-07
1.645000E+03  6.0611E-07
1.655000E+03  5.9378E-07
1.665000E+03  6.0567E-07
1.672000E+03  5.6977E-07
1.677000E+03  6.1028E-07
1.685000E+03  6.0642E-07
1.695000E+03  5.8287E-07
1.700000E+03  5.7431E-07
1.705000E+03  5.6593E-07
1.715000E+03  5.4263E-07
1.725000E+03  5.3564E-07
1.735000E+03  5.5343E-07
1.745000E+03  5.4176E-07
1.755000E+03  5.5318E-07
1.765000E+03  5.2865E-07
1.775000E+03  5.2321E-07
1.785000E+03  5.2986E-07
1.795000E+03  5.4481E-07
1.800000E+03  5.4372E-07
1.805000E+03  5.4264E-07
1.815000E+03  5.0740E-07
1.825000E+03  5.1684E-07
1.835000E+03  5.0567E-07
1.845000E+03  4.6367E-07
1.855000E+03  4.7322E-07
1.865000E+03  4.9101E-07
1.875000E+03  5.0614E-07
1.885000E+03  4.7766E-07
1.895000E+03  4.7574E-07
1.900000E+03  4.8240E-07
1.905000E+03  4.8955E-07
1.915000E+03  4.8011E-07
1.925000E+03  4.5252E-07
1.935000E+03  4.3444E-07
1.945000E+03  4.9649E-07
1.955000E+03  4.7475E-07
1.967000E+03  5.2245E-07
1.976000E+03  5.0986E-07
1.984000E+03  5.1650E-07
1.995000E+03  5.1832E-07
2.000000E+03  5.1474E-07
2.005000E+03  5.1504E-07
2.015000E+03  5.2208E-07
2.025000E+03  4.8911E-07
2.035000E+03  5.2975E-07
2.045000E+03  5.6333E-07
2.055000E+03  5.2355E-07
2.065000E+03  5.2430E-07
2.074000E+03  5.8201E-07
2.078000E+03  7.9834E-07
2.085000E+03  9.1659E-07
2.095000E+03  8.5191E-07
2.100000E+03  8.3967E-07
2.105000E+03  8.2802E-07
2.115000E+03  9.2382E-07
2.125000E+03  8.2875E-07
2.135000E+03  8.0115E-07
2.145000E+03  9.6148E-07
2.155000E+03  9.5335E-07
2.165000E+03  8.3901E-07
2.175000E+03  8.4972E-07
2.185000E+03  1.0319E-06
2.195000E+03  1.0340E-06
2.200000E+03  1.0176E-06
2.205000E+03  1.0016E-06
2.215000E+03  8.0985E-07
2.225000E+03  9.3420E-07
2.235000E+03  1.1877E-06
2.245000E+03  1.1333E-06
2.255000E+03  8.7950E-07
2.265000E+03  8.2122E-07
2.275000E+03  8.7141E-07
2.285000E+03  1.1488E-06
2.295000E+03  9.6116E-07
2.300000E+03  1.0533E-06
2.305000E+03  1.1587E-06
2.315000E+03  9.9984E-07
2.325000E+03  8.2948E-07
2.335000E+03  7.4122E-07
2.345000E+03  5.4140E-07
2.355000E+03  9.4189E-07
2.365000E+03  5.8215E-07
2.375000E+03  7.3316E-07
2.385000E+03  4.7215E-07
2.395000E+03  5.6667E-07
2.400000E+03  5.6586E-07
2.405000E+03  5.6530E-07
2.415000E+03  6.6152E-07
2.425000E+03  1.1037E-06
2.435000E+03  1.0970E-06
2.445000E+03  1.3056E-06
2.455000E+03  1.3739E-06
2.465000E+03  1.1883E-06
2.475000E+03  1.0289E-06
2.485000E+03  6.1291E-07
2.495000E+03  7.6573E-07
2.500000E+03  9.4568E-07
2.505000E+03  1.1796E-06
2.513000E+03  5.3124E-07
2.518000E+03  4.2261E-07
2.525000E+03  4.7379E-07
2.535000E+03  7.9825E-07
2.545000E+03  8.3834E-07
2.555000E+03  1.5092E-06
2.565000E+03  1.1142E-06
2.575000E+03  1.4252E-06
2.585000E+03  1.2464E-06
2.595000E+03  1.1075E-06
2.600000E+03  1.0184E-06
2.605000E+03  9.3840E-07
2.615000E+03  8.4198E-07
2.625000E+03  1.1573E-06
2.635000E+03  2.0693E-06
2.645000E+03  2.8197E-06
2.655000E+03  3.9289E-06
2.665000E+03  2.5587E-06
2.675000E+03  2.8802E-06
2.685000E+03  3.3617E-06
2.695000E+03  2.3811E-06
2.700000E+03  2.6488E-06
2.705000E+03  2.9557E-06
2.715000E+03  2.0830E-06
2.725000E+03  1.6192E-06
2.735000E+03  2.1049E-06
2.745000E+03  1.1624E-06
2.755000E+03  1.6482E-06
2.765000E+03  2.2124E-06
2.775000E+03  2.3439E-06
2.785000E+03  1.3185E-06
2.795000E+03  5.8040E-07
2.800000E+03  6.3552E-07
2.805000E+03  6.9776E-07
2.815000E+03  2.0004E-06
2.825000E+03  2.9888E-06
2.835000E+03  2.7500E-06
2.845000E+03  1.8620E-06
2.855000E+03  9.8470E-07
2.865000E+03  2.6670E-06
2.875000E+03  3.7477E-06
2.885000E+03  3.4033E-06
2.895000E+03  4.2287E-06
2.900000E+03  4.6809E-06
2.910000E+03  5.7609E-06
2.930000E+03  5.0120E-06
2.950000E+03  4.5902E-06
2.970000E+03  4.7325E-06
2.990000E+03  4.8225E-06
3.000000E+03  4.8078E-06
3.010000E+03  4.7985E-06
3.030000E+03  5.1632E-06
3.050000E+03  5.4606E-06
3.070000E+03  5.8875E-06
3.090000E+03  5.6657E-06
3.100000E+03  6.1061E-06
3.110000E+03  6.6082E-06
3.130000E+03  6.0497E-06
3.150000E+03  5.9739E-06
3.170000E+03  6.6687E-06
3.190000E+03  5.8359E-06
3.200000E+03  6.1452E-06
3.210000E+03  6.4711E-06
3.230000E+03  5.5068E-06
3.250000E+03  7.7919E-06
3.270000E+03  9.1320E-06
3.290000E+03  8.9373E-06
3.300000E+03  8.6011E-06
3.310000E+03  8.2882E-06
3.330000E+03  8.5229E-06
3.350000E+03  8.1664E-06
3.370000E+03  5.9595E-06
3.390000E+03  6.9500E-06
3.400000E+03  7.0699E-06
3.410000E+03  7.1944E-06
3.430000E+03  7.8076E-06
3.450000E+03  8.0884E-06
3.470000E+03  8.4350E-06
3.490000E+03  9.4590E-06
3.500000E+03  9.7764E-06
3.510000E+03  1.0109E-05
3.530000E+03  9.0882E-06
3.550000E+03  1.0546E-05
3.570000E+03  7.3631E-06
3.590000E+03  7.4163E-06
3.600000E+03  8.2779E-06
3.610000E+03  9.2800E-06
3.630000E+03  9.6537E-06
3.640000E+03  1.0097E-05
3.650000E+03  1.1213E-05
3.670000E+03  1.1788E-05
3.690000E+03  1.0882E-05
3.700000E+03  1.1271E-05
3.710000E+03  1.1691E-05
3.730000E+03  7.9673E-06
3.750000E+03  9.0666E-06
3.770000E+03  1.1374E-05
3.790000E+03  1.1657E-05
3.800000E+03  1.1411E-05
3.810000E+03  1.1188E-05
3.830000E+03  6.6168E-06
3.850000E+03  9.0258E-06
3.870000E+03  8.8700E-06
3.890000E+03  1.0648E-05
3.900000E+03  1.1618E-05
3.910000E+03  1.2696E-05
3.930000E+03  6.4628E-06
3.950000E+03  1.1326E-05
3.970000E+03  7.8642E-06
3.990000E+03  1.6020E-05
4.000000E+03  1.6719E-05
4.010000E+03  1.7473E-05
4.030000E+03  1.7261E-05
4.050000E+03  1.6634E-05
4.070000E+03  1.5793E-05
4.090000E+03  1.8888E-05
4.100000E+03  1.8352E-05
4.110000E+03  1.7875E-05
4.130000E+03  1.7591E-05
4.150000E+03  1.7167E-05
4.170000E+03  1.7545E-05
4.190000E+03  1.6912E-05
4.200000E+03  1.7057E-05
4.210000E+03  1.7222E-05
4.230000E+03  1.6836E-05
4.250000E+03  1.7259E-05
4.270000E+03  1.6223E-05
4.290000E+03  1.4959E-05
4.300000E+03  1.3803E-05
4.310000E+03  1.2779E-05
4.330000E+03  1.8630E-05
4.350000E+03  1.8194E-05
4.370000E+03  1.9599E-05
4.390000E+03  1.7662E-05
4.400000E+03  1.8296E-05
4.410000E+03  1.8962E-05
4.430000E+03  2.0805E-05
4.450000E+03  2.0691E-05
4.470000E+03  2.2017E-05
4.490000E+03  2.2466E-05
4.500000E+03  2.3771E-05
4.510000E+03  2.5176E-05
4.530000E+03  2.2301E-05
4.550000E+03  2.3291E-05
4.570000E+03  2.4872E-05
4.590000E+03  2.3591E-05
4.600000E+03  2.3889E-05
4.610000E+03  2.4193E-05
4.630000E+03  2.3899E-05
4.650000E+03  2.4023E-05
4.670000E+03  2.4998E-05
4.690000E+03  2.4605E-05
4.700000E+03  2.4358E-05
4.710000E+03  2.4119E-05
4.730000E+03  2.4821E-05
4.750000E+03  2.5410E-05
4.770000E+03  2.5154E-05
4.790000E+03  2.5037E-05
4.800000E+03  2.5029E-05
4.810000E+03  2.5027E-05
4.830000E+03  2.5426E-05
4.850000E+03  2.4407E-05
4.870000E+03  2.2365E-05
4.890000E+03  2.4663E-05
4.900000E+03  2.4712E-05
4.910000E+03  2.4770E-05
4.930000E+03  2.4340E-05
4.950000E+03  2.5230E-05
4.970000E+03  2.4829E-05
4.990000E+03  2.3199E-05
5.000000E+03  2.2694E-05
5.010000E+03  2.2203E-05
5.030000E+03  2.3492E-05
5.050000E+03  2.3469E-05
5.070000E+03  2.4546E-05
5.090000E+03  2.3434E-05
5.100000E+03  2.3666E-05
5.110000E+03  2.3911E-05
5.130000E+03  2.3362E-05
5.150000E+03  2.2360E-05
5.170000E+03  2.0513E-05
5.190000E+03  2.1214E-05
5.200000E+03  2.1906E-05
5.210000E+03  2.2629E-05
5.230000E+03  2.3858E-05
5.250000E+03  2.4836E-05
5.270000E+03  2.2320E-05
5.290000E+03  2.5229E-05
5.300000E+03  2.5866E-05
5.310000E+03  2.6525E-05
5.330000E+03  2.3859E-05
5.350000E+03  2.5703E-05
5.370000E+03  2.5652E-05
5.390000E+03  2.5214E-05
5.400000E+03  2.4967E-05
5.410000E+03  2.4727E-05
5.430000E+03  2.4938E-05
5.450000E+03  2.5336E-05
5.470000E+03  2.4941E-05
5.490000E+03  2.5015E-05
5.500000E+03  2.4927E-05
5.510000E+03  2.4849E-05
5.530000E+03  2.5621E-05
5.550000E+03  2.6045E-05
5.570000E+03  2.5519E-05
5.590000E+03  2.4617E-05
5.600000E+03  2.4984E-05
5.610000E+03  2.5372E-05
5.630000E+03  2.5337E-05
5.650000E+03  2.5613E-05
5.670000E+03  2.5181E-05
5.690000E+03  2.5863E-05
5.700000E+03  2.5535E-05
5.710000E+03  2.5218E-05
5.730000E+03  2.6991E-05
5.750000E+03  2.6200E-05
5.770000E+03  2.6437E-05
5.790000E+03  2.5721E-05
5.800000E+03  2.6076E-05
5.810000E+03  2.6439E-05
5.830000E+03  2.6871E-05
5.850000E+03  2.6072E-05
5.870000E+03  2.6024E-05
5.890000E+03  2.3574E-05
5.900000E+03  2.4520E-05
5.910000E+03  2.5567E-05
5.930000E+03  2.5622E-05
5.950000E+03  2.5635E-05
5.970000E+03  2.5917E-05
5.990000E+03  2.5732E-05
6.000000E+03  2.5611E-05
6.010000E+03  2.5499E-05
6.030000E+03  2.6025E-05
6.050000E+03  2.6503E-05
6.070000E+03  2.6443E-05
6.090000E+03  2.5842E-05
6.100000E+03  2.5923E-05
6.110000E+03  2.6008E-05
6.130000E+03  2.4698E-05
6.150000E+03  2.4987E-05
6.170000E+03  2.3735E-05
6.190000E+03  2.4728E-05
6.200000E+03  2.4633E-05
6.210000E+03  2.4541E-05
6.230000E+03  2.3828E-05
6.250000E+03  2.3226E-05
6.270000E+03  2.4288E-05
6.290000E+03  2.4679E-05
6.300000E+03  2.4482E-05
6.310000E+03  2.4295E-05
6.330000E+03  2.4714E-05
6.350000E+03  2.5020E-05
6.370000E+03  2.4986E-05
6.390000E+03  2.5145E-05
6.400000E+03  2.4966E-05
6.410000E+03  2.4792E-05
6.430000E+03  2.4926E-05
6.450000E+03  2.4958E-05
6.470000E+03  2.4810E-05
6.490000E+03  2.4436E-05
6.500000E+03  2.4860E-05
6.510000E+03  2.5305E-05
6.530000E+03  2.5389E-05
6.550000E+03  2.4678E-05
6.570000E+03  2.3044E-05
6.590000E+03  2.4675E-05
6.600000E+03  2.4820E-05
6.610000E+03  2.4966E-05
6.630000E+03  2.4613E-05
6.650000E+03  2.4382E-05
6.670000E+03  2.3886E-05
6.690000E+03  2.4226E-05
6.700000E+03  2.3800E-05
6.710000E+03  2.3389E-05
6.730000E+03  2.3825E-05
6.750000E+03  2.3488E-05
6.770000E+03  2.3638E-05
6.790000E+03  2.3525E-05
6.800000E+03  2.3545E-05
6.810000E+03  2.3567E-05
6.830000E+03  2.3797E-05
6.850000E+03  2.3364E-05
6.870000E+03  2.3661E-05
6.890000E+03  2.3939E-05
6.900000E+03  2.3959E-05
6.910000E+03  2.3988E-05
6.930000E+03  2.3890E-05
6.950000E+03  2.3919E-05
6.970000E+03  2.4255E-05
6.990000E+03  2.4288E-05
7.000000E+03  2.4181E-05
7.010000E+03  2.4085E-05
7.030000E+03  2.4378E-05
7.050000E+03  2.3810E-05
7.070000E+03  2.3050E-05
7.090000E+03  2.2526E-05
7.100000E+03  2.2303E-05
7.110000E+03  2.2100E-05
7.130000E+03  2.1683E-05
7.150000E+03  2.1648E-05
7.170000E+03  2.1879E-05
7.190000E+03  2.1507E-05
7.200000E+03  2.1792E-05
7.210000E+03  2.2088E-05
7.230000E+03  2.2499E-05
7.250000E+03  2.2743E-05
7.270000E+03  2.2947E-05
7.290000E+03  2.2816E-05
7.300000E+03  2.3194E-05
7.310000E+03  2.3610E-05
7.330000E+03  2.3651E-05
7.350000E+03  2.4012E-05
7.370000E+03  2.4646E-05
7.390000E+03  2.4228E-05
7.400000E+03  2.4208E-05
7.410000E+03  2.4200E-05
7.430000E+03  2.4812E-05
7.450000E+03  2.4804E-05
7.470000E+03  2.5134E-05
7.490000E+03  2.5070E-05
7.500000E+03  2.5123E-05
7.510000E+03  2.5177E-05
7.530000E+03  2.5451E-05
7.550000E+03  2.5576E-05
7.570000E+03  2.5381E-05
7.590000E+03  2.4689E-05
7.600000E+03  2.4434E-05
7.610000E+03  2.4202E-05
7.630000E+03  2.3694E-05
7.650000E+03  2.3103E-05
7.670000E+03  2.2137E-05
7.690000E+03  2.2614E-05
7.700000E+03  2.2439E-05
7.710000E+03  2.2268E-05
7.730000E+03  2.2372E-05
7.750000E+03  2.2179E-05
7.770000E+03  2.2520E-05
7.790000E+03  2.2466E-05
7.800000E+03  2.2524E-05
7.810000E+03  2.2587E-05
7.830000E+03  2.2615E-05
7.850000E+03  2.2478E-05
7.870000E+03  2.2697E-05
7.890000E+03  2.2716E-05
7.900000E+03  2.2483E-05
7.910000E+03  2.2254E-05
7.930000E+03  2.2320E-05
7.950000E+03  2.2411E-05
7.970000E+03  2.2876E-05
7.990000E+03  2.2861E-05
8.000000E+03  2.3105E-05
8.010000E+03  2.3370E-05
8.030000E+03  2.3480E-05
8.050000E+03  2.3388E-05
8.070000E+03  2.3777E-05
8.090000E+03  2.3697E-05
8.100000E+03  2.3756E-05
8.110000E+03  2.3814E-05
8.130000E+03  2.4145E-05
8.150000E+03  2.4313E-05
8.170000E+03  2.4338E-05
8.190000E+03  2.3558E-05
8.200000E+03  2.3575E-05
8.210000E+03  2.3641E-05
8.230000E+03  2.3554E-05
8.250000E+03  2.3576E-05
8.270000E+03  2.3582E-05
8.290000E+03  2.3408E-05
8.300000E+03  2.3221E-05
8.310000E+03  2.3038E-05
8.330000E+03  2.2699E-05
8.350000E+03  2.2838E-05
8.370000E+03  2.2810E-05
8.390000E+03  2.2228E-05
8.400000E+03  2.2498E-05
8.410000E+03  2.2780E-05
8.430000E+03  2.2182E-05
8.450000E+03  2.1937E-05
8.470000E+03  2.1739E-05
8.490000E+03  2.1894E-05
8.500000E+03  2.1549E-05
8.510000E+03  2.1212E-05
8.530000E+03  2.1878E-05
8.550000E+03  2.0686E-05
8.570000E+03  2.2275E-05
8.590000E+03  2.2051E-05
8.600000E+03  2.2111E-05
8.610000E+03  2.2176E-05
8.630000E+03  2.2439E-05
8.650000E+03  2.2438E-05
8.670000E+03  2.0915E-05
8.690000E+03  2.2004E-05
8.700000E+03  2.2262E-05
8.710000E+03  2.2531E-05
8.730000E+03  2.2561E-05
8.750000E+03  2.2326E-05
8.770000E+03  2.2567E-05
8.790000E+03  2.2649E-05
8.800000E+03  2.2477E-05
8.810000E+03  2.2308E-05
8.830000E+03  2.2304E-05
8.850000E+03  2.2234E-05
8.870000E+03  2.1685E-05
8.890000E+03  2.1870E-05
8.900000E+03  2.1909E-05
8.910000E+03  2.1947E-05
8.930000E+03  2.1776E-05
8.950000E+03  2.1745E-05
8.970000E+03  2.1783E-05
8.990000E+03  2.1731E-05
9.000000E+03  2.1478E-05
9.010000E+03  2.1232E-05
9.030000E+03  2.1755E-05
9.050000E+03  2.2028E-05
9.070000E+03  2.1876E-05
9.090000E+03  2.1536E-05
9.100000E+03  2.1626E-05
9.110000E+03  2.1716E-05
9.130000E+03  2.1811E-05
9.150000E+03  2.1739E-05
9.170000E+03  2.1640E-05
9.190000E+03  2.1635E-05
9.200000E+03  2.1441E-05
9.210000E+03  2.1249E-05
9.230000E+03  2.0965E-05
9.250000E+03  2.0959E-05
9.270000E+03  2.1066E-05
9.290000E+03  2.0920E-05
9.300000E+03  2.0926E-05
9.310000E+03  2.0933E-05
9.330000E+03  2.0909E-05
9.350000E+03  2.0822E-05
9.370000E+03  2.0598E-05
9.390000E+03  2.0743E-05
9.400000E+03  2.0595E-05
9.410000E+03  2.0446E-05
9.430000E+03  2.0688E-05
9.450000E+03  2.0475E-05
9.470000E+03  2.0638E-05
9.490000E+03  2.0596E-05
9.500000E+03  2.0511E-05
9.510000E+03  2.0423E-05
9.530000E+03  2.0440E-05
9.550000E+03  2.0097E-05
9.570000E+03  2.0251E-05
9.590000E+03  2.0363E-05
9.600000E+03  2.0258E-05
9.610000E+03  2.0151E-05
9.630000E+03  2.0150E-05
9.650000E+03  1.9860E-05
9.670000E+03  1.9847E-05
9.690000E+03  1.9967E-05
9.700000E+03  1.9874E-05
9.710000E+03  1.9783E-05
9.730000E+03  1.9678E-05
9.750000E+03  1.9612E-05
9.770000E+03  1.9628E-05
9.790000E+03  1.9381E-05
9.800000E+03  1.9515E-05
9.810000E+03  1.9657E-05
9.830000E+03  1.9559E-05
9.850000E+03  1.9553E-05
9.870000E+03  1.9426E-05
9.890000E+03  1.9367E-05
9.900000E+03  1.9240E-05
9.910000E+03  1.9123E-05
9.930000E+03  1.9197E-05
9.950000E+03  1.9193E-05
9.970000E+03  1.9152E-05
9.990000E+03  1.9075E-05
1.000000E+04  1.9031E-05
1.002500E+04  1.8927E-05
1.007500E+04  1.8682E-05
1.010000E+04  1.8670E-05
1.012500E+04  1.8659E-05
1.017500E+04  1.8415E-05
1.020000E+04  1.8375E-05
1.022500E+04  1.8337E-05
1.027500E+04  1.8267E-05
1.030000E+04  1.8129E-05
1.032500E+04  1.7991E-05
1.037500E+04  1.7825E-05
1.040000E+04  1.7804E-05
1.042500E+04  1.7787E-05
1.047500E+04  1.7555E-05
1.050000E+04  1.7519E-05
1.052500E+04  1.7480E-05
1.057500E+04  1.7245E-05
1.060000E+04  1.7177E-05
1.062500E+04  1.7103E-05
1.067500E+04  1.6828E-05
1.070000E+04  1.6808E-05
1.072500E+04  1.6781E-05
1.077500E+04  1.6598E-05
1.080000E+04  1.6461E-05
1.082500E+04  1.6331E-05
1.087500E+04  1.6199E-05
1.090000E+04  1.6142E-05
1.092500E+04  1.6081E-05
1.097500E+04  1.5834E-05
1.100000E+04  1.5781E-05
1.102500E+04  1.5737E-05
1.107500E+04  1.5603E-05
1.110000E+04  1.5539E-05
1.112500E+04  1.5472E-05
1.117500E+04  1.5326E-05
1.120000E+04  1.5296E-05
1.122500E+04  1.5270E-05
1.127500E+04  1.5055E-05
1.130000E+04  1.5023E-05
1.132500E+04  1.4993E-05
1.137500E+04  1.4813E-05
1.140000E+04  1.4722E-05
1.142500E+04  1.4623E-05
1.147500E+04  1.4733E-05
1.150000E+04  1.4697E-05
1.152500E+04  1.4656E-05
1.157500E+04  1.4464E-05
1.160000E+04  1.4347E-05
1.162500E+04  1.4228E-05
1.167500E+04  1.4190E-05
1.170000E+04  1.4208E-05
1.172500E+04  1.4228E-05
1.177500E+04  1.3964E-05
1.180000E+04  1.3910E-05
1.182500E+04  1.3857E-05
1.187500E+04  1.3663E-05
1.190000E+04  1.3731E-05
1.192500E+04  1.3793E-05
1.197500E+04  1.3361E-05
1.200000E+04  1.3432E-05
1.202500E+04  1.3500E-05
1.207500E+04  1.3355E-05
1.210000E+04  1.3334E-05
1.212500E+04  1.3324E-05
1.217500E+04  1.3302E-05
1.220000E+04  1.3251E-05
1.222500E+04  1.3195E-05
1.227500E+04  1.3074E-05
1.230000E+04  1.3035E-05
1.232500E+04  1.2990E-05
1.237500E+04  1.2908E-05
1.240000E+04  1.2839E-05
1.242500E+04  1.2767E-05
1.247500E+04  1.2726E-05
1.250000E+04  1.2663E-05
1.252500E+04  1.2598E-05
1.257500E+04  1.2548E-05
1.260000E+04  1.2509E-05
1.262500E+04  1.2461E-05
1.267500E+04  1.2340E-05
1.270000E+04  1.2332E-05
1.272500E+04  1.2319E-05
1.277500E+04  1.2264E-05
1.280000E+04  1.2082E-05
1.282500E+04  1.1898E-05
1.287500E+04  1.2038E-05
1.290000E+04  1.1984E-05
1.292500E+04  1.1927E-05
1.297500E+04  1.1957E-05
1.300000E+04  1.1898E-05
1.302500E+04  1.1839E-05
1.307500E+04  1.1819E-05
1.310000E+04  1.1714E-05
1.312500E+04  1.1614E-05
1.317500E+04  1.1577E-05
1.320000E+04  1.1579E-05
1.322500E+04  1.1576E-05
1.327500E+04  1.1407E-05
1.330000E+04  1.1402E-05
1.332500E+04  1.1398E-05
1.337500E+04  1.1312E-05
1.340000E+04  1.1315E-05
1.342500E+04  1.1314E-05
1.347500E+04  1.1229E-05
1.350000E+04  1.1199E-05
1.352500E+04  1.1169E-05
1.357500E+04  1.1013E-05
1.360000E+04  1.0991E-05
1.362500E+04  1.0959E-05
1.367500E+04  1.0975E-05
1.370000E+04  1.0973E-05
1.372500E+04  1.0968E-05
1.377500E+04  1.0925E-05
1.380000E+04  1.0913E-05
1.382500E+04  1.0900E-05
1.387500E+04  1.0798E-05
1.390000E+04  1.0672E-05
1.392500E+04  1.0555E-05
1.397500E+04  1.0494E-05
1.400000E+04  1.0439E-05
1.402500E+04  1.0383E-05
1.407500E+04  1.0404E-05
1.410000E+04  1.0347E-05
1.412500E+04  1.0291E-05
1.417500E+04  1.0320E-05
1.420000E+04  1.0257E-05
1.422500E+04  1.0199E-05
1.427500E+04  1.0100E-05
1.430000E+04  1.0153E-05
1.432500E+04  1.0214E-05
1.437500E+04  1.0238E-05
1.440000E+04  1.0140E-05
1.442500E+04  1.0036E-05
1.447500E+04  1.0167E-05
1.450000E+04  1.0108E-05
1.452500E+04  1.0048E-05
1.457000E+04  1.0081E-05
1.460000E+04  1.0001E-05
1.462000E+04  9.9456E-06
1.467500E+04  9.8954E-06
1.470000E+04  9.8442E-06
1.472500E+04  9.8031E-06
1.477500E+04  9.8350E-06
1.480000E+04  9.8387E-06
1.482500E+04  9.8483E-06
1.487500E+04  9.7624E-06
1.490000E+04  9.8340E-06
1.492500E+04  9.9148E-06
1.497500E+04  9.8413E-06
1.500000E+04  9.7716E-06
1.502500E+04  9.6992E-06
1.507500E+04  9.7225E-06
1.510000E+04  9.7847E-06
1.512500E+04  9.8431E-06
1.517500E+04  9.8568E-06
1.520000E+04  9.8436E-06
1.522500E+04  9.8186E-06
1.527500E+04  9.8542E-06
1.530000E+04  9.8299E-06
1.532500E+04  9.8085E-06
1.537500E+04  9.7955E-06
1.540000E+04  9.7863E-06
1.542500E+04  9.7727E-06
1.547500E+04  9.7670E-06
1.550000E+04  9.7330E-06
1.552500E+04  9.6977E-06
1.557500E+04  9.5450E-06
1.560000E+04  9.5751E-06
1.562500E+04  9.6012E-06
1.567500E+04  9.5486E-06
1.570000E+04  9.5843E-06
1.572500E+04  9.6208E-06
1.577500E+04  9.2832E-06
1.580000E+04  9.2895E-06
1.582500E+04  9.3051E-06
1.587500E+04  9.2359E-06
1.590000E+04  9.3477E-06
1.592500E+04  9.4532E-06
1.597500E+04  9.3362E-06
1.600000E+04  9.3288E-06
1.605000E+04  9.3173E-06
1.610000E+04  9.3321E-06
1.615000E+04  9.3540E-06
1.620000E+04  9.2702E-06
1.625000E+04  9.1844E-06
1.630000E+04  9.2360E-06
1.635000E+04  9.2834E-06
1.640000E+04  9.1430E-06
1.645000E+04  9.0046E-06
1.650000E+04  9.0410E-06
1.655000E+04  9.0796E-06
1.660000E+04  8.9914E-06
1.665000E+04  8.8919E-06
1.670000E+04  8.8386E-06
1.675000E+04  8.7797E-06
1.680000E+04  8.6823E-06
1.685000E+04  8.6003E-06
1.690000E+04  8.5946E-06
1.695000E+04  8.5848E-06
1.700000E+04  8.4956E-06
1.705000E+04  8.4032E-06
1.710000E+04  8.3384E-06
1.715000E+04  8.2696E-06
1.720000E+04  8.1928E-06
1.725000E+04  8.1185E-06
1.730000E+04  8.0111E-06
1.735000E+04  7.9061E-06
1.740000E+04  7.8671E-06
1.745000E+04  7.8279E-06
1.750000E+04  7.7651E-06
1.755000E+04  7.7170E-06
1.760000E+04  7.6494E-06
1.765000E+04  7.5769E-06
1.770000E+04  7.4982E-06
1.775000E+04  7.4315E-06
1.780000E+04  7.3854E-06
1.785000E+04  7.3445E-06
1.790000E+04  7.2608E-06
1.795000E+04  7.1948E-06
1.800000E+04  7.1438E-06
1.805000E+04  7.0683E-06
1.810000E+04  7.0046E-06
1.815000E+04  6.9316E-06
1.820000E+04  6.8943E-06
1.825000E+04  6.8461E-06
1.830000E+04  6.8010E-06
1.835000E+04  6.7539E-06
1.840000E+04  6.6876E-06
1.845000E+04  6.6399E-06
1.850000E+04  6.6215E-06
1.855000E+04  6.5841E-06
1.860000E+04  6.5185E-06
1.865000E+04  6.4524E-06
1.870000E+04  6.3859E-06
1.875000E+04  6.2937E-06
1.880000E+04  6.2807E-06
1.885000E+04  6.2669E-06
1.890000E+04  6.1708E-06
1.895000E+04  6.0880E-06
1.900000E+04  6.0878E-06
1.905000E+04  6.0849E-06
1.910000E+04  6.0191E-06
1.915000E+04  5.9565E-06
1.920000E+04  5.9088E-06
1.925000E+04  5.8655E-06
1.930000E+04  5.7992E-06
1.935000E+04  5.7282E-06
1.940000E+04  5.6455E-06
1.945000E+04  5.5724E-06
1.950000E+04  5.5633E-06
1.955000E+04  5.5535E-06
1.960000E+04  5.5126E-06
1.965000E+04  5.4642E-06
1.970000E+04  5.4100E-06
1.975000E+04  5.3462E-06
1.980000E+04  5.3037E-06
1.985000E+04  5.2680E-06
1.990000E+04  5.2422E-06
1.995000E+04  5.2111E-06
2.000000E+04  5.1826E-06
2.005000E+04  5.1667E-06
2.010000E+04  5.1390E-06
2.015000E+04  5.1082E-06
2.020000E+04  5.0540E-06
2.025000E+04  4.9983E-06
2.030000E+04  4.9568E-06
2.035000E+04  4.9199E-06
2.040000E+04  4.8968E-06
2.045000E+04  4.8815E-06
2.050000E+04  4.8450E-06
2.055000E+04  4.8069E-06
2.060000E+04  4.7638E-06
2.065000E+04  4.7248E-06
2.070000E+04  4.6976E-06
2.075000E+04  4.6684E-06
2.080000E+04  4.6406E-06
2.085000E+04  4.6191E-06
2.090000E+04  4.5786E-06
2.095000E+04  4.5315E-06
2.100000E+04  4.5120E-06
2.105000E+04  4.4961E-06
2.110000E+04  4.4626E-06
2.115000E+04  4.4242E-06
2.120000E+04  4.3924E-06
2.125000E+04  4.3687E-06
2.130000E+04  4.3431E-06
2.135000E+04  4.3195E-06
2.140000E+04  4.2888E-06
2.145000E+04  4.2543E-06
2.150000E+04  4.2278E-06
2.155000E+04  4.1990E-06
2.160000E+04  4.1527E-06
2.165000E+04  4.1089E-06
2.170000E+04  4.0870E-06
2.175000E+04  4.0660E-06
2.180000E+04  4.0430E-06
2.185000E+04  4.0172E-06
2.190000E+04  3.9916E-06
2.195000E+04  3.9673E-06
2.200000E+04  3.9235E-06
2.205000E+04  3.8817E-06
2.210000E+04  3.8707E-06
2.215000E+04  3.8614E-06
2.220000E+04  3.8272E-06
2.225000E+04  3.7936E-06
2.230000E+04  3.7726E-06
2.235000E+04  3.7472E-06
2.240000E+04  3.7231E-06
2.245000E+04  3.7022E-06
2.250000E+04  3.6752E-06
2.255000E+04  3.6471E-06
2.260000E+04  3.6140E-06
2.265000E+04  3.5870E-06
2.270000E+04  3.5733E-06
2.275000E+04  3.5549E-06
2.280000E+04  3.5210E-06
2.285000E+04  3.4904E-06
2.290000E+04  3.2406E-06
2.295000E+04  3.0142E-06
2.300000E+04  3.0940E-06
2.305000E+04  3.1747E-06
2.310000E+04  3.1794E-06
2.315000E+04  3.1738E-06
2.320000E+04  2.9523E-06
2.325000E+04  2.7651E-06
2.330000E+04  2.8647E-06
2.335000E+04  2.9515E-06
2.340000E+04  2.8911E-06
2.345000E+04  2.8412E-06
2.350000E+04  2.7075E-06
2.355000E+04  2.5872E-06
2.360000E+04  2.6645E-06
2.365000E+04  2.7510E-06
2.370000E+04  2.7056E-06
2.375000E+04  2.6563E-06
2.380000E+04  2.5542E-06
2.385000E+04  2.4566E-06
2.390000E+04  2.5258E-06
2.395000E+04  2.5882E-06
2.400000E+04  2.5612E-06
2.405000E+04  2.5353E-06
2.410000E+04  2.4443E-06
2.415000E+04  2.3583E-06
2.420000E+04  2.3885E-06
2.425000E+04  2.4236E-06
2.430000E+04  2.3967E-06
2.435000E+04  2.3695E-06
2.440000E+04  2.3285E-06
2.445000E+04  2.2828E-06
2.450000E+04  2.2712E-06
2.455000E+04  2.2613E-06
2.460000E+04  2.2617E-06
2.465000E+04  2.2621E-06
2.470000E+04  2.2306E-06
2.475000E+04  2.1991E-06
2.480000E+04  2.0808E-06
2.485000E+04  1.9754E-06
2.490000E+04  1.9477E-06
2.495000E+04  1.9226E-06
2.500000E+04  1.9332E-06
2.505000E+04  1.9450E-06
2.510000E+04  1.9107E-06
2.515000E+04  1.8793E-06
2.520000E+04  1.8978E-06
2.525000E+04  1.9173E-06
2.530000E+04  1.9206E-06
2.535000E+04  1.9233E-06
2.540000E+04  1.9160E-06
2.545000E+04  1.9107E-06
2.550000E+04  1.9123E-06
2.555000E+04  1.9131E-06
2.560000E+04  1.9174E-06
2.565000E+04  1.9220E-06
2.570000E+04  1.9271E-06
2.575000E+04  1.9331E-06
2.580000E+04  1.9131E-06
2.585000E+04  1.8929E-06
2.590000E+04  1.8950E-06
2.595000E+04  1.9000E-06
2.600000E+04  1.8998E-06
2.605000E+04  1.8984E-06
2.610000E+04  1.8867E-06
2.615000E+04  1.8710E-06
2.620000E+04  1.8574E-06
2.625000E+04  1.8457E-06
2.630000E+04  1.8504E-06
2.635000E+04  1.8504E-06
2.640000E+04  1.8409E-06
2.645000E+04  1.8301E-06
2.650000E+04  1.8218E-06
2.655000E+04  1.8153E-06
2.660000E+04  1.8095E-06
2.665000E+04  1.7967E-06
2.670000E+04  1.7967E-06
2.675000E+04  1.7942E-06
2.680000E+04  1.7821E-06
2.685000E+04  1.7702E-06
2.690000E+04  1.7581E-06
2.695000E+04  1.7503E-06
2.700000E+04  1.7490E-06
2.705000E+04  1.7412E-06
2.710000E+04  1.7279E-06
2.715000E+04  1.7216E-06
2.720000E+04  1.7239E-06
2.725000E+04  1.7201E-06
2.730000E+04  1.7090E-06
2.735000E+04  1.6949E-06
2.740000E+04  1.6968E-06
2.745000E+04  1.6951E-06
2.750000E+04  1.6840E-06
2.755000E+04  1.6710E-06
2.760000E+04  1.6577E-06
2.765000E+04  1.6493E-06
2.770000E+04  1.6421E-06
2.775000E+04  1.6356E-06
2.780000E+04  1.6323E-06
2.785000E+04  1.6291E-06
2.790000E+04  1.6213E-06
2.795000E+04  1.6203E-06
2.800000E+04  1.6060E-06
2.805000E+04  1.5978E-06
2.810000E+04  1.5826E-06
2.815000E+04  1.5768E-06
2.820000E+04  1.5707E-06
2.825000E+04  1.5652E-06
2.830000E+04  1.5580E-06
2.835000E+04  1.5423E-06
2.840000E+04  1.5245E-06
2.845000E+04  1.5085E-06
2.850000E+04  1.5067E-06
2.855000E+04  1.5086E-06
2.860000E+04  1.5051E-06
2.865000E+04  1.4977E-06
2.870000E+04  1.4822E-06
2.875000E+04  1.4747E-06
2.880000E+04  1.4698E-06
2.885000E+04  1.4586E-06
2.890000E+04  1.4478E-06
2.895000E+04  1.4363E-06
2.900000E+04  1.4364E-06
2.905000E+04  1.4302E-06
2.910000E+04  1.4203E-06
2.915000E+04  1.4085E-06
2.920000E+04  1.3946E-06
2.925000E+04  1.3821E-06
2.930000E+04  1.3798E-06
2.935000E+04  1.3710E-06
2.940000E+04  1.3618E-06
2.945000E+04  1.3510E-06
2.950000E+04  1.3421E-06
2.955000E+04  1.3350E-06
2.960000E+04  1.3279E-06
2.965000E+04  1.3207E-06
2.970000E+04  1.3135E-06
2.975000E+04  1.3059E-06
2.980000E+04  1.2983E-06
2.985000E+04  1.2898E-06
2.990000E+04  1.2824E-06
2.995000E+04  1.2760E-06
3.000000E+04  1.2697E-06
3.005000E+04  1.2633E-06
3.010000E+04  1.2578E-06
3.015000E+04  1.2518E-06
3.020000E+04  1.2450E-06
3.025000E+04  1.2382E-06
3.030000E+04  1.2303E-06
3.035000E+04  1.2225E-06
3.040000E+04  1.2187E-06
3.045000E+04  1.2149E-06
3.050000E+04  1.2089E-06
3.055000E+04  1.2031E-06
3.060000E+04  1.1975E-06
3.065000E+04  1.1914E-06
3.070000E+04  1.1865E-06
3.075000E+04  1.1817E-06
3.080000E+04  1.1748E-06
3.085000E+04  1.1680E-06
3.090000E+04  1.1625E-06
3.095000E+04  1.1568E-06
3.100000E+04  1.1523E-06
3.105000E+04  1.1477E-06
3.110000E+04  1.1400E-06
3.115000E+04  1.1319E-06
3.120000E+04  1.1277E-06
3.125000E+04  1.1236E-06
3.130000E+04  1.1179E-06
3.135000E+04  1.1124E-06
3.140000E+04  1.1068E-06
3.145000E+04  1.1014E-06
3.150000E+04  1.0950E-06
3.155000E+04  1.0885E-06
3.160000E+04  1.0831E-06
3.165000E+04  1.0775E-06
3.170000E+04  1.0726E-06
3.175000E+04  1.0677E-06
3.180000E+04  1.0624E-06
3.185000E+04  1.0573E-06
3.190000E+04  1.0522E-06
3.195000E+04  1.0471E-06
3.200000E+04  1.0414E-06
3.210000E+04  1.0298E-06
3.220000E+04  1.0192E-06
3.230000E+04  1.0091E-06
3.240000E+04  9.9896E-07
3.250000E+04  9.8919E-07
3.260000E+04  9.7892E-07
3.270000E+04  9.6871E-07
3.280000E+04  9.5786E-07
3.290000E+04  9.4746E-07
3.300000E+04  9.3841E-07
3.310000E+04  9.2909E-07
3.320000E+04  9.1991E-07
3.330000E+04  9.1106E-07
3.340000E+04  9.0400E-07
3.350000E+04  8.9807E-07
3.360000E+04  8.8832E-07
3.370000E+04  8.7693E-07
3.380000E+04  8.6971E-07
3.390000E+04  8.6134E-07
3.400000E+04  8.5292E-07
3.410000E+04  8.4713E-07
3.420000E+04  8.3970E-07
3.430000E+04  8.3651E-07
3.440000E+04  8.3049E-07
3.450000E+04  8.1949E-07
3.460000E+04  8.0831E-07
3.470000E+04  8.0236E-07
3.480000E+04  7.9293E-07
3.490000E+04  7.8177E-07
3.500000E+04  7.7386E-07
3.510000E+04  7.6958E-07
3.520000E+04  7.5867E-07
3.530000E+04  7.5208E-07
3.540000E+04  7.4062E-07
3.550000E+04  7.3166E-07
3.560000E+04  7.2593E-07
3.570000E+04  7.2014E-07
3.580000E+04  7.1160E-07
3.590000E+04  7.0292E-07
3.600000E+04  6.9841E-07
3.610000E+04  6.9138E-07
3.620000E+04  6.8316E-07
3.630000E+04  6.7282E-07
3.640000E+04  6.6573E-07
3.650000E+04  6.5732E-07
3.660000E+04  6.4955E-07
3.670000E+04  6.4319E-07
3.680000E+04  6.3476E-07
3.690000E+04  6.2659E-07
3.700000E+04  6.1837E-07
3.710000E+04  6.1152E-07
3.720000E+04  6.0576E-07
3.730000E+04  5.9967E-07
3.740000E+04  5.9136E-07
3.750000E+04  5.8371E-07
3.760000E+04  5.7843E-07
3.770000E+04  5.7339E-07
3.780000E+04  5.6738E-07
3.790000E+04  5.6182E-07
3.800000E+04  5.5647E-07
3.810000E+04  5.5093E-07
3.820000E+04  5.4547E-07
3.830000E+04  5.4032E-07
3.840000E+04  5.3532E-07
3.850000E+04  5.3017E-07
3.860000E+04  5.2453E-07
3.870000E+04  5.1902E-07
3.880000E+04  5.1422E-07
3.890000E+04  5.0935E-07
3.900000E+04  5.0465E-07
3.910000E+04  5.0006E-07
3.920000E+04  4.9558E-07
3.930000E+04  4.9120E-07
3.940000E+04  4.8616E-07
3.950000E+04  4.8127E-07
3.960000E+04  4.7695E-07
3.970000E+04  4.7291E-07
3.980000E+04  4.6773E-07
3.990000E+04  4.6281E-07
4.000000E+04  4.5902E-07
4.010000E+04  4.5544E-07
4.020000E+04  4.5163E-07
4.030000E+04  4.4832E-07
4.040000E+04  4.4435E-07
4.050000E+04  4.4007E-07
4.060000E+04  4.3686E-07
4.070000E+04  4.3350E-07
4.080000E+04  4.3045E-07
4.090000E+04  4.2719E-07
4.100000E+04  4.2450E-07
4.110000E+04  4.2121E-07
4.120000E+04  4.1789E-07
4.130000E+04  4.1423E-07
4.140000E+04  4.0955E-07
4.150000E+04  4.0573E-07
4.160000E+04  4.0220E-07
4.170000E+04  4.0029E-07
4.180000E+04  3.9722E-07
4.190000E+04  3.9451E-07
4.200000E+04  3.9013E-07
4.210000E+04  3.8679E-07
4.220000E+04  3.8485E-07
4.230000E+04  3.8289E-07
4.240000E+04  3.8015E-07
4.250000E+04  3.7632E-07
4.260000E+04  3.7349E-07
4.270000E+04  3.7109E-07
4.280000E+04  3.6305E-07
4.290000E+04  3.5552E-07
4.300000E+04  3.4738E-07
4.310000E+04  3.4009E-07
4.320000E+04  3.4029E-07
4.330000E+04  3.3882E-07
4.340000E+04  3.3058E-07
4.350000E+04  3.2318E-07
4.360000E+04  3.1850E-07
4.370000E+04  3.1549E-07
4.380000E+04  3.1181E-07
4.390000E+04  3.0919E-07
4.400000E+04  3.0350E-07
4.410000E+04  2.9930E-07
4.420000E+04  2.9718E-07
4.430000E+04  2.9416E-07
4.440000E+04  2.9244E-07
4.450000E+04  2.8863E-07
4.460000E+04  2.8481E-07
4.470000E+04  2.8087E-07
4.480000E+04  2.7953E-07
4.490000E+04  2.7919E-07
4.500000E+04  2.7648E-07
4.510000E+04  2.7379E-07
4.520000E+04  2.6999E-07
4.530000E+04  2.6666E-07
4.540000E+04  2.6458E-07
4.550000E+04  2.6263E-07
4.560000E+04  2.6004E-07
4.570000E+04  2.5804E-07
4.580000E+04  2.5426E-07
4.590000E+04  2.5021E-07
4.600000E+04  2.5014E-07
4.610000E+04  2.5015E-07
4.620000E+04  2.4782E-07
4.630000E+04  2.4593E-07
4.640000E+04  2.4453E-07
4.650000E+04  2.4300E-07
4.660000E+04  2.4213E-07
4.670000E+04  2.4105E-07
4.680000E+04  2.3820E-07
4.690000E+04  2.3579E-07
4.700000E+04  2.3401E-07
4.710000E+04  2.3210E-07
4.720000E+04  2.3212E-07
4.730000E+04  2.3234E-07
4.740000E+04  2.2955E-07
4.750000E+04  2.2686E-07
4.760000E+04  2.2576E-07
4.770000E+04  2.2440E-07
4.780000E+04  2.2296E-07
4.790000E+04  2.2158E-07
4.800000E+04  2.1875E-07
4.810000E+04  2.1621E-07
4.820000E+04  2.1639E-07
4.830000E+04  2.1660E-07
4.840000E+04  2.1434E-07
4.850000E+04  2.1192E-07
4.860000E+04  2.1004E-07
4.870000E+04  2.0819E-07
4.880000E+04  2.0668E-07
4.890000E+04  2.0541E-07
4.900000E+04  2.0379E-07
4.910000E+04  2.0202E-07
4.920000E+04  2.0109E-07
4.930000E+04  2.0010E-07
4.940000E+04  1.9791E-07
4.950000E+04  1.9601E-07
4.960000E+04  1.9527E-07
4.970000E+04  1.9441E-07
4.980000E+04  1.9243E-07
4.990000E+04  1.9113E-07
5.000000E+04  1.8998E-07
5.010000E+04  1.8882E-07
5.020000E+04  1.8757E-07
5.030000E+04  1.8609E-07
5.040000E+04  1.8415E-07
5.050000E+04  1.8230E-07
5.060000E+04  1.8131E-07
5.070000E+04  1.8030E-07
5.080000E+04  1.7929E-07
5.090000E+04  1.7829E-07
5.100000E+04  1.7695E-07
5.110000E+04  1.7546E-07
5.120000E+04  1.7470E-07
5.130000E+04  1.7373E-07
5.140000E+04  1.7230E-07
5.150000E+04  1.7097E-07
5.160000E+04  1.7043E-07
5.170000E+04  1.6980E-07
5.180000E+04  1.6824E-07
5.190000E+04  1.6685E-07
5.200000E+04  1.6588E-07
5.210000E+04  1.6471E-07
5.220000E+04  1.6342E-07
5.230000E+04  1.6224E-07
5.240000E+04  1.6165E-07
5.250000E+04  1.6081E-07
5.260000E+04  1.6024E-07
5.270000E+04  1.5975E-07
5.280000E+04  1.5823E-07
5.290000E+04  1.5666E-07
5.300000E+04  1.5567E-07
5.310000E+04  1.5469E-07
5.320000E+04  1.5393E-07
5.330000E+04  1.5309E-07
5.340000E+04  1.5212E-07
5.350000E+04  1.5114E-07
5.360000E+04  1.5029E-07
5.370000E+04  1.4947E-07
5.380000E+04  1.4861E-07
5.390000E+04  1.4774E-07
5.400000E+04  1.4687E-07
5.410000E+04  1.4602E-07
5.420000E+04  1.4491E-07
5.430000E+04  1.4374E-07
5.440000E+04  1.4316E-07
5.450000E+04  1.4257E-07
5.460000E+04  1.4148E-07
5.470000E+04  1.4041E-07
5.480000E+04  1.3962E-07
5.490000E+04  1.3879E-07
5.500000E+04  1.3785E-07
5.510000E+04  1.3691E-07
5.520000E+04  1.3664E-07
5.530000E+04  1.3646E-07
5.540000E+04  1.3477E-07
5.550000E+04  1.3338E-07
5.560000E+04  1.3316E-07
5.570000E+04  1.3287E-07
5.580000E+04  1.3175E-07
5.590000E+04  1.3059E-07
5.600000E+04  1.3001E-07
5.610000E+04  1.2938E-07
5.620000E+04  1.2822E-07
5.630000E+04  1.2719E-07
5.640000E+04  1.2674E-07
5.650000E+04  1.2628E-07
5.660000E+04  1.2546E-07
5.670000E+04  1.2460E-07
5.680000E+04  1.2359E-07
5.690000E+04  1.2258E-07
5.700000E+04  1.2209E-07
5.710000E+04  1.2159E-07
5.720000E+04  1.2081E-07
5.730000E+04  1.2008E-07
5.740000E+04  1.1934E-07
5.750000E+04  1.1855E-07
5.760000E+04  1.1766E-07
5.770000E+04  1.1691E-07
5.780000E+04  1.1650E-07
5.790000E+04  1.1609E-07
5.800000E+04  1.1524E-07
5.810000E+04  1.1444E-07
5.820000E+04  1.1384E-07
5.830000E+04  1.1324E-07
5.840000E+04  1.1264E-07
5.850000E+04  1.1194E-07
5.860000E+04  1.1115E-07
5.870000E+04  1.1043E-07
5.880000E+04  1.0975E-07
5.890000E+04  1.0911E-07
5.900000E+04  1.0847E-07
5.910000E+04  1.0782E-07
5.920000E+04  1.0715E-07
5.930000E+04  1.0648E-07
5.940000E+04  1.0572E-07
5.950000E+04  1.0507E-07
5.960000E+04  1.0460E-07
5.970000E+04  1.0410E-07
5.980000E+04  1.0345E-07
5.990000E+04  1.0279E-07
6.000000E+04  1.0213E-07
6.010000E+04  1.0148E-07
6.020000E+04  1.0089E-07
6.030000E+04  1.0033E-07
6.040000E+04  9.9711E-08
6.050000E+04  9.9105E-08
6.060000E+04  9.8598E-08
6.070000E+04  9.8078E-08
6.080000E+04  9.7485E-08
6.090000E+04  9.6898E-08
6.100000E+04  9.6262E-08
6.110000E+04  9.5593E-08
6.120000E+04  9.5062E-08
6.130000E+04  9.4545E-08
6.140000E+04  9.4005E-08
6.150000E+04  9.3476E-08
6.160000E+04  9.2960E-08
6.170000E+04  9.2404E-08
6.180000E+04  9.1797E-08
6.190000E+04  9.1199E-08
6.200000E+04  9.0657E-08
6.210000E+04  9.0157E-08
6.220000E+04  8.9589E-08
6.230000E+04  8.9027E-08
6.240000E+04  8.8494E-08
6.250000E+04  8.7971E-08
6.260000E+04  8.7430E-08
6.270000E+04  8.6887E-08
6.280000E+04  8.6344E-08
6.290000E+04  8.5817E-08
6.300000E+04  8.5269E-08
6.310000E+04  8.4760E-08
6.320000E+04  8.4354E-08
6.330000E+04  8.3957E-08
6.340000E+04  8.3484E-08
6.350000E+04  8.3008E-08
6.360000E+04  8.2634E-08
6.370000E+04  8.2239E-08
6.380000E+04  8.1691E-08
6.390000E+04  8.1112E-08
6.400000E+04  8.0607E-08
6.410000E+04  8.0091E-08
6.420000E+04  7.9614E-08
6.430000E+04  7.9125E-08
6.440000E+04  7.8668E-08
6.450000E+04  7.8204E-08
6.460000E+04  7.7738E-08
6.470000E+04  7.7267E-08
6.480000E+04  7.6829E-08
6.490000E+04  7.6451E-08
6.500000E+04  7.6055E-08
6.510000E+04  7.5642E-08
6.520000E+04  7.5209E-08
6.530000E+04  7.4776E-08
6.540000E+04  7.4340E-08
6.550000E+04  7.3920E-08
6.560000E+04  7.3503E-08
6.570000E+04  7.3043E-08
6.580000E+04  7.2581E-08
6.590000E+04  7.2134E-08
6.600000E+04  7.1698E-08
6.610000E+04  7.1278E-08
6.620000E+04  7.0877E-08
6.630000E+04  7.0501E-08
6.640000E+04  7.0133E-08
6.650000E+04  6.9769E-08
6.660000E+04  6.9414E-08
6.670000E+04  6.9064E-08
6.680000E+04  6.8723E-08
6.690000E+04  6.8349E-08
6.700000E+04  6.7949E-08
6.710000E+04  6.7548E-08
6.720000E+04  6.7153E-08
6.730000E+04  6.6794E-08
6.740000E+04  6.6435E-08
6.750000E+04  6.6065E-08
6.760000E+04  6.5686E-08
6.770000E+04  6.5288E-08
6.780000E+04  6.4927E-08
6.790000E+04  6.4597E-08
6.800000E+04  6.4262E-08
6.810000E+04  6.3926E-08
6.820000E+04  6.3561E-08
6.830000E+04  6.3199E-08
6.840000E+04  6.2865E-08
6.850000E+04  6.2535E-08
6.860000E+04  6.2214E-08
6.870000E+04  6.1875E-08
6.880000E+04  6.1498E-08
6.890000E+04  6.1119E-08
6.900000E+04  6.0732E-08
6.910000E+04  6.0375E-08
6.920000E+04  6.0054E-08
6.930000E+04  5.9736E-08
6.940000E+04  5.9420E-08
6.950000E+04  5.9095E-08
6.960000E+04  5.8761E-08
6.970000E+04  5.8452E-08
6.980000E+04  5.8157E-08
6.990000E+04  5.7857E-08
7.000000E+04  5.7560E-08
7.010000E+04  5.7251E-08
7.020000E+04  5.6940E-08
7.030000E+04  5.6631E-08
7.040000E+04  5.6321E-08
7.050000E+04  5.6027E-08
7.060000E+04  5.5739E-08
7.070000E+04  5.5449E-08
7.080000E+04  5.5162E-08
7.090000E+04  5.4872E-08
7.100000E+04  5.4582E-08
7.110000E+04  5.4294E-08
7.120000E+04  5.4007E-08
7.130000E+04  5.3726E-08
7.140000E+04  5.3447E-08
7.150000E+04  5.3175E-08
7.160000E+04  5.2907E-08
7.170000E+04  5.2640E-08
7.180000E+04  5.2373E-08
7.190000E+04  5.2112E-08
7.200000E+04  5.1854E-08
7.210000E+04  5.1600E-08
7.220000E+04  5.1352E-08
7.230000E+04  5.1100E-08
7.240000E+04  5.0849E-08
7.250000E+04  5.0593E-08
7.260000E+04  5.0332E-08
7.270000E+04  5.0070E-08
7.280000E+04  4.9796E-08
7.290000E+04  4.9529E-08
7.300000E+04  4.9294E-08
7.310000E+04  4.9056E-08
7.320000E+04  4.8796E-08
7.330000E+04  4.8536E-08
7.340000E+04  4.8262E-08
7.350000E+04  4.7992E-08
7.360000E+04  4.7743E-08
7.370000E+04  4.7504E-08
7.380000E+04  4.7270E-08
7.390000E+04  4.7034E-08
7.400000E+04  4.6795E-08
7.410000E+04  4.6549E-08
7.420000E+04  4.6306E-08
7.430000E+04  4.6068E-08
7.440000E+04  4.5832E-08
7.450000E+04  4.5635E-08
7.460000E+04  4.5442E-08
7.470000E+04  4.5218E-08
7.480000E+04  4.4982E-08
7.490000E+04  4.4759E-08
7.500000E+04  4.4549E-08
7.510000E+04  4.4336E-08
7.520000E+04  4.4117E-08
7.530000E+04  4.3900E-08
7.540000E+04  4.3684E-08
7.550000E+04  4.3473E-08
7.560000E+04  4.3227E-08
7.570000E+04  4.2969E-08
7.580000E+04  4.2735E-08
7.590000E+04  4.2527E-08
7.600000E+04  4.2320E-08
7.610000E+04  4.2108E-08
7.620000E+04  4.1897E-08
7.630000E+04  4.1681E-08
7.640000E+04  4.1464E-08
7.650000E+04  4.1241E-08
7.660000E+04  4.1012E-08
7.670000E+04  4.0791E-08
7.680000E+04  4.0620E-08
7.690000E+04  4.0450E-08
7.700000E+04  4.0271E-08
7.710000E+04  4.0093E-08
7.720000E+04  3.9910E-08
7.730000E+04  3.9717E-08
7.740000E+04  3.9526E-08
7.750000E+04  3.9327E-08
7.760000E+04  3.9129E-08
7.770000E+04  3.8950E-08
7.780000E+04  3.8784E-08
7.790000E+04  3.8612E-08
7.800000E+04  3.8412E-08
7.810000E+04  3.8213E-08
7.820000E+04  3.8011E-08
7.830000E+04  3.7809E-08
7.840000E+04  3.7613E-08
7.850000E+04  3.7428E-08
7.860000E+04  3.7245E-08
7.870000E+04  3.7067E-08
7.880000E+04  3.6890E-08
7.890000E+04  3.6718E-08
7.900000E+04  3.6554E-08
7.910000E+04  3.6390E-08
7.920000E+04  3.6231E-08
7.930000E+04  3.6073E-08
7.940000E+04  3.5913E-08
7.950000E+04  3.5746E-08
7.960000E+04  3.5581E-08
7.970000E+04  3.5410E-08
7.980000E+04  3.5239E-08
7.990000E+04  3.5071E-08
8.000000E+04  3.4915E-08
8.010000E+04  3.4760E-08
8.020000E+04  3.4586E-08
8.030000E+04  3.4407E-08
8.040000E+04  3.4231E-08
8.050000E+04  3.4071E-08
8.060000E+04  3.3912E-08
8.070000E+04  3.3757E-08
8.080000E+04  3.3603E-08
8.090000E+04  3.3451E-08
8.100000E+04  3.3294E-08
8.110000E+04  3.3134E-08
8.120000E+04  3.2974E-08
8.130000E+04  3.2816E-08
8.140000E+04  3.2659E-08
8.150000E+04  3.2511E-08
8.160000E+04  3.2366E-08
8.170000E+04  3.2222E-08
8.180000E+04  3.2068E-08
8.190000E+04  3.1914E-08
8.200000E+04  3.1759E-08
8.210000E+04  3.1599E-08
8.220000E+04  3.1441E-08
8.230000E+04  3.1293E-08
8.240000E+04  3.1152E-08
8.250000E+04  3.1012E-08
8.260000E+04  3.0871E-08
8.270000E+04  3.0731E-08
8.280000E+04  3.0592E-08
8.290000E+04  3.0455E-08
8.300000E+04  3.0319E-08
8.310000E+04  3.0181E-08
8.320000E+04  3.0041E-08
8.330000E+04  2.9903E-08
8.340000E+04  2.9775E-08
8.350000E+04  2.9655E-08
8.360000E+04  2.9535E-08
8.370000E+04  2.9402E-08
8.380000E+04  2.9268E-08
8.390000E+04  2.9135E-08
8.400000E+04  2.9004E-08
8.410000E+04  2.8875E-08
8.420000E+04  2.8745E-08
8.430000E+04  2.8615E-08
8.440000E+04  2.8485E-08
8.450000E+04  2.8357E-08
8.460000E+04  2.8232E-08
8.470000E+04  2.8108E-08
8.480000E+04  2.7983E-08
8.490000E+04  2.7856E-08
8.500000E+04  2.7731E-08
8.510000E+04  2.7611E-08
8.520000E+04  2.7496E-08
8.530000E+04  2.7381E-08
8.540000E+04  2.7265E-08
8.550000E+04  2.7150E-08
8.560000E+04  2.7035E-08
8.570000E+04  2.6918E-08
8.580000E+04  2.6802E-08
8.590000E+04  2.6686E-08
8.600000E+04  2.6570E-08
8.610000E+04  2.6456E-08
8.620000E+04  2.6341E-08
8.630000E+04  2.6229E-08
8.640000E+04  2.6117E-08
8.650000E+04  2.6005E-08
8.660000E+04  2.5891E-08
8.670000E+04  2.5777E-08
8.680000E+04  2.5664E-08
8.690000E+04  2.5555E-08
8.700000E+04  2.5446E-08
8.710000E+04  2.5339E-08
8.720000E+04  2.5235E-08
8.730000E+04  2.5132E-08
8.740000E+04  2.5030E-08
8.750000E+04  2.4929E-08
8.760000E+04  2.4829E-08
8.770000E+04  2.4730E-08
8.780000E+04  2.4634E-08
8.790000E+04  2.4539E-08
8.800000E+04  2.4444E-08
8.810000E+04  2.4350E-08
8.820000E+04  2.4257E-08
8.830000E+04  2.4166E-08
8.840000E+04  2.4067E-08
8.850000E+04  2.3962E-08
8.860000E+04  2.3858E-08
8.870000E+04  2.3758E-08
8.880000E+04  2.3664E-08
8.890000E+04  2.3571E-08
8.900000E+04  2.3475E-08
8.910000E+04  2.3373E-08
8.920000E+04  2.3271E-08
8.930000E+04  2.3170E-08
8.940000E+04  2.3072E-08
8.950000E+04  2.2971E-08
8.960000E+04  2.2872E-08
8.970000E+04  2.2773E-08
8.980000E+04  2.2676E-08
8.990000E+04  2.2581E-08
9.000000E+04  2.2492E-08
9.010000E+04  2.2405E-08
9.020000E+04  2.2319E-08
9.030000E+04  2.2225E-08
9.040000E+04  2.2122E-08
9.050000E+04  2.2021E-08
9.060000E+04  2.1921E-08
9.070000E+04  2.1827E-08
9.080000E+04  2.1733E-08
9.090000E+04  2.1640E-08
9.100000E+04  2.1542E-08
9.110000E+04  2.1448E-08
9.120000E+04  2.1355E-08
9.130000E+04  2.1263E-08
9.140000E+04  2.1174E-08
9.150000E+04  2.1084E-08
9.160000E+04  2.0996E-08
9.170000E+04  2.0911E-08
9.180000E+04  2.0827E-08
9.190000E+04  2.0743E-08
9.200000E+04  2.0666E-08
9.210000E+04  2.0589E-08
9.220000E+04  2.0514E-08
9.230000E+04  2.0441E-08
9.240000E+04  2.0372E-08
9.250000E+04  2.0304E-08
9.260000E+04  2.0235E-08
9.270000E+04  2.0161E-08
9.280000E+04  2.0087E-08
9.290000E+04  2.0013E-08
9.300000E+04  1.9929E-08
9.310000E+04  1.9840E-08
9.320000E+04  1.9751E-08
9.330000E+04  1.9663E-08
9.340000E+04  1.9578E-08
9.350000E+04  1.9495E-08
9.360000E+04  1.9412E-08
9.370000E+04  1.9331E-08
9.380000E+04  1.9251E-08
9.390000E+04  1.9172E-08
9.400000E+04  1.9093E-08
9.410000E+04  1.9012E-08
9.420000E+04  1.8931E-08
9.430000E+04  1.8850E-08
9.440000E+04  1.8775E-08
9.450000E+04  1.8705E-08
9.460000E+04  1.8635E-08
9.470000E+04  1.8566E-08
9.480000E+04  1.8506E-08
9.490000E+04  1.8445E-08
9.500000E+04  1.8386E-08
9.510000E+04  1.8321E-08
9.520000E+04  1.8249E-08
9.530000E+04  1.8178E-08
9.540000E+04  1.8106E-08
9.550000E+04  1.8032E-08
9.560000E+04  1.7957E-08
9.570000E+04  1.7882E-08
9.580000E+04  1.7809E-08
9.590000E+04  1.7743E-08
9.600000E+04  1.7677E-08
9.610000E+04  1.7612E-08
9.620000E+04  1.7543E-08
9.630000E+04  1.7470E-08
9.640000E+04  1.7397E-08
9.650000E+04  1.7325E-08
9.660000E+04  1.7248E-08
9.670000E+04  1.7169E-08
9.680000E+04  1.7090E-08
9.690000E+04  1.7012E-08
9.700000E+04  1.6956E-08
9.710000E+04  1.6900E-08
9.720000E+04  1.6843E-08
9.730000E+04  1.6787E-08
9.740000E+04  1.6730E-08
9.750000E+04  1.6676E-08
9.760000E+04  1.6622E-08
9.770000E+04  1.6563E-08
9.780000E+04  1.6498E-08
9.790000E+04  1.6434E-08
9.800000E+04  1.6369E-08
9.810000E+04  1.6308E-08
9.820000E+04  1.6248E-08
9.830000E+04  1.6188E-08
9.840000E+04  1.6128E-08
9.850000E+04  1.6075E-08
9.860000E+04  1.6023E-08
9.870000E+04  1.5972E-08
9.880000E+04  1.5921E-08
9.890000E+04  1.5859E-08
9.900000E+04  1.5796E-08
9.910000E+04  1.5732E-08
9.920000E+04  1.5669E-08
9.930000E+04  1.5601E-08
9.940000E+04  1.5533E-08
9.950000E+04  1.5465E-08
9.960000E+04  1.5399E-08
9.970000E+04  1.5333E-08
9.980000E+04  1.5268E-08
9.990000E+04  1.5203E-08
1.000000E+05  1.5138E-08
1.002000E+05  1.5018E-08
1.050000E+05  1.2555E-08
1.100000E+05  1.0422E-08
1.130000E+05  9.3993E-09
1.160000E+05  8.4255E-09
1.200000E+05  7.3720E-09
1.250000E+05  6.4156E-09
1.300000E+05  5.4945E-09
1.350000E+05  4.7335E-09
1.400000E+05  4.1004E-09
1.450000E+05  3.5700E-09
1.500000E+05  3.1231E-09
1.600000E+05  2.4213E-09
1.700000E+05  1.9067E-09
1.800000E+05  1.5223E-09
1.900000E+05  1.2304E-09
2.000000E+05  1.0055E-09
2.200000E+05  6.8969E-10
2.300000E+05  5.7849E-10
2.400000E+05  4.8886E-10
2.500000E+05  4.1597E-10
2.600000E+05  3.5620E-10
2.700000E+05  3.0681E-10
2.800000E+05  2.6570E-10
3.000000E+05  2.0225E-10
3.500000E+05  1.0993E-10
4.000000E+05  6.4828E-11
4.500000E+05  4.0564E-11
5.000000E+05  2.6668E-11
5.500000E+05  1.8248E-11
6.000000E+05  1.2906E-11
6.500000E+05  9.3763E-12
7.000000E+05  6.9753E-12
7.500000E+05  5.2962E-12
8.000000E+05  4.0934E-12
8.500000E+05  3.2124E-12
9.000000E+05  2.5561E-12
9.500000E+05  2.0593E-12
1.000000E+06  1.6775E-12
1.050000E+06  1.3799E-12
1.100000E+06  1.1455E-12
1.200000E+06  8.0870E-13
1.300000E+06  5.8692E-13
1.400000E+06  4.3622E-13
1.500000E+06  3.3085E-13
1.600000E+06  2.5545E-13
2.000000E+06  1.0474E-13
2.500000E+06  4.2900E-14
3.000000E+06  2.0688E-14
4.000000E+06  6.5460E-15
5.000000E+06  2.6812E-15
7.000000E+06  6.9795E-16
1.000000E+07  1.6758E-16
1.500000E+07  3.3102E-17
2.250000E+07  6.5386E-18
3.350000E+07  1.3306E-18
5.000000E+07  2.6812E-19
7.400000E+07  5.5884E-20
1.100000E+08  1.1446E-20
1.300000E+08  5.8673E-21
1.600000E+08  2.5570E-21
2.400000E+08  5.0509E-22
3.600000E+08  9.9771E-23
