# Input file name  = bc2003_lr_BaSeL_m72_salp_ssp.ised
# Output file name = spec_BC16_basel_salp_Zm72_age6.25Gyr.dat
# Record         166
# Column           2
# SED(Lo/A)       at    
# Lambda(A)    6.250E+09
9.100000E+01  5.4979E-10
9.400000E+01  8.4965E-10
9.600000E+01  1.1123E-09
9.800000E+01  1.4949E-09
1.000000E+02  1.9938E-09
1.020000E+02  2.5440E-09
1.040000E+02  2.9702E-09
1.060000E+02  3.5554E-09
1.080000E+02  4.3301E-09
1.100000E+02  5.9058E-09
1.140000E+02  8.0280E-09
1.180000E+02  9.9033E-09
1.210000E+02  3.7409E-08
1.250000E+02  4.3332E-08
1.270000E+02  4.6068E-08
1.280000E+02  4.7546E-08
1.310000E+02  5.0751E-08
1.320000E+02  5.9270E-08
1.340000E+02  6.1716E-08
1.370000E+02  7.5334E-08
1.400000E+02  7.9533E-08
1.430000E+02  2.1133E-07
1.470000E+02  5.0245E-07
1.500000E+02  5.1494E-07
1.510000E+02  5.2013E-07
1.550000E+02  5.4175E-07
1.590000E+02  5.6995E-07
1.620000E+02  5.9115E-07
1.660000E+02  6.1615E-07
1.700000E+02  6.3960E-07
1.730000E+02  6.5924E-07
1.770000E+02  6.8093E-07
1.800000E+02  6.9464E-07
1.820000E+02  7.0635E-07
1.860000E+02  7.2867E-07
1.910000E+02  7.5353E-07
1.940000E+02  7.7616E-07
1.980000E+02  7.9533E-07
2.000000E+02  8.0389E-07
2.020000E+02  8.1581E-07
2.050000E+02  8.3000E-07
2.100000E+02  8.3072E-07
2.160000E+02  8.8430E-07
2.200000E+02  9.0618E-07
2.230000E+02  9.0872E-07
2.270000E+02  9.3551E-07
2.300000E+02  1.4173E-06
2.340000E+02  2.1547E-06
2.400000E+02  2.8288E-06
2.460000E+02  2.5043E-06
2.520000E+02  2.7076E-06
2.570000E+02  2.2228E-06
2.600000E+02  2.5670E-06
2.640000E+02  2.6354E-06
2.690000E+02  2.5845E-06
2.740000E+02  2.5195E-06
2.790000E+02  2.4712E-06
2.840000E+02  2.4169E-06
2.900000E+02  2.3165E-06
2.960000E+02  2.2558E-06
3.000000E+02  2.2022E-06
3.010000E+02  2.1567E-06
3.080000E+02  2.1394E-06
3.180000E+02  2.1059E-06
3.280000E+02  2.0270E-06
3.380000E+02  1.9387E-06
3.480000E+02  1.8479E-06
3.570000E+02  1.7859E-06
3.660000E+02  1.7444E-06
3.750000E+02  1.6696E-06
3.850000E+02  1.5602E-06
3.950000E+02  1.5492E-06
4.000000E+02  1.5280E-06
4.050000E+02  1.5174E-06
4.140000E+02  1.4588E-06
4.220000E+02  1.3890E-06
4.300000E+02  1.3379E-06
4.410000E+02  1.2975E-06
4.510000E+02  1.2441E-06
4.600000E+02  1.1762E-06
4.700000E+02  1.1322E-06
4.800000E+02  1.1074E-06
4.900000E+02  1.0312E-06
5.000000E+02  1.0285E-06
5.060000E+02  9.7049E-07
5.120000E+02  1.0339E-06
5.200000E+02  9.9836E-07
5.300000E+02  9.4433E-07
5.400000E+02  8.7298E-07
5.500000E+02  8.3604E-07
5.600000E+02  8.4856E-07
5.700000E+02  8.5455E-07
5.800000E+02  8.1733E-07
5.900000E+02  7.9460E-07
6.000000E+02  7.2143E-07
6.100000E+02  6.2602E-07
6.200000E+02  7.1974E-07
6.300000E+02  6.8109E-07
6.400000E+02  6.8244E-07
6.500000E+02  6.5048E-07
6.580000E+02  6.1267E-07
6.650000E+02  6.2774E-07
6.750000E+02  6.2225E-07
6.850000E+02  5.6140E-07
6.950000E+02  5.8233E-07
7.000000E+02  5.4665E-07
7.050000E+02  5.1569E-07
7.160000E+02  5.5418E-07
7.260000E+02  5.4015E-07
7.350000E+02  5.2701E-07
7.450000E+02  5.0290E-07
7.550000E+02  4.8748E-07
7.650000E+02  4.1501E-07
7.750000E+02  4.6059E-07
7.850000E+02  4.2710E-07
7.950000E+02  4.3173E-07
8.000000E+02  4.2823E-07
8.050000E+02  4.2628E-07
8.150000E+02  4.1517E-07
8.250000E+02  4.0750E-07
8.350000E+02  3.4967E-07
8.450000E+02  3.8178E-07
8.550000E+02  3.6835E-07
8.650000E+02  3.6555E-07
8.750000E+02  3.5825E-07
8.850000E+02  3.4982E-07
8.950000E+02  3.4142E-07
9.000000E+02  3.3489E-07
9.050000E+02  3.2856E-07
9.150000E+02  3.5482E-07
9.250000E+02  5.6416E-07
9.350000E+02  7.6449E-07
9.450000E+02  9.0420E-07
9.550000E+02  9.9045E-07
9.650000E+02  9.9552E-07
9.750000E+02  5.5233E-07
9.850000E+02  7.7333E-07
9.950000E+02  7.5806E-07
1.000000E+03  8.2088E-07
1.005000E+03  8.9877E-07
1.015000E+03  9.3380E-07
1.025000E+03  6.8009E-07
1.035000E+03  8.3863E-07
1.045000E+03  1.0631E-06
1.055000E+03  1.0149E-06
1.065000E+03  8.5075E-07
1.075000E+03  9.1783E-07
1.085000E+03  7.4340E-07
1.095000E+03  9.3039E-07
1.100000E+03  9.0470E-07
1.105000E+03  8.8135E-07
1.115000E+03  8.4878E-07
1.125000E+03  7.3363E-07
1.135000E+03  8.6897E-07
1.145000E+03  8.3408E-07
1.155000E+03  8.2547E-07
1.165000E+03  7.9087E-07
1.175000E+03  5.4583E-07
1.185000E+03  7.4285E-07
1.195000E+03  6.5072E-07
1.200000E+03  5.9723E-07
1.205000E+03  5.5833E-07
1.215000E+03  4.6422E-07
1.225000E+03  6.5571E-07
1.235000E+03  7.5349E-07
1.245000E+03  7.5826E-07
1.255000E+03  7.2875E-07
1.265000E+03  7.0964E-07
1.275000E+03  7.7920E-07
1.285000E+03  7.8815E-07
1.295000E+03  6.5532E-07
1.300000E+03  6.5749E-07
1.305000E+03  6.6110E-07
1.315000E+03  7.6022E-07
1.325000E+03  7.2068E-07
1.335000E+03  6.5728E-07
1.345000E+03  7.2760E-07
1.355000E+03  7.0570E-07
1.365000E+03  6.4406E-07
1.375000E+03  6.3831E-07
1.385000E+03  6.2176E-07
1.395000E+03  4.6277E-07
1.400000E+03  4.5685E-07
1.405000E+03  4.5270E-07
1.415000E+03  5.7105E-07
1.425000E+03  5.6031E-07
1.435000E+03  5.7998E-07
1.442000E+03  5.8468E-07
1.447000E+03  5.8461E-07
1.455000E+03  5.5952E-07
1.465000E+03  5.2208E-07
1.475000E+03  5.3158E-07
1.485000E+03  5.3600E-07
1.495000E+03  5.2633E-07
1.500000E+03  5.0951E-07
1.505000E+03  4.9292E-07
1.512000E+03  4.5047E-07
1.517000E+03  4.6779E-07
1.525000E+03  4.5980E-07
1.535000E+03  3.9115E-07
1.545000E+03  3.5633E-07
1.555000E+03  3.5532E-07
1.565000E+03  3.9150E-07
1.575000E+03  4.1260E-07
1.585000E+03  4.2565E-07
1.595000E+03  4.2303E-07
1.600000E+03  4.1933E-07
1.605000E+03  4.1613E-07
1.615000E+03  4.0970E-07
1.625000E+03  3.9860E-07
1.635000E+03  4.1906E-07
1.645000E+03  4.1870E-07
1.655000E+03  4.0334E-07
1.665000E+03  4.1757E-07
1.672000E+03  3.7702E-07
1.677000E+03  4.3090E-07
1.685000E+03  4.3159E-07
1.695000E+03  4.0856E-07
1.700000E+03  4.0286E-07
1.705000E+03  3.9722E-07
1.715000E+03  3.6959E-07
1.725000E+03  3.6325E-07
1.735000E+03  3.8288E-07
1.745000E+03  3.7498E-07
1.755000E+03  3.8550E-07
1.765000E+03  3.6653E-07
1.775000E+03  3.5434E-07
1.785000E+03  3.6333E-07
1.795000E+03  3.7503E-07
1.800000E+03  3.7536E-07
1.805000E+03  3.7552E-07
1.815000E+03  3.3960E-07
1.825000E+03  3.4692E-07
1.835000E+03  3.3582E-07
1.845000E+03  3.0976E-07
1.855000E+03  3.0319E-07
1.865000E+03  3.0933E-07
1.875000E+03  3.3104E-07
1.885000E+03  3.0036E-07
1.895000E+03  2.8594E-07
1.900000E+03  2.9611E-07
1.905000E+03  3.0681E-07
1.915000E+03  2.8562E-07
1.925000E+03  2.7490E-07
1.935000E+03  2.9180E-07
1.945000E+03  2.9600E-07
1.955000E+03  2.6884E-07
1.967000E+03  2.9437E-07
1.976000E+03  3.0101E-07
1.984000E+03  2.8459E-07
1.995000E+03  2.7556E-07
2.000000E+03  2.8103E-07
2.005000E+03  2.8860E-07
2.015000E+03  2.7863E-07
2.025000E+03  2.8752E-07
2.035000E+03  2.6631E-07
2.045000E+03  2.7397E-07
2.055000E+03  2.4468E-07
2.065000E+03  2.4864E-07
2.074000E+03  2.7688E-07
2.078000E+03  2.6085E-07
2.085000E+03  2.7605E-07
2.095000E+03  2.6039E-07
2.100000E+03  2.6213E-07
2.105000E+03  2.6405E-07
2.115000E+03  2.6931E-07
2.125000E+03  2.6653E-07
2.135000E+03  2.5709E-07
2.145000E+03  2.5755E-07
2.155000E+03  2.6432E-07
2.165000E+03  2.5757E-07
2.175000E+03  2.5605E-07
2.185000E+03  2.5194E-07
2.195000E+03  2.6170E-07
2.200000E+03  2.5987E-07
2.205000E+03  2.5811E-07
2.215000E+03  2.4395E-07
2.225000E+03  2.4394E-07
2.235000E+03  2.5980E-07
2.245000E+03  2.5491E-07
2.255000E+03  2.4086E-07
2.265000E+03  2.4043E-07
2.275000E+03  2.4680E-07
2.285000E+03  2.6147E-07
2.295000E+03  2.4005E-07
2.300000E+03  2.4382E-07
2.305000E+03  2.4812E-07
2.315000E+03  2.3754E-07
2.325000E+03  2.0242E-07
2.335000E+03  2.2863E-07
2.345000E+03  2.1454E-07
2.355000E+03  2.3774E-07
2.365000E+03  2.1658E-07
2.375000E+03  2.2493E-07
2.385000E+03  2.0441E-07
2.395000E+03  2.1817E-07
2.400000E+03  2.1761E-07
2.405000E+03  2.1726E-07
2.415000E+03  2.1711E-07
2.425000E+03  2.4471E-07
2.435000E+03  2.4463E-07
2.445000E+03  2.6524E-07
2.455000E+03  2.7045E-07
2.465000E+03  2.5093E-07
2.475000E+03  2.4049E-07
2.485000E+03  2.0168E-07
2.495000E+03  1.9340E-07
2.500000E+03  2.1877E-07
2.505000E+03  2.4951E-07
2.513000E+03  1.9798E-07
2.518000E+03  1.9260E-07
2.525000E+03  1.9312E-07
2.535000E+03  2.3398E-07
2.545000E+03  2.3549E-07
2.555000E+03  3.4869E-07
2.565000E+03  2.8737E-07
2.575000E+03  3.4497E-07
2.585000E+03  3.2671E-07
2.595000E+03  3.1539E-07
2.600000E+03  3.0848E-07
2.605000E+03  3.0210E-07
2.615000E+03  2.8441E-07
2.625000E+03  3.4143E-07
2.635000E+03  5.2882E-07
2.645000E+03  6.4228E-07
2.655000E+03  1.0167E-06
2.665000E+03  5.7810E-07
2.675000E+03  6.3951E-07
2.685000E+03  7.7982E-07
2.695000E+03  5.5216E-07
2.700000E+03  6.3336E-07
2.705000E+03  7.3140E-07
2.715000E+03  5.2923E-07
2.725000E+03  3.7990E-07
2.735000E+03  4.8363E-07
2.745000E+03  3.5468E-07
2.755000E+03  4.4064E-07
2.765000E+03  5.5144E-07
2.775000E+03  5.8917E-07
2.785000E+03  4.1553E-07
2.795000E+03  2.4598E-07
2.800000E+03  2.6230E-07
2.805000E+03  2.8071E-07
2.815000E+03  5.5096E-07
2.825000E+03  7.1503E-07
2.835000E+03  6.5087E-07
2.845000E+03  4.3641E-07
2.855000E+03  2.7286E-07
2.865000E+03  6.0794E-07
2.875000E+03  9.8527E-07
2.885000E+03  9.2239E-07
2.895000E+03  1.2369E-06
2.900000E+03  1.4018E-06
2.910000E+03  1.8107E-06
2.930000E+03  1.5560E-06
2.950000E+03  1.3946E-06
2.970000E+03  1.4505E-06
2.990000E+03  1.4700E-06
3.000000E+03  1.4212E-06
3.010000E+03  1.3751E-06
3.030000E+03  1.6083E-06
3.050000E+03  1.6381E-06
3.070000E+03  2.0142E-06
3.090000E+03  1.9639E-06
3.100000E+03  2.2173E-06
3.110000E+03  2.5154E-06
3.130000E+03  2.2498E-06
3.150000E+03  2.3548E-06
3.170000E+03  2.6545E-06
3.190000E+03  2.1760E-06
3.200000E+03  2.2860E-06
3.210000E+03  2.4028E-06
3.230000E+03  1.9679E-06
3.250000E+03  3.0474E-06
3.270000E+03  3.6950E-06
3.290000E+03  3.6397E-06
3.300000E+03  3.4735E-06
3.310000E+03  3.3185E-06
3.330000E+03  3.5046E-06
3.350000E+03  3.3887E-06
3.370000E+03  2.4099E-06
3.390000E+03  2.7544E-06
3.400000E+03  2.7822E-06
3.410000E+03  2.8117E-06
3.430000E+03  2.8846E-06
3.450000E+03  3.1363E-06
3.470000E+03  3.2824E-06
3.490000E+03  3.8537E-06
3.500000E+03  3.9994E-06
3.510000E+03  4.1558E-06
3.530000E+03  3.5381E-06
3.550000E+03  4.0766E-06
3.570000E+03  2.3934E-06
3.590000E+03  2.6458E-06
3.600000E+03  3.1202E-06
3.610000E+03  3.6935E-06
3.630000E+03  4.1143E-06
3.640000E+03  4.2592E-06
3.650000E+03  5.0985E-06
3.670000E+03  5.6332E-06
3.690000E+03  4.7915E-06
3.700000E+03  4.9165E-06
3.710000E+03  5.0707E-06
3.730000E+03  2.9152E-06
3.750000E+03  3.3685E-06
3.770000E+03  4.6499E-06
3.790000E+03  4.7046E-06
3.800000E+03  4.3814E-06
3.810000E+03  4.0876E-06
3.830000E+03  2.0871E-06
3.850000E+03  2.7306E-06
3.870000E+03  2.8257E-06
3.890000E+03  4.4010E-06
3.900000E+03  4.9565E-06
3.910000E+03  5.5943E-06
3.930000E+03  2.6445E-06
3.950000E+03  4.6057E-06
3.970000E+03  3.2075E-06
3.990000E+03  7.8047E-06
4.000000E+03  8.3627E-06
4.010000E+03  8.9845E-06
4.030000E+03  8.8384E-06
4.050000E+03  8.3659E-06
4.070000E+03  7.5626E-06
4.090000E+03  1.0208E-05
4.100000E+03  9.8254E-06
4.110000E+03  9.5061E-06
4.130000E+03  8.7320E-06
4.150000E+03  8.4187E-06
4.170000E+03  8.6752E-06
4.190000E+03  8.5648E-06
4.200000E+03  8.7363E-06
4.210000E+03  8.9350E-06
4.230000E+03  8.2852E-06
4.250000E+03  9.5312E-06
4.270000E+03  8.8182E-06
4.290000E+03  8.1979E-06
4.300000E+03  7.7099E-06
4.310000E+03  7.2826E-06
4.330000E+03  1.0941E-05
4.350000E+03  1.1153E-05
4.370000E+03  1.2213E-05
4.390000E+03  1.0276E-05
4.400000E+03  1.0594E-05
4.410000E+03  1.0929E-05
4.430000E+03  1.1863E-05
4.450000E+03  1.2093E-05
4.470000E+03  1.3245E-05
4.490000E+03  1.3628E-05
4.500000E+03  1.4920E-05
4.510000E+03  1.6348E-05
4.530000E+03  1.3521E-05
4.550000E+03  1.4398E-05
4.570000E+03  1.5933E-05
4.590000E+03  1.4915E-05
4.600000E+03  1.5031E-05
4.610000E+03  1.5150E-05
4.630000E+03  1.4595E-05
4.650000E+03  1.4830E-05
4.670000E+03  1.5870E-05
4.690000E+03  1.5488E-05
4.700000E+03  1.5181E-05
4.710000E+03  1.4886E-05
4.730000E+03  1.5654E-05
4.750000E+03  1.6272E-05
4.770000E+03  1.5964E-05
4.790000E+03  1.5980E-05
4.800000E+03  1.5985E-05
4.810000E+03  1.5996E-05
4.830000E+03  1.6825E-05
4.850000E+03  1.5725E-05
4.870000E+03  1.4221E-05
4.890000E+03  1.6048E-05
4.900000E+03  1.6068E-05
4.910000E+03  1.6094E-05
4.930000E+03  1.5696E-05
4.950000E+03  1.6539E-05
4.970000E+03  1.5708E-05
4.990000E+03  1.4272E-05
5.000000E+03  1.3728E-05
5.010000E+03  1.3208E-05
5.030000E+03  1.4408E-05
5.050000E+03  1.4441E-05
5.070000E+03  1.5363E-05
5.090000E+03  1.4231E-05
5.100000E+03  1.4542E-05
5.110000E+03  1.4869E-05
5.130000E+03  1.4221E-05
5.150000E+03  1.3444E-05
5.170000E+03  1.1402E-05
5.190000E+03  1.2079E-05
5.200000E+03  1.2898E-05
5.210000E+03  1.3777E-05
5.230000E+03  1.5417E-05
5.250000E+03  1.6558E-05
5.270000E+03  1.3990E-05
5.290000E+03  1.7051E-05
5.300000E+03  1.7854E-05
5.310000E+03  1.8699E-05
5.330000E+03  1.5507E-05
5.350000E+03  1.7672E-05
5.370000E+03  1.7613E-05
5.390000E+03  1.7022E-05
5.400000E+03  1.6895E-05
5.410000E+03  1.6773E-05
5.430000E+03  1.7077E-05
5.450000E+03  1.7504E-05
5.470000E+03  1.6963E-05
5.490000E+03  1.6815E-05
5.500000E+03  1.6801E-05
5.510000E+03  1.6791E-05
5.530000E+03  1.7758E-05
5.550000E+03  1.8258E-05
5.570000E+03  1.7912E-05
5.590000E+03  1.6950E-05
5.600000E+03  1.7451E-05
5.610000E+03  1.7978E-05
5.630000E+03  1.7668E-05
5.650000E+03  1.8108E-05
5.670000E+03  1.7716E-05
5.690000E+03  1.8604E-05
5.700000E+03  1.8243E-05
5.710000E+03  1.7899E-05
5.730000E+03  2.0070E-05
5.750000E+03  1.8825E-05
5.770000E+03  1.9263E-05
5.790000E+03  1.8181E-05
5.800000E+03  1.8779E-05
5.810000E+03  1.9403E-05
5.830000E+03  2.0230E-05
5.850000E+03  1.9192E-05
5.870000E+03  1.9147E-05
5.890000E+03  1.4888E-05
5.900000E+03  1.6588E-05
5.910000E+03  1.8574E-05
5.930000E+03  1.8990E-05
5.950000E+03  1.9022E-05
5.970000E+03  1.9487E-05
5.990000E+03  1.9046E-05
6.000000E+03  1.8941E-05
6.010000E+03  1.8843E-05
6.030000E+03  1.9713E-05
6.050000E+03  2.0212E-05
6.070000E+03  2.0299E-05
6.090000E+03  1.9247E-05
6.100000E+03  1.9345E-05
6.110000E+03  1.9446E-05
6.130000E+03  1.7892E-05
6.150000E+03  1.8424E-05
6.170000E+03  1.7029E-05
6.190000E+03  1.8549E-05
6.200000E+03  1.8420E-05
6.210000E+03  1.8293E-05
6.230000E+03  1.7459E-05
6.250000E+03  1.6813E-05
6.270000E+03  1.7933E-05
6.290000E+03  1.8597E-05
6.300000E+03  1.8249E-05
6.310000E+03  1.7917E-05
6.330000E+03  1.8363E-05
6.350000E+03  1.8257E-05
6.370000E+03  1.8224E-05
6.390000E+03  1.9124E-05
6.400000E+03  1.8918E-05
6.410000E+03  1.8716E-05
6.430000E+03  1.8875E-05
6.450000E+03  1.8777E-05
6.470000E+03  1.8737E-05
6.490000E+03  1.8388E-05
6.500000E+03  1.8841E-05
6.510000E+03  1.9309E-05
6.530000E+03  1.9223E-05
6.550000E+03  1.8934E-05
6.570000E+03  1.8153E-05
6.590000E+03  1.8954E-05
6.600000E+03  1.9068E-05
6.610000E+03  1.9183E-05
6.630000E+03  1.8706E-05
6.650000E+03  1.8633E-05
6.670000E+03  1.8015E-05
6.690000E+03  1.8361E-05
6.700000E+03  1.7837E-05
6.710000E+03  1.7332E-05
6.730000E+03  1.8042E-05
6.750000E+03  1.7610E-05
6.770000E+03  1.7781E-05
6.790000E+03  1.7439E-05
6.800000E+03  1.7577E-05
6.810000E+03  1.7719E-05
6.830000E+03  1.8051E-05
6.850000E+03  1.7476E-05
6.870000E+03  1.7961E-05
6.890000E+03  1.8367E-05
6.900000E+03  1.8387E-05
6.910000E+03  1.8414E-05
6.930000E+03  1.8232E-05
6.950000E+03  1.8333E-05
6.970000E+03  1.8715E-05
6.990000E+03  1.8639E-05
7.000000E+03  1.8492E-05
7.010000E+03  1.8359E-05
7.030000E+03  1.8812E-05
7.050000E+03  1.8389E-05
7.070000E+03  1.7518E-05
7.090000E+03  1.6767E-05
7.100000E+03  1.6461E-05
7.110000E+03  1.6175E-05
7.130000E+03  1.5629E-05
7.150000E+03  1.5608E-05
7.170000E+03  1.5943E-05
7.190000E+03  1.5557E-05
7.200000E+03  1.5905E-05
7.210000E+03  1.6264E-05
7.230000E+03  1.6765E-05
7.250000E+03  1.7076E-05
7.270000E+03  1.7247E-05
7.290000E+03  1.7027E-05
7.300000E+03  1.7457E-05
7.310000E+03  1.7924E-05
7.330000E+03  1.7960E-05
7.350000E+03  1.8264E-05
7.370000E+03  1.9085E-05
7.390000E+03  1.8481E-05
7.400000E+03  1.8542E-05
7.410000E+03  1.8615E-05
7.430000E+03  1.9203E-05
7.450000E+03  1.9049E-05
7.470000E+03  1.9545E-05
7.490000E+03  1.9504E-05
7.500000E+03  1.9635E-05
7.510000E+03  1.9769E-05
7.530000E+03  2.0397E-05
7.550000E+03  2.0600E-05
7.570000E+03  2.0489E-05
7.590000E+03  1.9396E-05
7.600000E+03  1.9165E-05
7.610000E+03  1.8956E-05
7.630000E+03  1.8579E-05
7.650000E+03  1.7997E-05
7.670000E+03  1.6826E-05
7.690000E+03  1.7451E-05
7.700000E+03  1.7285E-05
7.710000E+03  1.7124E-05
7.730000E+03  1.7119E-05
7.750000E+03  1.6989E-05
7.770000E+03  1.7390E-05
7.790000E+03  1.7489E-05
7.800000E+03  1.7468E-05
7.810000E+03  1.7451E-05
7.830000E+03  1.7470E-05
7.850000E+03  1.7163E-05
7.870000E+03  1.7461E-05
7.890000E+03  1.7270E-05
7.900000E+03  1.6990E-05
7.910000E+03  1.6721E-05
7.930000E+03  1.6804E-05
7.950000E+03  1.6654E-05
7.970000E+03  1.7339E-05
7.990000E+03  1.7277E-05
8.000000E+03  1.7436E-05
8.010000E+03  1.7614E-05
8.030000E+03  1.7773E-05
8.050000E+03  1.7760E-05
8.070000E+03  1.8179E-05
8.090000E+03  1.8104E-05
8.100000E+03  1.8234E-05
8.110000E+03  1.8367E-05
8.130000E+03  1.9252E-05
8.150000E+03  1.9824E-05
8.170000E+03  2.0250E-05
8.190000E+03  1.8917E-05
8.200000E+03  1.8849E-05
8.210000E+03  1.8903E-05
8.230000E+03  1.9025E-05
8.250000E+03  1.9065E-05
8.270000E+03  1.9100E-05
8.290000E+03  1.8809E-05
8.300000E+03  1.8410E-05
8.310000E+03  1.8021E-05
8.330000E+03  1.7803E-05
8.350000E+03  1.7830E-05
8.370000E+03  1.8023E-05
8.390000E+03  1.7268E-05
8.400000E+03  1.7690E-05
8.410000E+03  1.8127E-05
8.430000E+03  1.7229E-05
8.450000E+03  1.6653E-05
8.470000E+03  1.6609E-05
8.490000E+03  1.6632E-05
8.500000E+03  1.6252E-05
8.510000E+03  1.5885E-05
8.530000E+03  1.6338E-05
8.550000E+03  1.4360E-05
8.570000E+03  1.7363E-05
8.590000E+03  1.7079E-05
8.600000E+03  1.7224E-05
8.610000E+03  1.7376E-05
8.630000E+03  1.7775E-05
8.650000E+03  1.7575E-05
8.670000E+03  1.5075E-05
8.690000E+03  1.7151E-05
8.700000E+03  1.7612E-05
8.710000E+03  1.8093E-05
8.730000E+03  1.8328E-05
8.750000E+03  1.8244E-05
8.770000E+03  1.8683E-05
8.790000E+03  1.9135E-05
8.800000E+03  1.8931E-05
8.810000E+03  1.8734E-05
8.830000E+03  1.8900E-05
8.850000E+03  1.8805E-05
8.870000E+03  1.7848E-05
8.890000E+03  1.7982E-05
8.900000E+03  1.8139E-05
8.910000E+03  1.8295E-05
8.930000E+03  1.7990E-05
8.950000E+03  1.8173E-05
8.970000E+03  1.8275E-05
8.990000E+03  1.8272E-05
9.000000E+03  1.8089E-05
9.010000E+03  1.7918E-05
9.030000E+03  1.8906E-05
9.050000E+03  1.9735E-05
9.070000E+03  1.9846E-05
9.090000E+03  1.9642E-05
9.100000E+03  1.9908E-05
9.110000E+03  2.0185E-05
9.130000E+03  2.0666E-05
9.150000E+03  2.0523E-05
9.170000E+03  2.0534E-05
9.190000E+03  2.0911E-05
9.200000E+03  2.0341E-05
9.210000E+03  1.9793E-05
9.230000E+03  1.8863E-05
9.250000E+03  1.8672E-05
9.270000E+03  1.9045E-05
9.290000E+03  1.8509E-05
9.300000E+03  1.8547E-05
9.310000E+03  1.8588E-05
9.330000E+03  1.8812E-05
9.350000E+03  1.8734E-05
9.370000E+03  1.8290E-05
9.390000E+03  1.8787E-05
9.400000E+03  1.8644E-05
9.410000E+03  1.8507E-05
9.430000E+03  1.9161E-05
9.450000E+03  1.8854E-05
9.470000E+03  1.9572E-05
9.490000E+03  1.9659E-05
9.500000E+03  1.9320E-05
9.510000E+03  1.8993E-05
9.530000E+03  1.9326E-05
9.550000E+03  1.8998E-05
9.570000E+03  1.9234E-05
9.590000E+03  1.9595E-05
9.600000E+03  1.9393E-05
9.610000E+03  1.9190E-05
9.630000E+03  1.9408E-05
9.650000E+03  1.8819E-05
9.670000E+03  1.8880E-05
9.690000E+03  1.9298E-05
9.700000E+03  1.9012E-05
9.710000E+03  1.8739E-05
9.730000E+03  1.8431E-05
9.750000E+03  1.8482E-05
9.770000E+03  1.8708E-05
9.790000E+03  1.8362E-05
9.800000E+03  1.8771E-05
9.810000E+03  1.9210E-05
9.830000E+03  1.8953E-05
9.850000E+03  1.9208E-05
9.870000E+03  1.9091E-05
9.890000E+03  1.9115E-05
9.900000E+03  1.8827E-05
9.910000E+03  1.8575E-05
9.930000E+03  1.8991E-05
9.950000E+03  1.9210E-05
9.970000E+03  1.9274E-05
9.990000E+03  1.9250E-05
1.000000E+04  1.9365E-05
1.002500E+04  1.9682E-05
1.007500E+04  1.9473E-05
1.010000E+04  1.9825E-05
1.012500E+04  2.0198E-05
1.017500E+04  2.0041E-05
1.020000E+04  2.0275E-05
1.022500E+04  2.0523E-05
1.027500E+04  2.0874E-05
1.030000E+04  2.0917E-05
1.032500E+04  2.0968E-05
1.037500E+04  2.0912E-05
1.040000E+04  2.1058E-05
1.042500E+04  2.1212E-05
1.047500E+04  2.0451E-05
1.050000E+04  1.9930E-05
1.052500E+04  1.9471E-05
1.057500E+04  1.8478E-05
1.060000E+04  1.8268E-05
1.062500E+04  1.8057E-05
1.067500E+04  1.8264E-05
1.070000E+04  1.8563E-05
1.072500E+04  1.8879E-05
1.077500E+04  1.9095E-05
1.080000E+04  1.8956E-05
1.082500E+04  1.8832E-05
1.087500E+04  1.8827E-05
1.090000E+04  1.8812E-05
1.092500E+04  1.8792E-05
1.097500E+04  1.8445E-05
1.100000E+04  1.8189E-05
1.102500E+04  1.7959E-05
1.107500E+04  1.7173E-05
1.110000E+04  1.7253E-05
1.112500E+04  1.7334E-05
1.117500E+04  1.7338E-05
1.120000E+04  1.7402E-05
1.122500E+04  1.7471E-05
1.127500E+04  1.7450E-05
1.130000E+04  1.7496E-05
1.132500E+04  1.7544E-05
1.137500E+04  1.7384E-05
1.140000E+04  1.7327E-05
1.142500E+04  1.7259E-05
1.147500E+04  1.7812E-05
1.150000E+04  1.7878E-05
1.152500E+04  1.7938E-05
1.157500E+04  1.7744E-05
1.160000E+04  1.7573E-05
1.162500E+04  1.7403E-05
1.167500E+04  1.7481E-05
1.170000E+04  1.7450E-05
1.172500E+04  1.7436E-05
1.177500E+04  1.6562E-05
1.180000E+04  1.6379E-05
1.182500E+04  1.6212E-05
1.187500E+04  1.5660E-05
1.190000E+04  1.5860E-05
1.192500E+04  1.6055E-05
1.197500E+04  1.5429E-05
1.200000E+04  1.5768E-05
1.202500E+04  1.6117E-05
1.207500E+04  1.6203E-05
1.210000E+04  1.6279E-05
1.212500E+04  1.6373E-05
1.217500E+04  1.6524E-05
1.220000E+04  1.6513E-05
1.222500E+04  1.6496E-05
1.227500E+04  1.6415E-05
1.230000E+04  1.6365E-05
1.232500E+04  1.6304E-05
1.237500E+04  1.6301E-05
1.240000E+04  1.5985E-05
1.242500E+04  1.5674E-05
1.247500E+04  1.5581E-05
1.250000E+04  1.5527E-05
1.252500E+04  1.5472E-05
1.257500E+04  1.5424E-05
1.260000E+04  1.5378E-05
1.262500E+04  1.5320E-05
1.267500E+04  1.5231E-05
1.270000E+04  1.5273E-05
1.272500E+04  1.5309E-05
1.277500E+04  1.5354E-05
1.280000E+04  1.5084E-05
1.282500E+04  1.4824E-05
1.287500E+04  1.5168E-05
1.290000E+04  1.5078E-05
1.292500E+04  1.4984E-05
1.297500E+04  1.5262E-05
1.300000E+04  1.5201E-05
1.302500E+04  1.5142E-05
1.307500E+04  1.5145E-05
1.310000E+04  1.4852E-05
1.312500E+04  1.4578E-05
1.317500E+04  1.4603E-05
1.320000E+04  1.4574E-05
1.322500E+04  1.4537E-05
1.327500E+04  1.4160E-05
1.330000E+04  1.4099E-05
1.332500E+04  1.4042E-05
1.337500E+04  1.3864E-05
1.340000E+04  1.3831E-05
1.342500E+04  1.3792E-05
1.347500E+04  1.3564E-05
1.350000E+04  1.3473E-05
1.352500E+04  1.3385E-05
1.357500E+04  1.3061E-05
1.360000E+04  1.3003E-05
1.362500E+04  1.2934E-05
1.367500E+04  1.3128E-05
1.370000E+04  1.3186E-05
1.372500E+04  1.3242E-05
1.377500E+04  1.3245E-05
1.380000E+04  1.3254E-05
1.382500E+04  1.3259E-05
1.387500E+04  1.3052E-05
1.390000E+04  1.2406E-05
1.392500E+04  1.1874E-05
1.397500E+04  1.1685E-05
1.400000E+04  1.1616E-05
1.402500E+04  1.1545E-05
1.407500E+04  1.1645E-05
1.410000E+04  1.1558E-05
1.412500E+04  1.1474E-05
1.417500E+04  1.1595E-05
1.420000E+04  1.1523E-05
1.422500E+04  1.1462E-05
1.427500E+04  1.1260E-05
1.430000E+04  1.1416E-05
1.432500E+04  1.1588E-05
1.437500E+04  1.1694E-05
1.440000E+04  1.1571E-05
1.442500E+04  1.1439E-05
1.447500E+04  1.1718E-05
1.450000E+04  1.1665E-05
1.452500E+04  1.1611E-05
1.457000E+04  1.1742E-05
1.460000E+04  1.1478E-05
1.462000E+04  1.1309E-05
1.467500E+04  1.1206E-05
1.470000E+04  1.1164E-05
1.472500E+04  1.1138E-05
1.477500E+04  1.1265E-05
1.480000E+04  1.1323E-05
1.482500E+04  1.1391E-05
1.487500E+04  1.1345E-05
1.490000E+04  1.1538E-05
1.492500E+04  1.1748E-05
1.497500E+04  1.1697E-05
1.500000E+04  1.1568E-05
1.502500E+04  1.1443E-05
1.507500E+04  1.1683E-05
1.510000E+04  1.1829E-05
1.512500E+04  1.1971E-05
1.517500E+04  1.2077E-05
1.520000E+04  1.2105E-05
1.522500E+04  1.2115E-05
1.527500E+04  1.2305E-05
1.530000E+04  1.2299E-05
1.532500E+04  1.2298E-05
1.537500E+04  1.2249E-05
1.540000E+04  1.2208E-05
1.542500E+04  1.2161E-05
1.547500E+04  1.2201E-05
1.550000E+04  1.2177E-05
1.552500E+04  1.2153E-05
1.557500E+04  1.1768E-05
1.560000E+04  1.1726E-05
1.562500E+04  1.1681E-05
1.567500E+04  1.1784E-05
1.570000E+04  1.1954E-05
1.572500E+04  1.2131E-05
1.577500E+04  1.1312E-05
1.580000E+04  1.1208E-05
1.582500E+04  1.1130E-05
1.587500E+04  1.1306E-05
1.590000E+04  1.1565E-05
1.592500E+04  1.1820E-05
1.597500E+04  1.1509E-05
1.600000E+04  1.1454E-05
1.605000E+04  1.1350E-05
1.610000E+04  1.1574E-05
1.615000E+04  1.1821E-05
1.620000E+04  1.1541E-05
1.625000E+04  1.1270E-05
1.630000E+04  1.1606E-05
1.635000E+04  1.1955E-05
1.640000E+04  1.1640E-05
1.645000E+04  1.1335E-05
1.650000E+04  1.1630E-05
1.655000E+04  1.1939E-05
1.660000E+04  1.1820E-05
1.665000E+04  1.1684E-05
1.670000E+04  1.1748E-05
1.675000E+04  1.1806E-05
1.680000E+04  1.1808E-05
1.685000E+04  1.1835E-05
1.690000E+04  1.1872E-05
1.695000E+04  1.1903E-05
1.700000E+04  1.1885E-05
1.705000E+04  1.1866E-05
1.710000E+04  1.1719E-05
1.715000E+04  1.1568E-05
1.720000E+04  1.1499E-05
1.725000E+04  1.1433E-05
1.730000E+04  1.1236E-05
1.735000E+04  1.1044E-05
1.740000E+04  1.0904E-05
1.745000E+04  1.0767E-05
1.750000E+04  1.0619E-05
1.755000E+04  1.0497E-05
1.760000E+04  1.0293E-05
1.765000E+04  1.0089E-05
1.770000E+04  9.8591E-06
1.775000E+04  9.6549E-06
1.780000E+04  9.5022E-06
1.785000E+04  9.3653E-06
1.790000E+04  9.1234E-06
1.795000E+04  8.9181E-06
1.800000E+04  8.7684E-06
1.805000E+04  8.5860E-06
1.810000E+04  8.5154E-06
1.815000E+04  8.4305E-06
1.820000E+04  8.3567E-06
1.825000E+04  8.2665E-06
1.830000E+04  8.1963E-06
1.835000E+04  8.1232E-06
1.840000E+04  8.0010E-06
1.845000E+04  7.9084E-06
1.850000E+04  7.8559E-06
1.855000E+04  7.7759E-06
1.860000E+04  7.6234E-06
1.865000E+04  7.4728E-06
1.870000E+04  7.4250E-06
1.875000E+04  7.3366E-06
1.880000E+04  7.3208E-06
1.885000E+04  7.3040E-06
1.890000E+04  7.1984E-06
1.895000E+04  7.1134E-06
1.900000E+04  7.1891E-06
1.905000E+04  7.2622E-06
1.910000E+04  7.1996E-06
1.915000E+04  7.1422E-06
1.920000E+04  7.1268E-06
1.925000E+04  7.1177E-06
1.930000E+04  7.0428E-06
1.935000E+04  6.9613E-06
1.940000E+04  6.8770E-06
1.945000E+04  6.8063E-06
1.950000E+04  6.7787E-06
1.955000E+04  6.7507E-06
1.960000E+04  6.6799E-06
1.965000E+04  6.5981E-06
1.970000E+04  6.4840E-06
1.975000E+04  6.3573E-06
1.980000E+04  6.3025E-06
1.985000E+04  6.2581E-06
1.990000E+04  6.2444E-06
1.995000E+04  6.2223E-06
2.000000E+04  6.2198E-06
2.005000E+04  6.2372E-06
2.010000E+04  6.2155E-06
2.015000E+04  6.1889E-06
2.020000E+04  6.1262E-06
2.025000E+04  6.0619E-06
2.030000E+04  6.0490E-06
2.035000E+04  6.0433E-06
2.040000E+04  6.0562E-06
2.045000E+04  6.0817E-06
2.050000E+04  6.0637E-06
2.055000E+04  6.0439E-06
2.060000E+04  6.0201E-06
2.065000E+04  6.0028E-06
2.070000E+04  6.0087E-06
2.075000E+04  6.0120E-06
2.080000E+04  6.0092E-06
2.085000E+04  6.0164E-06
2.090000E+04  5.9902E-06
2.095000E+04  5.9545E-06
2.100000E+04  5.9735E-06
2.105000E+04  5.9983E-06
2.110000E+04  5.9787E-06
2.115000E+04  5.9517E-06
2.120000E+04  5.9414E-06
2.125000E+04  5.9435E-06
2.130000E+04  5.9463E-06
2.135000E+04  5.9520E-06
2.140000E+04  5.9392E-06
2.145000E+04  5.9206E-06
2.150000E+04  5.9042E-06
2.155000E+04  5.8841E-06
2.160000E+04  5.8480E-06
2.165000E+04  5.8150E-06
2.170000E+04  5.7725E-06
2.175000E+04  5.7318E-06
2.180000E+04  5.7194E-06
2.185000E+04  5.7024E-06
2.190000E+04  5.6782E-06
2.195000E+04  5.6557E-06
2.200000E+04  5.5715E-06
2.205000E+04  5.4927E-06
2.210000E+04  5.5162E-06
2.215000E+04  5.5446E-06
2.220000E+04  5.4808E-06
2.225000E+04  5.4189E-06
2.230000E+04  5.4029E-06
2.235000E+04  5.3802E-06
2.240000E+04  5.3515E-06
2.245000E+04  5.3274E-06
2.250000E+04  5.2982E-06
2.255000E+04  5.2673E-06
2.260000E+04  5.2060E-06
2.265000E+04  5.1545E-06
2.270000E+04  5.1552E-06
2.275000E+04  5.1489E-06
2.280000E+04  5.0902E-06
2.285000E+04  5.0368E-06
2.290000E+04  4.5780E-06
2.295000E+04  4.1689E-06
2.300000E+04  4.2846E-06
2.305000E+04  4.4022E-06
2.310000E+04  4.4195E-06
2.315000E+04  4.4215E-06
2.320000E+04  4.0557E-06
2.325000E+04  3.7469E-06
2.330000E+04  3.8938E-06
2.335000E+04  4.0201E-06
2.340000E+04  3.9025E-06
2.345000E+04  3.8044E-06
2.350000E+04  3.6109E-06
2.355000E+04  3.4382E-06
2.360000E+04  3.5505E-06
2.365000E+04  3.6768E-06
2.370000E+04  3.5872E-06
2.375000E+04  3.4931E-06
2.380000E+04  3.3463E-06
2.385000E+04  3.2063E-06
2.390000E+04  3.2901E-06
2.395000E+04  3.3632E-06
2.400000E+04  3.2923E-06
2.405000E+04  3.2252E-06
2.410000E+04  3.0804E-06
2.415000E+04  2.9444E-06
2.420000E+04  2.9570E-06
2.425000E+04  2.9778E-06
2.430000E+04  2.9078E-06
2.435000E+04  2.8399E-06
2.440000E+04  2.7591E-06
2.445000E+04  2.6731E-06
2.450000E+04  2.6213E-06
2.455000E+04  2.5744E-06
2.460000E+04  2.5500E-06
2.465000E+04  2.5273E-06
2.470000E+04  2.4694E-06
2.475000E+04  2.4126E-06
2.480000E+04  2.2467E-06
2.485000E+04  2.1009E-06
2.490000E+04  2.0469E-06
2.495000E+04  1.9998E-06
2.500000E+04  2.0064E-06
2.505000E+04  2.0150E-06
2.510000E+04  1.9646E-06
2.515000E+04  1.9186E-06
2.520000E+04  1.9381E-06
2.525000E+04  1.9595E-06
2.530000E+04  1.9575E-06
2.535000E+04  1.9548E-06
2.540000E+04  1.9437E-06
2.545000E+04  1.9357E-06
2.550000E+04  1.9398E-06
2.555000E+04  1.9425E-06
2.560000E+04  1.9542E-06
2.565000E+04  1.9665E-06
2.570000E+04  1.9791E-06
2.575000E+04  1.9932E-06
2.580000E+04  1.9741E-06
2.585000E+04  1.9548E-06
2.590000E+04  1.9613E-06
2.595000E+04  1.9724E-06
2.600000E+04  1.9796E-06
2.605000E+04  1.9852E-06
2.610000E+04  1.9750E-06
2.615000E+04  1.9587E-06
2.620000E+04  1.9423E-06
2.625000E+04  1.9289E-06
2.630000E+04  1.9365E-06
2.635000E+04  1.9370E-06
2.640000E+04  1.9260E-06
2.645000E+04  1.9132E-06
2.650000E+04  1.9071E-06
2.655000E+04  1.9038E-06
2.660000E+04  1.9010E-06
2.665000E+04  1.8872E-06
2.670000E+04  1.8915E-06
2.675000E+04  1.8921E-06
2.680000E+04  1.8767E-06
2.685000E+04  1.8617E-06
2.690000E+04  1.8434E-06
2.695000E+04  1.8317E-06
2.700000E+04  1.8339E-06
2.705000E+04  1.8259E-06
2.710000E+04  1.8084E-06
2.715000E+04  1.8017E-06
2.720000E+04  1.8085E-06
2.725000E+04  1.8057E-06
2.730000E+04  1.7927E-06
2.735000E+04  1.7748E-06
2.740000E+04  1.7821E-06
2.745000E+04  1.7840E-06
2.750000E+04  1.7726E-06
2.755000E+04  1.7584E-06
2.760000E+04  1.7408E-06
2.765000E+04  1.7307E-06
2.770000E+04  1.7204E-06
2.775000E+04  1.7113E-06
2.780000E+04  1.7117E-06
2.785000E+04  1.7123E-06
2.790000E+04  1.7043E-06
2.795000E+04  1.7066E-06
2.800000E+04  1.6888E-06
2.805000E+04  1.6802E-06
2.810000E+04  1.6605E-06
2.815000E+04  1.6551E-06
2.820000E+04  1.6512E-06
2.825000E+04  1.6481E-06
2.830000E+04  1.6430E-06
2.835000E+04  1.6249E-06
2.840000E+04  1.6017E-06
2.845000E+04  1.5812E-06
2.850000E+04  1.5832E-06
2.855000E+04  1.5906E-06
2.860000E+04  1.5907E-06
2.865000E+04  1.5847E-06
2.870000E+04  1.5683E-06
2.875000E+04  1.5642E-06
2.880000E+04  1.5588E-06
2.885000E+04  1.5437E-06
2.890000E+04  1.5319E-06
2.895000E+04  1.5192E-06
2.900000E+04  1.5241E-06
2.905000E+04  1.5195E-06
2.910000E+04  1.5090E-06
2.915000E+04  1.4956E-06
2.920000E+04  1.4770E-06
2.925000E+04  1.4606E-06
2.930000E+04  1.4634E-06
2.935000E+04  1.4559E-06
2.940000E+04  1.4471E-06
2.945000E+04  1.4359E-06
2.950000E+04  1.4265E-06
2.955000E+04  1.4198E-06
2.960000E+04  1.4143E-06
2.965000E+04  1.4086E-06
2.970000E+04  1.4025E-06
2.975000E+04  1.3956E-06
2.980000E+04  1.3877E-06
2.985000E+04  1.3782E-06
2.990000E+04  1.3712E-06
2.995000E+04  1.3655E-06
3.000000E+04  1.3615E-06
3.005000E+04  1.3573E-06
3.010000E+04  1.3558E-06
3.015000E+04  1.3535E-06
3.020000E+04  1.3488E-06
3.025000E+04  1.3441E-06
3.030000E+04  1.3401E-06
3.035000E+04  1.3362E-06
3.040000E+04  1.3353E-06
3.045000E+04  1.3346E-06
3.050000E+04  1.3309E-06
3.055000E+04  1.3275E-06
3.060000E+04  1.3256E-06
3.065000E+04  1.3231E-06
3.070000E+04  1.3222E-06
3.075000E+04  1.3214E-06
3.080000E+04  1.3173E-06
3.085000E+04  1.3134E-06
3.090000E+04  1.3130E-06
3.095000E+04  1.3124E-06
3.100000E+04  1.3124E-06
3.105000E+04  1.3123E-06
3.110000E+04  1.3057E-06
3.115000E+04  1.2986E-06
3.120000E+04  1.2990E-06
3.125000E+04  1.2994E-06
3.130000E+04  1.2966E-06
3.135000E+04  1.2942E-06
3.140000E+04  1.2912E-06
3.145000E+04  1.2883E-06
3.150000E+04  1.2848E-06
3.155000E+04  1.2811E-06
3.160000E+04  1.2770E-06
3.165000E+04  1.2728E-06
3.170000E+04  1.2721E-06
3.175000E+04  1.2716E-06
3.180000E+04  1.2700E-06
3.185000E+04  1.2687E-06
3.190000E+04  1.2687E-06
3.195000E+04  1.2686E-06
3.200000E+04  1.2666E-06
3.210000E+04  1.2622E-06
3.220000E+04  1.2578E-06
3.230000E+04  1.2541E-06
3.240000E+04  1.2520E-06
3.250000E+04  1.2505E-06
3.260000E+04  1.2455E-06
3.270000E+04  1.2405E-06
3.280000E+04  1.2347E-06
3.290000E+04  1.2294E-06
3.300000E+04  1.2266E-06
3.310000E+04  1.2233E-06
3.320000E+04  1.2195E-06
3.330000E+04  1.2161E-06
3.340000E+04  1.2146E-06
3.350000E+04  1.2147E-06
3.360000E+04  1.2086E-06
3.370000E+04  1.1999E-06
3.380000E+04  1.1965E-06
3.390000E+04  1.1913E-06
3.400000E+04  1.1845E-06
3.410000E+04  1.1817E-06
3.420000E+04  1.1775E-06
3.430000E+04  1.1798E-06
3.440000E+04  1.1758E-06
3.450000E+04  1.1642E-06
3.460000E+04  1.1525E-06
3.470000E+04  1.1489E-06
3.480000E+04  1.1400E-06
3.490000E+04  1.1285E-06
3.500000E+04  1.1215E-06
3.510000E+04  1.1200E-06
3.520000E+04  1.1080E-06
3.530000E+04  1.1025E-06
3.540000E+04  1.0891E-06
3.550000E+04  1.0795E-06
3.560000E+04  1.0745E-06
3.570000E+04  1.0694E-06
3.580000E+04  1.0604E-06
3.590000E+04  1.0512E-06
3.600000E+04  1.0478E-06
3.610000E+04  1.0405E-06
3.620000E+04  1.0307E-06
3.630000E+04  1.0176E-06
3.640000E+04  1.0095E-06
3.650000E+04  9.9934E-07
3.660000E+04  9.9064E-07
3.670000E+04  9.8403E-07
3.680000E+04  9.7335E-07
3.690000E+04  9.6304E-07
3.700000E+04  9.5231E-07
3.710000E+04  9.4365E-07
3.720000E+04  9.3711E-07
3.730000E+04  9.3003E-07
3.740000E+04  9.1942E-07
3.750000E+04  9.0979E-07
3.760000E+04  9.0347E-07
3.770000E+04  8.9750E-07
3.780000E+04  8.8879E-07
3.790000E+04  8.8075E-07
3.800000E+04  8.7317E-07
3.810000E+04  8.6530E-07
3.820000E+04  8.5840E-07
3.830000E+04  8.5195E-07
3.840000E+04  8.4514E-07
3.850000E+04  8.3806E-07
3.860000E+04  8.2944E-07
3.870000E+04  8.2103E-07
3.880000E+04  8.1393E-07
3.890000E+04  8.0673E-07
3.900000E+04  8.0005E-07
3.910000E+04  7.9353E-07
3.920000E+04  7.8666E-07
3.930000E+04  7.7992E-07
3.940000E+04  7.7168E-07
3.950000E+04  7.6367E-07
3.960000E+04  7.5700E-07
3.970000E+04  7.5078E-07
3.980000E+04  7.4135E-07
3.990000E+04  7.3240E-07
4.000000E+04  7.2761E-07
4.010000E+04  7.2317E-07
4.020000E+04  7.1710E-07
4.030000E+04  7.1181E-07
4.040000E+04  7.0559E-07
4.050000E+04  6.9890E-07
4.060000E+04  6.9284E-07
4.070000E+04  6.8658E-07
4.080000E+04  6.8206E-07
4.090000E+04  6.7721E-07
4.100000E+04  6.7298E-07
4.110000E+04  6.6783E-07
4.120000E+04  6.6302E-07
4.130000E+04  6.5769E-07
4.140000E+04  6.5044E-07
4.150000E+04  6.4450E-07
4.160000E+04  6.3920E-07
4.170000E+04  6.3639E-07
4.180000E+04  6.3123E-07
4.190000E+04  6.2662E-07
4.200000E+04  6.1983E-07
4.210000E+04  6.1464E-07
4.220000E+04  6.1223E-07
4.230000E+04  6.0978E-07
4.240000E+04  6.0545E-07
4.250000E+04  5.9946E-07
4.260000E+04  5.9511E-07
4.270000E+04  5.9142E-07
4.280000E+04  5.7831E-07
4.290000E+04  5.6615E-07
4.300000E+04  5.5042E-07
4.310000E+04  5.3664E-07
4.320000E+04  5.3684E-07
4.330000E+04  5.3451E-07
4.340000E+04  5.2203E-07
4.350000E+04  5.1093E-07
4.360000E+04  5.0381E-07
4.370000E+04  4.9926E-07
4.380000E+04  4.9314E-07
4.390000E+04  4.8865E-07
4.400000E+04  4.8204E-07
4.410000E+04  4.7766E-07
4.420000E+04  4.7234E-07
4.430000E+04  4.6586E-07
4.440000E+04  4.6343E-07
4.450000E+04  4.5777E-07
4.460000E+04  4.5431E-07
4.470000E+04  4.5072E-07
4.480000E+04  4.4658E-07
4.490000E+04  4.4411E-07
4.500000E+04  4.4105E-07
4.510000E+04  4.3803E-07
4.520000E+04  4.3397E-07
4.530000E+04  4.3063E-07
4.540000E+04  4.2612E-07
4.550000E+04  4.2186E-07
4.560000E+04  4.1730E-07
4.570000E+04  4.1366E-07
4.580000E+04  4.0870E-07
4.590000E+04  4.0331E-07
4.600000E+04  4.0254E-07
4.610000E+04  4.0190E-07
4.620000E+04  3.9855E-07
4.630000E+04  3.9589E-07
4.640000E+04  3.9349E-07
4.650000E+04  3.9092E-07
4.660000E+04  3.9018E-07
4.670000E+04  3.8918E-07
4.680000E+04  3.8423E-07
4.690000E+04  3.7997E-07
4.700000E+04  3.7744E-07
4.710000E+04  3.7473E-07
4.720000E+04  3.7449E-07
4.730000E+04  3.7456E-07
4.740000E+04  3.6961E-07
4.750000E+04  3.6489E-07
4.760000E+04  3.6399E-07
4.770000E+04  3.6276E-07
4.780000E+04  3.6058E-07
4.790000E+04  3.5850E-07
4.800000E+04  3.5355E-07
4.810000E+04  3.4913E-07
4.820000E+04  3.4975E-07
4.830000E+04  3.5049E-07
4.840000E+04  3.4619E-07
4.850000E+04  3.4172E-07
4.860000E+04  3.3902E-07
4.870000E+04  3.3636E-07
4.880000E+04  3.3365E-07
4.890000E+04  3.3131E-07
4.900000E+04  3.2852E-07
4.910000E+04  3.2551E-07
4.920000E+04  3.2492E-07
4.930000E+04  3.2431E-07
4.940000E+04  3.2051E-07
4.950000E+04  3.1715E-07
4.960000E+04  3.1647E-07
4.970000E+04  3.1563E-07
4.980000E+04  3.1188E-07
4.990000E+04  3.0926E-07
5.000000E+04  3.0724E-07
5.010000E+04  3.0520E-07
5.020000E+04  3.0320E-07
5.030000E+04  3.0085E-07
5.040000E+04  2.9810E-07
5.050000E+04  2.9547E-07
5.060000E+04  2.9382E-07
5.070000E+04  2.9215E-07
5.080000E+04  2.9033E-07
5.090000E+04  2.8851E-07
5.100000E+04  2.8661E-07
5.110000E+04  2.8446E-07
5.120000E+04  2.8317E-07
5.130000E+04  2.8159E-07
5.140000E+04  2.7933E-07
5.150000E+04  2.7722E-07
5.160000E+04  2.7603E-07
5.170000E+04  2.7471E-07
5.180000E+04  2.7253E-07
5.190000E+04  2.7058E-07
5.200000E+04  2.6907E-07
5.210000E+04  2.6724E-07
5.220000E+04  2.6527E-07
5.230000E+04  2.6346E-07
5.240000E+04  2.6248E-07
5.250000E+04  2.6110E-07
5.260000E+04  2.6013E-07
5.270000E+04  2.5927E-07
5.280000E+04  2.5728E-07
5.290000E+04  2.5520E-07
5.300000E+04  2.5358E-07
5.310000E+04  2.5199E-07
5.320000E+04  2.5084E-07
5.330000E+04  2.4957E-07
5.340000E+04  2.4806E-07
5.350000E+04  2.4652E-07
5.360000E+04  2.4522E-07
5.370000E+04  2.4397E-07
5.380000E+04  2.4264E-07
5.390000E+04  2.4129E-07
5.400000E+04  2.3994E-07
5.410000E+04  2.3861E-07
5.420000E+04  2.3690E-07
5.430000E+04  2.3511E-07
5.440000E+04  2.3400E-07
5.450000E+04  2.3291E-07
5.460000E+04  2.3112E-07
5.470000E+04  2.2937E-07
5.480000E+04  2.2812E-07
5.490000E+04  2.2681E-07
5.500000E+04  2.2524E-07
5.510000E+04  2.2368E-07
5.520000E+04  2.2307E-07
5.530000E+04  2.2261E-07
5.540000E+04  2.2015E-07
5.550000E+04  2.1814E-07
5.560000E+04  2.1757E-07
5.570000E+04  2.1689E-07
5.580000E+04  2.1522E-07
5.590000E+04  2.1348E-07
5.600000E+04  2.1254E-07
5.610000E+04  2.1152E-07
5.620000E+04  2.0973E-07
5.630000E+04  2.0814E-07
5.640000E+04  2.0729E-07
5.650000E+04  2.0643E-07
5.660000E+04  2.0516E-07
5.670000E+04  2.0382E-07
5.680000E+04  2.0228E-07
5.690000E+04  2.0073E-07
5.700000E+04  1.9986E-07
5.710000E+04  1.9898E-07
5.720000E+04  1.9773E-07
5.730000E+04  1.9658E-07
5.740000E+04  1.9538E-07
5.750000E+04  1.9412E-07
5.760000E+04  1.9274E-07
5.770000E+04  1.9157E-07
5.780000E+04  1.9083E-07
5.790000E+04  1.9009E-07
5.800000E+04  1.8879E-07
5.810000E+04  1.8756E-07
5.820000E+04  1.8658E-07
5.830000E+04  1.8561E-07
5.840000E+04  1.8463E-07
5.850000E+04  1.8348E-07
5.860000E+04  1.8224E-07
5.870000E+04  1.8109E-07
5.880000E+04  1.8001E-07
5.890000E+04  1.7898E-07
5.900000E+04  1.7797E-07
5.910000E+04  1.7695E-07
5.920000E+04  1.7584E-07
5.930000E+04  1.7476E-07
5.940000E+04  1.7354E-07
5.950000E+04  1.7249E-07
5.960000E+04  1.7171E-07
5.970000E+04  1.7089E-07
5.980000E+04  1.6986E-07
5.990000E+04  1.6880E-07
6.000000E+04  1.6775E-07
6.010000E+04  1.6671E-07
6.020000E+04  1.6575E-07
6.030000E+04  1.6484E-07
6.040000E+04  1.6388E-07
6.050000E+04  1.6293E-07
6.060000E+04  1.6211E-07
6.070000E+04  1.6126E-07
6.080000E+04  1.6030E-07
6.090000E+04  1.5934E-07
6.100000E+04  1.5835E-07
6.110000E+04  1.5731E-07
6.120000E+04  1.5646E-07
6.130000E+04  1.5562E-07
6.140000E+04  1.5474E-07
6.150000E+04  1.5388E-07
6.160000E+04  1.5304E-07
6.170000E+04  1.5213E-07
6.180000E+04  1.5115E-07
6.190000E+04  1.5019E-07
6.200000E+04  1.4933E-07
6.210000E+04  1.4853E-07
6.220000E+04  1.4763E-07
6.230000E+04  1.4674E-07
6.240000E+04  1.4589E-07
6.250000E+04  1.4505E-07
6.260000E+04  1.4417E-07
6.270000E+04  1.4328E-07
6.280000E+04  1.4243E-07
6.290000E+04  1.4160E-07
6.300000E+04  1.4071E-07
6.310000E+04  1.3988E-07
6.320000E+04  1.3923E-07
6.330000E+04  1.3859E-07
6.340000E+04  1.3783E-07
6.350000E+04  1.3707E-07
6.360000E+04  1.3645E-07
6.370000E+04  1.3579E-07
6.380000E+04  1.3492E-07
6.390000E+04  1.3400E-07
6.400000E+04  1.3320E-07
6.410000E+04  1.3238E-07
6.420000E+04  1.3162E-07
6.430000E+04  1.3083E-07
6.440000E+04  1.3009E-07
6.450000E+04  1.2934E-07
6.460000E+04  1.2859E-07
6.470000E+04  1.2783E-07
6.480000E+04  1.2712E-07
6.490000E+04  1.2650E-07
6.500000E+04  1.2585E-07
6.510000E+04  1.2519E-07
6.520000E+04  1.2450E-07
6.530000E+04  1.2381E-07
6.540000E+04  1.2311E-07
6.550000E+04  1.2243E-07
6.560000E+04  1.2176E-07
6.570000E+04  1.2101E-07
6.580000E+04  1.2027E-07
6.590000E+04  1.1955E-07
6.600000E+04  1.1885E-07
6.610000E+04  1.1817E-07
6.620000E+04  1.1753E-07
6.630000E+04  1.1692E-07
6.640000E+04  1.1633E-07
6.650000E+04  1.1574E-07
6.660000E+04  1.1517E-07
6.670000E+04  1.1459E-07
6.680000E+04  1.1404E-07
6.690000E+04  1.1343E-07
6.700000E+04  1.1278E-07
6.710000E+04  1.1213E-07
6.720000E+04  1.1149E-07
6.730000E+04  1.1091E-07
6.740000E+04  1.1032E-07
6.750000E+04  1.0972E-07
6.760000E+04  1.0911E-07
6.770000E+04  1.0847E-07
6.780000E+04  1.0789E-07
6.790000E+04  1.0735E-07
6.800000E+04  1.0681E-07
6.810000E+04  1.0626E-07
6.820000E+04  1.0567E-07
6.830000E+04  1.0509E-07
6.840000E+04  1.0455E-07
6.850000E+04  1.0402E-07
6.860000E+04  1.0350E-07
6.870000E+04  1.0295E-07
6.880000E+04  1.0234E-07
6.890000E+04  1.0173E-07
6.900000E+04  1.0111E-07
6.910000E+04  1.0054E-07
6.920000E+04  1.0002E-07
6.930000E+04  9.9499E-08
6.940000E+04  9.8987E-08
6.950000E+04  9.8460E-08
6.960000E+04  9.7921E-08
6.970000E+04  9.7419E-08
6.980000E+04  9.6939E-08
6.990000E+04  9.6450E-08
7.000000E+04  9.5964E-08
7.010000E+04  9.5461E-08
7.020000E+04  9.4955E-08
7.030000E+04  9.4453E-08
7.040000E+04  9.3949E-08
7.050000E+04  9.3469E-08
7.060000E+04  9.2999E-08
7.070000E+04  9.2527E-08
7.080000E+04  9.2060E-08
7.090000E+04  9.1587E-08
7.100000E+04  9.1116E-08
7.110000E+04  9.0650E-08
7.120000E+04  9.0186E-08
7.130000E+04  8.9730E-08
7.140000E+04  8.9279E-08
7.150000E+04  8.8834E-08
7.160000E+04  8.8396E-08
7.170000E+04  8.7958E-08
7.180000E+04  8.7522E-08
7.190000E+04  8.7097E-08
7.200000E+04  8.6676E-08
7.210000E+04  8.6263E-08
7.220000E+04  8.5857E-08
7.230000E+04  8.5444E-08
7.240000E+04  8.5031E-08
7.250000E+04  8.4613E-08
7.260000E+04  8.4186E-08
7.270000E+04  8.3759E-08
7.280000E+04  8.3314E-08
7.290000E+04  8.2879E-08
7.300000E+04  8.2494E-08
7.310000E+04  8.2103E-08
7.320000E+04  8.1678E-08
7.330000E+04  8.1256E-08
7.340000E+04  8.0810E-08
7.350000E+04  8.0371E-08
7.360000E+04  7.9964E-08
7.370000E+04  7.9573E-08
7.380000E+04  7.9190E-08
7.390000E+04  7.8797E-08
7.400000E+04  7.8398E-08
7.410000E+04  7.7989E-08
7.420000E+04  7.7585E-08
7.430000E+04  7.7204E-08
7.440000E+04  7.6827E-08
7.450000E+04  7.6508E-08
7.460000E+04  7.6195E-08
7.470000E+04  7.5828E-08
7.480000E+04  7.5441E-08
7.490000E+04  7.5075E-08
7.500000E+04  7.4729E-08
7.510000E+04  7.4375E-08
7.520000E+04  7.4013E-08
7.530000E+04  7.3653E-08
7.540000E+04  7.3295E-08
7.550000E+04  7.2953E-08
7.560000E+04  7.2558E-08
7.570000E+04  7.2144E-08
7.580000E+04  7.1767E-08
7.590000E+04  7.1427E-08
7.600000E+04  7.1086E-08
7.610000E+04  7.0738E-08
7.620000E+04  7.0393E-08
7.630000E+04  7.0038E-08
7.640000E+04  6.9683E-08
7.650000E+04  6.9320E-08
7.660000E+04  6.8947E-08
7.670000E+04  6.8584E-08
7.680000E+04  6.8299E-08
7.690000E+04  6.8017E-08
7.700000E+04  6.7720E-08
7.710000E+04  6.7426E-08
7.720000E+04  6.7124E-08
7.730000E+04  6.6809E-08
7.740000E+04  6.6496E-08
7.750000E+04  6.6169E-08
7.760000E+04  6.5845E-08
7.770000E+04  6.5549E-08
7.780000E+04  6.5272E-08
7.790000E+04  6.4987E-08
7.800000E+04  6.4658E-08
7.810000E+04  6.4332E-08
7.820000E+04  6.4001E-08
7.830000E+04  6.3671E-08
7.840000E+04  6.3351E-08
7.850000E+04  6.3049E-08
7.860000E+04  6.2749E-08
7.870000E+04  6.2455E-08
7.880000E+04  6.2163E-08
7.890000E+04  6.1879E-08
7.900000E+04  6.1606E-08
7.910000E+04  6.1334E-08
7.920000E+04  6.1070E-08
7.930000E+04  6.0808E-08
7.940000E+04  6.0542E-08
7.950000E+04  6.0267E-08
7.960000E+04  5.9994E-08
7.970000E+04  5.9714E-08
7.980000E+04  5.9432E-08
7.990000E+04  5.9152E-08
8.000000E+04  5.8890E-08
8.010000E+04  5.8630E-08
8.020000E+04  5.8341E-08
8.030000E+04  5.8048E-08
8.040000E+04  5.7760E-08
8.050000E+04  5.7496E-08
8.060000E+04  5.7233E-08
8.070000E+04  5.6978E-08
8.080000E+04  5.6726E-08
8.090000E+04  5.6476E-08
8.100000E+04  5.6219E-08
8.110000E+04  5.5955E-08
8.120000E+04  5.5693E-08
8.130000E+04  5.5434E-08
8.140000E+04  5.5175E-08
8.150000E+04  5.4930E-08
8.160000E+04  5.4689E-08
8.170000E+04  5.4449E-08
8.180000E+04  5.4196E-08
8.190000E+04  5.3941E-08
8.200000E+04  5.3685E-08
8.210000E+04  5.3423E-08
8.220000E+04  5.3162E-08
8.230000E+04  5.2917E-08
8.240000E+04  5.2682E-08
8.250000E+04  5.2449E-08
8.260000E+04  5.2215E-08
8.270000E+04  5.1983E-08
8.280000E+04  5.1752E-08
8.290000E+04  5.1525E-08
8.300000E+04  5.1299E-08
8.310000E+04  5.1069E-08
8.320000E+04  5.0837E-08
8.330000E+04  5.0607E-08
8.340000E+04  5.0394E-08
8.350000E+04  5.0191E-08
8.360000E+04  4.9989E-08
8.370000E+04  4.9767E-08
8.380000E+04  4.9543E-08
8.390000E+04  4.9325E-08
8.400000E+04  4.9112E-08
8.410000E+04  4.8900E-08
8.420000E+04  4.8688E-08
8.430000E+04  4.8470E-08
8.440000E+04  4.8253E-08
8.450000E+04  4.8040E-08
8.460000E+04  4.7831E-08
8.470000E+04  4.7625E-08
8.480000E+04  4.7417E-08
8.490000E+04  4.7207E-08
8.500000E+04  4.6999E-08
8.510000E+04  4.6801E-08
8.520000E+04  4.6610E-08
8.530000E+04  4.6419E-08
8.540000E+04  4.6227E-08
8.550000E+04  4.6034E-08
8.560000E+04  4.5842E-08
8.570000E+04  4.5647E-08
8.580000E+04  4.5453E-08
8.590000E+04  4.5259E-08
8.600000E+04  4.5068E-08
8.610000E+04  4.4877E-08
8.620000E+04  4.4687E-08
8.630000E+04  4.4499E-08
8.640000E+04  4.4312E-08
8.650000E+04  4.4126E-08
8.660000E+04  4.3937E-08
8.670000E+04  4.3747E-08
8.680000E+04  4.3559E-08
8.690000E+04  4.3377E-08
8.700000E+04  4.3196E-08
8.710000E+04  4.3017E-08
8.720000E+04  4.2844E-08
8.730000E+04  4.2673E-08
8.740000E+04  4.2502E-08
8.750000E+04  4.2332E-08
8.760000E+04  4.2164E-08
8.770000E+04  4.1996E-08
8.780000E+04  4.1834E-08
8.790000E+04  4.1674E-08
8.800000E+04  4.1514E-08
8.810000E+04  4.1356E-08
8.820000E+04  4.1199E-08
8.830000E+04  4.1046E-08
8.840000E+04  4.0879E-08
8.850000E+04  4.0705E-08
8.860000E+04  4.0531E-08
8.870000E+04  4.0365E-08
8.880000E+04  4.0208E-08
8.890000E+04  4.0051E-08
8.900000E+04  3.9890E-08
8.910000E+04  3.9720E-08
8.920000E+04  3.9552E-08
8.930000E+04  3.9384E-08
8.940000E+04  3.9220E-08
8.950000E+04  3.9051E-08
8.960000E+04  3.8883E-08
8.970000E+04  3.8717E-08
8.980000E+04  3.8553E-08
8.990000E+04  3.8397E-08
9.000000E+04  3.8250E-08
9.010000E+04  3.8107E-08
9.020000E+04  3.7965E-08
9.030000E+04  3.7807E-08
9.040000E+04  3.7636E-08
9.050000E+04  3.7466E-08
9.060000E+04  3.7300E-08
9.070000E+04  3.7142E-08
9.080000E+04  3.6984E-08
9.090000E+04  3.6828E-08
9.100000E+04  3.6665E-08
9.110000E+04  3.6510E-08
9.120000E+04  3.6356E-08
9.130000E+04  3.6206E-08
9.140000E+04  3.6059E-08
9.150000E+04  3.5908E-08
9.160000E+04  3.5759E-08
9.170000E+04  3.5616E-08
9.180000E+04  3.5474E-08
9.190000E+04  3.5334E-08
9.200000E+04  3.5205E-08
9.210000E+04  3.5078E-08
9.220000E+04  3.4951E-08
9.230000E+04  3.4827E-08
9.240000E+04  3.4709E-08
9.250000E+04  3.4592E-08
9.260000E+04  3.4475E-08
9.270000E+04  3.4349E-08
9.280000E+04  3.4225E-08
9.290000E+04  3.4100E-08
9.300000E+04  3.3961E-08
9.310000E+04  3.3812E-08
9.320000E+04  3.3663E-08
9.330000E+04  3.3517E-08
9.340000E+04  3.3376E-08
9.350000E+04  3.3237E-08
9.360000E+04  3.3098E-08
9.370000E+04  3.2963E-08
9.380000E+04  3.2830E-08
9.390000E+04  3.2698E-08
9.400000E+04  3.2565E-08
9.410000E+04  3.2430E-08
9.420000E+04  3.2296E-08
9.430000E+04  3.2160E-08
9.440000E+04  3.2035E-08
9.450000E+04  3.1915E-08
9.460000E+04  3.1797E-08
9.470000E+04  3.1680E-08
9.480000E+04  3.1576E-08
9.490000E+04  3.1473E-08
9.500000E+04  3.1371E-08
9.510000E+04  3.1261E-08
9.520000E+04  3.1140E-08
9.530000E+04  3.1020E-08
9.540000E+04  3.0901E-08
9.550000E+04  3.0777E-08
9.560000E+04  3.0652E-08
9.570000E+04  3.0528E-08
9.580000E+04  3.0406E-08
9.590000E+04  3.0294E-08
9.600000E+04  3.0184E-08
9.610000E+04  3.0074E-08
9.620000E+04  2.9958E-08
9.630000E+04  2.9836E-08
9.640000E+04  2.9714E-08
9.650000E+04  2.9592E-08
9.660000E+04  2.9463E-08
9.670000E+04  2.9332E-08
9.680000E+04  2.9202E-08
9.690000E+04  2.9073E-08
9.700000E+04  2.8978E-08
9.710000E+04  2.8879E-08
9.720000E+04  2.8782E-08
9.730000E+04  2.8684E-08
9.740000E+04  2.8585E-08
9.750000E+04  2.8493E-08
9.760000E+04  2.8402E-08
9.770000E+04  2.8304E-08
9.780000E+04  2.8196E-08
9.790000E+04  2.8089E-08
9.800000E+04  2.7982E-08
9.810000E+04  2.7879E-08
9.820000E+04  2.7780E-08
9.830000E+04  2.7678E-08
9.840000E+04  2.7577E-08
9.850000E+04  2.7484E-08
9.860000E+04  2.7395E-08
9.870000E+04  2.7308E-08
9.880000E+04  2.7220E-08
9.890000E+04  2.7116E-08
9.900000E+04  2.7009E-08
9.910000E+04  2.6902E-08
9.920000E+04  2.6796E-08
9.930000E+04  2.6682E-08
9.940000E+04  2.6569E-08
9.950000E+04  2.6458E-08
9.960000E+04  2.6347E-08
9.970000E+04  2.6238E-08
9.980000E+04  2.6130E-08
9.990000E+04  2.6021E-08
1.000000E+05  2.5913E-08
1.002000E+05  2.5711E-08
1.050000E+05  2.1533E-08
1.100000E+05  1.7922E-08
1.130000E+05  1.6181E-08
1.160000E+05  1.4534E-08
1.200000E+05  1.2739E-08
1.250000E+05  1.1082E-08
1.300000E+05  9.5108E-09
1.350000E+05  8.2098E-09
1.400000E+05  7.1253E-09
1.450000E+05  6.2151E-09
1.500000E+05  5.4467E-09
1.600000E+05  4.2371E-09
1.700000E+05  3.3473E-09
1.800000E+05  2.6805E-09
1.900000E+05  2.1727E-09
2.000000E+05  1.7804E-09
2.200000E+05  1.2241E-09
2.300000E+05  1.0279E-09
2.400000E+05  8.6959E-10
2.500000E+05  7.4069E-10
2.600000E+05  6.3489E-10
2.700000E+05  5.4737E-10
2.800000E+05  4.7447E-10
3.000000E+05  3.6179E-10
3.500000E+05  1.9742E-10
4.000000E+05  1.1682E-10
4.500000E+05  7.3241E-11
5.000000E+05  4.8239E-11
5.500000E+05  3.3063E-11
6.000000E+05  2.3419E-11
6.500000E+05  1.7035E-11
7.000000E+05  1.2687E-11
7.500000E+05  9.6429E-12
8.000000E+05  7.4602E-12
8.500000E+05  5.8594E-12
9.000000E+05  4.6662E-12
9.500000E+05  3.7619E-12
1.000000E+06  3.0667E-12
1.050000E+06  2.5244E-12
1.100000E+06  2.0969E-12
1.200000E+06  1.4820E-12
1.300000E+06  1.0767E-12
1.400000E+06  8.0100E-13
1.500000E+06  6.0806E-13
1.600000E+06  4.6988E-13
2.000000E+06  1.9232E-13
2.500000E+06  7.8775E-14
3.000000E+06  3.7989E-14
4.000000E+06  1.2020E-14
5.000000E+06  4.9234E-15
7.000000E+06  1.2816E-15
1.000000E+07  3.0771E-16
1.500000E+07  6.0783E-17
2.250000E+07  1.2007E-17
3.350000E+07  2.4432E-18
5.000000E+07  4.9234E-19
7.400000E+07  1.0262E-19
1.100000E+08  2.1017E-20
1.300000E+08  1.0774E-20
1.600000E+08  4.6953E-21
2.400000E+08  9.2748E-22
3.600000E+08  1.8321E-22
