# D4000n   age
1.000000   1.485748
1.250000   1.533287
1.500000   1.557057
1.750000   1.624496
2.000000   1.658538
2.250000   1.686148
2.500000   1.723732
2.750000   1.752133
3.000000   1.778388
3.250000   1.791533
3.500000   1.803721
3.750000   1.815185
4.000000   1.825800
4.250000   1.842259
4.500000   1.857898
4.750000   1.872780
5.000000   1.886982
5.250000   1.907439
5.500000   1.927142
5.750000   1.945974
6.000000   1.964111
6.250000   1.971403
6.500000   1.978435
6.750000   1.985197
7.000000   1.991728
7.250000   1.998456
7.500000   2.004981
7.750000   2.011308
8.000000   2.017449
8.250000   2.027577
8.500000   2.037399
8.750000   2.046979
9.000000   2.056356
9.250000   2.064101
9.500000   2.071626
9.750000   2.078986
10.000000   2.086184
10.250000   2.095663
10.500000   2.105004
10.750000   2.114119
11.000000   2.123058
11.250000   2.127293
11.500000   2.131450
11.750000   2.135440
12.000000   2.139462
12.250000   2.148516
12.500000   2.157489
12.750000   2.166254
13.000000   2.174908
