# D4000n   age
1.000000   1.481897
1.250000   1.516497
1.500000   1.539561
1.750000   1.604000
2.000000   1.639274
2.250000   1.675173
2.500000   1.715787
2.750000   1.744424
3.000000   1.802749
3.250000   1.823205
3.500000   1.834885
3.750000   1.843590
4.000000   1.859193
4.250000   1.874628
4.500000   1.889944
4.750000   1.901189
5.000000   1.916931
5.250000   1.930067
5.500000   1.942349
5.750000   1.953405
6.000000   1.963797
6.250000   1.972052
6.500000   1.981438
6.750000   1.991196
7.000000   2.001185
7.250000   2.011528
7.500000   2.022495
7.750000   2.034246
8.000000   2.046217
8.250000   2.058553
8.500000   2.070786
8.750000   2.082881
9.000000   2.094822
9.250000   2.105952
9.500000   2.116642
9.750000   2.126363
10.000000   2.134853
10.250000   2.142511
10.500000   2.149515
10.750000   2.155891
11.000000   2.161602
11.250000   2.166842
11.500000   2.171438
11.750000   2.175631
12.000000   2.179566
12.250000   2.183202
12.500000   2.185105
12.750000   2.191455
13.000000   2.197985
