# D4000n   age
1.000000   1.475017
1.250000   1.575723
1.500000   1.530813
1.750000   1.568374
2.000000   1.553578
2.250000   1.568198
2.500000   1.616319
2.750000   1.630925
3.000000   1.644296
3.250000   1.658654
3.500000   1.665140
3.750000   1.639633
4.000000   1.645065
4.250000   1.651903
4.500000   1.658972
4.750000   1.668662
5.000000   1.682014
5.250000   1.713199
5.500000   1.722406
5.750000   1.730780
6.000000   1.738384
6.250000   1.745493
6.500000   1.751911
6.750000   1.757923
7.000000   1.760107
7.250000   1.764608
7.500000   1.773817
7.750000   1.782907
8.000000   1.791466
8.250000   1.799568
8.500000   1.807223
8.750000   1.814341
9.000000   1.821196
9.250000   1.827770
9.500000   1.834852
9.750000   1.842041
10.000000   1.849394
10.250000   1.856300
10.500000   1.861962
10.750000   1.867657
11.000000   1.873333
11.250000   1.878828
11.500000   1.884206
11.750000   1.889505
12.000000   1.894516
12.250000   1.899277
12.500000   1.903912
12.750000   1.908407
13.000000   1.912602
