# D4000n   age
1.000000   1.627113
1.250000   1.734606
1.500000   1.753982
1.750000   1.818595
2.000000   1.852725
2.250000   1.895440
2.500000   1.945072
2.750000   1.979551
3.000000   2.014049
3.250000   2.050626
3.500000   2.087567
3.750000   2.103393
4.000000   2.115148
4.250000   2.116761
4.500000   2.132852
4.750000   2.151230
5.000000   2.169748
5.250000   2.188314
5.500000   2.206652
5.750000   2.222257
6.000000   2.232685
6.250000   2.238879
6.500000   2.241916
6.750000   2.243603
7.000000   2.244045
7.250000   2.244051
7.500000   2.241941
7.750000   2.235649
8.000000   2.241006
8.250000   2.246641
8.500000   2.252537
8.750000   2.258749
9.000000   2.265162
9.250000   2.271840
9.500000   2.278660
9.750000   2.285740
10.000000   2.292945
10.250000   2.300332
10.500000   2.307891
10.750000   2.315555
11.000000   2.323242
11.250000   2.330955
11.500000   2.338525
11.750000   2.345902
12.000000   2.352985
12.250000   2.359837
12.500000   2.366425
12.750000   2.372659
13.000000   2.378451
